{
  "alpha": 1.455109356534002,
  "alpha_err": 0.06568937737640587,
  "deviation_distributions": {
    "all": {
      "number_of_samples": 63,
      "scale": 0.024375304950844532,
      "sse": 0.07917937600238764
    },
    "in_valid_trace": {
      "number_of_samples": 3,
      "scale": 0.511881403967735,
      "sse": 1.5271719483944663
    },
    "in_valid_trace_index": {
      "number_of_samples": 15,
      "scale": 0.10237628079354698,
      "sse": 0.21249346075679068
    }
  },
  "deviation_distributions_geom": {
    "all": {
      "number_of_samples": 63,
      "shape": 0.1941779689050612,
      "sse": 0.004718912804166253
    },
    "in_valid_trace": {
      "number_of_samples": 3,
      "shape": 2.061457418788411,
      "sse": NaN
    },
    "in_valid_trace_index": {
      "number_of_samples": 13,
      "shape": 0.39244526157446097,
      "sse": 0.02795423724250847
    }
  },
  "frequencies_max": 3011,
  "frequencies_mean": 77.37078651685393,
  "frequencies_median": 2.0,
  "frequencies_min": 1,
  "number_of_main_traces_80.0": 3,
  "number_of_main_traces_90.0": 5,
  "number_of_trace_variants": 89
}