{
  "easy_soundness": true,
  "filename": "/mnt/c/Users/s140511/tue/thesis/thesis_data/evaluation_data/BPI_2012_O/predictions/data_gcn_simpleep144_16_cc.json",
  "full": {
    "fitness": {
      "average_trace_fitness": 0.9418264636281681,
      "log_fitness": 0.9272394414168937,
      "perc_fit_traces": 55.074775672981055,
      "percentage_of_fitting_traces": 55.074775672981055
    },
    "fitness_alignments": {
      "averageFitness": 0.8186440677966101,
      "average_trace_fitness": 0.8186440677966101,
      "percFitTraces": 55.074775672981055,
      "percentage_of_fitting_traces": 55.074775672981055
    },
    "fscore": 0.9546851307579002,
    "generalization": 0.9710538862851473,
    "metricsAverageWeight": 0.914969058352826,
    "precision": 0.9838051279314853,
    "precision_alignments": 0.9838051279314853,
    "simplicity": 0.7777777777777779
  },
  "sound": true,
  "top 30": {
    "fitness": {
      "average_trace_fitness": 0.9483969893953788,
      "log_fitness": 0.9392352771639927,
      "perc_fit_traces": 58.52934943844035,
      "percentage_of_fitting_traces": 58.52934943844035
    },
    "fitness_alignments": {
      "averageFitness": 0.8578088578088578,
      "average_trace_fitness": 0.8578088578088578,
      "percFitTraces": 58.52934943844035,
      "percentage_of_fitting_traces": 58.52934943844035
    },
    "fscore": 0.9620395117517725,
    "generalization": 0.9696515406019539,
    "metricsAverageWeight": 0.918160812827802,
    "precision": 0.9859786557674841,
    "precision_alignments": 0.9859786557674841,
    "simplicity": 0.7777777777777779
  }
}