{
  "L": {
    "fitness": 0.851837441988259,
    "fitness_alignments": null,
    "fitness_alignments_percFitTraces": null,
    "fitness_entropy_exact": null,
    "fitness_entropy_partial": null,
    "fitness_percFitTraces": 0.0,
    "fscore": 0.8672030174939338,
    "fscore_alignments": null,
    "fscore_entropy_exact": null,
    "fscore_entropy_partial": null,
    "generalization": 0.9742485975695644,
    "metricsAverageWeight": 0.8696124794676912,
    "precision": 0.883133109082172,
    "precision_alignments": null,
    "precision_entropy_exact": null,
    "precision_entropy_partial": null,
    "simplicity": 0.7692307692307694
  },
  "L_30": {
    "fitness": 0.8536170183183942,
    "fitness_alignments": null,
    "fitness_alignments_percFitTraces": null,
    "fitness_entropy_exact": null,
    "fitness_entropy_partial": null,
    "fitness_percFitTraces": 0.0,
    "fscore": 0.8685097158591428,
    "fscore_alignments": null,
    "fscore_entropy_exact": null,
    "fscore_entropy_partial": null,
    "generalization": 0.9717473149529756,
    "metricsAverageWeight": 0.8696315990832033,
    "precision": 0.8839312938306738,
    "precision_alignments": null,
    "precision_entropy_exact": null,
    "precision_entropy_partial": null,
    "simplicity": 0.7692307692307694
  },
  "args": {
    "beam_length": 20,
    "beam_width": -50,
    "config": "config.json",
    "conformanceChecking": true,
    "dataDirectory": "/mnt/c/Users/s140511/tue/thesis/APDGnn_data/evaluation_data/BPI_2012_O/",
    "export": "medium",
    "import_petrinet": null,
    "length_normalization": 0,
    "logFilename": "data",
    "miner": "gnn",
    "model_filename": "/mnt/c/Users/s140511/tue/thesis/git_clean/project/ml_models/models/model_candidates_frequency_new_036",
    "number_of_petrinets": 20,
    "prom": false,
    "timeout": null,
    "top_x_traces": 30,
    "visualize": false
  },
  "easy_soundness": false,
  "log_filename": "/mnt/c/Users/s140511/tue/thesis/APDGnn_data/evaluation_data/BPI_2012_O/data",
  "petrinet_filename": "/mnt/c/Users/s140511/tue/thesis/APDGnn_data/evaluation_data/BPI_2012_O/predictions/data_gcn_medium_4",
  "sound": false,
  "soundness_info": {
    "s_components": [],
    "uncovered_places_s_component": [
      "sink",
      "p1",
      "p3",
      "p4",
      "p6",
      "p2",
      "p0",
      "p5",
      "source"
    ]
  }
}