{
  "easy_soundness": false,
  "filename": "/mnt/c/Users/s140511/tue/thesis/thesis_data/evaluation_data/BPI_2012_O/predictions/data_gcn_blahblah_repro_15_cc.json",
  "full": {
    "fitness": {
      "average_trace_fitness": 0.8798089839793184,
      "log_fitness": 0.8843755087372861,
      "perc_fit_traces": 0.0,
      "percentage_of_fitting_traces": 0.0
    },
    "fscore": 0.711152717003498,
    "generalization": 0.9023168143812282,
    "metricsAverageWeight": 0.759627255862258,
    "precision": 0.5946738431876606,
    "simplicity": 0.6571428571428571
  },
  "s_components": [],
  "sound": false,
  "top 30": {
    "fitness": {
      "average_trace_fitness": 0.8816852335474172,
      "log_fitness": 0.8889137551532192,
      "perc_fit_traces": 0.0,
      "percentage_of_fitting_traces": 0.0
    },
    "fscore": 0.714175631303769,
    "generalization": 0.8986909011073181,
    "metricsAverageWeight": 0.760399359143063,
    "precision": 0.5968499231688578,
    "simplicity": 0.6571428571428571
  },
  "uncovered_places_s_component": [
    "p2",
    "sink",
    "p0",
    "p4",
    "p6",
    "source",
    "p5",
    "p3",
    "p1"
  ]
}