{
  "easy_soundness": true,
  "filename": "/mnt/c/Users/s140511/tue/thesis/thesis_data/evaluation_data/BPI_2012_O/predictions/data_gcn_complexep100_18_cc.json",
  "full": {
    "fitness": {
      "average_trace_fitness": 0.8615219916905764,
      "log_fitness": 0.8590466212676794,
      "perc_fit_traces": 0.6580259222333001,
      "percentage_of_fitting_traces": 0.6580259222333001
    },
    "fitness_alignments": {
      "averageFitness": 0.3085742771684945,
      "average_trace_fitness": 0.3085742771684945,
      "percFitTraces": 0.6580259222333001,
      "percentage_of_fitting_traces": 0.6580259222333001
    },
    "fscore": 0.8040337670866777,
    "generalization": 0.903845454522279,
    "metricsAverageWeight": 0.8129670603783163,
    "precision": 0.7556428323899734,
    "precision_alignments": 0.7556428323899734,
    "simplicity": 0.7333333333333333
  },
  "sound": true,
  "top 30": {
    "fitness": {
      "average_trace_fitness": 0.8623506044292589,
      "log_fitness": 0.8612292414055261,
      "perc_fit_traces": 0.6993006993006993,
      "percentage_of_fitting_traces": 0.6993006993006993
    },
    "fitness_alignments": {
      "averageFitness": 0.3656495020131384,
      "average_trace_fitness": 0.3656495020131384,
      "percFitTraces": 0.6993006993006993,
      "percentage_of_fitting_traces": 0.6993006993006993
    },
    "fscore": 0.8060213830355673,
    "generalization": 0.9027143015137654,
    "metricsAverageWeight": 0.8136855117520972,
    "precision": 0.7574651707557638,
    "precision_alignments": 0.7574651707557638,
    "simplicity": 0.7333333333333333
  }
}