{
  "easy_soundness": true,
  "filename": "/mnt/c/Users/s140511/tue/thesis/thesis_data/evaluation_data/BPI_2012_O/predictions/data_gcn_simpleep144_14_cc.json",
  "full": {
    "fitness": {
      "average_trace_fitness": 0.8964159470869425,
      "log_fitness": 0.8866487260731802,
      "perc_fit_traces": 23.230309072781655,
      "percentage_of_fitting_traces": 23.230309072781655
    },
    "fitness_alignments": {
      "averageFitness": 0.6471585244267198,
      "average_trace_fitness": 0.6471585244267198,
      "percFitTraces": 23.230309072781655,
      "percentage_of_fitting_traces": 23.230309072781655
    },
    "fscore": 0.8761793252915594,
    "generalization": 0.9817114071400378,
    "metricsAverageWeight": 0.8881240581179326,
    "precision": 0.8659542810766941,
    "precision_alignments": 0.8659542810766941,
    "simplicity": 0.8181818181818181
  },
  "sound": true,
  "top 30": {
    "fitness": {
      "average_trace_fitness": 0.8994118456283569,
      "log_fitness": 0.8923091933556114,
      "perc_fit_traces": 24.687433778342868,
      "percentage_of_fitting_traces": 24.687433778342868
    },
    "fitness_alignments": {
      "averageFitness": 0.7004132231404959,
      "average_trace_fitness": 0.7004132231404959,
      "percFitTraces": 24.687433778342868,
      "percentage_of_fitting_traces": 24.687433778342868
    },
    "fscore": 0.8795386282487277,
    "generalization": 0.9808329314363566,
    "metricsAverageWeight": 0.8896130970876825,
    "precision": 0.8671284453769437,
    "precision_alignments": 0.8671284453769437,
    "simplicity": 0.8181818181818181
  }
}