{
  "easy_soundness": false,
  "filename": "/mnt/c/Users/s140511/tue/thesis/thesis_data/evaluation_data/BPI_2012_O/predictions/data_gcn_blahblah_repro_7_cc.json",
  "full": {
    "fitness": {
      "average_trace_fitness": 0.865591559152667,
      "log_fitness": 0.8709173430672431,
      "perc_fit_traces": 0.0,
      "percentage_of_fitting_traces": 0.0
    },
    "fscore": 0.876982688832079,
    "generalization": 0.977337324017673,
    "metricsAverageWeight": 0.8751546363494644,
    "precision": 0.883133109082172,
    "simplicity": 0.7692307692307694
  },
  "s_components": [],
  "sound": false,
  "top 30": {
    "fitness": {
      "average_trace_fitness": 0.866456067412983,
      "log_fitness": 0.8734296610230865,
      "perc_fit_traces": 0.0,
      "percentage_of_fitting_traces": 0.0
    },
    "fscore": 0.8786490996125157,
    "generalization": 0.9757869722381862,
    "metricsAverageWeight": 0.875594674080679,
    "precision": 0.8839312938306738,
    "simplicity": 0.7692307692307694
  },
  "uncovered_places_s_component": [
    "p0",
    "p4",
    "p2",
    "source",
    "p3",
    "p1",
    "p5",
    "p6",
    "sink"
  ]
}