{
  "easy_soundness": false,
  "filename": "/mnt/c/Users/s140511/tue/thesis/thesis_data/evaluation_data/BPI_2012_O/predictions/data_gcn_simpleep144_4_cc.json",
  "full": {
    "fitness": {
      "average_trace_fitness": 0.894040898881132,
      "log_fitness": 0.8996029131372152,
      "perc_fit_traces": 0.0,
      "percentage_of_fitting_traces": 0.0
    },
    "fscore": 0.6770523843230178,
    "generalization": 0.8921696967453355,
    "metricsAverageWeight": 0.7503038950348714,
    "precision": 0.5427763035902682,
    "simplicity": 0.6666666666666666
  },
  "s_components": [],
  "sound": false,
  "top 30": {
    "fitness": {
      "average_trace_fitness": 0.8945060591102747,
      "log_fitness": 0.9003732193947167,
      "perc_fit_traces": 0.0,
      "percentage_of_fitting_traces": 0.0
    },
    "fscore": 0.6700075519258493,
    "generalization": 0.8891232425666976,
    "metricsAverageWeight": 0.7474174758293208,
    "precision": 0.5335067746892024,
    "simplicity": 0.6666666666666666
  },
  "uncovered_places_s_component": [
    "p0",
    "p4",
    "p5",
    "p2",
    "source",
    "p1",
    "p3",
    "sink"
  ]
}