{
  "easy_soundness": true,
  "filename": "/mnt/c/Users/s140511/tue/thesis/thesis_data/evaluation_data/BPI_2012_O/predictions/data_gcn_simpleep144_6_cc.json",
  "full": {
    "fitness": {
      "average_trace_fitness": 0.9027734134366862,
      "log_fitness": 0.8911027138440398,
      "perc_fit_traces": 26.241276171485545,
      "percentage_of_fitting_traces": 26.241276171485545
    },
    "fitness_alignments": {
      "averageFitness": -0.34556331006979063,
      "average_trace_fitness": -0.34556331006979063,
      "percFitTraces": 26.241276171485545,
      "percentage_of_fitting_traces": 26.241276171485545
    },
    "fscore": 0.6872926135967478,
    "generalization": 0.9721002841021189,
    "metricsAverageWeight": 0.7787171888470711,
    "precision": 0.5593580651344334,
    "precision_alignments": 0.5593580651344334,
    "simplicity": 0.6923076923076922
  },
  "s_components": [
    [
      "p4",
      "O_DECLINED",
      "O_SENT",
      "short_circuited_transition",
      "O_SENT_BACK",
      "p3",
      "O_CREATED",
      "source",
      "st1",
      "O_ACCEPTED",
      "p0",
      "p1",
      "O_CANCELLED",
      "p2",
      "st0",
      "O_SELECTED",
      "|",
      ">",
      "sink"
    ]
  ],
  "sound": true,
  "top 30": {
    "fitness": {
      "average_trace_fitness": 0.90602372408309,
      "log_fitness": 0.8970247295208655,
      "perc_fit_traces": 27.887264250900614,
      "percentage_of_fitting_traces": 27.887264250900614
    },
    "fitness_alignments": {
      "averageFitness": -0.13774104683195593,
      "average_trace_fitness": -0.13774104683195593,
      "percFitTraces": 27.887264250900614,
      "percentage_of_fitting_traces": 27.887264250900614
    },
    "fscore": 0.6901967370677575,
    "generalization": 0.9691246203333542,
    "metricsAverageWeight": 0.7798330435945335,
    "precision": 0.5608751322162222,
    "precision_alignments": 0.5608751322162222,
    "simplicity": 0.6923076923076922
  },
  "uncovered_places_s_component": []
}