{
  "easy_soundness": true,
  "filename": "/mnt/c/Users/s140511/tue/thesis/thesis_data/evaluation_data/BPI_2012_O/predictions/data_gcn_simpleep144_10_cca.json",
  "full": {
    "entropia_precision": 0.8884764013996554,
    "entropia_recall": 0.850854446383675,
    "fitness": {
      "average_trace_fitness": 0.8730844697690407,
      "log_fitness": 0.8755139282808961,
      "perc_fit_traces": 5.922233300099701,
      "percentage_of_fitting_traces": 5.922233300099701
    },
    "fitness_alignments": {
      "averageFitness": 0.8758290948096675,
      "average_trace_fitness": 0.8758290948096675,
      "log_fitness": 0.8737502695776451,
      "percFitTraces": 5.922233300099701,
      "percentage_of_fitting_traces": 5.922233300099701
    },
    "fscore": 0.8693302470057453,
    "generalization": 0.89498422041806,
    "metricsAverageWeight": 0.8222259663120902,
    "precision": 0.8632333027563011,
    "precision_alignments": 0.8632333027563011,
    "simplicity": 0.6551724137931035
  },
  "sound": true,
  "top 30": {
    "fitness": {
      "average_trace_fitness": 0.8717443522887397,
      "log_fitness": 0.8727877479087547,
      "perc_fit_traces": 6.018224200042382,
      "percentage_of_fitting_traces": 6.018224200042382
    },
    "fitness_alignments": {
      "averageFitness": 0.8763858031368619,
      "average_trace_fitness": 0.8763858031368619,
      "log_fitness": 0.874662970614646,
      "percFitTraces": 6.018224200042382,
      "percentage_of_fitting_traces": 6.018224200042382
    },
    "fscore": 0.8627168482336885,
    "generalization": 0.8934549488529736,
    "metricsAverageWeight": 0.8185727049022967,
    "precision": 0.8528757090543548,
    "precision_alignments": 0.8528757090543548,
    "simplicity": 0.6551724137931035
  }
}