{
  "L": {
    "fitness": 0.9341981935923653,
    "fitness_alignments": 0.9071397115122704,
    "fitness_alignments_percFitTraces": 56.88933200398804,
    "fitness_entropy_exact": 0.0,
    "fitness_entropy_partial": 0.888198557916628,
    "fitness_percFitTraces": 56.88933200398804,
    "fscore": 0.7953008765430231,
    "fscore_alignments": 0.7853297609990809,
    "fscore_entropy_exact": 0,
    "fscore_entropy_partial": 0.7713148235122839,
    "generalization": 0.9700812101340865,
    "metricsAverageWeight": 0.827731334130291,
    "precision": 0.6923602185089974,
    "precision_alignments": 0.6923602185089974,
    "precision_entropy_exact": 0.0,
    "precision_entropy_partial": 0.6816165394390901,
    "simplicity": 0.7142857142857143
  },
  "L_30": {
    "fitness": 0.9446846327520776,
    "fitness_alignments": 0.9194231847124648,
    "fitness_alignments_percFitTraces": 60.45772409408773,
    "fitness_entropy_exact": 0.0,
    "fitness_entropy_partial": 0.909868251256121,
    "fitness_percFitTraces": 60.45772409408773,
    "fscore": 0.8003935663140603,
    "fscore_alignments": 0.7911846738996758,
    "fscore_entropy_exact": 0,
    "fscore_entropy_partial": 0.7439137204485271,
    "generalization": 0.966154317761927,
    "metricsAverageWeight": 0.8298661926639899,
    "precision": 0.6943401058562404,
    "precision_alignments": 0.6943401058562404,
    "precision_entropy_exact": 0.0,
    "precision_entropy_partial": 0.629158897910241,
    "simplicity": 0.7142857142857143
  },
  "args": {
    "beam_length": 20,
    "beam_width": -50,
    "config": "config.json",
    "conformanceChecking": true,
    "dataDirectory": "/mnt/c/Users/s140511/tue/thesis/APDGnn_data/evaluation_data/BPI_2012_O/",
    "export": "medium",
    "import_petrinet": null,
    "length_normalization": 0,
    "logFilename": "data",
    "miner": "gnn",
    "model_filename": "/mnt/c/Users/s140511/tue/thesis/git_clean/project/ml_models/models/model_candidates_frequency_new_036",
    "number_of_petrinets": 20,
    "prom": false,
    "timeout": null,
    "top_x_traces": 30,
    "visualize": false
  },
  "easy_soundness": true,
  "log_filename": "/mnt/c/Users/s140511/tue/thesis/APDGnn_data/evaluation_data/BPI_2012_O/data",
  "petrinet_filename": "/mnt/c/Users/s140511/tue/thesis/APDGnn_data/evaluation_data/BPI_2012_O/predictions/data_gcn_medium_3",
  "sound": true,
  "soundness_info": {
    "s_components": [
      [
        "p2",
        "O_ACCEPTED",
        "O_CANCELLED",
        "p0",
        "source",
        "p4",
        "p1",
        "O_DECLINED",
        "short_circuited_transition",
        "p5",
        "O_SENT_BACK",
        "p3",
        "st2",
        "|",
        "O_CREATED",
        "O_SELECTED",
        "st0",
        "sink",
        "st1",
        ">",
        "O_SENT"
      ]
    ],
    "uncovered_places_s_component": []
  }
}