{
  "L": {
    "fitness": 0.8924466686458289,
    "fitness_alignments": 0.9022413393460651,
    "fitness_alignments_percFitTraces": 26.241276171485545,
    "fitness_entropy_exact": 0.0,
    "fitness_entropy_partial": 0.88819737087,
    "fitness_percFitTraces": 26.241276171485545,
    "fscore": 0.8805323920907479,
    "fscore_alignments": 0.8852734759646202,
    "fscore_entropy_exact": 0,
    "fscore_entropy_partial": 0.8222375076644859,
    "generalization": 0.9753345417802524,
    "metricsAverageWeight": 0.8572552353921812,
    "precision": 0.8689320388349515,
    "precision_alignments": 0.8689320388349515,
    "precision_entropy_exact": 0.0,
    "precision_entropy_partial": 0.7653971132398284,
    "simplicity": 0.6923076923076922
  },
  "L_30": {
    "fitness": 0.898034339279736,
    "fitness_alignments": 0.9059023248460966,
    "fitness_alignments_percFitTraces": 27.887264250900614,
    "fitness_entropy_exact": 0.0,
    "fitness_entropy_partial": 0.909868475369106,
    "fitness_percFitTraces": 27.887264250900614,
    "fscore": 0.884624671573515,
    "fscore_alignments": 0.8884251575677348,
    "fscore_entropy_exact": 0,
    "fscore_entropy_partial": 0.7953855455048626,
    "generalization": 0.9738416658234906,
    "metricsAverageWeight": 0.8589483205389046,
    "precision": 0.8716095847446995,
    "precision_alignments": 0.8716095847446995,
    "precision_entropy_exact": 0.0,
    "precision_entropy_partial": 0.7064921568143643,
    "simplicity": 0.6923076923076922
  },
  "args": {
    "beam_length": 20,
    "beam_width": -50,
    "config": "config.json",
    "conformanceChecking": true,
    "dataDirectory": "/mnt/c/Users/s140511/tue/thesis/APDGnn_data/evaluation_data/BPI_2012_O/",
    "export": "simple",
    "import_petrinet": null,
    "length_normalization": 0,
    "logFilename": "data",
    "miner": "gnn",
    "model_filename": "/mnt/c/Users/s140511/tue/thesis/git_clean/project/ml_models/models/simple_ws2_frequency_144_",
    "number_of_petrinets": 20,
    "prom": false,
    "timeout": null,
    "top_x_traces": 30,
    "visualize": false
  },
  "easy_soundness": true,
  "log_filename": "/mnt/c/Users/s140511/tue/thesis/APDGnn_data/evaluation_data/BPI_2012_O/data",
  "petrinet_filename": "/mnt/c/Users/s140511/tue/thesis/APDGnn_data/evaluation_data/BPI_2012_O/predictions/data_gcn_simple_5",
  "sound": true,
  "soundness_info": {
    "s_components": [
      [
        "p0",
        "p4",
        "O_ACCEPTED",
        "O_DECLINED",
        ">",
        "|",
        "p1",
        "short_circuited_transition",
        "st0",
        "O_CANCELLED",
        "p2",
        "O_CREATED",
        "O_SELECTED",
        "O_SENT_BACK",
        "st1",
        "O_SENT",
        "p3",
        "source",
        "sink"
      ]
    ],
    "uncovered_places_s_component": []
  }
}