{
  "easy_soundness": true,
  "filename": "/mnt/c/Users/s140511/tue/thesis/thesis_data/evaluation_data/BPI_2012_O/predictions/data_gcn_complexep100_4_cca.json",
  "full": {
    "entropia_precision": 0.7327145830022366,
    "entropia_recall": 0.72865791415483,
    "fitness": {
      "average_trace_fitness": 0.8675439258879781,
      "log_fitness": 0.8626451666805915,
      "perc_fit_traces": 3.6689930209371884,
      "percentage_of_fitting_traces": 3.6689930209371884
    },
    "fitness_alignments": {
      "averageFitness": 0.8461821618030914,
      "average_trace_fitness": 0.8461821618030914,
      "log_fitness": 0.8399474931594796,
      "percFitTraces": 3.6689930209371884,
      "percentage_of_fitting_traces": 3.6689930209371884
    },
    "fscore": 0.805606464946193,
    "generalization": 0.9039498607455191,
    "metricsAverageWeight": 0.7999143036636984,
    "precision": 0.7556428323899734,
    "precision_alignments": 0.7556428323899734,
    "simplicity": 0.6774193548387096
  },
  "sound": true,
  "top 30": {
    "fitness": {
      "average_trace_fitness": 0.8687502653743682,
      "log_fitness": 0.8652999384498841,
      "perc_fit_traces": 3.8991311718584445,
      "percentage_of_fitting_traces": 3.8991311718584445
    },
    "fitness_alignments": {
      "averageFitness": 0.8480606476474324,
      "average_trace_fitness": 0.8480606476474324,
      "log_fitness": 0.8437363118109269,
      "percFitTraces": 3.8991311718584445,
      "percentage_of_fitting_traces": 3.8991311718584445
    },
    "fscore": 0.8077996771248454,
    "generalization": 0.9027929905081017,
    "metricsAverageWeight": 0.8007443636381147,
    "precision": 0.7574651707557638,
    "precision_alignments": 0.7574651707557638,
    "simplicity": 0.6774193548387096
  }
}