{
  "easy_soundness": true,
  "filename": "/mnt/c/Users/s140511/tue/thesis/thesis_data/evaluation_data/BPI_2012_O/predictions/data_gcn_complexep100_6_cc.json",
  "full": {
    "entropia_precision": 0.7327145830022366,
    "entropia_recall": 0.730882214641139,
    "fitness": {
      "average_trace_fitness": 0.8675439258879781,
      "log_fitness": 0.8630770191767131,
      "perc_fit_traces": 3.6689930209371884,
      "percentage_of_fitting_traces": 3.6689930209371884
    },
    "fitness_alignments": {
      "averageFitness": 0.34147557328015954,
      "average_trace_fitness": 0.34147557328015954,
      "percFitTraces": 3.6689930209371884,
      "percentage_of_fitting_traces": 3.6689930209371884
    },
    "fscore": 0.8057947305831494,
    "generalization": 0.9751949759308389,
    "metricsAverageWeight": 0.82705013544581,
    "precision": 0.7556428323899734,
    "precision_alignments": 0.7556428323899734,
    "simplicity": 0.7142857142857143
  },
  "sound": true,
  "top 30": {
    "fitness": {
      "average_trace_fitness": 0.8687502653743682,
      "log_fitness": 0.8657797277852476,
      "perc_fit_traces": 3.8991311718584445,
      "percentage_of_fitting_traces": 3.8991311718584445
    },
    "fitness_alignments": {
      "averageFitness": 0.39595253231616867,
      "average_trace_fitness": 0.39595253231616867,
      "percFitTraces": 3.8991311718584445,
      "percentage_of_fitting_traces": 3.8991311718584445
    },
    "fscore": 0.8080086867153181,
    "generalization": 0.9740198242816545,
    "metricsAverageWeight": 0.827887609277095,
    "precision": 0.7574651707557638,
    "precision_alignments": 0.7574651707557638,
    "simplicity": 0.7142857142857143
  }
}