{
  "easy_soundness": true,
  "filename": "/mnt/c/Users/s140511/tue/thesis/thesis_data/evaluation_data/BPI_2012_O/predictions/data_gcn_simpleep144_1_cc.json",
  "full": {
    "fitness": {
      "average_trace_fitness": 0.902437881284343,
      "log_fitness": 0.890642518326865,
      "perc_fit_traces": 26.241276171485545,
      "percentage_of_fitting_traces": 26.241276171485545
    },
    "fitness_alignments": {
      "averageFitness": 0.5514788966433897,
      "average_trace_fitness": 0.5514788966433897,
      "percFitTraces": 26.241276171485545,
      "percentage_of_fitting_traces": 26.241276171485545
    },
    "fscore": 0.8781249082498062,
    "generalization": 0.9764531696551879,
    "metricsAverageWeight": 0.8680451009603389,
    "precision": 0.8659542810766941,
    "precision_alignments": 0.8659542810766941,
    "simplicity": 0.7391304347826086
  },
  "sound": true,
  "top 30": {
    "fitness": {
      "average_trace_fitness": 0.9058115065734645,
      "log_fitness": 0.8967529480132691,
      "perc_fit_traces": 27.887264250900614,
      "percentage_of_fitting_traces": 27.887264250900614
    },
    "fitness_alignments": {
      "averageFitness": 0.6207529843893358,
      "average_trace_fitness": 0.6207529843893358,
      "percFitTraces": 27.887264250900614,
      "percentage_of_fitting_traces": 27.887264250900614
    },
    "fscore": 0.8816919239715721,
    "generalization": 0.9756153452189011,
    "metricsAverageWeight": 0.8696567933479307,
    "precision": 0.8671284453769437,
    "precision_alignments": 0.8671284453769437,
    "simplicity": 0.7391304347826086
  }
}