{
  "easy_soundness": true,
  "filename": "/mnt/c/Users/s140511/tue/thesis/thesis_data/evaluation_data/BPI_2012_O/predictions/data_gcn_simpleep144_4_cca.json",
  "full": {
    "entropia_precision": 0.6593989020787,
    "entropia_recall": 0.8499512577213,
    "fitness": {
      "average_trace_fitness": 0.8720656721307647,
      "log_fitness": 0.874828668700535,
      "perc_fit_traces": 5.922233300099701,
      "percentage_of_fitting_traces": 5.922233300099701
    },
    "fitness_alignments": {
      "averageFitness": 0.8214965130468993,
      "average_trace_fitness": 0.8214965130468993,
      "log_fitness": 0.8119694335011003,
      "percFitTraces": 5.922233300099701,
      "percentage_of_fitting_traces": 5.922233300099701
    },
    "fscore": 0.6699133825761796,
    "generalization": 0.8956187161117417,
    "metricsAverageWeight": 0.7476607608103136,
    "precision": 0.5427763035902682,
    "precision_alignments": 0.5427763035902682,
    "simplicity": 0.6774193548387096
  },
  "sound": true,
  "top 30": {
    "fitness": {
      "average_trace_fitness": 0.8707042543506257,
      "log_fitness": 0.8722136338702439,
      "perc_fit_traces": 6.018224200042382,
      "percentage_of_fitting_traces": 6.018224200042382
    },
    "fitness_alignments": {
      "averageFitness": 0.8245527505858128,
      "average_trace_fitness": 0.8245527505858128,
      "log_fitness": 0.8176656051118599,
      "percFitTraces": 6.018224200042382,
      "percentage_of_fitting_traces": 6.018224200042382
    },
    "fscore": 0.6620546729102771,
    "generalization": 0.8921595660244688,
    "metricsAverageWeight": 0.7438248323556561,
    "precision": 0.5335067746892024,
    "precision_alignments": 0.5335067746892024,
    "simplicity": 0.6774193548387096
  }
}