{
  "easy_soundness": true,
  "filename": "/mnt/c/Users/s140511/tue/thesis/thesis_data/evaluation_data/BPI_2012_O/predictions/data_gcn_simpleep144_15_cc.json",
  "full": {
    "entropia_precision": 0.8901117579916603,
    "entropia_recall": 0.78916694257019,
    "fitness": {
      "average_trace_fitness": 0.902437881284343,
      "log_fitness": 0.8902853187393195,
      "perc_fit_traces": 26.241276171485545,
      "percentage_of_fitting_traces": 26.241276171485545
    },
    "fitness_alignments": {
      "averageFitness": 0.5514788966433897,
      "average_trace_fitness": 0.5514788966433897,
      "percFitTraces": 26.241276171485545,
      "percentage_of_fitting_traces": 26.241276171485545
    },
    "fscore": 0.8779512581572678,
    "generalization": 0.8891942058952368,
    "metricsAverageWeight": 0.8344353745047356,
    "precision": 0.8659542810766941,
    "precision_alignments": 0.8659542810766941,
    "simplicity": 0.6923076923076922
  },
  "sound": true,
  "top 30": {
    "fitness": {
      "average_trace_fitness": 0.9058115065734645,
      "log_fitness": 0.896374064353067,
      "perc_fit_traces": 27.887264250900614,
      "percentage_of_fitting_traces": 27.887264250900614
    },
    "fitness_alignments": {
      "averageFitness": 0.6207529843893358,
      "average_trace_fitness": 0.6207529843893358,
      "percFitTraces": 27.887264250900614,
      "percentage_of_fitting_traces": 27.887264250900614
    },
    "fscore": 0.8815087527351311,
    "generalization": 0.8880893322251172,
    "metricsAverageWeight": 0.8359748835657049,
    "precision": 0.8671284453769437,
    "precision_alignments": 0.8671284453769437,
    "simplicity": 0.6923076923076922
  }
}