{
  "easy_soundness": true,
  "filename": "/mnt/c/Users/s140511/tue/thesis/thesis_data/evaluation_data/BPI_2012_O/predictions/data_gcn_simpleep144_8_cc.json",
  "full": {
    "entropia_precision": 0.9572511396994777,
    "entropia_recall": 0.835615313047569,
    "fitness": {
      "average_trace_fitness": 0.8995943387969548,
      "log_fitness": 0.884151593453919,
      "perc_fit_traces": 27.437686939182452,
      "percentage_of_fitting_traces": 27.437686939182452
    },
    "fitness_alignments": {
      "averageFitness": 0.24659355267528849,
      "average_trace_fitness": 0.24659355267528849,
      "percFitTraces": 27.437686939182452,
      "percentage_of_fitting_traces": 27.437686939182452
    },
    "fscore": 0.8714039025084466,
    "generalization": 0.9764616934569629,
    "metricsAverageWeight": 0.8646905752162772,
    "precision": 0.8590185791716183,
    "precision_alignments": 0.8590185791716183,
    "simplicity": 0.7391304347826086
  },
  "sound": true,
  "top 30": {
    "fitness": {
      "average_trace_fitness": 0.9046291054013504,
      "log_fitness": 0.8928890930631785,
      "perc_fit_traces": 29.158720067810975,
      "percentage_of_fitting_traces": 29.158720067810975
    },
    "fitness_alignments": {
      "averageFitness": 0.4118810482446644,
      "average_trace_fitness": 0.4118810482446644,
      "percFitTraces": 29.158720067810975,
      "percentage_of_fitting_traces": 29.158720067810975
    },
    "fscore": 0.8756886766047556,
    "generalization": 0.9756246887711104,
    "metricsAverageWeight": 0.8666956605250653,
    "precision": 0.8591384254833636,
    "precision_alignments": 0.8591384254833636,
    "simplicity": 0.7391304347826086
  }
}