{
  "easy_soundness": true,
  "filename": "/mnt/c/Users/s140511/tue/thesis/thesis_data/evaluation_data/BPI_2012_O/predictions/data_gcn_simpleep144_18_cc.json",
  "full": {
    "fitness": {
      "average_trace_fitness": 0.9011619461412403,
      "log_fitness": 0.885694860517985,
      "perc_fit_traces": 27.437686939182452,
      "percentage_of_fitting_traces": 27.437686939182452
    },
    "fitness_alignments": {
      "averageFitness": 0.6424061149883469,
      "average_trace_fitness": 0.6424061149883469,
      "percFitTraces": 27.437686939182452,
      "percentage_of_fitting_traces": 27.437686939182452
    },
    "fscore": 0.8742664392269607,
    "generalization": 0.8954480285987634,
    "metricsAverageWeight": 0.8248611233357889,
    "precision": 0.8631291904333033,
    "precision_alignments": 0.8631291904333033,
    "simplicity": 0.6551724137931035
  },
  "sound": true,
  "top 30": {
    "fitness": {
      "average_trace_fitness": 0.9058161229303011,
      "log_fitness": 0.8938337287607544,
      "perc_fit_traces": 29.158720067810975,
      "percentage_of_fitting_traces": 29.158720067810975
    },
    "fitness_alignments": {
      "averageFitness": 0.6870805961714819,
      "average_trace_fitness": 0.6870805961714819,
      "percFitTraces": 29.158720067810975,
      "percentage_of_fitting_traces": 29.158720067810975
    },
    "fscore": 0.8791706682142629,
    "generalization": 0.8937656481270729,
    "metricsAverageWeight": 0.8269381798592915,
    "precision": 0.8649809287562349,
    "precision_alignments": 0.8649809287562349,
    "simplicity": 0.6551724137931035
  }
}