{
  "L": {
    "fitness": 0.9498691402878073,
    "fitness_alignments": 0.8888461497217159,
    "fitness_alignments_percFitTraces": 71.32602193419741,
    "fitness_entropy_exact": 0.0,
    "fitness_entropy_partial": 0.698650228781131,
    "fitness_percFitTraces": 71.32602193419741,
    "fscore": 0.8987252300395406,
    "fscore_alignments": 0.8704539260653757,
    "fscore_entropy_exact": 0,
    "fscore_entropy_partial": 0.6881031260800988,
    "generalization": 0.9821285658894047,
    "metricsAverageWeight": 0.8795346160261283,
    "precision": 0.8528074245939675,
    "precision_alignments": 0.8528074245939675,
    "precision_entropy_exact": 0.0,
    "precision_entropy_partial": 0.6778697340219243,
    "simplicity": 0.7333333333333333
  },
  "L_30": {
    "fitness": 0.9631228123047002,
    "fitness_alignments": 0.9134933960454485,
    "fitness_alignments_percFitTraces": 75.79995761813943,
    "fitness_entropy_exact": 0.0,
    "fitness_entropy_partial": 0.773366614179654,
    "fitness_percFitTraces": 75.79995761813943,
    "fscore": 0.9075682373574985,
    "fscore_alignments": 0.884916390478886,
    "fscore_entropy_exact": 0,
    "fscore_entropy_partial": 0.7214806394225882,
    "generalization": 0.9812026131512472,
    "metricsAverageWeight": 0.8839329670393359,
    "precision": 0.8580731093680627,
    "precision_alignments": 0.8580731093680627,
    "precision_entropy_exact": 0.0,
    "precision_entropy_partial": 0.676119101941047,
    "simplicity": 0.7333333333333333
  },
  "args": {
    "beam_length": 20,
    "beam_width": -50,
    "config": "config.json",
    "conformanceChecking": true,
    "dataDirectory": "/mnt/c/Users/s140511/tue/thesis/APDGnn_data/evaluation_data/BPI_2012_O/",
    "export": "medium",
    "import_petrinet": null,
    "length_normalization": 0,
    "logFilename": "data",
    "miner": "gnn",
    "model_filename": "/mnt/c/Users/s140511/tue/thesis/git_clean/project/ml_models/models/model_candidates_frequency_new_036",
    "number_of_petrinets": 20,
    "prom": false,
    "timeout": null,
    "top_x_traces": 30,
    "visualize": false
  },
  "easy_soundness": true,
  "log_filename": "/mnt/c/Users/s140511/tue/thesis/APDGnn_data/evaluation_data/BPI_2012_O/data",
  "petrinet_filename": "/mnt/c/Users/s140511/tue/thesis/APDGnn_data/evaluation_data/BPI_2012_O/predictions/data_gcn_medium_12",
  "sound": true,
  "soundness_info": {
    "s_components": [
      [
        "p0",
        ">",
        "O_SENT",
        "p4",
        "p7",
        "st2",
        "|",
        "sink",
        "O_CREATED",
        "O_SELECTED",
        "st0",
        "O_SENT_BACK",
        "O_CANCELLED",
        "short_circuited_transition",
        "p1",
        "p5",
        "p2",
        "source"
      ],
      [
        "p0",
        ">",
        "O_SENT",
        "p3",
        "st1",
        "O_ACCEPTED",
        "sink",
        "|",
        "O_CREATED",
        "O_SELECTED",
        "O_DECLINED",
        "short_circuited_transition",
        "p1",
        "p6",
        "p2",
        "source"
      ]
    ],
    "uncovered_places_s_component": []
  }
}