{
  "easy_soundness": true,
  "filename": "/mnt/c/Users/s140511/tue/thesis/thesis_data/evaluation_data/BPI_2017_O/predictions/data_gcn_simpleep144_6_cc.json",
  "full": {
    "entropia_precision": 0.7934524241612335,
    "entropia_recall": 0.636385734866698,
    "fitness": {
      "average_trace_fitness": 0.7959753785765158,
      "log_fitness": 0.7902542725858099,
      "perc_fit_traces": 0.5617442635437494,
      "percentage_of_fitting_traces": 0.5617442635437494
    },
    "fitness_alignments": {
      "averageFitness": 0.2255334454707377,
      "average_trace_fitness": 0.2255334454707377,
      "percFitTraces": 0.5617442635437494,
      "percentage_of_fitting_traces": 0.5617442635437494
    },
    "fscore": 0.8185739285152246,
    "generalization": 0.9899393990126147,
    "metricsAverageWeight": 0.8517425522436983,
    "precision": 0.8489987595985912,
    "precision_alignments": 0.8489987595985912,
    "simplicity": 0.7777777777777779
  },
  "sound": true,
  "top 30": {
    "fitness": {
      "average_trace_fitness": 0.7970888824607415,
      "log_fitness": 0.7926856376278629,
      "perc_fit_traces": 0.6120036163850059,
      "percentage_of_fitting_traces": 0.6120036163850059
    },
    "fitness_alignments": {
      "averageFitness": 0.31449799476102275,
      "average_trace_fitness": 0.31449799476102275,
      "percFitTraces": 0.6120036163850059,
      "percentage_of_fitting_traces": 0.6120036163850059
    },
    "fscore": 0.8145372574604943,
    "generalization": 0.986777883135257,
    "metricsAverageWeight": 0.8487172690603351,
    "precision": 0.8376277777004422,
    "precision_alignments": 0.8376277777004422,
    "simplicity": 0.7777777777777779
  }
}