{
  "easy_soundness": true,
  "filename": "/home/dominique/TUe/thesis/git_data/evaluation_data/BPI_2017_O/predictions/data_heuristics_reduced_cc.txt",
  "full": {
    "fitness                         ": "0.85632",
    "fscore                          ": "0.91996",
    "generalization                  ": "0.88497",
    "metricsAverageWeight            ": "0.81811",
    "precision                       ": "0.99382",
    "simplicity                      ": "0.53731"
  },
  "s_components": [],
  "sound": false,
  "uncovered_places_s_component": [
    "n13",
    "n24",
    "n19",
    "n5",
    "n3",
    "n27",
    "n9",
    "n28",
    "source",
    "n20",
    "n4",
    "n14",
    "n16",
    "n12",
    "n7",
    "n17",
    "n18",
    "n15",
    "n8",
    "n11",
    "n10",
    "n23",
    "n1",
    "n2",
    "n6",
    "n25",
    "n21",
    "n22",
    "n26"
  ]
}