{
  "easy_soundness": false,
  "filename": "/mnt/c/Users/s140511/tue/thesis/thesis_data/evaluation_data/BPI_2017_O/predictions/data_gcn_blahblah_repro_0_cc.json",
  "full": {
    "fitness": {
      "average_trace_fitness": 0.6417791411180377,
      "log_fitness": 0.6620757359565279,
      "perc_fit_traces": 0.0,
      "percentage_of_fitting_traces": 0.0
    },
    "fscore": 0.7950924617080317,
    "generalization": 0.9084596507725046,
    "metricsAverageWeight": 0.8144596883981597,
    "precision": 0.9949956745559146,
    "simplicity": 0.6923076923076922
  },
  "s_components": [],
  "sound": false,
  "top 30": {
    "fitness": {
      "average_trace_fitness": 0.6333976813806796,
      "log_fitness": 0.6475257323401156,
      "perc_fit_traces": 0.0,
      "percentage_of_fitting_traces": 0.0
    },
    "fscore": 0.7651289763185586,
    "generalization": 0.7832349374520335,
    "metricsAverageWeight": 0.7644997172799787,
    "precision": 0.9349305070200737,
    "simplicity": 0.6923076923076922
  },
  "uncovered_places_s_component": [
    "p3",
    "p6",
    "p8",
    "p9",
    "p0",
    "p1",
    "p5",
    "p7",
    "p2",
    "p4",
    "source",
    "sink"
  ]
}