{
  "easy_soundness": true,
  "filename": "/mnt/c/Users/s140511/tue/thesis/thesis_data/evaluation_data/BPI_2017_O/predictions/data_gcn_complexep100_17_cc.json",
  "full": {
    "fitness": {
      "average_trace_fitness": 0.8309106429697962,
      "log_fitness": 0.8222452908154524,
      "perc_fit_traces": 22.872829985083627,
      "percentage_of_fitting_traces": 22.872829985083627
    },
    "fitness_alignments": {
      "averageFitness": 0.18251928020565364,
      "average_trace_fitness": 0.18251928020565364,
      "percFitTraces": 22.872829985083627,
      "percentage_of_fitting_traces": 22.872829985083627
    },
    "fscore": 0.9015683563775162,
    "generalization": 0.9886327148948918,
    "metricsAverageWeight": 0.8715319247204953,
    "precision": 0.9978303383329277,
    "precision_alignments": 0.9978303383329277,
    "simplicity": 0.6774193548387096
  },
  "sound": false,
  "top 30": {
    "fitness": {
      "average_trace_fitness": 0.8329810809282726,
      "log_fitness": 0.8250680356994308,
      "perc_fit_traces": 25.060852632311008,
      "percentage_of_fitting_traces": 25.060852632311008
    },
    "fitness_alignments": {
      "averageFitness": 0.26291814451630574,
      "average_trace_fitness": 0.26291814451630574,
      "percFitTraces": 25.060852632311008,
      "percentage_of_fitting_traces": 25.060852632311008
    },
    "fscore": 0.8906823737418081,
    "generalization": 0.9849384471648353,
    "metricsAverageWeight": 0.8637650704452094,
    "precision": 0.9676344440778621,
    "precision_alignments": 0.9676344440778621,
    "simplicity": 0.6774193548387096
  }
}