{
  "easy_soundness": true,
  "filename": "/mnt/c/Users/s140511/tue/thesis/thesis_data/evaluation_data/BPI_2017_O/predictions/data_gcn_complexep100_10_cc.json",
  "full": {
    "fitness": {
      "average_trace_fitness": 0.8485711169106214,
      "log_fitness": 0.8385706854303276,
      "perc_fit_traces": 0.9425878320479862,
      "percentage_of_fitting_traces": 0.9425878320479862
    },
    "fitness_alignments": {
      "averageFitness": 0.2828504025306162,
      "average_trace_fitness": 0.2828504025306162,
      "percFitTraces": 0.9425878320479862,
      "percentage_of_fitting_traces": 0.9425878320479862
    },
    "fscore": 0.9116789261752748,
    "generalization": 0.9850029455429886,
    "metricsAverageWeight": 0.8841528606336424,
    "precision": 0.9987520972755392,
    "precision_alignments": 0.9987520972755392,
    "simplicity": 0.7142857142857143
  },
  "sound": true,
  "top 30": {
    "fitness": {
      "average_trace_fitness": 0.8541227787976599,
      "log_fitness": 0.8481994816567666,
      "perc_fit_traces": 0.987551290075805,
      "percentage_of_fitting_traces": 0.987551290075805
    },
    "fitness_alignments": {
      "averageFitness": 0.34836683125867907,
      "average_trace_fitness": 0.34836683125867907,
      "percFitTraces": 0.987551290075805,
      "percentage_of_fitting_traces": 0.987551290075805
    },
    "fscore": 0.8897338629049861,
    "generalization": 0.9064406042747157,
    "metricsAverageWeight": 0.851117793019387,
    "precision": 0.9355453718603512,
    "precision_alignments": 0.9355453718603512,
    "simplicity": 0.7142857142857143
  }
}