{
  "easy_soundness": true,
  "filename": "/mnt/c/Users/s140511/tue/thesis/thesis_data/evaluation_data/BPI_2017_O/predictions/data_gcn_simpleep144_0_cca.json",
  "full": {
    "entropia_precision": 0.0,
    "entropia_recall": 0.0,
    "fitness": {
      "average_trace_fitness": 0.7076892979736559,
      "log_fitness": 0.7043821457647517,
      "perc_fit_traces": 0.0,
      "percentage_of_fitting_traces": 0.0
    },
    "fitness_alignments": {
      "averageFitness": 0.5613076972426203,
      "average_trace_fitness": 0.5613076972426203,
      "log_fitness": 0.5532973200711142,
      "percFitTraces": 0.0,
      "percentage_of_fitting_traces": 0.0
    },
    "fscore": 0.825056087588959,
    "generalization": 0.9013541522836859,
    "metricsAverageWeight": 0.828911880203508,
    "precision": 0.9956255084798799,
    "precision_alignments": 0.9956255084798799,
    "simplicity": 0.7142857142857143
  },
  "sound": false,
  "top 30": {
    "fitness": {
      "average_trace_fitness": 0.7112323840779262,
      "log_fitness": 0.7109210203325942,
      "perc_fit_traces": 0.0,
      "percentage_of_fitting_traces": 0.0
    },
    "fitness_alignments": {
      "averageFitness": 0.5678438895945829,
      "average_trace_fitness": 0.5678438895945829,
      "log_fitness": 0.5645422598692748,
      "percFitTraces": 0.0,
      "percentage_of_fitting_traces": 0.0
    },
    "fscore": 0.8295373264519867,
    "generalization": 0.8997756936673144,
    "metricsAverageWeight": 0.8301612025299884,
    "precision": 0.9956623818343305,
    "precision_alignments": 0.9956623818343305,
    "simplicity": 0.7142857142857143
  }
}