{
  "easy_soundness": true,
  "filename": "/mnt/c/Users/s140511/tue/thesis/thesis_data/evaluation_data/BPI_2017_O/predictions/data_gcn_simpleep144_18_cc.json",
  "full": {
    "fitness": {
      "average_trace_fitness": 0.8794705526042094,
      "log_fitness": 0.8832950094579105,
      "perc_fit_traces": 14.716430226284553,
      "percentage_of_fitting_traces": 14.716430226284553
    },
    "fitness_alignments": {
      "averageFitness": 0.5692447660455835,
      "average_trace_fitness": 0.5692447660455835,
      "percFitTraces": 14.716430226284553,
      "percentage_of_fitting_traces": 14.716430226284553
    },
    "fscore": 0.8788157037915534,
    "generalization": 0.9895351516584576,
    "metricsAverageWeight": 0.8653743686520072,
    "precision": 0.874381599205946,
    "precision_alignments": 0.874381599205946,
    "simplicity": 0.7142857142857143
  },
  "s_components": [
    [
      "st1",
      "O_Create Offer",
      "p3",
      "O_Refused",
      "p5",
      "st0",
      "p0",
      "p1",
      "source",
      "O_Created",
      "|",
      "p4",
      "O_Sent (mail and online)",
      "O_Accepted",
      "O_Cancelled",
      "O_Sent (online only)",
      "p2",
      ">",
      "short_circuited_transition",
      "O_Returned",
      "sink"
    ]
  ],
  "sound": true,
  "top 30": {
    "fitness": {
      "average_trace_fitness": 0.8803820186513638,
      "log_fitness": 0.8861369527468563,
      "perc_fit_traces": 16.124208915779956,
      "percentage_of_fitting_traces": 16.124208915779956
    },
    "fitness_alignments": {
      "averageFitness": 0.6448176739225082,
      "average_trace_fitness": 0.6448176739225082,
      "percFitTraces": 16.124208915779956,
      "percentage_of_fitting_traces": 16.124208915779956
    },
    "fscore": 0.862618799666323,
    "generalization": 0.9857537183559809,
    "metricsAverageWeight": 0.8566232762532401,
    "precision": 0.8403167196244088,
    "precision_alignments": 0.8403167196244088,
    "simplicity": 0.7142857142857143
  },
  "uncovered_places_s_component": []
}