{
  "L": {
    "fitness": 0.8222452908154524,
    "fitness_alignments": 0.7453361472873377,
    "fitness_alignments_percFitTraces": 22.872829985083627,
    "fitness_entropy_exact": 0.0,
    "fitness_entropy_partial": 0.797666006238518,
    "fitness_percFitTraces": 22.872829985083627,
    "fscore": 0.9015683563775162,
    "fscore_alignments": 0.8532966026533603,
    "fscore_entropy_exact": 0,
    "fscore_entropy_partial": 0.7794073371661487,
    "generalization": 0.9886327148948918,
    "metricsAverageWeight": 0.8715319247204953,
    "precision": 0.9978303383329277,
    "precision_alignments": 0.9978303383329277,
    "precision_entropy_exact": 0.0,
    "precision_entropy_partial": 0.7619658489105436,
    "simplicity": 0.6774193548387096
  },
  "L_30": {
    "fitness": 0.8250680356994308,
    "fitness_alignments": 0.7510071388552267,
    "fitness_alignments_percFitTraces": 25.060852632311008,
    "fitness_entropy_exact": 0.0,
    "fitness_entropy_partial": 0.84440797686974,
    "fitness_percFitTraces": 25.060852632311008,
    "fscore": 0.8906823737418081,
    "fscore_alignments": 0.8456683261026107,
    "fscore_entropy_exact": 0,
    "fscore_entropy_partial": 0.7410956592289729,
    "generalization": 0.9849384471648353,
    "metricsAverageWeight": 0.8637650704452094,
    "precision": 0.9676344440778621,
    "precision_alignments": 0.9676344440778621,
    "precision_entropy_exact": 0.0,
    "precision_entropy_partial": 0.6603077826878229,
    "simplicity": 0.6774193548387096
  },
  "args": {
    "beam_length": 20,
    "beam_width": -50,
    "config": "config.json",
    "conformanceChecking": true,
    "dataDirectory": "/mnt/c/Users/s140511/tue/thesis/APDGnn_data/evaluation_data/BPI_2017_O/",
    "export": "complex",
    "import_petrinet": null,
    "length_normalization": 0,
    "logFilename": "data",
    "miner": "gnn",
    "model_filename": "/mnt/c/Users/s140511/tue/thesis/git_clean/project/ml_models/models/complex_ws_frequency_100_",
    "number_of_petrinets": 20,
    "prom": false,
    "timeout": null,
    "top_x_traces": 30,
    "visualize": false
  },
  "easy_soundness": true,
  "log_filename": "/mnt/c/Users/s140511/tue/thesis/APDGnn_data/evaluation_data/BPI_2017_O/data",
  "petrinet_filename": "/mnt/c/Users/s140511/tue/thesis/APDGnn_data/evaluation_data/BPI_2017_O/predictions/data_gcn_complex_17",
  "sound": false,
  "soundness_info": {
    "s_components": [
      [
        "p6",
        "O_Refused"
      ],
      [
        ">",
        "O_Sent (mail and online)",
        "O_Sent (online only)",
        "st0",
        "O_Created",
        "p4",
        "p1",
        "short_circuited_transition",
        "O_Accepted",
        "p5",
        "p0",
        "st1",
        "source",
        "sink",
        "O_Cancelled",
        "|",
        "p2",
        "p3",
        "O_Refused",
        "O_Returned",
        "O_Create Offer"
      ]
    ],
    "uncovered_places_s_component": []
  }
}