,fscore,fitness,precision,generalization,metricsAverageWeight,simplicity,#p,#st
split_reduced,0.944,0.893,1.000,0.937,0.886,0.714,14,13
ilp_reduced,0.926,0.868,0.994,0.994,0.775,0.247,31, 2
heuristics_reduced,0.915,0.848,0.994,0.907,0.820,0.530,28,34
gcn_candidates_frequency_ln_3,0.886,0.795,1.000,0.990,0.846,0.600, 7, 3
gcn_candidates_frequency_jp_2,0.886,0.795,1.000,0.990,0.846,0.600, 7, 3
gcn_full_ln,0.836,0.718,1.000,0.958,0.744,0.299,28,27
gcn_full_jp,0.836,0.718,1.000,0.958,0.744,0.299,28,27
gcn_full_ln_3,0.835,0.717,1.000,0.763,0.711,0.364,18,14
gcn_chosen_jp_1,0.815,0.687,1.000,0.990,0.812,0.571, 7, 1
gcn_full_jp_0,0.814,0.697,0.977,0.969,0.778,0.467,12, 8
gcn_candidates_ln_4,0.802,0.670,1.000,0.811,0.734,0.455, 9, 3
gcn_chosen_ln_3,0.793,0.669,0.972,0.958,0.768,0.474,11, 8
gcn_candidates_ln,0.784,0.645,1.000,0.811,0.728,0.455, 9, 3
gcn_candidates_jp,0.784,0.645,1.000,0.811,0.728,0.455, 9, 3
gcn_candidates_jp_0,0.769,0.625,1.000,0.886,0.756,0.514, 8, 3
gcn_chosen_ln,0.759,0.635,0.945,0.935,0.717,0.353,26,25
gcn_chosen_jp,0.759,0.635,0.945,0.935,0.717,0.353,26,25
gcn_candidates_frequency_ln,0.751,0.601,1.000,0.981,0.792,0.588, 9, 3
gcn_candidates_frequency_jp,0.751,0.601,1.000,0.981,0.792,0.588, 9, 3
inductive_reduced,0.665,0.987,0.501,0.892,0.749,0.615,12,12
alpha,0.449,0.657,0.341,0.991,0.747,1.000, 3, 0
