{
  "easy_soundness": true,
  "filename": "/mnt/c/Users/s140511/tue/thesis/thesis_data/evaluation_data/BPI_2017_O/predictions/data_gcn_complexep100_14_cc.json",
  "full": {
    "fitness": {
      "average_trace_fitness": 0.7874477147404648,
      "log_fitness": 0.77628474952588,
      "perc_fit_traces": 0.7077342981370403,
      "percentage_of_fitting_traces": 0.7077342981370403
    },
    "fitness_alignments": {
      "averageFitness": 0.11162948152383664,
      "average_trace_fitness": 0.11162948152383664,
      "percFitTraces": 0.7077342981370403,
      "percentage_of_fitting_traces": 0.7077342981370403
    },
    "fscore": 0.8721750226973095,
    "generalization": 0.990867248777433,
    "metricsAverageWeight": 0.8850058367236395,
    "precision": 0.9950935708134675,
    "precision_alignments": 0.9950935708134675,
    "simplicity": 0.7777777777777779
  },
  "s_components": [
    [
      "short_circuited_transition",
      "sink",
      "O_Returned",
      "p2",
      "p0",
      "source",
      "p1",
      "|",
      "O_Sent (online only)",
      "p5",
      "p3",
      "p6",
      "st0",
      "O_Cancelled",
      "O_Accepted",
      "O_Refused",
      "O_Create Offer",
      "O_Created",
      "O_Sent (mail and online)",
      "st1",
      ">",
      "p4"
    ]
  ],
  "sound": true,
  "top 30": {
    "fitness": {
      "average_trace_fitness": 0.7918175911519587,
      "log_fitness": 0.7845061364904233,
      "perc_fit_traces": 0.7754364003060018,
      "percentage_of_fitting_traces": 0.7754364003060018
    },
    "fitness_alignments": {
      "averageFitness": 0.19439228504536413,
      "average_trace_fitness": 0.19439228504536413,
      "percFitTraces": 0.7754364003060018,
      "percentage_of_fitting_traces": 0.7754364003060018
    },
    "fscore": 0.8623754690018768,
    "generalization": 0.9889253627637804,
    "metricsAverageWeight": 0.8771540072755479,
    "precision": 0.9574067520702102,
    "precision_alignments": 0.9574067520702102,
    "simplicity": 0.7777777777777779
  },
  "uncovered_places_s_component": []
}