{
  "easy_soundness": true,
  "filename": "/mnt/c/Users/s140511/tue/thesis/thesis_data/evaluation_data/BPI_2017_O/predictions/data_gcn_simpleep144_15_cc.json",
  "full": {
    "entropia_precision": 0.7201717428186938,
    "entropia_recall": 0.6247443513893,
    "fitness": {
      "average_trace_fitness": 0.9082437756807064,
      "log_fitness": 0.9057155660852558,
      "perc_fit_traces": 38.82382811260275,
      "percentage_of_fitting_traces": 38.82382811260275
    },
    "fitness_alignments": {
      "averageFitness": 0.6872401536069059,
      "average_trace_fitness": 0.6872401536069059,
      "percFitTraces": 38.82382811260275,
      "percentage_of_fitting_traces": 38.82382811260275
    },
    "fscore": 0.8966974381705556,
    "generalization": 0.91299569332631,
    "metricsAverageWeight": 0.8384068020192468,
    "precision": 0.8878571251360097,
    "precision_alignments": 0.8878571251360097,
    "simplicity": 0.6470588235294118
  },
  "sound": false,
  "top 30": {
    "fitness": {
      "average_trace_fitness": 0.9136863615139378,
      "log_fitness": 0.9151973097304387,
      "perc_fit_traces": 42.34647750191251,
      "percentage_of_fitting_traces": 42.34647750191251
    },
    "fitness_alignments": {
      "averageFitness": 0.7555375895403018,
      "average_trace_fitness": 0.7555375895403018,
      "percFitTraces": 42.34647750191251,
      "percentage_of_fitting_traces": 42.34647750191251
    },
    "fscore": 0.8920660565509247,
    "generalization": 0.910341683695514,
    "metricsAverageWeight": 0.8356682657000871,
    "precision": 0.8700752458449841,
    "precision_alignments": 0.8700752458449841,
    "simplicity": 0.6470588235294118
  }
}