{
  "L": {
    "fitness": 0.84159971820682,
    "fitness_alignments": 0.834729981707934,
    "fitness_alignments_percFitTraces": 0.7077342981370403,
    "fitness_entropy_exact": 0.0,
    "fitness_entropy_partial": 0.830067892437076,
    "fitness_percFitTraces": 0.7077342981370403,
    "fscore": 0.8716223376642078,
    "fscore_alignments": 0.8679234744100507,
    "fscore_entropy_exact": 0,
    "fscore_entropy_partial": 0.8023360375051226,
    "generalization": 0.9901735608473313,
    "metricsAverageWeight": 0.8624813000314451,
    "precision": 0.9038662067859148,
    "precision_alignments": 0.9038662067859148,
    "precision_entropy_exact": 0.0,
    "precision_entropy_partial": 0.7763972718817769,
    "simplicity": 0.7142857142857143
  },
  "L_30": {
    "fitness": 0.8538998951844634,
    "fitness_alignments": 0.8450701651606353,
    "fitness_alignments_percFitTraces": 0.7754364003060018,
    "fitness_entropy_exact": 0.0,
    "fitness_entropy_partial": 0.936669809409978,
    "fitness_percFitTraces": 0.7754364003060018,
    "fscore": 0.8586859039202899,
    "fscore_alignments": 0.8541983388832561,
    "fscore_entropy_exact": 0,
    "fscore_entropy_partial": 0.8123692739425923,
    "generalization": 0.988084478441706,
    "metricsAverageWeight": 0.8549489882500059,
    "precision": 0.8635258650881398,
    "precision_alignments": 0.8635258650881398,
    "precision_entropy_exact": 0.0,
    "precision_entropy_partial": 0.717194195547741,
    "simplicity": 0.7142857142857143
  },
  "args": {
    "beam_length": 20,
    "beam_width": -50,
    "config": "config.json",
    "conformanceChecking": true,
    "dataDirectory": "/mnt/c/Users/s140511/tue/thesis/APDGnn_data/evaluation_data/BPI_2017_O/",
    "export": "complex",
    "import_petrinet": null,
    "length_normalization": 0,
    "logFilename": "data",
    "miner": "gnn",
    "model_filename": "/mnt/c/Users/s140511/tue/thesis/git_clean/project/ml_models/models/complex_ws_frequency_100_",
    "number_of_petrinets": 20,
    "prom": false,
    "timeout": null,
    "top_x_traces": 30,
    "visualize": false
  },
  "easy_soundness": true,
  "log_filename": "/mnt/c/Users/s140511/tue/thesis/APDGnn_data/evaluation_data/BPI_2017_O/data",
  "petrinet_filename": "/mnt/c/Users/s140511/tue/thesis/APDGnn_data/evaluation_data/BPI_2017_O/predictions/data_gcn_complex_9",
  "sound": true,
  "soundness_info": {
    "s_components": [
      [
        "sink",
        "short_circuited_transition",
        "p3",
        "st1",
        "O_Sent (online only)",
        "O_Refused",
        "st0",
        "p2",
        "O_Sent (mail and online)",
        "p5",
        "p0",
        "source",
        "O_Accepted",
        "O_Created",
        "|",
        "p1",
        ">",
        "O_Create Offer",
        "O_Returned",
        "O_Cancelled",
        "p4"
      ]
    ],
    "uncovered_places_s_component": []
  }
}