{
  "L": {
    "fitness": 0.8555428228850843,
    "fitness_alignments": 0.8425984291973575,
    "fitness_alignments_percFitTraces": 23.250499857183662,
    "fitness_entropy_exact": 0.0,
    "fitness_entropy_partial": 0.910534390112466,
    "fitness_percFitTraces": 23.250499857183662,
    "fscore": 0.842474526792237,
    "fscore_alignments": 0.8361499673994648,
    "fscore_entropy_exact": 0,
    "fscore_entropy_partial": 0.7983652729226012,
    "generalization": 0.9915768256737196,
    "metricsAverageWeight": 0.8478012049578358,
    "precision": 0.8297994569868251,
    "precision_alignments": 0.8297994569868251,
    "precision_entropy_exact": 0.0,
    "precision_entropy_partial": 0.7108013531556766,
    "simplicity": 0.7142857142857143
  },
  "L_30": {
    "fitness": 0.8568616088674927,
    "fitness_alignments": 0.8474562697947481,
    "fitness_alignments_percFitTraces": 25.46769594547604,
    "fitness_entropy_exact": 0.0,
    "fitness_entropy_partial": 0.950294778168368,
    "fitness_percFitTraces": 25.46769594547604,
    "fscore": 0.8066983835559428,
    "fscore_alignments": 0.8025058564766197,
    "fscore_entropy_exact": 0,
    "fscore_entropy_partial": 0.7410184648887762,
    "generalization": 0.9897742167586646,
    "metricsAverageWeight": 0.8307513191236656,
    "precision": 0.7620837365827908,
    "precision_alignments": 0.7620837365827908,
    "precision_entropy_exact": 0.0,
    "precision_entropy_partial": 0.6072814188829294,
    "simplicity": 0.7142857142857143
  },
  "args": {
    "beam_length": 20,
    "beam_width": -50,
    "config": "config.json",
    "conformanceChecking": true,
    "dataDirectory": "/mnt/c/Users/s140511/tue/thesis/APDGnn_data/evaluation_data/BPI_2017_O/",
    "export": "complex",
    "import_petrinet": null,
    "length_normalization": 0,
    "logFilename": "data",
    "miner": "gnn",
    "model_filename": "/mnt/c/Users/s140511/tue/thesis/git_clean/project/ml_models/models/complex_ws_frequency_100_",
    "number_of_petrinets": 20,
    "prom": false,
    "timeout": null,
    "top_x_traces": 30,
    "visualize": false
  },
  "easy_soundness": true,
  "log_filename": "/mnt/c/Users/s140511/tue/thesis/APDGnn_data/evaluation_data/BPI_2017_O/data",
  "petrinet_filename": "/mnt/c/Users/s140511/tue/thesis/APDGnn_data/evaluation_data/BPI_2017_O/predictions/data_gcn_complex_8",
  "sound": true,
  "soundness_info": {
    "s_components": [
      [
        "p5",
        "p2",
        "p4",
        "O_Returned",
        "O_Create Offer",
        "O_Sent (online only)",
        "p1",
        "short_circuited_transition",
        "O_Refused",
        "O_Accepted",
        ">",
        "st1",
        "st0",
        "O_Sent (mail and online)",
        "p0",
        "source",
        "|",
        "O_Created",
        "O_Cancelled",
        "p3",
        "sink"
      ]
    ],
    "uncovered_places_s_component": []
  }
}