{
  "easy_soundness": true,
  "filename": "/home/dominique/TUe/thesis/git_data/evaluation_data/BPI_2017_O/predictions/data_inductive_reduced_cc.txt",
  "full": {
    "fitness                         ": "0.98799",
    "fitness_alignments              ": "0.98511",
    "fitness_alignments_percFitTraces": "87.85109",
    "fscore                          ": "0.66524",
    "fscore_alignments               ": "0.66459",
    "generalization                  ": "0.89700",
    "metricsAverageWeight            ": "0.75401",
    "precision                       ": "0.50144",
    "precision_alignments            ": "0.50144",
    "simplicity                      ": "0.62963"
  },
  "s_components": [
    [
      "O_Created",
      "n3",
      "n7",
      "n5",
      "O_Refused",
      "n10",
      "n26",
      "n22",
      "O_Create Offer",
      "n8",
      "O_Cancelled",
      "n17",
      "n19",
      "n28",
      "n12",
      "n11",
      "n14",
      "n6",
      "short_circuited_transition",
      "start",
      "source",
      "n32",
      "n29",
      "n30"
    ],
    [
      "O_Created",
      "n7",
      "O_Returned",
      "n9",
      "n5",
      "O_Refused",
      "n10",
      "n2",
      "O_Sent (mail and online)",
      "n26",
      "n21",
      "n22",
      "O_Create Offer",
      "n13",
      "n8",
      "n16",
      "n19",
      "n17",
      "n12",
      "n14",
      "n6",
      "n1",
      "short_circuited_transition",
      "start",
      "O_Sent (online only)",
      "source",
      "n32",
      "n4",
      "n29",
      "O_Accepted",
      "n30"
    ]
  ],
  "sound": true,
  "uncovered_places_s_component": []
}