{
  "easy_soundness": false,
  "filename": "/mnt/c/Users/s140511/tue/thesis/thesis_data/evaluation_data/BPI_2017_O/predictions/data_gcn_blahblah_repro_15_cc.json",
  "full": {
    "fitness": {
      "average_trace_fitness": 0.6432943373681506,
      "log_fitness": 0.6648763214781004,
      "perc_fit_traces": 0.0,
      "percentage_of_fitting_traces": 0.0
    },
    "fscore": 0.7966582925566066,
    "generalization": 0.911848443315279,
    "metricsAverageWeight": 0.8092463048908647,
    "precision": 0.9935937881034129,
    "simplicity": 0.6666666666666666
  },
  "s_components": [],
  "sound": false,
  "top 30": {
    "fitness": {
      "average_trace_fitness": 0.6347198934894362,
      "log_fitness": 0.6500752645722786,
      "perc_fit_traces": 0.0,
      "percentage_of_fitting_traces": 0.0
    },
    "fscore": 0.7663803991335464,
    "generalization": 0.7937963883452346,
    "metricsAverageWeight": 0.7609770398419918,
    "precision": 0.9333698397837876,
    "simplicity": 0.6666666666666666
  },
  "uncovered_places_s_component": [
    "p6",
    "p0",
    "p4",
    "source",
    "p5",
    "sink",
    "p9",
    "p7",
    "p2",
    "p1",
    "p3",
    "p8"
  ]
}