{
  "easy_soundness": true,
  "filename": "/mnt/c/Users/s140511/tue/thesis/thesis_data/evaluation_data/BPI_2017_O/predictions/data_gcn_complexep100_19_cc.json",
  "full": {
    "fitness": {
      "average_trace_fitness": 0.7887104226449745,
      "log_fitness": 0.7906811866417125,
      "perc_fit_traces": 0.371322479291631,
      "percentage_of_fitting_traces": 0.371322479291631
    },
    "fitness_alignments": {
      "averageFitness": 0.4724443809705164,
      "average_trace_fitness": 0.4724443809705164,
      "percFitTraces": 0.371322479291631,
      "percentage_of_fitting_traces": 0.371322479291631
    },
    "fscore": 0.8340627093252677,
    "generalization": 0.9909149005189336,
    "metricsAverageWeight": 0.8604636954910685,
    "precision": 0.8824809170258501,
    "precision_alignments": 0.8824809170258501,
    "simplicity": 0.7777777777777779
  },
  "s_components": [
    [
      "st1",
      "O_Cancelled",
      "O_Refused",
      "sink",
      "p0",
      "p3",
      "|",
      "p1",
      "p4",
      "short_circuited_transition",
      "source",
      "O_Sent (online only)",
      "O_Accepted",
      ">",
      "O_Returned",
      "p5",
      "p6",
      "O_Sent (mail and online)",
      "O_Created",
      "O_Create Offer",
      "p2",
      "st0"
    ]
  ],
  "sound": true,
  "top 30": {
    "fitness": {
      "average_trace_fitness": 0.7945464925621131,
      "log_fitness": 0.8023574075605597,
      "perc_fit_traces": 0.40684331316503236,
      "percentage_of_fitting_traces": 0.40684331316503236
    },
    "fitness_alignments": {
      "averageFitness": 0.5472651088392795,
      "average_trace_fitness": 0.5472651088392795,
      "percFitTraces": 0.40684331316503236,
      "percentage_of_fitting_traces": 0.40684331316503236
    },
    "fscore": 0.8230930862467752,
    "generalization": 0.9889840453428286,
    "metricsAverageWeight": 0.8535120477888851,
    "precision": 0.8449289604743742,
    "precision_alignments": 0.8449289604743742,
    "simplicity": 0.7777777777777779
  },
  "uncovered_places_s_component": []
}