{
  "easy_soundness": true,
  "filename": "/mnt/c/Users/s140511/tue/thesis/thesis_data/evaluation_data/BPI_2017_O/predictions/data_gcn_complexep100_7_cc.json",
  "full": {
    "entropia_precision": 0.7249209176175823,
    "entropia_recall": 0.713316592881339,
    "fitness": {
      "average_trace_fitness": 0.9076549321026355,
      "log_fitness": 0.8947735892968343,
      "perc_fit_traces": 23.317147481671903,
      "percentage_of_fitting_traces": 23.317147481671903
    },
    "fitness_alignments": {
      "averageFitness": 0.5555767135315682,
      "average_trace_fitness": 0.5555767135315682,
      "percFitTraces": 23.317147481671903,
      "percentage_of_fitting_traces": 23.317147481671903
    },
    "fscore": 0.83280213180526,
    "generalization": 0.9890768309502157,
    "metricsAverageWeight": 0.8350321577777533,
    "precision": 0.7788588560252538,
    "precision_alignments": 0.7788588560252538,
    "simplicity": 0.6774193548387096
  },
  "sound": true,
  "top 30": {
    "fitness": {
      "average_trace_fitness": 0.9137102786779303,
      "log_fitness": 0.9043094159150958,
      "perc_fit_traces": 25.46769594547604,
      "percentage_of_fitting_traces": 25.46769594547604
    },
    "fitness_alignments": {
      "averageFitness": 0.6420822032130008,
      "average_trace_fitness": 0.6420822032130008,
      "percFitTraces": 25.46769594547604,
      "percentage_of_fitting_traces": 25.46769594547604
    },
    "fscore": 0.7716630204232608,
    "generalization": 0.9855808356388178,
    "metricsAverageWeight": 0.8100655578450068,
    "precision": 0.672952624987404,
    "precision_alignments": 0.672952624987404,
    "simplicity": 0.6774193548387096
  }
}