{
  "easy_soundness": true,
  "filename": "/mnt/c/Users/s140511/tue/thesis/thesis_data/evaluation_data/BPI_2017_O/predictions/data_gcn_complexep100_15_cc.json",
  "full": {
    "fitness": {
      "average_trace_fitness": 0.8982901612548098,
      "log_fitness": 0.8847754736453881,
      "perc_fit_traces": 22.872829985083627,
      "percentage_of_fitting_traces": 22.872829985083627
    },
    "fitness_alignments": {
      "averageFitness": 0.47930220995067624,
      "average_trace_fitness": 0.47930220995067624,
      "percFitTraces": 22.872829985083627,
      "percentage_of_fitting_traces": 22.872829985083627
    },
    "fscore": 0.8076890806087718,
    "generalization": 0.9890768309502157,
    "metricsAverageWeight": 0.8159674172137378,
    "precision": 0.7429585407299357,
    "precision_alignments": 0.7429585407299357,
    "simplicity": 0.6470588235294118
  },
  "sound": false,
  "top 30": {
    "fitness": {
      "average_trace_fitness": 0.904270200698897,
      "log_fitness": 0.8938568640587224,
      "perc_fit_traces": 25.060852632311008,
      "percentage_of_fitting_traces": 25.060852632311008
    },
    "fitness_alignments": {
      "averageFitness": 0.5674131256231043,
      "average_trace_fitness": 0.5674131256231043,
      "percFitTraces": 25.060852632311008,
      "percentage_of_fitting_traces": 25.060852632311008
    },
    "fscore": 0.7938606691244655,
    "generalization": 0.9855808356388178,
    "metricsAverageWeight": 0.8101207912995257,
    "precision": 0.7139866419711511,
    "precision_alignments": 0.7139866419711511,
    "simplicity": 0.6470588235294118
  }
}