{
  "L": {
    "fitness": 0.8387861180746845,
    "fitness_alignments": 0.6909206353415286,
    "fitness_alignments_percFitTraces": 1.1583991875337205,
    "fitness_entropy_exact": 0.0,
    "fitness_entropy_partial": 0.647544139750262,
    "fitness_percFitTraces": 1.1583991875337205,
    "fscore": 0.912207414306484,
    "fscore_alignments": 0.8171172910500563,
    "fscore_entropy_exact": 0,
    "fscore_entropy_partial": 0.7214436537430075,
    "generalization": 0.9914905750628111,
    "metricsAverageWeight": 0.9158313294772165,
    "precision": 0.9997152914380371,
    "precision_alignments": 0.9997152914380371,
    "precision_entropy_exact": 0.0,
    "precision_entropy_partial": 0.8143833118359523,
    "simplicity": 0.8333333333333333
  },
  "L_30": {
    "fitness": 0.8477465124364699,
    "fitness_alignments": 0.708460052767003,
    "fitness_alignments_percFitTraces": 1.2692120453439044,
    "fitness_entropy_exact": 0.0,
    "fitness_entropy_partial": 0.780113558113475,
    "fitness_percFitTraces": 1.2692120453439044,
    "fscore": 0.9176004465229561,
    "fscore_alignments": 0.8293551278762286,
    "fscore_entropy_exact": 0,
    "fscore_entropy_partial": 0.7914647563919147,
    "generalization": 0.9898805427276475,
    "metricsAverageWeight": 0.9177400971243628,
    "precision": 1.0,
    "precision_alignments": 1.0,
    "precision_entropy_exact": 0.0,
    "precision_entropy_partial": 0.8031511680186877,
    "simplicity": 0.8333333333333333
  },
  "args": {
    "beam_length": 20,
    "beam_width": -50,
    "config": "config.json",
    "conformanceChecking": true,
    "dataDirectory": "/mnt/c/Users/s140511/tue/thesis/APDGnn_data/evaluation_data/BPI_2017_O/",
    "export": "simple",
    "import_petrinet": null,
    "length_normalization": 0,
    "logFilename": "data",
    "miner": "gnn",
    "model_filename": "/mnt/c/Users/s140511/tue/thesis/git_clean/project/ml_models/models/simple_ws2_frequency_144_",
    "number_of_petrinets": 20,
    "prom": false,
    "timeout": null,
    "top_x_traces": 30,
    "visualize": false
  },
  "easy_soundness": true,
  "log_filename": "/mnt/c/Users/s140511/tue/thesis/APDGnn_data/evaluation_data/BPI_2017_O/data",
  "petrinet_filename": "/mnt/c/Users/s140511/tue/thesis/APDGnn_data/evaluation_data/BPI_2017_O/predictions/data_gcn_simple_13",
  "sound": true,
  "soundness_info": {
    "s_components": [
      [
        "source",
        "|",
        "p6",
        "O_Refused",
        "O_Create Offer",
        "p1",
        "p5",
        "short_circuited_transition",
        "st0",
        "O_Sent (mail and online)",
        "p2",
        "O_Cancelled",
        "sink",
        ">",
        "O_Sent (online only)",
        "p3",
        "p4",
        "p0",
        "O_Created",
        "O_Returned",
        "O_Accepted"
      ]
    ],
    "uncovered_places_s_component": []
  }
}