{
  "easy_soundness": true,
  "filename": "/mnt/c/Users/s140511/tue/thesis/thesis_data/evaluation_data/BPI_2017_O/predictions/data_gcn_complexep100_6_cc.json",
  "full": {
    "fitness": {
      "average_trace_fitness": 0.8062750456712307,
      "log_fitness": 0.790790074641405,
      "perc_fit_traces": 0.371322479291631,
      "percentage_of_fitting_traces": 0.371322479291631
    },
    "fitness_alignments": {
      "averageFitness": 0.24446189977466756,
      "average_trace_fitness": 0.24446189977466756,
      "percFitTraces": 0.371322479291631,
      "percentage_of_fitting_traces": 0.371322479291631
    },
    "fscore": 0.8820492542155862,
    "generalization": 0.9909255437077389,
    "metricsAverageWeight": 0.8732801721540706,
    "precision": 0.9971193559814238,
    "precision_alignments": 0.9971193559814238,
    "simplicity": 0.7142857142857143
  },
  "s_components": [
    [
      "p6",
      "O_Cancelled"
    ],
    [
      "st0",
      "p4",
      "O_Created",
      "short_circuited_transition",
      "p5",
      "O_Refused",
      "p3",
      "O_Sent (mail and online)",
      ">",
      "O_Sent (online only)",
      "p0",
      "O_Accepted",
      "O_Cancelled",
      "p2",
      "sink",
      "O_Returned",
      "O_Create Offer",
      "p1",
      "source",
      "|"
    ]
  ],
  "sound": false,
  "top 30": {
    "fitness": {
      "average_trace_fitness": 0.8123215403974818,
      "log_fitness": 0.8012579807892692,
      "perc_fit_traces": 0.40684331316503236,
      "percentage_of_fitting_traces": 0.40684331316503236
    },
    "fitness_alignments": {
      "averageFitness": 0.3013335419709298,
      "average_trace_fitness": 0.3013335419709298,
      "percFitTraces": 0.40684331316503236,
      "percentage_of_fitting_traces": 0.40684331316503236
    },
    "fscore": 0.874875564064411,
    "generalization": 0.9888442955724172,
    "metricsAverageWeight": 0.8669443414524733,
    "precision": 0.9633893751624925,
    "precision_alignments": 0.9633893751624925,
    "simplicity": 0.7142857142857143
  },
  "uncovered_places_s_component": []
}