{
  "easy_soundness": false,
  "filename": "/mnt/c/Users/s140511/tue/thesis/thesis_data/evaluation_data/BPI_2017_O/predictions/data_gcn_simpleep144_5_cc.json",
  "full": {
    "entropia_precision": "nan",
    "entropia_recall": "nan",
    "fitness": {
      "average_trace_fitness": 0.7140254344446979,
      "log_fitness": 0.7198264488355788,
      "perc_fit_traces": 0.0,
      "percentage_of_fitting_traces": 0.0
    },
    "fscore": 0.784281704145756,
    "generalization": 0.9004917494898023,
    "metricsAverageWeight": 0.7990047805319725,
    "precision": 0.8614152095167946,
    "simplicity": 0.7142857142857143
  },
  "sound": false,
  "top 30": {
    "fitness": {
      "average_trace_fitness": 0.7135230216881635,
      "log_fitness": 0.7194511271496036,
      "perc_fit_traces": 0.0,
      "percentage_of_fitting_traces": 0.0
    },
    "fscore": 0.782661919382643,
    "generalization": 0.8988314343081298,
    "metricsAverageWeight": 0.797654561584042,
    "precision": 0.85804997059272,
    "simplicity": 0.7142857142857143
  }
}