{
  "easy_soundness": true,
  "filename": "/mnt/c/Users/s140511/tue/thesis/thesis_data/evaluation_data/BPI_2017_A/predictions/data_gcn_simpleep144_9_cca.json",
  "full": {
    "entropia_precision": 0.9384726253097234,
    "entropia_recall": 0.805043590964967,
    "fitness": {
      "average_trace_fitness": 0.9079713792549694,
      "log_fitness": 0.9177446301055622,
      "perc_fit_traces": 24.64692627503253,
      "percentage_of_fitting_traces": 24.64692627503253
    },
    "fitness_alignments": {
      "averageFitness": 0.9222912909366384,
      "average_trace_fitness": 0.9222912909366384,
      "log_fitness": 0.927203820870329,
      "percFitTraces": 24.64692627503253,
      "percentage_of_fitting_traces": 24.64692627503253
    },
    "fscore": 0.9263495571079404,
    "generalization": 0.9874055436875651,
    "metricsAverageWeight": 0.9116797901387497,
    "precision": 0.9351173738586458,
    "precision_alignments": 0.9351173738586458,
    "simplicity": 0.8064516129032256
  },
  "sound": true,
  "top 30": {
    "fitness": {
      "average_trace_fitness": 0.9075957163144808,
      "log_fitness": 0.9171191625072617,
      "perc_fit_traces": 24.80731548007838,
      "percentage_of_fitting_traces": 24.80731548007838
    },
    "fitness_alignments": {
      "averageFitness": 0.9221611379041281,
      "average_trace_fitness": 0.9221611379041281,
      "log_fitness": 0.9270296664279208,
      "percFitTraces": 24.80731548007838,
      "percentage_of_fitting_traces": 24.80731548007838
    },
    "fscore": 0.8830627156611259,
    "generalization": 0.9847615792538529,
    "metricsAverageWeight": 0.8899443443229312,
    "precision": 0.851445022627385,
    "precision_alignments": 0.851445022627385,
    "simplicity": 0.8064516129032256
  }
}