{
  "easy_soundness": false,
  "filename": "/mnt/c/Users/s140511/tue/thesis/thesis_data/evaluation_data/BPI_2017_A/predictions/data_gcn_complexep100_14_cc.json",
  "full": {
    "fitness": {
      "average_trace_fitness": 0.7710155778043162,
      "log_fitness": 0.7815271724363229,
      "perc_fit_traces": 0.0,
      "percentage_of_fitting_traces": 0.0
    },
    "fscore": 0.877224771210119,
    "generalization": 0.9099522161124777,
    "metricsAverageWeight": 0.8416959665337018,
    "precision": 0.9996288019103308,
    "simplicity": 0.6756756756756757
  },
  "s_components": [],
  "sound": false,
  "top 30": {
    "fitness": {
      "average_trace_fitness": 0.7700033832632962,
      "log_fitness": 0.7801320891342559,
      "perc_fit_traces": 0.0,
      "percentage_of_fitting_traces": 0.0
    },
    "fscore": 0.8696228286216833,
    "generalization": 0.9097932909885743,
    "metricsAverageWeight": 0.8369765947030618,
    "precision": 0.982305323013742,
    "simplicity": 0.6756756756756757
  },
  "uncovered_places_s_component": [
    "p0",
    "source",
    "p7",
    "p2",
    "p1",
    "p3",
    "p9",
    "p4",
    "p5",
    "p6",
    "p8",
    "p10",
    "sink"
  ]
}