{
  "easy_soundness": true,
  "filename": "/mnt/c/Users/s140511/tue/thesis/thesis_data/evaluation_data/BPI_2017_A/predictions/data_gcn_blahblah_repro_7_cc.json",
  "full": {
    "fitness": {
      "average_trace_fitness": 0.8975825867863506,
      "log_fitness": 0.895798838535894,
      "perc_fit_traces": 14.88780983211146,
      "percentage_of_fitting_traces": 14.88780983211146
    },
    "fitness_alignments": {
      "averageFitness": 0.8520412064422925,
      "average_trace_fitness": 0.8520412064422925,
      "log_fitness": 0.8382799004777625,
      "percFitTraces": 14.88780983211146,
      "percentage_of_fitting_traces": 14.88780983211146
    },
    "fscore": 0.9450357499192374,
    "generalization": 0.992608934827425,
    "metricsAverageWeight": 0.9114958827347692,
    "precision": 1.0,
    "precision_alignments": 1.0,
    "simplicity": 0.7575757575757577
  },
  "s_components": [
    [
      "source",
      "A_Create Application",
      "p2",
      "A_Denied",
      "st0",
      "sink",
      "p7",
      ">",
      "p9",
      "A_Accepted",
      "A_Validating",
      "p1",
      "p3",
      "|",
      "short_circuited_transition",
      "A_Complete",
      "A_Incomplete",
      "A_Submitted",
      "p4",
      "p6",
      "p5",
      "p0",
      "A_Cancelled",
      "A_Concept",
      "A_Pending"
    ]
  ],
  "sound": false,
  "top 30": {
    "fitness": {
      "average_trace_fitness": 0.900296594145102,
      "log_fitness": 0.8994212485657457,
      "perc_fit_traces": 15.19921619856303,
      "percentage_of_fitting_traces": 15.19921619856303
    },
    "fitness_alignments": {
      "averageFitness": 0.8584596719101705,
      "average_trace_fitness": 0.8584596719101705,
      "log_fitness": 0.8470401699154213,
      "percFitTraces": 15.19921619856303,
      "percentage_of_fitting_traces": 15.19921619856303
    },
    "fscore": 0.9218264459655283,
    "generalization": 0.9924418412200089,
    "metricsAverageWeight": 0.8987038163436438,
    "precision": 0.9453764180130629,
    "precision_alignments": 0.9453764180130629,
    "simplicity": 0.7575757575757577
  },
  "uncovered_places_s_component": [
    "p8"
  ]
}