FULL
{
  "fitness": "0.742",
  "fscore": "0.852",
  "generalization": "0.993",
  "metricsAverageWeight": "0.834",
  "precision": "1.000",
  "simplicity": "0.600"
}
Top 30:
{
  "fitness": "0.743",
  "fscore": "0.853",
  "generalization": "0.992",
  "metricsAverageWeight": "0.834",
  "precision": "1.000",
  "simplicity": "0.600"
}