{
  "easy_soundness": true,
  "filename": "/mnt/c/Users/s140511/tue/thesis/thesis_data/evaluation_data/BPI_2017_A/predictions/data_gcn_simpleep144_12_cc.json",
  "full": {
    "fitness": {
      "average_trace_fitness": 0.8859769824915924,
      "log_fitness": 0.8853117939782342,
      "perc_fit_traces": 18.11545907518487,
      "percentage_of_fitting_traces": 18.11545907518487
    },
    "fitness_alignments": {
      "averageFitness": 0.6881335491447109,
      "average_trace_fitness": 0.6881335491447109,
      "percFitTraces": 18.11545907518487,
      "percentage_of_fitting_traces": 18.11545907518487
    },
    "fscore": 0.9391675125631289,
    "generalization": 0.9922315011424425,
    "metricsAverageWeight": 0.9336715380658834,
    "precision": 1.0,
    "precision_alignments": 1.0,
    "simplicity": 0.8571428571428572
  },
  "sound": true,
  "top 30": {
    "fitness": {
      "average_trace_fitness": 0.8890515534965586,
      "log_fitness": 0.8895671340231434,
      "perc_fit_traces": 18.641410842586545,
      "percentage_of_fitting_traces": 18.641410842586545
    },
    "fitness_alignments": {
      "averageFitness": 0.709575440888335,
      "average_trace_fitness": 0.709575440888335,
      "percFitTraces": 18.641410842586545,
      "percentage_of_fitting_traces": 18.641410842586545
    },
    "fscore": 0.9415565268952736,
    "generalization": 0.9920792307215316,
    "metricsAverageWeight": 0.934697305471883,
    "precision": 1.0,
    "precision_alignments": 1.0,
    "simplicity": 0.8571428571428572
  }
}