{
  "easy_soundness": true,
  "filename": "/mnt/c/Users/s140511/tue/thesis/thesis_data/evaluation_data/BPI_2017_A/predictions/data_gcn_blahblah_repro_0_cc.json",
  "full": {
    "fitness": {
      "average_trace_fitness": 0.904160252716697,
      "log_fitness": 0.8994523485265568,
      "perc_fit_traces": 15.300390364657718,
      "percentage_of_fitting_traces": 15.300390364657718
    },
    "fitness_alignments": {
      "averageFitness": 0.8714635870841304,
      "average_trace_fitness": 0.8714635870841304,
      "log_fitness": 0.8585922043958787,
      "percFitTraces": 15.300390364657718,
      "percentage_of_fitting_traces": 15.300390364657718
    },
    "fscore": 0.9470649255552844,
    "generalization": 0.9926374372141807,
    "metricsAverageWeight": 0.9373081607208986,
    "precision": 1.0,
    "precision_alignments": 1.0,
    "simplicity": 0.8571428571428572
  },
  "s_components": [
    [
      "A_Cancelled",
      "|",
      "A_Submitted",
      "p6",
      "A_Validating",
      "A_Incomplete",
      "p1",
      "p2",
      "A_Denied",
      "A_Pending",
      "p0",
      "st0",
      "A_Concept",
      "short_circuited_transition",
      ">",
      "p7",
      "source",
      "p4",
      "A_Accepted",
      "A_Create Application",
      "sink",
      "A_Complete",
      "p5",
      "p3",
      "p8"
    ]
  ],
  "sound": true,
  "top 30": {
    "fitness": {
      "average_trace_fitness": 0.9061605864215402,
      "log_fitness": 0.902519230133371,
      "perc_fit_traces": 15.509470934030047,
      "percentage_of_fitting_traces": 15.509470934030047
    },
    "fitness_alignments": {
      "averageFitness": 0.8761725441676239,
      "average_trace_fitness": 0.8761725441676239,
      "log_fitness": 0.8653102307072623,
      "percFitTraces": 15.509470934030047,
      "percentage_of_fitting_traces": 15.509470934030047
    },
    "fscore": 0.923450842938271,
    "generalization": 0.9924686767056442,
    "metricsAverageWeight": 0.9243767954987339,
    "precision": 0.9453764180130629,
    "precision_alignments": 0.9453764180130629,
    "simplicity": 0.8571428571428572
  },
  "uncovered_places_s_component": []
}