{
  "easy_soundness": true,
  "filename": "/mnt/c/Users/s140511/tue/thesis/thesis_data/evaluation_data/BPI_2017_A/predictions/data_gcn_simpleep144_6_cc.json",
  "full": {
    "fitness": {
      "average_trace_fitness": 0.8991438218609965,
      "log_fitness": 0.8908982630867021,
      "perc_fit_traces": 29.62645593322543,
      "percentage_of_fitting_traces": 29.62645593322543
    },
    "fitness_alignments": {
      "averageFitness": 0.718741735165616,
      "average_trace_fitness": 0.718741735165616,
      "percFitTraces": 29.62645593322543,
      "percentage_of_fitting_traces": 29.62645593322543
    },
    "fscore": 0.9423016356600802,
    "generalization": 0.9866727251625514,
    "metricsAverageWeight": 0.9336784613480277,
    "precision": 1.0,
    "precision_alignments": 1.0,
    "simplicity": 0.8571428571428572
  },
  "sound": true,
  "top 30": {
    "fitness": {
      "average_trace_fitness": 0.9025165375589101,
      "log_fitness": 0.8954025414522406,
      "perc_fit_traces": 30.486610058785107,
      "percentage_of_fitting_traces": 30.486610058785107
    },
    "fitness_alignments": {
      "averageFitness": 0.7350914435009864,
      "average_trace_fitness": 0.7350914435009864,
      "percFitTraces": 30.486610058785107,
      "percentage_of_fitting_traces": 30.486610058785107
    },
    "fscore": 0.9448151744760152,
    "generalization": 0.9854846890840965,
    "metricsAverageWeight": 0.9345075219197986,
    "precision": 1.0,
    "precision_alignments": 1.0,
    "simplicity": 0.8571428571428572
  }
}