{
  "easy_soundness": true,
  "filename": "/mnt/c/Users/s140511/tue/thesis/thesis_data/evaluation_data/BPI_2017_A/predictions/data_gcn_complexep100_12_cca.json",
  "full": {
    "entropia_precision": 0.7913545643412673,
    "entropia_recall": 0.816528972975255,
    "fitness": {
      "average_trace_fitness": 0.9211834804865522,
      "log_fitness": 0.9289994601546361,
      "perc_fit_traces": 40.404328921895335,
      "percentage_of_fitting_traces": 40.404328921895335
    },
    "fitness_alignments": {
      "averageFitness": 0.9163987297438972,
      "average_trace_fitness": 0.9163987297438972,
      "log_fitness": 0.9248612103712751,
      "percFitTraces": 40.404328921895335,
      "percentage_of_fitting_traces": 40.404328921895335
    },
    "fscore": 0.8990763516700762,
    "generalization": 0.9921178770151085,
    "metricsAverageWeight": 0.8785900748481188,
    "precision": 0.8710207400005081,
    "precision_alignments": 0.8710207400005081,
    "simplicity": 0.7222222222222222
  },
  "sound": false,
  "top 30": {
    "fitness": {
      "average_trace_fitness": 0.9212619335089236,
      "log_fitness": 0.9289537769136194,
      "perc_fit_traces": 41.015676028739385,
      "percentage_of_fitting_traces": 41.015676028739385
    },
    "fitness_alignments": {
      "averageFitness": 0.916527429172442,
      "average_trace_fitness": 0.916527429172442,
      "log_fitness": 0.924863429646724,
      "percFitTraces": 41.015676028739385,
      "percentage_of_fitting_traces": 41.015676028739385
    },
    "fscore": 0.8764504003785291,
    "generalization": 0.9919405956292108,
    "metricsAverageWeight": 0.8681702474387126,
    "precision": 0.8295643949897981,
    "precision_alignments": 0.8295643949897981,
    "simplicity": 0.7222222222222222
  }
}