{
  "easy_soundness": true,
  "filename": "/mnt/c/Users/s140511/tue/thesis/thesis_data/evaluation_data/BPI_2017_A/predictions/data_gcn_simpleep144_11_cc.json",
  "full": {
    "entropia_precision": 0.9999475044216931,
    "entropia_recall": 0.71780539103909,
    "fitness": {
      "average_trace_fitness": 0.8762066559472838,
      "log_fitness": 0.8757401692237268,
      "perc_fit_traces": 13.161318988225586,
      "percentage_of_fitting_traces": 13.161318988225586
    },
    "fitness_alignments": {
      "averageFitness": 0.6667999619156596,
      "average_trace_fitness": 0.6667999619156596,
      "percFitTraces": 13.161318988225586,
      "percentage_of_fitting_traces": 13.161318988225586
    },
    "fscore": 0.9337542412243066,
    "generalization": 0.9922315011424425,
    "metricsAverageWeight": 0.9312786318772567,
    "precision": 1.0,
    "precision_alignments": 1.0,
    "simplicity": 0.8571428571428572
  },
  "sound": true,
  "top 30": {
    "fitness": {
      "average_trace_fitness": 0.8791868101406369,
      "log_fitness": 0.8799883671095329,
      "perc_fit_traces": 13.543435662965383,
      "percentage_of_fitting_traces": 13.543435662965383
    },
    "fitness_alignments": {
      "averageFitness": 0.688517308948419,
      "average_trace_fitness": 0.688517308948419,
      "percFitTraces": 13.543435662965383,
      "percentage_of_fitting_traces": 13.543435662965383
    },
    "fscore": 0.9361636300574646,
    "generalization": 0.9920792307215316,
    "metricsAverageWeight": 0.9323026137434804,
    "precision": 1.0,
    "precision_alignments": 1.0,
    "simplicity": 0.8571428571428572
  }
}