{
  "easy_soundness": true,
  "filename": "/mnt/c/Users/s140511/tue/thesis/thesis_data/evaluation_data/BPI_2017_A/predictions/data_gcn_blahblah_repro_8_cc.json",
  "full": {
    "fitness": {
      "average_trace_fitness": 0.9219194666222529,
      "log_fitness": 0.9274600951804867,
      "perc_fit_traces": 16.668253514868766,
      "percentage_of_fitting_traces": 16.668253514868766
    },
    "fitness_alignments": {
      "averageFitness": 0.9211200365283142,
      "average_trace_fitness": 0.9211200365283142,
      "log_fitness": 0.9246767826244954,
      "percFitTraces": 16.668253514868766,
      "percentage_of_fitting_traces": 16.668253514868766
    },
    "fscore": 0.9622042605317389,
    "generalization": 0.9926145168928081,
    "metricsAverageWeight": 0.9315447775827878,
    "precision": 0.9996528853546307,
    "precision_alignments": 0.9996528853546307,
    "simplicity": 0.8064516129032256
  },
  "s_components": [
    [
      "sink",
      "|",
      "p8",
      "A_Complete",
      "A_Validating",
      "st1",
      ">",
      "A_Accepted",
      "A_Incomplete",
      "A_Submitted",
      "A_Denied",
      "p4",
      "p6",
      "A_Pending",
      "p1",
      "A_Create Application",
      "source",
      "A_Cancelled",
      "p7",
      "short_circuited_transition",
      "st0",
      "p0",
      "p5",
      "p2",
      "A_Concept",
      "p3"
    ]
  ],
  "sound": true,
  "top 30": {
    "fitness": {
      "average_trace_fitness": 0.9212087361361919,
      "log_fitness": 0.9263243843115156,
      "perc_fit_traces": 16.309601567602876,
      "percentage_of_fitting_traces": 16.309601567602876
    },
    "fitness_alignments": {
      "averageFitness": 0.9213758567439709,
      "average_trace_fitness": 0.9213758567439709,
      "log_fitness": 0.9246889038747743,
      "percFitTraces": 16.309601567602876,
      "percentage_of_fitting_traces": 16.309601567602876
    },
    "fscore": 0.9289872558981445,
    "generalization": 0.9924261384470895,
    "metricsAverageWeight": 0.9142169042518188,
    "precision": 0.9316654813454446,
    "precision_alignments": 0.9316654813454446,
    "simplicity": 0.8064516129032256
  },
  "uncovered_places_s_component": []
}