{
  "L": {
    "fitness": 0.7786427476176305,
    "fitness_alignments": 0.8095108524347923,
    "fitness_alignments_percFitTraces": 0.0,
    "fitness_entropy_exact": 0.0,
    "fitness_entropy_partial": 0.898426934827542,
    "fitness_percFitTraces": 0.0,
    "fscore": 0.8755470975389171,
    "fscore_alignments": 0.8947289278155505,
    "fscore_entropy_exact": 0,
    "fscore_entropy_partial": 0.8266170110404599,
    "generalization": 0.9210824487002715,
    "metricsAverageWeight": 0.8794767536249299,
    "precision": 1.0,
    "precision_alignments": 1.0,
    "precision_entropy_exact": 0.0,
    "precision_entropy_partial": 0.7654367909355686,
    "simplicity": 0.8181818181818181
  },
  "L_30": {
    "fitness": 0.7806698386896344,
    "fitness_alignments": 0.8127834814366854,
    "fitness_alignments_percFitTraces": 0.0,
    "fitness_entropy_exact": 0.0,
    "fitness_entropy_partial": 0.906582115123056,
    "fitness_percFitTraces": 0.0,
    "fscore": 0.8470535525541247,
    "fscore_alignments": 0.8656080616018494,
    "fscore_entropy_exact": 0,
    "fscore_entropy_partial": 0.8300520059901637,
    "generalization": 0.9209309149412733,
    "metricsAverageWeight": 0.8613897160113653,
    "precision": 0.9257762922327349,
    "precision_alignments": 0.9257762922327349,
    "precision_entropy_exact": 0.0,
    "precision_entropy_partial": 0.7654368287630874,
    "simplicity": 0.8181818181818181
  },
  "args": {
    "beam_length": 20,
    "beam_width": -50,
    "config": "config.json",
    "conformanceChecking": true,
    "dataDirectory": "/mnt/c/Users/s140511/tue/thesis/APDGnn_data/evaluation_data/BPI_2017_A/",
    "export": "medium",
    "import_petrinet": null,
    "length_normalization": 0,
    "logFilename": "data",
    "miner": "gnn",
    "model_filename": "/mnt/c/Users/s140511/tue/thesis/git_clean/project/ml_models/models/model_candidates_frequency_new_036",
    "number_of_petrinets": 20,
    "prom": false,
    "timeout": null,
    "top_x_traces": 30,
    "visualize": false
  },
  "easy_soundness": true,
  "log_filename": "/mnt/c/Users/s140511/tue/thesis/APDGnn_data/evaluation_data/BPI_2017_A/data",
  "petrinet_filename": "/mnt/c/Users/s140511/tue/thesis/APDGnn_data/evaluation_data/BPI_2017_A/predictions/data_gcn_medium_18",
  "sound": false,
  "soundness_info": {
    "s_components": [
      [
        "A_Complete",
        "sink",
        "short_circuited_transition",
        "p5",
        "A_Cancelled",
        ">",
        "p1",
        "A_Accepted",
        "source",
        "p9",
        "A_Concept",
        "p2",
        "A_Submitted",
        "p0",
        "|",
        "A_Denied",
        "p3",
        "st0",
        "p4",
        "A_Create Application"
      ]
    ],
    "uncovered_places_s_component": [
      "p8",
      "p6",
      "p10",
      "p7"
    ]
  }
}