{
  "L": {
    "fitness": 0.8526399057671432,
    "fitness_alignments": 0.8078435193254567,
    "fitness_alignments_percFitTraces": 7.302675426068742,
    "fitness_entropy_exact": 0.0,
    "fitness_entropy_partial": 0.77328666780314,
    "fitness_percFitTraces": 7.302675426068742,
    "fscore": 0.9204593975471786,
    "fscore_alignments": 0.8937095613528317,
    "fscore_entropy_exact": 0,
    "fscore_entropy_partial": 0.8103095332581327,
    "generalization": 0.9924186343815734,
    "metricsAverageWeight": 0.9128775382629856,
    "precision": 1.0,
    "precision_alignments": 1.0,
    "precision_entropy_exact": 0.0,
    "precision_entropy_partial": 0.8510557722162827,
    "simplicity": 0.8064516129032256
  },
  "L_30": {
    "fitness": 0.8578098953821152,
    "fitness_alignments": 0.8128011529522348,
    "fitness_alignments_percFitTraces": 7.514696276943174,
    "fitness_entropy_exact": 0.0,
    "fitness_entropy_partial": 0.78030593239557,
    "fitness_percFitTraces": 7.514696276943174,
    "fscore": 0.9234635874363027,
    "fscore_alignments": 0.8967350353110142,
    "fscore_entropy_exact": 0,
    "fscore_entropy_partial": 0.8141466921980852,
    "generalization": 0.992267808997128,
    "metricsAverageWeight": 0.9141323293206172,
    "precision": 1.0,
    "precision_alignments": 1.0,
    "precision_entropy_exact": 0.0,
    "precision_entropy_partial": 0.8510557720403241,
    "simplicity": 0.8064516129032256
  },
  "args": {
    "beam_length": 20,
    "beam_width": -50,
    "config": "config.json",
    "conformanceChecking": true,
    "dataDirectory": "/mnt/c/Users/s140511/tue/thesis/APDGnn_data/evaluation_data/BPI_2017_A/",
    "export": "simple",
    "import_petrinet": null,
    "length_normalization": 0,
    "logFilename": "data",
    "miner": "gnn",
    "model_filename": "/mnt/c/Users/s140511/tue/thesis/git_clean/project/ml_models/models/simple_ws2_frequency_144_",
    "number_of_petrinets": 20,
    "prom": false,
    "timeout": null,
    "top_x_traces": 30,
    "visualize": false
  },
  "easy_soundness": true,
  "log_filename": "/mnt/c/Users/s140511/tue/thesis/APDGnn_data/evaluation_data/BPI_2017_A/data",
  "petrinet_filename": "/mnt/c/Users/s140511/tue/thesis/APDGnn_data/evaluation_data/BPI_2017_A/predictions/data_gcn_simple_18",
  "sound": false,
  "soundness_info": {
    "s_components": [],
    "uncovered_places_s_component": [
      "p3",
      "p2",
      "p5",
      "source",
      "p0",
      "p8",
      "p4",
      "p6",
      "p7",
      "p9",
      "sink",
      "p1"
    ]
  }
}