{
  "easy_soundness": false,
  "filename": "/mnt/c/Users/s140511/tue/thesis/thesis_data/evaluation_data/BPI_2017_A/predictions/data_gcn_complexep100_8_cc.json",
  "full": {
    "fitness": {
      "average_trace_fitness": 0.8061795271828137,
      "log_fitness": 0.8166148891722185,
      "perc_fit_traces": 0.0,
      "percentage_of_fitting_traces": 0.0
    },
    "fscore": 0.8989011411776026,
    "generalization": 0.8399558917961333,
    "metricsAverageWeight": 0.8534438351136101,
    "precision": 0.9996288019103308,
    "simplicity": 0.7575757575757577
  },
  "s_components": [],
  "sound": false,
  "top 30": {
    "fitness": {
      "average_trace_fitness": 0.8054340374460652,
      "log_fitness": 0.8155328351118825,
      "perc_fit_traces": 0.0,
      "percentage_of_fitting_traces": 0.0
    },
    "fscore": 0.8911839382228901,
    "generalization": 0.8398091916817609,
    "metricsAverageWeight": 0.8488057768457857,
    "precision": 0.982305323013742,
    "simplicity": 0.7575757575757577
  },
  "uncovered_places_s_component": [
    "p8",
    "p1",
    "p2",
    "p4",
    "p5",
    "p6",
    "p0",
    "p3",
    "sink",
    "p7",
    "p9",
    "source"
  ]
}