{
  "easy_soundness": true,
  "filename": "/mnt/c/Users/s140511/tue/thesis/thesis_data/evaluation_data/BPI_2017_A/predictions/data_gcn_simpleep144_14_cc.json",
  "full": {
    "entropia_precision": 1.0044628859062439,
    "entropia_recall": 0.725663535182239,
    "fitness": {
      "average_trace_fitness": 0.8656941952237788,
      "log_fitness": 0.8633751900310035,
      "perc_fit_traces": 8.15005236599067,
      "percentage_of_fitting_traces": 8.15005236599067
    },
    "fitness_alignments": {
      "averageFitness": 0.6037386143640505,
      "average_trace_fitness": 0.6037386143640505,
      "percFitTraces": 8.15005236599067,
      "percentage_of_fitting_traces": 8.15005236599067
    },
    "fscore": 0.9266788509904315,
    "generalization": 0.9866727251625514,
    "metricsAverageWeight": 0.926797693084103,
    "precision": 1.0,
    "precision_alignments": 1.0,
    "simplicity": 0.8571428571428572
  },
  "sound": true,
  "top 30": {
    "fitness": {
      "average_trace_fitness": 0.8679231345544121,
      "log_fitness": 0.8667413665737573,
      "perc_fit_traces": 8.386675375571523,
      "percentage_of_fitting_traces": 8.386675375571523
    },
    "fitness_alignments": {
      "averageFitness": 0.6217962116262877,
      "average_trace_fitness": 0.6217962116262877,
      "percFitTraces": 8.386675375571523,
      "percentage_of_fitting_traces": 8.386675375571523
    },
    "fscore": 0.928614303077867,
    "generalization": 0.9854846890840965,
    "metricsAverageWeight": 0.9273422282001778,
    "precision": 1.0,
    "precision_alignments": 1.0,
    "simplicity": 0.8571428571428572
  }
}