{
  "easy_soundness": true,
  "filename": "/home/dominique/TUe/thesis/git_data/evaluation_data/BPI_2020_Permit_log/predictions/data_split_cc.txt",
  "full": {
    "fitness                         ": "0.94786",
    "fitness_alignments              ": "0.86571",
    "fitness_alignments_percFitTraces": "35.58386",
    "fscore                          ": "0.89352",
    "fscore_alignments               ": "0.85527",
    "generalization                  ": "0.94827",
    "metricsAverageWeight            ": "0.86387",
    "precision                       ": "0.84508",
    "precision_alignments            ": "0.84508",
    "simplicity                      ": "0.71429"
  },
  "s_components": [
    [
      "n11",
      "n32",
      "Permit APPROVED by BUDGET OWNER",
      "n16",
      "n18",
      "n20",
      "n10",
      "n26",
      "n74",
      "n31",
      "n15",
      "n65",
      "Permit SUBMITTED by EMPLOYEE",
      "n72",
      "Request Payment",
      "Declaration REJECTED by ADMINISTRATION",
      "n12",
      "n30",
      "n64",
      "Payment Handled",
      "n9",
      "n60",
      "n77",
      "n4",
      "n82",
      "n29",
      "Declaration APPROVED by ADMINISTRATION",
      "Permit APPROVED by ADMINISTRATION",
      "n27",
      "n80",
      "n73",
      "Send Reminder",
      "n58",
      "n22",
      "n83",
      "Start trip",
      "n69",
      "n55",
      "Request For Payment FINAL_APPROVED by SUPERVISOR",
      "n66",
      "n28",
      "n2",
      "Request For Payment SUBMITTED by EMPLOYEE",
      "n59",
      "n25",
      "Request For Payment APPROVED by ADMINISTRATION",
      "n23",
      "n63",
      "n61",
      "n53",
      "n17",
      "n71",
      "n70",
      "n54",
      "n6",
      "n21",
      "n5",
      "Declaration SUBMITTED by EMPLOYEE",
      "n14",
      "Declaration APPROVED by BUDGET OWNER",
      "n19",
      "n52",
      "n24",
      "start",
      "Permit FINAL_APPROVED by SUPERVISOR",
      "n33",
      "Declaration FINAL_APPROVED by SUPERVISOR",
      "Declaration REJECTED by EMPLOYEE",
      "n68",
      "n79",
      "source",
      "n62",
      "n78",
      "n81",
      "n67",
      "n56",
      "n7",
      "n57",
      "n3",
      "short_circuited_transition",
      "n76",
      "n8",
      "n75",
      "n1",
      "End trip",
      "n13"
    ]
  ],
  "sound": true,
  "uncovered_places_s_component": []
}