{
  "easy_soundness": true,
  "filename": "/mnt/c/Users/s140511/tue/thesis/thesis_data/evaluation_data/BPI_2020_Permit_log/predictions/data_gcn_blahblah_repro2_tx5_2_cc.json",
  "full": {
    "fitness": {
      "average_trace_fitness": 0.8602121550190911,
      "log_fitness": 0.861160954602548,
      "perc_fit_traces": 0.9341825902335457,
      "percentage_of_fitting_traces": 0.9341825902335457
    },
    "fitness_alignments": {
      "averageFitness": 0.5664894141298236,
      "average_trace_fitness": 0.5664894141298236,
      "log_fitness": 0.5294169334960274,
      "percFitTraces": 0.9341825902335457,
      "percentage_of_fitting_traces": 0.9341825902335457
    },
    "fscore": 0.9150488234964937,
    "generalization": 0.9835256201153875,
    "metricsAverageWeight": 0.9117261433157673,
    "precision": 0.9761310420233945,
    "precision_alignments": 1.0,
    "simplicity": 0.826086956521739
  },
  "s_components": [
    [
      "Permit APPROVED by BUDGET OWNER",
      "p1",
      "p6",
      "|",
      "Declaration APPROVED by BUDGET OWNER",
      "p0",
      "p14",
      "Request Payment",
      "st0",
      "Permit SUBMITTED by EMPLOYEE",
      "Start trip",
      "Declaration APPROVED by ADMINISTRATION",
      "p9",
      "st1",
      "End trip",
      ">",
      "p10",
      "p4",
      "st2",
      "Declaration FINAL_APPROVED by SUPERVISOR",
      "sink",
      "Payment Handled",
      "source",
      "p11",
      "p2",
      "p5",
      "p7",
      "Permit APPROVED by ADMINISTRATION",
      "Permit FINAL_APPROVED by SUPERVISOR",
      "Declaration SUBMITTED by EMPLOYEE",
      "Send Reminder",
      "short_circuited_transition",
      "p3",
      "p8"
    ],
    [
      "Declaration REJECTED by ADMINISTRATION",
      "Declaration REJECTED by EMPLOYEE",
      "p15",
      "Declaration SUBMITTED by EMPLOYEE",
      "p12",
      "p13"
    ]
  ],
  "sound": false,
  "top 5": {
    "fitness": {
      "average_trace_fitness": 0.910319333444346,
      "log_fitness": 0.9128636172006745,
      "perc_fit_traces": 0.0,
      "percentage_of_fitting_traces": 0.0
    },
    "fitness_alignments": {
      "averageFitness": 0.6347175237616566,
      "average_trace_fitness": 0.6347175237616566,
      "log_fitness": 0.6237646960620632,
      "percFitTraces": 0.0,
      "percentage_of_fitting_traces": 0.0
    },
    "fscore": 0.9310690360822887,
    "generalization": 0.9694493276183573,
    "metricsAverageWeight": 0.914603820305971,
    "precision": 0.9500153798831129,
    "precision_alignments": 0.9500153798831129,
    "simplicity": 0.826086956521739
  },
  "uncovered_places_s_component": []
}