{
  "alpha": 1.274731799324751,
  "alpha_err": 0.027202501607896286,
  "deviation_distributions": {
    "all": {
      "number_of_samples": 47,
      "scale": 0.03548736927214422,
      "sse": 0.19419696298508585
    },
    "in_valid_trace": {
      "number_of_samples": 9,
      "scale": 0.1853229284211976,
      "sse": 0.9252509024676158
    },
    "in_valid_trace_index": {
      "number_of_samples": 70,
      "scale": 0.023827233654153977,
      "sse": 0.11121122797886081
    }
  },
  "deviation_distributions_geom": {
    "all": {
      "number_of_samples": 47,
      "shape": 0.21271126182792757,
      "sse": 0.0032100544453332863
    },
    "in_valid_trace": {
      "number_of_samples": 9,
      "shape": 0.595597998161577,
      "sse": 0.03054230340313287
    },
    "in_valid_trace_index": {
      "number_of_samples": 32,
      "shape": 0.09609572514432065,
      "sse": 0.1028741577760275
    }
  },
  "frequencies_max": 6840,
  "frequencies_mean": 308.9117647058824,
  "frequencies_median": 13.5,
  "frequencies_min": 1,
  "number_of_main_traces_80.0": 10,
  "number_of_trace_variants": 102
}