{
  "FULL": {
    "fitness": {
      "average_trace_fitness": 1.0,
      "log_fitness": 1.0,
      "perc_fit_traces": 100.0,
      "percentage_of_fitting_traces": 100.0
    },
    "fitness_alignments": {
      "averageFitness": 1.0,
      "average_trace_fitness": 1.0,
      "percFitTraces": 100.0,
      "percentage_of_fitting_traces": 100.0
    },
    "fscore": 0.993440879276724,
    "generalization": 0.9617273909729581,
    "metricsAverageWeight": 0.9387865614656997,
    "precision": 0.986967241986615,
    "precision_alignments": 0.986967241986615,
    "simplicity": 0.8064516129032256
  }
}