{
  "FULL": {
    "fitness": {
      "average_trace_fitness": 1.0,
      "log_fitness": 1.0,
      "perc_fit_traces": 100.0,
      "percentage_of_fitting_traces": 100.0
    },
    "fitness_alignments": {
      "averageFitness": 1.0,
      "average_trace_fitness": 1.0,
      "percFitTraces": 100.0,
      "percentage_of_fitting_traces": 100.0
    },
    "fscore": 0.9833088389670376,
    "generalization": 0.9678470479525138,
    "metricsAverageWeight": 0.9123246206060207,
    "precision": 0.9671657201858544,
    "precision_alignments": 0.9671657201858544,
    "simplicity": 0.7142857142857143
  }
}