{
  "FULL": {
    "fitness": {
      "average_trace_fitness": 1.0,
      "log_fitness": 1.0,
      "perc_fit_traces": 100.0,
      "percentage_of_fitting_traces": 100.0
    },
    "fitness_alignments": {
      "averageFitness": 1.0,
      "average_trace_fitness": 1.0,
      "percFitTraces": 100.0,
      "percentage_of_fitting_traces": 100.0
    },
    "fscore": 0.9634796581696006,
    "generalization": 0.961374841973062,
    "metricsAverageWeight": 0.9393935777800435,
    "precision": 0.9295328024804453,
    "precision_alignments": 0.9295328024804453,
    "simplicity": 0.8666666666666667
  }
}