{
  "FULL": {
    "fitness": {
      "average_trace_fitness": 0.9818358899797657,
      "log_fitness": 0.9806661128313572,
      "perc_fit_traces": 74.4,
      "percentage_of_fitting_traces": 74.4
    },
    "fitness_alignments": {
      "averageFitness": 0.9487999999999892,
      "average_trace_fitness": 0.9487999999999892,
      "percFitTraces": 74.4,
      "percentage_of_fitting_traces": 74.4
    },
    "fscore": 0.98499325932181,
    "generalization": 0.9510237647378282,
    "metricsAverageWeight": 0.9150447685246539,
    "precision": 0.9893587617468215,
    "precision_alignments": 0.9893587617468215,
    "simplicity": 0.7391304347826086
  }
}