{
  "easy_soundness": true,
  "filename": "/mnt/c/Users/s140511/tue/thesis/thesis_data/process_trees_simple_ws2/predictions/1995_gcn_ep144b_cc.json",
  "full": {
    "fitness": {
      "average_trace_fitness": 1.0,
      "log_fitness": 1.0,
      "perc_fit_traces": 100.0,
      "percentage_of_fitting_traces": 100.0
    },
    "fitness_alignments": {
      "averageFitness": 1.0,
      "average_trace_fitness": 1.0,
      "percFitTraces": 100.0,
      "percentage_of_fitting_traces": 100.0
    },
    "fscore": 0.9990071421708356,
    "generalization": 0.9618564764251244,
    "metricsAverageWeight": 0.9415810858119621,
    "precision": 0.9980162539194983,
    "precision_alignments": 0.9980162539194983,
    "simplicity": 0.8064516129032256
  },
  "sound": true,
  "top 30": {
    "fitness": {
      "average_trace_fitness": 1.0,
      "log_fitness": 1.0,
      "perc_fit_traces": 100.0,
      "percentage_of_fitting_traces": 100.0
    },
    "fitness_alignments": {
      "averageFitness": 1.0,
      "average_trace_fitness": 1.0,
      "percFitTraces": 100.0,
      "percentage_of_fitting_traces": 100.0
    },
    "fscore": 0.9990071421708356,
    "generalization": 0.9618564764251244,
    "metricsAverageWeight": 0.9415810858119621,
    "precision": 0.9980162539194983,
    "precision_alignments": 0.9980162539194983,
    "simplicity": 0.8064516129032256
  }
}