{
  "FULL": {
    "fitness": {
      "average_trace_fitness": 0.9366694099872896,
      "log_fitness": 0.9371370633238086,
      "perc_fit_traces": 31.8,
      "percentage_of_fitting_traces": 31.8
    },
    "fitness_alignments": {
      "averageFitness": 0.8338333333333314,
      "average_trace_fitness": 0.8338333333333314,
      "percFitTraces": 31.8,
      "percentage_of_fitting_traces": 31.8
    },
    "fscore": 0.9540732705676108,
    "generalization": 0.9602654644088188,
    "metricsAverageWeight": 0.9117033004538826,
    "precision": 0.9716328963051252,
    "precision_alignments": 0.9716328963051252,
    "simplicity": 0.7777777777777779
  }
}