{
  "FULL": {
    "fitness": {
      "average_trace_fitness": 0.8975649598311483,
      "log_fitness": 0.9032601335010157,
      "perc_fit_traces": 0.0,
      "percentage_of_fitting_traces": 0.0
    },
    "fitness_alignments": {
      "averageFitness": 0.7370000000000051,
      "average_trace_fitness": 0.7370000000000051,
      "percFitTraces": 0.0,
      "percentage_of_fitting_traces": 0.0
    },
    "fscore": 0.9077731085427324,
    "generalization": 0.9606708860663623,
    "metricsAverageWeight": 0.8840656065296094,
    "precision": 0.9123314065510597,
    "precision_alignments": 0.9123314065510597,
    "simplicity": 0.7599999999999999
  }
}