{
  "FULL": {
    "fitness": {
      "average_trace_fitness": 1.0,
      "log_fitness": 1.0,
      "perc_fit_traces": 100.0,
      "percentage_of_fitting_traces": 100.0
    },
    "fitness_alignments": {
      "averageFitness": 1.0,
      "average_trace_fitness": 1.0,
      "percFitTraces": 100.0,
      "percentage_of_fitting_traces": 100.0
    },
    "fscore": 0.9999239138705014,
    "generalization": 0.9705411812635604,
    "metricsAverageWeight": 0.9925972551454701,
    "precision": 0.9998478393183201,
    "precision_alignments": 0.9998478393183201,
    "simplicity": 1.0
  },
  "Top 30": {
    "fitness": {
      "average_trace_fitness": 1.0,
      "log_fitness": 1.0,
      "perc_fit_traces": 100.0,
      "percentage_of_fitting_traces": 100.0
    },
    "fitness_alignments": {
      "averageFitness": 1.0,
      "average_trace_fitness": 1.0,
      "percFitTraces": 100.0,
      "percentage_of_fitting_traces": 100.0
    },
    "fscore": 0.9999239138705014,
    "generalization": 0.9705411812635604,
    "metricsAverageWeight": 0.9925972551454701,
    "precision": 0.9998478393183201,
    "precision_alignments": 0.9998478393183201,
    "simplicity": 1.0
  }
}