{
  "FULL": {
    "fitness": {
      "average_trace_fitness": 0.518,
      "log_fitness": 0.9148710702931826,
      "perc_fit_traces": 51.8,
      "percentage_of_fitting_traces": 51.8
    },
    "fitness_alignments": {
      "averageFitness": 0.45775,
      "average_trace_fitness": 0.45775,
      "percFitTraces": 51.8,
      "percentage_of_fitting_traces": 51.8
    },
    "fscore": 0.955543257701531,
    "generalization": 0.9560625224836253,
    "metricsAverageWeight": 0.967733398194202,
    "precision": 1.0,
    "precision_alignments": 1.0,
    "simplicity": 1.0
  }
}