{
  "FULL": {
    "fitness": {
      "average_trace_fitness": 0.7900103174603084,
      "log_fitness": 0.6896551724137931,
      "perc_fit_traces": 53.4,
      "percentage_of_fitting_traces": 53.4
    },
    "fitness_alignments": {
      "averageFitness": 0.1,
      "average_trace_fitness": 0.1,
      "percFitTraces": 53.4,
      "percentage_of_fitting_traces": 53.4
    },
    "fscore": 0.5797101449275363,
    "generalization": 0.9718625466398052,
    "metricsAverageWeight": 0.7903794297633996,
    "precision": 0.5,
    "precision_alignments": 0.5,
    "simplicity": 1.0
  }
}