{
  "FULL": {
    "fitness": {
      "average_trace_fitness": 1.0,
      "log_fitness": 1.0,
      "perc_fit_traces": 100.0,
      "percentage_of_fitting_traces": 100.0
    },
    "fitness_alignments": {
      "averageFitness": 1.0,
      "average_trace_fitness": 1.0,
      "percFitTraces": 100.0,
      "percentage_of_fitting_traces": 100.0
    },
    "fscore": 0.9999273889050246,
    "generalization": 0.9644247832844116,
    "metricsAverageWeight": 0.952608354448071,
    "precision": 0.999854788354026,
    "precision_alignments": 0.999854788354026,
    "simplicity": 0.8461538461538463
  }
}