{
  "FULL": {
    "fitness": {
      "average_trace_fitness": 1.0,
      "log_fitness": 1.0,
      "perc_fit_traces": 100.0,
      "percentage_of_fitting_traces": 100.0
    },
    "fitness_alignments": {
      "averageFitness": 1.0,
      "average_trace_fitness": 1.0,
      "percFitTraces": 100.0,
      "percentage_of_fitting_traces": 100.0
    },
    "fscore": 0.999644226588133,
    "generalization": 0.9696969187498343,
    "metricsAverageWeight": 0.9659306167726932,
    "precision": 0.9992887062356753,
    "precision_alignments": 0.9992887062356753,
    "simplicity": 0.8947368421052632
  }
}