{
  "FULL": {
    "fitness": {
      "average_trace_fitness": 1.0,
      "log_fitness": 1.0,
      "perc_fit_traces": 100.0,
      "percentage_of_fitting_traces": 100.0
    },
    "fitness_alignments": {
      "averageFitness": 1.0,
      "average_trace_fitness": 1.0,
      "percFitTraces": 100.0,
      "percentage_of_fitting_traces": 100.0
    },
    "fscore": 0.9998317725564964,
    "generalization": 0.9583903891363246,
    "metricsAverageWeight": 0.9561801643768523,
    "precision": 0.999663601704418,
    "precision_alignments": 0.999663601704418,
    "simplicity": 0.8666666666666667
  }
}