{
  "FULL": {
    "fitness": {
      "average_trace_fitness": 1.0,
      "log_fitness": 1.0,
      "perc_fit_traces": 100.0,
      "percentage_of_fitting_traces": 100.0
    },
    "fitness_alignments": {
      "averageFitness": 1.0,
      "average_trace_fitness": 1.0,
      "percFitTraces": 100.0,
      "percentage_of_fitting_traces": 100.0
    },
    "fscore": 0.9246774440308021,
    "generalization": 0.9587899416303427,
    "metricsAverageWeight": 0.9029501093090466,
    "precision": 0.8599070473299819,
    "precision_alignments": 0.8599070473299819,
    "simplicity": 0.7931034482758622
  }
}