{
  "FULL": {
    "fitness": {
      "average_trace_fitness": 1.0,
      "log_fitness": 1.0,
      "perc_fit_traces": 100.0,
      "percentage_of_fitting_traces": 100.0
    },
    "fitness_alignments": {
      "averageFitness": 1.0,
      "average_trace_fitness": 1.0,
      "percFitTraces": 100.0,
      "percentage_of_fitting_traces": 100.0
    },
    "fscore": 0.9988236063002418,
    "generalization": 0.9615542399732082,
    "metricsAverageWeight": 0.9414139575072474,
    "precision": 0.9976499771525557,
    "precision_alignments": 0.9976499771525557,
    "simplicity": 0.8064516129032256
  }
}