{
  "FULL": {
    "fitness": {
      "average_trace_fitness": 0.9615,
      "log_fitness": 0.9630783984655957,
      "perc_fit_traces": 84.6,
      "percentage_of_fitting_traces": 84.6
    },
    "fitness_alignments": {
      "averageFitness": 0.846,
      "average_trace_fitness": 0.846,
      "percFitTraces": 84.6,
      "percentage_of_fitting_traces": 84.6
    },
    "fscore": 0.9811919882755251,
    "generalization": 0.940154979837754,
    "metricsAverageWeight": 0.9105909532714895,
    "precision": 1.0,
    "precision_alignments": 1.0,
    "simplicity": 0.7391304347826086
  }
}