{
  "FULL": {
    "fitness": {
      "average_trace_fitness": 1.0,
      "log_fitness": 1.0,
      "perc_fit_traces": 100.0,
      "percentage_of_fitting_traces": 100.0
    },
    "fitness_alignments": {
      "averageFitness": 1.0,
      "average_trace_fitness": 1.0,
      "percFitTraces": 100.0,
      "percentage_of_fitting_traces": 100.0
    },
    "fscore": 0.9930631360259164,
    "generalization": 0.9628733919994811,
    "metricsAverageWeight": 0.9456071436356235,
    "precision": 0.9862218492096797,
    "precision_alignments": 0.9862218492096797,
    "simplicity": 0.8333333333333333
  }
}