{
  "FULL": {
    "fitness": {
      "average_trace_fitness": 1.0,
      "log_fitness": 1.0,
      "perc_fit_traces": 100.0,
      "percentage_of_fitting_traces": 100.0
    },
    "fitness_alignments": {
      "averageFitness": 1.0,
      "average_trace_fitness": 1.0,
      "percFitTraces": 100.0,
      "percentage_of_fitting_traces": 100.0
    },
    "fscore": 0.9875738439600734,
    "generalization": 0.912071580863639,
    "metricsAverageWeight": 0.9201569363593219,
    "precision": 0.9754527162977867,
    "precision_alignments": 0.9754527162977867,
    "simplicity": 0.7931034482758622
  }
}