{
  "FULL": {
    "fitness": {
      "average_trace_fitness": 1.0,
      "log_fitness": 1.0,
      "perc_fit_traces": 100.0,
      "percentage_of_fitting_traces": 100.0
    },
    "fitness_alignments": {
      "averageFitness": 1.0,
      "average_trace_fitness": 1.0,
      "percFitTraces": 100.0,
      "percentage_of_fitting_traces": 100.0
    },
    "fscore": 0.9992826970590579,
    "generalization": 0.9596427511321994,
    "metricsAverageWeight": 0.9243349020855831,
    "precision": 0.9985664224275247,
    "precision_alignments": 0.9985664224275247,
    "simplicity": 0.7391304347826086
  }
}