{
  "FULL": {
    "fitness": {
      "average_trace_fitness": 1.0,
      "log_fitness": 1.0,
      "perc_fit_traces": 100.0,
      "percentage_of_fitting_traces": 100.0
    },
    "fitness_alignments": {
      "averageFitness": 1.0,
      "average_trace_fitness": 1.0,
      "percFitTraces": 100.0,
      "percentage_of_fitting_traces": 100.0
    },
    "fscore": 0.9874104557232128,
    "generalization": 0.9555906697102705,
    "metricsAverageWeight": 0.9245416234222862,
    "precision": 0.9751339635137576,
    "precision_alignments": 0.9751339635137576,
    "simplicity": 0.7674418604651162
  }
}