{
  "FULL": {
    "fitness": {
      "average_trace_fitness": 1.0,
      "log_fitness": 1.0,
      "perc_fit_traces": 100.0,
      "percentage_of_fitting_traces": 100.0
    },
    "fitness_alignments": {
      "averageFitness": 1.0,
      "average_trace_fitness": 1.0,
      "percFitTraces": 100.0,
      "percentage_of_fitting_traces": 100.0
    },
    "fscore": 0.9975023626299446,
    "generalization": 0.9622422149311336,
    "metricsAverageWeight": 0.9293148463730097,
    "precision": 0.995017170560905,
    "precision_alignments": 0.995017170560905,
    "simplicity": 0.7599999999999999
  }
}