{
  "FULL": {
    "fitness": {
      "average_trace_fitness": 0.8780813180653443,
      "log_fitness": 0.8873860071686251,
      "perc_fit_traces": 0.0,
      "percentage_of_fitting_traces": 0.0
    },
    "fscore": 0.9063070893122492,
    "generalization": 0.7966260239152785,
    "metricsAverageWeight": 0.8059252565748036,
    "precision": 0.9260526315789473,
    "simplicity": 0.6136363636363635
  }
}