{
  "FULL": {
    "fitness": {
      "average_trace_fitness": 1.0,
      "log_fitness": 1.0,
      "perc_fit_traces": 100.0,
      "percentage_of_fitting_traces": 100.0
    },
    "fitness_alignments": {
      "averageFitness": 1.0,
      "average_trace_fitness": 1.0,
      "percFitTraces": 100.0,
      "percentage_of_fitting_traces": 100.0
    },
    "fscore": 0.994192205135698,
    "generalization": 0.9427527522593139,
    "metricsAverageWeight": 0.9038536900679478,
    "precision": 0.988451481696688,
    "precision_alignments": 0.988451481696688,
    "simplicity": 0.6842105263157894
  }
}