{
  "FULL": {
    "fitness": {
      "average_trace_fitness": 0.903073529411781,
      "log_fitness": 0.9071918164199255,
      "perc_fit_traces": 23.8,
      "percentage_of_fitting_traces": 23.8
    },
    "fitness_alignments": {
      "averageFitness": 0.8041538461538472,
      "average_trace_fitness": 0.8041538461538472,
      "percFitTraces": 23.8,
      "percentage_of_fitting_traces": 23.8
    },
    "fscore": 0.9513377821879034,
    "generalization": 0.963677478412843,
    "metricsAverageWeight": 0.9427173237081922,
    "precision": 1.0,
    "precision_alignments": 1.0,
    "simplicity": 0.8999999999999999
  }
}