{
  "FULL": {
    "fitness": {
      "average_trace_fitness": 1.0,
      "log_fitness": 1.0,
      "perc_fit_traces": 100.0,
      "percentage_of_fitting_traces": 100.0
    },
    "fitness_alignments": {
      "averageFitness": 1.0,
      "average_trace_fitness": 1.0,
      "percFitTraces": 100.0,
      "percentage_of_fitting_traces": 100.0
    },
    "fscore": 0.9997425202121634,
    "generalization": 0.949909486202622,
    "metricsAverageWeight": 0.9159200933675536,
    "precision": 0.9994851729818781,
    "precision_alignments": 0.9994851729818781,
    "simplicity": 0.7142857142857143
  },
  "Top 30": {
    "fitness": {
      "average_trace_fitness": 1.0,
      "log_fitness": 1.0,
      "perc_fit_traces": 100.0,
      "percentage_of_fitting_traces": 100.0
    },
    "fitness_alignments": {
      "averageFitness": 1.0,
      "average_trace_fitness": 1.0,
      "percFitTraces": 100.0,
      "percentage_of_fitting_traces": 100.0
    },
    "fscore": 0.9997425202121634,
    "generalization": 0.949909486202622,
    "metricsAverageWeight": 0.9159200933675536,
    "precision": 0.9994851729818781,
    "precision_alignments": 0.9994851729818781,
    "simplicity": 0.7142857142857143
  }
}