{
  "FULL": {
    "fitness": {
      "average_trace_fitness": 1.0,
      "log_fitness": 1.0,
      "perc_fit_traces": 100.0,
      "percentage_of_fitting_traces": 100.0
    },
    "fitness_alignments": {
      "averageFitness": 1.0,
      "average_trace_fitness": 1.0,
      "percFitTraces": 100.0,
      "percentage_of_fitting_traces": 100.0
    },
    "fscore": 0.7903066271018794,
    "generalization": 0.9604657126123272,
    "metricsAverageWeight": 0.8579897649552821,
    "precision": 0.6533115290269829,
    "precision_alignments": 0.6533115290269829,
    "simplicity": 0.8181818181818181
  }
}