{
  "FULL": {
    "fitness": {
      "average_trace_fitness": 0.687,
      "log_fitness": 0.9388910581803983,
      "perc_fit_traces": 68.7,
      "percentage_of_fitting_traces": 68.7
    },
    "fitness_alignments": {
      "averageFitness": 0.6243999999999996,
      "average_trace_fitness": 0.6243999999999996,
      "percFitTraces": 68.7,
      "percentage_of_fitting_traces": 68.7
    },
    "fscore": 0.9684825294532273,
    "generalization": 0.942168209336041,
    "metricsAverageWeight": 0.9285981502124432,
    "precision": 1.0,
    "precision_alignments": 1.0,
    "simplicity": 0.8333333333333333
  }
}