{
  "FULL": {
    "fitness": {
      "average_trace_fitness": 1.0,
      "log_fitness": 1.0,
      "perc_fit_traces": 100.0,
      "percentage_of_fitting_traces": 100.0
    },
    "fitness_alignments": {
      "averageFitness": 1.0,
      "average_trace_fitness": 1.0,
      "percFitTraces": 100.0,
      "percentage_of_fitting_traces": 100.0
    },
    "fscore": 0.99909338168631,
    "generalization": 0.9701303202103333,
    "metricsAverageWeight": 0.9703405510670761,
    "precision": 0.9981884057971014,
    "precision_alignments": 0.9981884057971014,
    "simplicity": 0.9130434782608695
  }
}