{
  "FULL": {
    "fitness": {
      "average_trace_fitness": 0.8759464285714159,
      "log_fitness": 0.8807109626625313,
      "perc_fit_traces": 0.0,
      "percentage_of_fitting_traces": 0.0
    },
    "fitness_alignments": {
      "averageFitness": 0.7999999999999887,
      "average_trace_fitness": 0.7999999999999887,
      "percFitTraces": 0.0,
      "percentage_of_fitting_traces": 0.0
    },
    "fscore": 0.9050797616196261,
    "generalization": 0.8733088305933008,
    "metricsAverageWeight": 0.8395811650032441,
    "precision": 0.9308354790020421,
    "precision_alignments": 0.9308354790020421,
    "simplicity": 0.673469387755102
  }
}