{
  "FULL": {
    "fitness": {
      "average_trace_fitness": 1.0,
      "log_fitness": 1.0,
      "perc_fit_traces": 100.0,
      "percentage_of_fitting_traces": 100.0
    },
    "fitness_alignments": {
      "averageFitness": 1.0,
      "average_trace_fitness": 1.0,
      "percFitTraces": 100.0,
      "percentage_of_fitting_traces": 100.0
    },
    "fscore": 0.9001001001001001,
    "generalization": 0.9608921655242592,
    "metricsAverageWeight": 0.896422766594494,
    "precision": 0.8183472879504914,
    "precision_alignments": 0.8183472879504914,
    "simplicity": 0.8064516129032256
  }
}