{
  "FULL": {
    "fitness": {
      "average_trace_fitness": 0.9571666666666667,
      "log_fitness": 0.966281815796379,
      "perc_fit_traces": 74.3,
      "percentage_of_fitting_traces": 74.3
    },
    "fitness_alignments": {
      "averageFitness": 0.80725,
      "average_trace_fitness": 0.80725,
      "percFitTraces": 74.3,
      "percentage_of_fitting_traces": 74.3
    },
    "fscore": 0.981778586200209,
    "generalization": 0.9490632267590425,
    "metricsAverageWeight": 0.9116147234419791,
    "precision": 0.9977805178791616,
    "precision_alignments": 0.9977805178791616,
    "simplicity": 0.7333333333333333
  }
}