{
  "FULL": {
    "fitness": {
      "average_trace_fitness": 1.0,
      "log_fitness": 1.0,
      "perc_fit_traces": 100.0,
      "percentage_of_fitting_traces": 100.0
    },
    "fitness_alignments": {
      "averageFitness": 1.0,
      "average_trace_fitness": 1.0,
      "percFitTraces": 100.0,
      "percentage_of_fitting_traces": 100.0
    },
    "fscore": 0.9998747651847213,
    "generalization": 0.9562082461826491,
    "metricsAverageWeight": 0.9672503215441378,
    "precision": 0.9997495617330328,
    "precision_alignments": 0.9997495617330328,
    "simplicity": 0.9130434782608695
  }
}