{
  "FULL": {
    "fitness": {
      "average_trace_fitness": 1.0,
      "log_fitness": 1.0,
      "perc_fit_traces": 100.0,
      "percentage_of_fitting_traces": 100.0
    },
    "fitness_alignments": {
      "averageFitness": 1.0,
      "average_trace_fitness": 1.0,
      "percFitTraces": 100.0,
      "percentage_of_fitting_traces": 100.0
    },
    "fscore": 0.8243736623442024,
    "generalization": 0.9604832444313512,
    "metricsAverageWeight": 0.867806968029377,
    "precision": 0.7012208181623474,
    "precision_alignments": 0.7012208181623474,
    "simplicity": 0.8095238095238095
  }
}