{
  "FULL": {
    "fitness": {
      "average_trace_fitness": 0.9462222222222264,
      "log_fitness": 0.9599867724867724,
      "perc_fit_traces": 51.6,
      "percentage_of_fitting_traces": 51.6
    },
    "fitness_alignments": {
      "averageFitness": 0.8386666666666671,
      "average_trace_fitness": 0.8386666666666671,
      "percFitTraces": 51.6,
      "percentage_of_fitting_traces": 51.6
    },
    "fscore": 0.9795849502277711,
    "generalization": 0.96207747010316,
    "metricsAverageWeight": 0.9643870283894187,
    "precision": 1.0,
    "precision_alignments": 1.0,
    "simplicity": 0.9354838709677418
  }
}