{
  "FULL": {
    "fitness": {
      "average_trace_fitness": 0.9608595238095324,
      "log_fitness": 0.9574929189971007,
      "perc_fit_traces": 24.1,
      "percentage_of_fitting_traces": 24.1
    },
    "fitness_alignments": {
      "averageFitness": 0.6165,
      "average_trace_fitness": 0.6165,
      "percFitTraces": 24.1,
      "percentage_of_fitting_traces": 24.1
    },
    "fscore": 0.9782849375390449,
    "generalization": 0.9625467020585017,
    "metricsAverageWeight": 0.9477518407477716,
    "precision": 1.0,
    "precision_alignments": 1.0,
    "simplicity": 0.8709677419354838
  },
  "Top 30": {
    "fitness": {
      "average_trace_fitness": 0.9608595238095324,
      "log_fitness": 0.9574929189971007,
      "perc_fit_traces": 24.1,
      "percentage_of_fitting_traces": 24.1
    },
    "fitness_alignments": {
      "averageFitness": 0.6165,
      "average_trace_fitness": 0.6165,
      "percFitTraces": 24.1,
      "percentage_of_fitting_traces": 24.1
    },
    "fscore": 0.9782849375390449,
    "generalization": 0.9625467020585017,
    "metricsAverageWeight": 0.9477518407477716,
    "precision": 1.0,
    "precision_alignments": 1.0,
    "simplicity": 0.8709677419354838
  }
}