{
  "FULL": {
    "fitness": {
      "average_trace_fitness": 1.0,
      "log_fitness": 1.0,
      "perc_fit_traces": 100.0,
      "percentage_of_fitting_traces": 100.0
    },
    "fitness_alignments": {
      "averageFitness": 0.0,
      "average_trace_fitness": 0.0,
      "percFitTraces": 0.0,
      "percentage_of_fitting_traces": 0.0
    },
    "fscore": 1.0,
    "generalization": 0.942379118736183,
    "metricsAverageWeight": 0.9246191699279481,
    "precision": 1.0,
    "precision_alignments": 1.0,
    "simplicity": 0.7560975609756097
  }
}