{
  "FULL": {
    "fitness": {
      "average_trace_fitness": 0.9943921040825495,
      "log_fitness": 0.9829312699135184,
      "perc_fit_traces": 89.90578734858681,
      "percentage_of_fitting_traces": 89.90578734858681
    },
    "fitness_alignments": {
      "averageFitness": 0.8990578734858681,
      "average_trace_fitness": 0.8990578734858681,
      "percFitTraces": 89.90578734858681,
      "percentage_of_fitting_traces": 89.90578734858681
    },
    "fscore": 0.9884175991993904,
    "generalization": 0.9200888529177569,
    "metricsAverageWeight": 0.9210549206564614,
    "precision": 0.9939655172413793,
    "precision_alignments": 0.9939655172413793,
    "simplicity": 0.7872340425531915
  }
}