{
  "easy_soundness": false,
  "filename": "/mnt/c/Users/s140511/tue/thesis/thesis_data/process_trees_simple_ws2/predictions/2124_gcn_ep144b_cc.json",
  "full": {
    "fitness": {
      "average_trace_fitness": 0.8677539471879723,
      "log_fitness": 0.8414412000904827,
      "perc_fit_traces": 0.0,
      "percentage_of_fitting_traces": 0.0
    },
    "fscore": 0.9138941825013331,
    "generalization": 0.9023427535932963,
    "metricsAverageWeight": 0.8011145277467875,
    "precision": 1.0,
    "simplicity": 0.46067415730337075
  },
  "sound": false,
  "top 30": {
    "fitness": {
      "average_trace_fitness": 0.8677539471879723,
      "log_fitness": 0.8414412000904827,
      "perc_fit_traces": 0.0,
      "percentage_of_fitting_traces": 0.0
    },
    "fscore": 0.9138941825013331,
    "generalization": 0.9023427535932963,
    "metricsAverageWeight": 0.8011145277467875,
    "precision": 1.0,
    "simplicity": 0.46067415730337075
  }
}