{
  "FULL": {
    "fitness": {
      "average_trace_fitness": 0.317,
      "log_fitness": 0.764645072363887,
      "perc_fit_traces": 31.7,
      "percentage_of_fitting_traces": 31.7
    },
    "fitness_alignments": {
      "averageFitness": 0.2031666666666656,
      "average_trace_fitness": 0.2031666666666656,
      "percFitTraces": 31.7,
      "percentage_of_fitting_traces": 31.7
    },
    "fscore": 0.8666276117945714,
    "generalization": 0.943834404369827,
    "metricsAverageWeight": 0.9271198691834286,
    "precision": 1.0,
    "precision_alignments": 1.0,
    "simplicity": 1.0
  }
}