{
  "FULL": {
    "fitness": {
      "average_trace_fitness": 1.0,
      "log_fitness": 1.0,
      "perc_fit_traces": 100.0,
      "percentage_of_fitting_traces": 100.0
    },
    "fitness_alignments": {
      "averageFitness": 1.0,
      "average_trace_fitness": 1.0,
      "percFitTraces": 100.0,
      "percentage_of_fitting_traces": 100.0
    },
    "fscore": 0.9997976118194698,
    "generalization": 0.9713318307407831,
    "metricsAverageWeight": 0.9927317840712743,
    "precision": 0.9995953055443141,
    "precision_alignments": 0.9995953055443141,
    "simplicity": 1.0
  }
}