{
  "FULL": {
    "fitness": {
      "average_trace_fitness": 1.0,
      "log_fitness": 1.0,
      "perc_fit_traces": 100.0,
      "percentage_of_fitting_traces": 100.0
    },
    "fitness_alignments": {
      "averageFitness": 1.0,
      "average_trace_fitness": 1.0,
      "percFitTraces": 100.0,
      "percentage_of_fitting_traces": 100.0
    },
    "fscore": 0.9998335090737556,
    "generalization": 0.9586497033615151,
    "metricsAverageWeight": 0.9538649085202779,
    "precision": 0.9996670735767396,
    "precision_alignments": 0.9996670735767396,
    "simplicity": 0.8571428571428572
  }
}