{
  "FULL": {
    "fitness": {
      "average_trace_fitness": 1.0,
      "log_fitness": 1.0,
      "perc_fit_traces": 100.0,
      "percentage_of_fitting_traces": 100.0
    },
    "fitness_alignments": {
      "averageFitness": 1.0,
      "average_trace_fitness": 1.0,
      "percFitTraces": 100.0,
      "percentage_of_fitting_traces": 100.0
    },
    "fscore": 0.8138026864289023,
    "generalization": 0.9449459956655858,
    "metricsAverageWeight": 0.8180079423629668,
    "precision": 0.6860601327606404,
    "precision_alignments": 0.6860601327606404,
    "simplicity": 0.641025641025641
  }
}