{
  "FULL": {
    "fitness": {
      "average_trace_fitness": 0.9473671428571369,
      "log_fitness": 0.9447815938646216,
      "perc_fit_traces": 33.5,
      "percentage_of_fitting_traces": 33.5
    },
    "fitness_alignments": {
      "averageFitness": 0.7813333333333417,
      "average_trace_fitness": 0.7813333333333417,
      "percFitTraces": 33.5,
      "percentage_of_fitting_traces": 33.5
    },
    "fscore": 0.9714994393959884,
    "generalization": 0.9708987570138214,
    "metricsAverageWeight": 0.9788631854776624,
    "precision": 0.9997723910322067,
    "precision_alignments": 0.9997723910322067,
    "simplicity": 1.0
  }
}