{
  "FULL": {
    "fitness": {
      "average_trace_fitness": 0.9725671107702084,
      "log_fitness": 0.9797039159503342,
      "perc_fit_traces": 83.0,
      "percentage_of_fitting_traces": 83.0
    },
    "fitness_alignments": {
      "averageFitness": 0.9659999999999968,
      "average_trace_fitness": 0.9659999999999968,
      "percFitTraces": 83.0,
      "percentage_of_fitting_traces": 83.0
    },
    "fscore": 0.9890320640761109,
    "generalization": 0.9404118371466357,
    "metricsAverageWeight": 0.9039062509548005,
    "precision": 0.9985395537525354,
    "precision_alignments": 0.9985395537525354,
    "simplicity": 0.6969696969696969
  }
}