{
  "FULL": {
    "fitness": {
      "average_trace_fitness": 0.9745500000000079,
      "log_fitness": 0.9734868215439108,
      "perc_fit_traces": 49.1,
      "percentage_of_fitting_traces": 49.1
    },
    "fitness_alignments": {
      "averageFitness": 0.18560000000000038,
      "average_trace_fitness": 0.18560000000000038,
      "percFitTraces": 49.1,
      "percentage_of_fitting_traces": 49.1
    },
    "fscore": 0.952307944781567,
    "generalization": 0.9524537776930777,
    "metricsAverageWeight": 0.9104388379230001,
    "precision": 0.9320309686712279,
    "precision_alignments": 0.9320309686712279,
    "simplicity": 0.7837837837837838
  }
}