{
  "FULL": {
    "fitness": {
      "average_trace_fitness": 0.47885572139303484,
      "log_fitness": 0.8037470725995316,
      "perc_fit_traces": 47.885572139303484,
      "percentage_of_fitting_traces": 47.885572139303484
    },
    "fitness_alignments": {
      "averageFitness": 0.21828358208955223,
      "average_trace_fitness": 0.21828358208955223,
      "percFitTraces": 47.885572139303484,
      "percentage_of_fitting_traces": 47.885572139303484
    },
    "fscore": 0.8911970916645027,
    "generalization": 0.9274614252903849,
    "metricsAverageWeight": 0.9328021244724791,
    "precision": 1.0,
    "precision_alignments": 1.0,
    "simplicity": 1.0
  }
}