{
  "FULL": {
    "fitness": {
      "average_trace_fitness": 0.96215659340658,
      "log_fitness": 0.9621928166351607,
      "perc_fit_traces": 0.0,
      "percentage_of_fitting_traces": 0.0
    },
    "fscore": 0.9807321772639691,
    "generalization": 0.9616500399412422,
    "metricsAverageWeight": 0.9203546535380402,
    "precision": 1.0,
    "simplicity": 0.7575757575757577
  },
  "Top 30": {
    "fitness": {
      "average_trace_fitness": 0.96215659340658,
      "log_fitness": 0.9621928166351607,
      "perc_fit_traces": 0.0,
      "percentage_of_fitting_traces": 0.0
    },
    "fscore": 0.9807321772639691,
    "generalization": 0.9616500399412422,
    "metricsAverageWeight": 0.9203546535380402,
    "precision": 1.0,
    "simplicity": 0.7575757575757577
  }
}