{
  "FULL": {
    "fitness": {
      "average_trace_fitness": 1.0,
      "log_fitness": 1.0,
      "perc_fit_traces": 100.0,
      "percentage_of_fitting_traces": 100.0
    },
    "fitness_alignments": {
      "averageFitness": 1.0,
      "average_trace_fitness": 1.0,
      "percFitTraces": 100.0,
      "percentage_of_fitting_traces": 100.0
    },
    "fscore": 0.9562238930659983,
    "generalization": 0.9663633725508695,
    "metricsAverageWeight": 0.9081207775062142,
    "precision": 0.9161197374739876,
    "precision_alignments": 0.9161197374739876,
    "simplicity": 0.7499999999999999
  }
}