{
  "FULL": {
    "fitness": {
      "average_trace_fitness": 0.5011375887931704,
      "log_fitness": 0.8926028406313933,
      "perc_fit_traces": 0.0,
      "percentage_of_fitting_traces": 0.0
    },
    "fscore": 0.7157838521074239,
    "generalization": 0.954358469893485,
    "metricsAverageWeight": 0.7853416583057726,
    "precision": 0.5974356257285154,
    "simplicity": 0.6969696969696969
  }
}