{
  "FULL": {
    "fitness": {
      "average_trace_fitness": 0.967298076923073,
      "log_fitness": 0.9674348006071478,
      "perc_fit_traces": 52.8,
      "percentage_of_fitting_traces": 52.8
    },
    "fitness_alignments": {
      "averageFitness": 0.9213333333333429,
      "average_trace_fitness": 0.9213333333333429,
      "percFitTraces": 52.8,
      "percentage_of_fitting_traces": 52.8
    },
    "fscore": 0.9834478889044747,
    "generalization": 0.9622025353122059,
    "metricsAverageWeight": 0.9688958204663249,
    "precision": 1.0,
    "precision_alignments": 1.0,
    "simplicity": 0.9459459459459462
  }
}