{
  "FULL": {
    "fitness": {
      "average_trace_fitness": 0.8825,
      "log_fitness": 0.9293233082706767,
      "perc_fit_traces": 53.0,
      "percentage_of_fitting_traces": 53.0
    },
    "fitness_alignments": {
      "averageFitness": 0.70625,
      "average_trace_fitness": 0.70625,
      "percFitTraces": 53.0,
      "percentage_of_fitting_traces": 53.0
    },
    "fscore": 0.9633671083398285,
    "generalization": 0.9589028451461229,
    "metricsAverageWeight": 0.9720565383541999,
    "precision": 1.0,
    "precision_alignments": 1.0,
    "simplicity": 1.0
  }
}