{
  "FULL": {
    "fitness": {
      "average_trace_fitness": 0.9779090909090834,
      "log_fitness": 0.9663108276722584,
      "perc_fit_traces": 75.7,
      "percentage_of_fitting_traces": 75.7
    },
    "fitness_alignments": {
      "averageFitness": 0.6355,
      "average_trace_fitness": 0.6355,
      "percFitTraces": 75.7,
      "percentage_of_fitting_traces": 75.7
    },
    "fscore": 0.9828668123810196,
    "generalization": 0.9546240151887612,
    "metricsAverageWeight": 0.9417721722537165,
    "precision": 1.0,
    "precision_alignments": 1.0,
    "simplicity": 0.8461538461538463
  }
}