{
  "FULL": {
    "fitness": {
      "average_trace_fitness": 1.0,
      "log_fitness": 1.0,
      "perc_fit_traces": 100.0,
      "percentage_of_fitting_traces": 100.0
    },
    "fitness_alignments": {
      "averageFitness": 1.0,
      "average_trace_fitness": 1.0,
      "percFitTraces": 100.0,
      "percentage_of_fitting_traces": 100.0
    },
    "fscore": 0.9270290031684133,
    "generalization": 0.960077968341469,
    "metricsAverageWeight": 0.9042911746158991,
    "precision": 0.8639832818462656,
    "precision_alignments": 0.8639832818462656,
    "simplicity": 0.7931034482758622
  }
}