{
  "FULL": {
    "fitness": {
      "average_trace_fitness": 1.0,
      "log_fitness": 1.0,
      "perc_fit_traces": 100.0,
      "percentage_of_fitting_traces": 100.0
    },
    "fitness_alignments": {
      "averageFitness": 1.0,
      "average_trace_fitness": 1.0,
      "percFitTraces": 100.0,
      "percentage_of_fitting_traces": 100.0
    },
    "fscore": 0.9486986610500977,
    "generalization": 0.9259859836896305,
    "metricsAverageWeight": 0.9237641929267961,
    "precision": 0.9024041213508872,
    "precision_alignments": 0.9024041213508872,
    "simplicity": 0.8666666666666667
  }
}