{
  "FULL": {
    "fitness": {
      "average_trace_fitness": 0.9293571428571469,
      "log_fitness": 0.9253190789240368,
      "perc_fit_traces": 33.6,
      "percentage_of_fitting_traces": 33.6
    },
    "fitness_alignments": {
      "averageFitness": 0.5073999999999957,
      "average_trace_fitness": 0.5073999999999957,
      "percFitTraces": 33.6,
      "percentage_of_fitting_traces": 33.6
    },
    "fscore": 0.961211145781769,
    "generalization": 0.9422129590859382,
    "metricsAverageWeight": 0.8979174922611144,
    "precision": 1.0,
    "precision_alignments": 1.0,
    "simplicity": 0.7241379310344828
  },
  "Top 30": {
    "fitness": {
      "average_trace_fitness": 0.9293571428571469,
      "log_fitness": 0.9253190789240368,
      "perc_fit_traces": 33.6,
      "percentage_of_fitting_traces": 33.6
    },
    "fitness_alignments": {
      "averageFitness": 0.5073999999999957,
      "average_trace_fitness": 0.5073999999999957,
      "percFitTraces": 33.6,
      "percentage_of_fitting_traces": 33.6
    },
    "fscore": 0.961211145781769,
    "generalization": 0.9422129590859382,
    "metricsAverageWeight": 0.8979174922611144,
    "precision": 1.0,
    "precision_alignments": 1.0,
    "simplicity": 0.7241379310344828
  }
}