{
  "FULL": {
    "fitness": {
      "average_trace_fitness": 1.0,
      "log_fitness": 1.0,
      "perc_fit_traces": 100.0,
      "percentage_of_fitting_traces": 100.0
    },
    "fitness_alignments": {
      "averageFitness": 1.0,
      "average_trace_fitness": 1.0,
      "percFitTraces": 100.0,
      "percentage_of_fitting_traces": 100.0
    },
    "fscore": 0.9995154099631711,
    "generalization": 0.9580354034768629,
    "metricsAverageWeight": 0.9375425352766488,
    "precision": 0.99903128935387,
    "precision_alignments": 0.99903128935387,
    "simplicity": 0.7931034482758622
  }
}