{
  "FULL": {
    "fitness": {
      "average_trace_fitness": 1.0,
      "log_fitness": 1.0,
      "perc_fit_traces": 100.0,
      "percentage_of_fitting_traces": 100.0
    },
    "fitness_alignments": {
      "averageFitness": 1.0,
      "average_trace_fitness": 1.0,
      "percFitTraces": 100.0,
      "percentage_of_fitting_traces": 100.0
    },
    "fscore": 0.99245159172957,
    "generalization": 0.9732864744181396,
    "metricsAverageWeight": 0.9562423569324394,
    "precision": 0.9850162866449511,
    "precision_alignments": 0.9850162866449511,
    "simplicity": 0.8666666666666667
  }
}