{
  "FULL": {
    "fitness": {
      "average_trace_fitness": 0.95975,
      "log_fitness": 0.9613259668508287,
      "perc_fit_traces": 67.8,
      "percentage_of_fitting_traces": 67.8
    },
    "fitness_alignments": {
      "averageFitness": 0.9540000000000105,
      "average_trace_fitness": 0.9540000000000105,
      "percFitTraces": 67.8,
      "percentage_of_fitting_traces": 67.8
    },
    "fscore": 0.9802816901408451,
    "generalization": 0.9582156680515116,
    "metricsAverageWeight": 0.979885408725585,
    "precision": 1.0,
    "precision_alignments": 1.0,
    "simplicity": 1.0
  }
}