{
  "FULL": {
    "fitness": {
      "average_trace_fitness": 0.9628571428571513,
      "log_fitness": 0.9615384615384616,
      "perc_fit_traces": 48.0,
      "percentage_of_fitting_traces": 48.0
    },
    "fitness_alignments": {
      "averageFitness": 0.9527272727272587,
      "average_trace_fitness": 0.9527272727272587,
      "percFitTraces": 48.0,
      "percentage_of_fitting_traces": 48.0
    },
    "fscore": 0.9734102728967096,
    "generalization": 0.967436444601111,
    "metricsAverageWeight": 0.978638452534069,
    "precision": 0.9855789039967038,
    "precision_alignments": 0.9855789039967038,
    "simplicity": 1.0
  }
}