{
  "easy_soundness": false,
  "filename": "/mnt/c/Users/s140511/tue/thesis/thesis_data/process_trees_simple_ws2/predictions/2232_gcn_ep144b_cc.json",
  "full": {
    "fitness": {
      "average_trace_fitness": 0.7825638953852964,
      "log_fitness": 0.829011300751751,
      "perc_fit_traces": 0.0,
      "percentage_of_fitting_traces": 0.0
    },
    "fscore": 0.9033605443189726,
    "generalization": 0.8458548129901567,
    "metricsAverageWeight": 0.8418064160759264,
    "precision": 0.9923595505617977,
    "simplicity": 0.7000000000000001
  },
  "sound": false,
  "top 30": {
    "fitness": {
      "average_trace_fitness": 0.7825638953852964,
      "log_fitness": 0.829011300751751,
      "perc_fit_traces": 0.0,
      "percentage_of_fitting_traces": 0.0
    },
    "fscore": 0.9033605443189726,
    "generalization": 0.8458548129901567,
    "metricsAverageWeight": 0.8418064160759264,
    "precision": 0.9923595505617977,
    "simplicity": 0.7000000000000001
  }
}