{
  "FULL": {
    "fitness": {
      "average_trace_fitness": 1.0,
      "log_fitness": 1.0,
      "perc_fit_traces": 100.0,
      "percentage_of_fitting_traces": 100.0
    },
    "fitness_alignments": {
      "averageFitness": 1.0,
      "average_trace_fitness": 1.0,
      "percFitTraces": 100.0,
      "percentage_of_fitting_traces": 100.0
    },
    "fscore": 0.959978342282182,
    "generalization": 0.9719550428942868,
    "metricsAverageWeight": 0.8904146464791755,
    "precision": 0.9230368763557484,
    "precision_alignments": 0.9230368763557484,
    "simplicity": 0.6666666666666666
  },
  "Top 30": {
    "fitness": {
      "average_trace_fitness": 1.0,
      "log_fitness": 1.0,
      "perc_fit_traces": 100.0,
      "percentage_of_fitting_traces": 100.0
    },
    "fitness_alignments": {
      "averageFitness": 1.0,
      "average_trace_fitness": 1.0,
      "percFitTraces": 100.0,
      "percentage_of_fitting_traces": 100.0
    },
    "fscore": 0.9884441939120631,
    "generalization": 0.9469634370291642,
    "metricsAverageWeight": 0.8976956284594829,
    "precision": 0.9771524101421009,
    "precision_alignments": 0.9771524101421009,
    "simplicity": 0.6666666666666666
  }
}