{
  "FULL": {
    "fitness": {
      "average_trace_fitness": 0.9705555555555623,
      "log_fitness": 0.9636338685330039,
      "perc_fit_traces": 73.5,
      "percentage_of_fitting_traces": 73.5
    },
    "fitness_alignments": {
      "averageFitness": 0.946999999999988,
      "average_trace_fitness": 0.946999999999988,
      "percFitTraces": 73.5,
      "percentage_of_fitting_traces": 73.5
    },
    "fscore": 0.9748064854779509,
    "generalization": 0.9562248425470448,
    "metricsAverageWeight": 0.9547858517848783,
    "precision": 0.9862412177985949,
    "precision_alignments": 0.9862412177985949,
    "simplicity": 0.9130434782608695
  }
}