{
  "FULL": {
    "fitness": {
      "average_trace_fitness": 1.0,
      "log_fitness": 1.0,
      "perc_fit_traces": 100.0,
      "percentage_of_fitting_traces": 100.0
    },
    "fitness_alignments": {
      "averageFitness": 1.0,
      "average_trace_fitness": 1.0,
      "percFitTraces": 100.0,
      "percentage_of_fitting_traces": 100.0
    },
    "fscore": 0.999842594050055,
    "generalization": 0.9604001513642978,
    "metricsAverageWeight": 0.9566880139191355,
    "precision": 0.9996852376455776,
    "precision_alignments": 0.9996852376455776,
    "simplicity": 0.8666666666666667
  }
}