{
  "easy_soundness": true,
  "filename": "/mnt/c/Users/s140511/tue/thesis/thesis_data/process_trees_simple_ws2/predictions/2236_gcn_ep144b_cc.json",
  "full": {
    "fitness": {
      "average_trace_fitness": 0.6998642615085987,
      "log_fitness": 0.7864041807375441,
      "perc_fit_traces": 0.0,
      "percentage_of_fitting_traces": 0.0
    },
    "fitness_alignments": {
      "averageFitness": 0.4826000000000059,
      "average_trace_fitness": 0.4826000000000059,
      "percFitTraces": 0.0,
      "percentage_of_fitting_traces": 0.0
    },
    "fscore": 0.712895988672035,
    "generalization": 0.8421569813383512,
    "metricsAverageWeight": 0.7938133135260451,
    "precision": 0.6519552499230217,
    "precision_alignments": 0.6519552499230217,
    "simplicity": 0.8947368421052632
  },
  "sound": true,
  "top 30": {
    "fitness": {
      "average_trace_fitness": 0.6998642615085987,
      "log_fitness": 0.7864041807375441,
      "perc_fit_traces": 0.0,
      "percentage_of_fitting_traces": 0.0
    },
    "fitness_alignments": {
      "averageFitness": 0.4826000000000059,
      "average_trace_fitness": 0.4826000000000059,
      "percFitTraces": 0.0,
      "percentage_of_fitting_traces": 0.0
    },
    "fscore": 0.712895988672035,
    "generalization": 0.8421569813383512,
    "metricsAverageWeight": 0.7938133135260451,
    "precision": 0.6519552499230217,
    "precision_alignments": 0.6519552499230217,
    "simplicity": 0.8947368421052632
  }
}