{
  "FULL": {
    "fitness": {
      "average_trace_fitness": 1.0,
      "log_fitness": 1.0,
      "perc_fit_traces": 100.0,
      "percentage_of_fitting_traces": 100.0
    },
    "fitness_alignments": {
      "averageFitness": 1.0,
      "average_trace_fitness": 1.0,
      "percFitTraces": 100.0,
      "percentage_of_fitting_traces": 100.0
    },
    "fscore": 0.9978356356228913,
    "generalization": 0.9692448802367568,
    "metricsAverageWeight": 0.9674218512391846,
    "precision": 0.9956806199580766,
    "precision_alignments": 0.9956806199580766,
    "simplicity": 0.9047619047619049
  }
}