{
  "FULL": {
    "fitness": {
      "average_trace_fitness": 1.0,
      "log_fitness": 1.0,
      "perc_fit_traces": 100.0,
      "percentage_of_fitting_traces": 100.0
    },
    "fitness_alignments": {
      "averageFitness": 1.0,
      "average_trace_fitness": 1.0,
      "percFitTraces": 100.0,
      "percentage_of_fitting_traces": 100.0
    },
    "fscore": 0.9899490059862538,
    "generalization": 0.9620028026368137,
    "metricsAverageWeight": 0.9203078209521336,
    "precision": 0.9800980463891125,
    "precision_alignments": 0.9800980463891125,
    "simplicity": 0.7391304347826086
  },
  "Top 30": {
    "fitness": {
      "average_trace_fitness": 1.0,
      "log_fitness": 1.0,
      "perc_fit_traces": 100.0,
      "percentage_of_fitting_traces": 100.0
    },
    "fitness_alignments": {
      "averageFitness": 1.0,
      "average_trace_fitness": 1.0,
      "percFitTraces": 100.0,
      "percentage_of_fitting_traces": 100.0
    },
    "fscore": 0.9888140556368961,
    "generalization": 0.9533183519883058,
    "metricsAverageWeight": 0.9175810951057948,
    "precision": 0.9778755936522646,
    "precision_alignments": 0.9778755936522646,
    "simplicity": 0.7391304347826086
  }
}