{
  "FULL": {
    "fitness": {
      "average_trace_fitness": 0.9410944444444553,
      "log_fitness": 0.9278380974534647,
      "perc_fit_traces": 37.0,
      "percentage_of_fitting_traces": 37.0
    },
    "fitness_alignments": {
      "averageFitness": -0.1953333333333304,
      "average_trace_fitness": -0.1953333333333304,
      "percFitTraces": 37.0,
      "percentage_of_fitting_traces": 37.0
    },
    "fscore": 0.9625684840226697,
    "generalization": 0.9524597461017819,
    "metricsAverageWeight": 0.9300744608888116,
    "precision": 1.0,
    "precision_alignments": 1.0,
    "simplicity": 0.8399999999999999
  },
  "Top 30": {
    "fitness": {
      "average_trace_fitness": 0.9410944444444553,
      "log_fitness": 0.9278380974534647,
      "perc_fit_traces": 37.0,
      "percentage_of_fitting_traces": 37.0
    },
    "fitness_alignments": {
      "averageFitness": -0.1953333333333304,
      "average_trace_fitness": -0.1953333333333304,
      "percFitTraces": 37.0,
      "percentage_of_fitting_traces": 37.0
    },
    "fscore": 0.9625684840226697,
    "generalization": 0.9524597461017819,
    "metricsAverageWeight": 0.9300744608888116,
    "precision": 1.0,
    "precision_alignments": 1.0,
    "simplicity": 0.8399999999999999
  }
}