{
  "FULL": {
    "fitness": {
      "average_trace_fitness": 0.9177827380952381,
      "log_fitness": 0.9201884131641689,
      "perc_fit_traces": 16.9,
      "percentage_of_fitting_traces": 16.9
    },
    "fitness_alignments": {
      "averageFitness": 0.6684999999999927,
      "average_trace_fitness": 0.6684999999999927,
      "percFitTraces": 16.9,
      "percentage_of_fitting_traces": 16.9
    },
    "fscore": 0.9584355439868976,
    "generalization": 0.9530276934396446,
    "metricsAverageWeight": 0.896875455222382,
    "precision": 1.0,
    "precision_alignments": 1.0,
    "simplicity": 0.7142857142857143
  },
  "Top 30": {
    "fitness": {
      "average_trace_fitness": 0.9177827380952381,
      "log_fitness": 0.9201884131641689,
      "perc_fit_traces": 16.9,
      "percentage_of_fitting_traces": 16.9
    },
    "fitness_alignments": {
      "averageFitness": 0.6684999999999927,
      "average_trace_fitness": 0.6684999999999927,
      "percFitTraces": 16.9,
      "percentage_of_fitting_traces": 16.9
    },
    "fscore": 0.9584355439868976,
    "generalization": 0.9530276934396446,
    "metricsAverageWeight": 0.896875455222382,
    "precision": 1.0,
    "precision_alignments": 1.0,
    "simplicity": 0.7142857142857143
  }
}