{
  "easy_soundness": true,
  "filename": "/mnt/c/Users/s140511/tue/thesis/thesis_data/process_trees_simple_ws2/predictions/2263_gcn_ep144b_cc.json",
  "full": {
    "fitness": {
      "average_trace_fitness": 0.9251415824915922,
      "log_fitness": 0.8886668886668887,
      "perc_fit_traces": 51.4,
      "percentage_of_fitting_traces": 51.4
    },
    "fitness_alignments": {
      "averageFitness": -1.006,
      "average_trace_fitness": -1.006,
      "percFitTraces": 51.4,
      "percentage_of_fitting_traces": 51.4
    },
    "fscore": 0.9410520129297679,
    "generalization": 0.9707087674476653,
    "metricsAverageWeight": 0.893415342600067,
    "precision": 1.0,
    "precision_alignments": 1.0,
    "simplicity": 0.7142857142857143
  },
  "sound": false,
  "top 30": {
    "fitness": {
      "average_trace_fitness": 0.9251415824915922,
      "log_fitness": 0.8886668886668887,
      "perc_fit_traces": 51.4,
      "percentage_of_fitting_traces": 51.4
    },
    "fitness_alignments": {
      "averageFitness": -1.006,
      "average_trace_fitness": -1.006,
      "percFitTraces": 51.4,
      "percentage_of_fitting_traces": 51.4
    },
    "fscore": 0.9410520129297679,
    "generalization": 0.9707087674476653,
    "metricsAverageWeight": 0.893415342600067,
    "precision": 1.0,
    "precision_alignments": 1.0,
    "simplicity": 0.7142857142857143
  }
}