{
  "FULL": {
    "fitness": {
      "average_trace_fitness": 1.0,
      "log_fitness": 1.0,
      "perc_fit_traces": 100.0,
      "percentage_of_fitting_traces": 100.0
    },
    "fitness_alignments": {
      "averageFitness": 1.0,
      "average_trace_fitness": 1.0,
      "percFitTraces": 100.0,
      "percentage_of_fitting_traces": 100.0
    },
    "fscore": 0.9953180148382915,
    "generalization": 0.9683348935098317,
    "metricsAverageWeight": 0.9659441164018889,
    "precision": 0.9906796673358188,
    "precision_alignments": 0.9906796673358188,
    "simplicity": 0.9047619047619049
  }
}