{
  "FULL": {
    "fitness": {
      "average_trace_fitness": 0.9076294717169218,
      "log_fitness": 0.9091046239722411,
      "perc_fit_traces": 21.3,
      "percentage_of_fitting_traces": 21.3
    },
    "fitness_alignments": {
      "averageFitness": 0.557666666666666,
      "average_trace_fitness": 0.557666666666666,
      "percFitTraces": 21.3,
      "percentage_of_fitting_traces": 21.3
    },
    "fscore": 0.9521888627999795,
    "generalization": 0.9641704828624845,
    "metricsAverageWeight": 0.9509673863972365,
    "precision": 0.9995599559955995,
    "precision_alignments": 0.9995599559955995,
    "simplicity": 0.9310344827586208
  }
}