{
  "easy_soundness": true,
  "filename": "/mnt/c/Users/s140511/tue/thesis/thesis_data/process_trees_simple_ws2/predictions/2287_gcn_ep144b_cc.json",
  "full": {
    "fitness": {
      "average_trace_fitness": 1.0,
      "log_fitness": 1.0,
      "perc_fit_traces": 100.0,
      "percentage_of_fitting_traces": 100.0
    },
    "fitness_alignments": {
      "averageFitness": 1.0,
      "average_trace_fitness": 1.0,
      "percFitTraces": 100.0,
      "percentage_of_fitting_traces": 100.0
    },
    "fscore": 0.9991892204934173,
    "generalization": 0.9621803555658419,
    "metricsAverageWeight": 0.9417529307794071,
    "precision": 0.9983797546485611,
    "precision_alignments": 0.9983797546485611,
    "simplicity": 0.8064516129032256
  },
  "sound": true,
  "top 30": {
    "fitness": {
      "average_trace_fitness": 1.0,
      "log_fitness": 1.0,
      "perc_fit_traces": 100.0,
      "percentage_of_fitting_traces": 100.0
    },
    "fitness_alignments": {
      "averageFitness": 1.0,
      "average_trace_fitness": 1.0,
      "percFitTraces": 100.0,
      "percentage_of_fitting_traces": 100.0
    },
    "fscore": 0.9991892204934173,
    "generalization": 0.9621803555658419,
    "metricsAverageWeight": 0.9417529307794071,
    "precision": 0.9983797546485611,
    "precision_alignments": 0.9983797546485611,
    "simplicity": 0.8064516129032256
  }
}