{
  "FULL": {
    "fitness": {
      "average_trace_fitness": 0.8970272727272658,
      "log_fitness": 0.8895752895752895,
      "perc_fit_traces": 22.8,
      "percentage_of_fitting_traces": 22.8
    },
    "fitness_alignments": {
      "averageFitness": 0.6966000000000042,
      "average_trace_fitness": 0.6966000000000042,
      "percFitTraces": 22.8,
      "percentage_of_fitting_traces": 22.8
    },
    "fscore": 0.9259237787321313,
    "generalization": 0.8860383067520337,
    "metricsAverageWeight": 0.8835215728275759,
    "precision": 0.9653692467071185,
    "precision_alignments": 0.9653692467071185,
    "simplicity": 0.7931034482758622
  }
}