{
  "FULL": {
    "fitness": {
      "average_trace_fitness": 0.860912878787876,
      "log_fitness": 0.8651360313120267,
      "perc_fit_traces": 0.0,
      "percentage_of_fitting_traces": 0.0
    },
    "fitness_alignments": {
      "averageFitness": 0.5984000000000131,
      "average_trace_fitness": 0.5984000000000131,
      "percFitTraces": 0.0,
      "percentage_of_fitting_traces": 0.0
    },
    "fscore": 0.9025163363577605,
    "generalization": 0.9602252670445266,
    "metricsAverageWeight": 0.8754918397406535,
    "precision": 0.9432727272727273,
    "precision_alignments": 0.9432727272727273,
    "simplicity": 0.7333333333333333
  }
}