{
  "FULL": {
    "fitness": {
      "average_trace_fitness": 0.8811773504273672,
      "log_fitness": 0.8801428270493283,
      "perc_fit_traces": 0.0,
      "percentage_of_fitting_traces": 0.0
    },
    "fscore": 0.8977062439643306,
    "generalization": 0.880206494790816,
    "metricsAverageWeight": 0.8584774938942524,
    "precision": 0.9159848961611077,
    "simplicity": 0.7575757575757577
  },
  "Top 30": {
    "fitness": {
      "average_trace_fitness": 0.8811356031285438,
      "log_fitness": 0.8798773374470121,
      "perc_fit_traces": 0.0,
      "percentage_of_fitting_traces": 0.0
    },
    "fscore": 0.8890665932129518,
    "generalization": 0.875859152399976,
    "metricsAverageWeight": 0.8529405158756549,
    "precision": 0.8984498160798738,
    "simplicity": 0.7575757575757577
  }
}