{
  "FULL": {
    "fitness": {
      "average_trace_fitness": 0.47,
      "log_fitness": 0.8870417732310315,
      "perc_fit_traces": 47.0,
      "percentage_of_fitting_traces": 47.0
    },
    "fitness_alignments": {
      "averageFitness": 0.3816666666666663,
      "average_trace_fitness": 0.3816666666666663,
      "percFitTraces": 47.0,
      "percentage_of_fitting_traces": 47.0
    },
    "fscore": 0.9399676538236569,
    "generalization": 0.9554647298603524,
    "metricsAverageWeight": 0.9605291218726899,
    "precision": 0.999609984399376,
    "precision_alignments": 0.999609984399376,
    "simplicity": 1.0
  }
}