{
  "FULL": {
    "fitness": {
      "average_trace_fitness": 1.0,
      "log_fitness": 1.0,
      "perc_fit_traces": 100.0,
      "percentage_of_fitting_traces": 100.0
    },
    "fitness_alignments": {
      "averageFitness": 1.0,
      "average_trace_fitness": 1.0,
      "percFitTraces": 100.0,
      "percentage_of_fitting_traces": 100.0
    },
    "fscore": 0.9996504311349336,
    "generalization": 0.9412141249328997,
    "metricsAverageWeight": 0.9295732523229809,
    "precision": 0.9993011065812464,
    "precision_alignments": 0.9993011065812464,
    "simplicity": 0.7777777777777779
  }
}