{
  "FULL": {
    "fitness": {
      "average_trace_fitness": 0.7513727272727281,
      "log_fitness": 0.9132752799859498,
      "perc_fit_traces": 31.1,
      "percentage_of_fitting_traces": 31.1
    },
    "fitness_alignments": {
      "averageFitness": -1.2935,
      "average_trace_fitness": -1.2935,
      "percFitTraces": 31.1,
      "percentage_of_fitting_traces": 31.1
    },
    "fscore": 0.9074244251457467,
    "generalization": 0.9311394681289505,
    "metricsAverageWeight": 0.8821678758274677,
    "precision": 0.9016480595427964,
    "precision_alignments": 0.9016480595427964,
    "simplicity": 0.782608695652174
  }
}