{
  "FULL": {
    "fitness": {
      "average_trace_fitness": 0.9417222222222281,
      "log_fitness": 0.9384076114171257,
      "perc_fit_traces": 50.8,
      "percentage_of_fitting_traces": 50.8
    },
    "fitness_alignments": {
      "averageFitness": 0.9180000000000114,
      "average_trace_fitness": 0.9180000000000114,
      "percFitTraces": 50.8,
      "percentage_of_fitting_traces": 50.8
    },
    "fscore": 0.9489016396378865,
    "generalization": 0.9566511766434792,
    "metricsAverageWeight": 0.9220062872292185,
    "precision": 0.9596330275229358,
    "precision_alignments": 0.9596330275229358,
    "simplicity": 0.8333333333333333
  }
}