{
  "FULL": {
    "fitness": {
      "average_trace_fitness": 0.897294461030031,
      "log_fitness": 0.8987622754137659,
      "perc_fit_traces": 32.2,
      "percentage_of_fitting_traces": 32.2
    },
    "fitness_alignments": {
      "averageFitness": 0.7361666666666604,
      "average_trace_fitness": 0.7361666666666604,
      "percFitTraces": 32.2,
      "percentage_of_fitting_traces": 32.2
    },
    "fscore": 0.920096565822523,
    "generalization": 0.9083579357366172,
    "metricsAverageWeight": 0.8362735384645211,
    "precision": 0.9424683247301736,
    "precision_alignments": 0.9424683247301736,
    "simplicity": 0.5955056179775281
  }
}