{
  "FULL": {
    "fitness": {
      "average_trace_fitness": 0.505,
      "log_fitness": 0.9463995668651868,
      "perc_fit_traces": 50.5,
      "percentage_of_fitting_traces": 50.5
    },
    "fitness_alignments": {
      "averageFitness": 0.4342857142857139,
      "average_trace_fitness": 0.4342857142857139,
      "percFitTraces": 50.5,
      "percentage_of_fitting_traces": 50.5
    },
    "fscore": 0.95312988777494,
    "generalization": 0.9514868837062498,
    "metricsAverageWeight": 0.9216036247035441,
    "precision": 0.9599566196713106,
    "precision_alignments": 0.9599566196713106,
    "simplicity": 0.8285714285714286
  }
}