{
  "FULL": {
    "fitness": {
      "average_trace_fitness": 0.9806585784364913,
      "log_fitness": 0.9698093838975061,
      "perc_fit_traces": 45.0,
      "percentage_of_fitting_traces": 45.0
    },
    "fscore": 0.57625640851354,
    "generalization": 0.8957951045851957,
    "metricsAverageWeight": 0.7407541736641476,
    "precision": 0.40991220617388846,
    "simplicity": 0.6875
  },
  "Top 30": {
    "fitness": {
      "average_trace_fitness": 0.9915692303180186,
      "log_fitness": 0.9836849507735583,
      "perc_fit_traces": 78.79341864716636,
      "percentage_of_fitting_traces": 78.79341864716636
    },
    "fitness_alignments": {
      "averageFitness": 0.2577696526508227,
      "average_trace_fitness": 0.2577696526508227,
      "percFitTraces": 78.79341864716636,
      "percentage_of_fitting_traces": 78.79341864716636
    },
    "fscore": 0.8069721280229442,
    "generalization": 0.8479433090781421,
    "metricsAverageWeight": 0.8008023728568,
    "precision": 0.6840812315754995,
    "precision_alignments": 0.6840812315754995,
    "simplicity": 0.6875
  }
}