{
  "easy_soundness": true,
  "filename": "/mnt/c/Users/s140511/tue/thesis/thesis_data/process_trees_simple_ws2/predictions/2339_gcn_ep144b_cc.json",
  "full": {
    "fitness": {
      "average_trace_fitness": 1.0,
      "log_fitness": 1.0,
      "perc_fit_traces": 100.0,
      "percentage_of_fitting_traces": 100.0
    },
    "fitness_alignments": {
      "averageFitness": 1.0,
      "average_trace_fitness": 1.0,
      "percFitTraces": 100.0,
      "percentage_of_fitting_traces": 100.0
    },
    "fscore": 0.9994022713687986,
    "generalization": 0.959297179437961,
    "metricsAverageWeight": 0.9440710636223881,
    "precision": 0.998805256869773,
    "precision_alignments": 0.998805256869773,
    "simplicity": 0.8181818181818181
  },
  "sound": true,
  "top 30": {
    "fitness": {
      "average_trace_fitness": 1.0,
      "log_fitness": 1.0,
      "perc_fit_traces": 100.0,
      "percentage_of_fitting_traces": 100.0
    },
    "fitness_alignments": {
      "averageFitness": 1.0,
      "average_trace_fitness": 1.0,
      "percFitTraces": 100.0,
      "percentage_of_fitting_traces": 100.0
    },
    "fscore": 0.9994022713687986,
    "generalization": 0.959297179437961,
    "metricsAverageWeight": 0.9440710636223881,
    "precision": 0.998805256869773,
    "precision_alignments": 0.998805256869773,
    "simplicity": 0.8181818181818181
  }
}