{
  "FULL": {
    "fitness": {
      "average_trace_fitness": 0.9483888888888891,
      "log_fitness": 0.9485348177712425,
      "perc_fit_traces": 51.0,
      "percentage_of_fitting_traces": 51.0
    },
    "fitness_alignments": {
      "averageFitness": 0.8775,
      "average_trace_fitness": 0.8775,
      "percFitTraces": 51.0,
      "percentage_of_fitting_traces": 51.0
    },
    "fscore": 0.9735877533419577,
    "generalization": 0.9645327806682054,
    "metricsAverageWeight": 0.978266899609862,
    "precision": 1.0,
    "precision_alignments": 1.0,
    "simplicity": 1.0
  }
}