{
  "FULL": {
    "fitness": {
      "average_trace_fitness": 0.9726224378335897,
      "log_fitness": 0.9571189574711632,
      "perc_fit_traces": 67.8,
      "percentage_of_fitting_traces": 67.8
    },
    "fitness_alignments": {
      "averageFitness": 0.7565,
      "average_trace_fitness": 0.7565,
      "percFitTraces": 67.8,
      "percentage_of_fitting_traces": 67.8
    },
    "fscore": 0.9778199235172402,
    "generalization": 0.9691043342993779,
    "metricsAverageWeight": 0.9520030940416585,
    "precision": 0.9994361432196223,
    "precision_alignments": 0.9994361432196223,
    "simplicity": 0.8823529411764706
  }
}