{
  "FULL": {
    "fitness": {
      "average_trace_fitness": 1.0,
      "log_fitness": 1.0,
      "perc_fit_traces": 100.0,
      "percentage_of_fitting_traces": 100.0
    },
    "fitness_alignments": {
      "averageFitness": 1.0,
      "average_trace_fitness": 1.0,
      "percFitTraces": 100.0,
      "percentage_of_fitting_traces": 100.0
    },
    "fscore": 0.8462720983858569,
    "generalization": 0.9569424483887092,
    "metricsAverageWeight": 0.8670578047095099,
    "precision": 0.7335109926715523,
    "precision_alignments": 0.7335109926715523,
    "simplicity": 0.7777777777777779
  }
}