{
  "FULL": {
    "fitness": {
      "average_trace_fitness": 0.9296258371258396,
      "log_fitness": 0.9041666666666667,
      "perc_fit_traces": 51.4,
      "percentage_of_fitting_traces": 51.4
    },
    "fitness_alignments": {
      "averageFitness": 0.666666666666667,
      "average_trace_fitness": 0.666666666666667,
      "percFitTraces": 51.4,
      "percentage_of_fitting_traces": 51.4
    },
    "fscore": 0.9292714493651626,
    "generalization": 0.9669659229206067,
    "metricsAverageWeight": 0.8961296236156351,
    "precision": 0.955810147299509,
    "precision_alignments": 0.955810147299509,
    "simplicity": 0.7575757575757577
  },
  "Top 30": {
    "fitness": {
      "average_trace_fitness": 0.93592676293662,
      "log_fitness": 0.9153010391398775,
      "perc_fit_traces": 53.3195020746888,
      "percentage_of_fitting_traces": 53.3195020746888
    },
    "fitness_alignments": {
      "averageFitness": 0.7154218533886588,
      "average_trace_fitness": 0.7154218533886588,
      "percFitTraces": 53.3195020746888,
      "percentage_of_fitting_traces": 53.3195020746888
    },
    "fscore": 0.9360466164017425,
    "generalization": 0.9658393815545442,
    "metricsAverageWeight": 0.8991176476467788,
    "precision": 0.9577544123169358,
    "precision_alignments": 0.9577544123169358,
    "simplicity": 0.7575757575757577
  }
}