{
  "easy_soundness": true,
  "filename": "/mnt/c/Users/s140511/tue/thesis/thesis_data/process_trees_simple_ws2/predictions/2360_gcn_ep144b_cc.json",
  "full": {
    "fitness": {
      "average_trace_fitness": 1.0,
      "log_fitness": 1.0,
      "perc_fit_traces": 100.0,
      "percentage_of_fitting_traces": 100.0
    },
    "fitness_alignments": {
      "averageFitness": 1.0,
      "average_trace_fitness": 1.0,
      "percFitTraces": 100.0,
      "percentage_of_fitting_traces": 100.0
    },
    "fscore": 0.9996618765849534,
    "generalization": 0.9662801285051954,
    "metricsAverageWeight": 0.9696618971283931,
    "precision": 0.9993239817475071,
    "precision_alignments": 0.9993239817475071,
    "simplicity": 0.9130434782608695
  },
  "sound": true,
  "top 30": {
    "fitness": {
      "average_trace_fitness": 1.0,
      "log_fitness": 1.0,
      "perc_fit_traces": 100.0,
      "percentage_of_fitting_traces": 100.0
    },
    "fitness_alignments": {
      "averageFitness": 1.0,
      "average_trace_fitness": 1.0,
      "percFitTraces": 100.0,
      "percentage_of_fitting_traces": 100.0
    },
    "fscore": 0.9996618765849534,
    "generalization": 0.9662801285051954,
    "metricsAverageWeight": 0.9696618971283931,
    "precision": 0.9993239817475071,
    "precision_alignments": 0.9993239817475071,
    "simplicity": 0.9130434782608695
  }
}