{
  "FULL": {
    "fitness": {
      "average_trace_fitness": 1.0,
      "log_fitness": 1.0,
      "perc_fit_traces": 100.0,
      "percentage_of_fitting_traces": 100.0
    },
    "fitness_alignments": {
      "averageFitness": 1.0,
      "average_trace_fitness": 1.0,
      "percFitTraces": 100.0,
      "percentage_of_fitting_traces": 100.0
    },
    "fscore": 0.9997984886649874,
    "generalization": 0.9430581715643424,
    "metricsAverageWeight": 0.9231638075228978,
    "precision": 0.9995970585272489,
    "precision_alignments": 0.9995970585272489,
    "simplicity": 0.7499999999999999
  }
}