{
  "FULL": {
    "fitness": {
      "average_trace_fitness": 0.9338606532356571,
      "log_fitness": 0.9310208173898051,
      "perc_fit_traces": 0.0,
      "percentage_of_fitting_traces": 0.0
    },
    "fscore": 0.8512081602584863,
    "generalization": 0.9577008598323649,
    "metricsAverageWeight": 0.8859221255499155,
    "precision": 0.7839990830420082,
    "simplicity": 0.8709677419354838
  }
}