{
  "easy_soundness": false,
  "filename": "/mnt/c/Users/s140511/tue/thesis/thesis_data/process_trees_simple_ws2/predictions/2385_gcn_ep144b_cc.json",
  "full": {
    "fitness": {
      "average_trace_fitness": 0.8952512820512708,
      "log_fitness": 0.8954755860833209,
      "perc_fit_traces": 0.0,
      "percentage_of_fitting_traces": 0.0
    },
    "fscore": 0.9216162789832464,
    "generalization": 0.9497657389442196,
    "metricsAverageWeight": 0.8621041348896633,
    "precision": 0.9493290606849589,
    "simplicity": 0.6538461538461539
  },
  "sound": false,
  "top 30": {
    "fitness": {
      "average_trace_fitness": 0.8952512820512708,
      "log_fitness": 0.8954755860833209,
      "perc_fit_traces": 0.0,
      "percentage_of_fitting_traces": 0.0
    },
    "fscore": 0.9216162789832464,
    "generalization": 0.9497657389442196,
    "metricsAverageWeight": 0.8621041348896633,
    "precision": 0.9493290606849589,
    "simplicity": 0.6538461538461539
  }
}