{
  "easy_soundness": true,
  "filename": "/mnt/c/Users/s140511/tue/thesis/thesis_data/process_trees_simple_ws2/predictions/2392_gcn_ep144b_cc.json",
  "full": {
    "fitness": {
      "average_trace_fitness": 0.7826914567635411,
      "log_fitness": 0.8098223615464994,
      "perc_fit_traces": 0.0,
      "percentage_of_fitting_traces": 0.0
    },
    "fitness_alignments": {
      "averageFitness": 0.5065714285714212,
      "average_trace_fitness": 0.5065714285714212,
      "percFitTraces": 0.0,
      "percentage_of_fitting_traces": 0.0
    },
    "fscore": 0.7212636672705105,
    "generalization": 0.8692552817468004,
    "metricsAverageWeight": 0.7938489907828391,
    "precision": 0.6501644736842105,
    "precision_alignments": 0.6501644736842105,
    "simplicity": 0.8461538461538463
  },
  "sound": true,
  "top 30": {
    "fitness": {
      "average_trace_fitness": 0.7826914567635411,
      "log_fitness": 0.8098223615464994,
      "perc_fit_traces": 0.0,
      "percentage_of_fitting_traces": 0.0
    },
    "fitness_alignments": {
      "averageFitness": 0.5065714285714212,
      "average_trace_fitness": 0.5065714285714212,
      "percFitTraces": 0.0,
      "percentage_of_fitting_traces": 0.0
    },
    "fscore": 0.7212636672705105,
    "generalization": 0.8692552817468004,
    "metricsAverageWeight": 0.7938489907828391,
    "precision": 0.6501644736842105,
    "precision_alignments": 0.6501644736842105,
    "simplicity": 0.8461538461538463
  }
}