{
  "FULL": {
    "fitness": {
      "average_trace_fitness": 0.9604523809523708,
      "log_fitness": 0.9606710643464185,
      "perc_fit_traces": 50.0,
      "percentage_of_fitting_traces": 50.0
    },
    "fitness_alignments": {
      "averageFitness": 0.94999999999999,
      "average_trace_fitness": 0.94999999999999,
      "percFitTraces": 50.0,
      "percentage_of_fitting_traces": 50.0
    },
    "fscore": 0.9781047461564213,
    "generalization": 0.9605051179366049,
    "metricsAverageWeight": 0.9198159547942353,
    "precision": 0.9961828749891559,
    "precision_alignments": 0.9814529914529915,
    "simplicity": 0.7619047619047619
  }
}