{
  "FULL": {
    "fitness": {
      "average_trace_fitness": 0.8978301282051381,
      "log_fitness": 0.8971408695652174,
      "perc_fit_traces": 0.0,
      "percentage_of_fitting_traces": 0.0
    },
    "fscore": 0.8394945685413532,
    "generalization": 0.9633390385327326,
    "metricsAverageWeight": 0.8623222725768549,
    "precision": 0.7888091822094692,
    "simplicity": 0.8
  }
}