{
  "easy_soundness": true,
  "filename": "/mnt/c/Users/s140511/tue/thesis/thesis_data/process_trees_simple_ws2/predictions/2404_gcn_ep144b_cc.json",
  "full": {
    "fitness": {
      "average_trace_fitness": 0.9279090909090794,
      "log_fitness": 0.9394484412470024,
      "perc_fit_traces": 49.5,
      "percentage_of_fitting_traces": 49.5
    },
    "fitness_alignments": {
      "averageFitness": 0.15833333333333335,
      "average_trace_fitness": 0.15833333333333335,
      "percFitTraces": 49.5,
      "percentage_of_fitting_traces": 49.5
    },
    "fscore": 0.9687789799072642,
    "generalization": 0.9572023013412363,
    "metricsAverageWeight": 0.9741626856470598,
    "precision": 1.0,
    "precision_alignments": 1.0,
    "simplicity": 1.0
  },
  "sound": true,
  "top 30": {
    "fitness": {
      "average_trace_fitness": 0.9279090909090794,
      "log_fitness": 0.9394484412470024,
      "perc_fit_traces": 49.5,
      "percentage_of_fitting_traces": 49.5
    },
    "fitness_alignments": {
      "averageFitness": 0.15833333333333335,
      "average_trace_fitness": 0.15833333333333335,
      "percFitTraces": 49.5,
      "percentage_of_fitting_traces": 49.5
    },
    "fscore": 0.9687789799072642,
    "generalization": 0.9572023013412363,
    "metricsAverageWeight": 0.9741626856470598,
    "precision": 1.0,
    "precision_alignments": 1.0,
    "simplicity": 1.0
  }
}