{
  "FULL": {
    "fitness": {
      "average_trace_fitness": 1.0,
      "log_fitness": 1.0,
      "perc_fit_traces": 100.0,
      "percentage_of_fitting_traces": 100.0
    },
    "fitness_alignments": {
      "averageFitness": 1.0,
      "average_trace_fitness": 1.0,
      "percFitTraces": 100.0,
      "percentage_of_fitting_traces": 100.0
    },
    "fscore": 0.8945703742751714,
    "generalization": 0.963343284467595,
    "metricsAverageWeight": 0.8673910732086315,
    "precision": 0.8092513113972342,
    "precision_alignments": 0.8092513113972342,
    "simplicity": 0.6969696969696969
  }
}