{
  "FULL": {
    "fitness": {
      "average_trace_fitness": 0.9308185714285816,
      "log_fitness": 0.9494949494949495,
      "perc_fit_traces": 0.0,
      "percentage_of_fitting_traces": 0.0
    },
    "fscore": 0.9662081987462133,
    "generalization": 0.751152196470689,
    "metricsAverageWeight": 0.8210418795052606,
    "precision": 0.9835203720554039,
    "simplicity": 0.6000000000000001
  },
  "Top 30": {
    "fitness": {
      "average_trace_fitness": 0.9244986757472661,
      "log_fitness": 0.9370714285714286,
      "perc_fit_traces": 0.0,
      "percentage_of_fitting_traces": 0.0
    },
    "fscore": 0.9640726727679103,
    "generalization": 0.7454936973152295,
    "metricsAverageWeight": 0.8188103161867663,
    "precision": 0.9926761388604072,
    "simplicity": 0.6000000000000001
  }
}