{
  "FULL": {
    "fitness": {
      "average_trace_fitness": 1.0,
      "log_fitness": 1.0,
      "perc_fit_traces": 100.0,
      "percentage_of_fitting_traces": 100.0
    },
    "fitness_alignments": {
      "averageFitness": 1.0,
      "average_trace_fitness": 1.0,
      "percFitTraces": 100.0,
      "percentage_of_fitting_traces": 100.0
    },
    "fscore": 0.8613423056490173,
    "generalization": 0.9663471350036481,
    "metricsAverageWeight": 0.8592717426489347,
    "precision": 0.7564541213063763,
    "precision_alignments": 0.7564541213063763,
    "simplicity": 0.7142857142857143
  }
}