{
  "FULL": {
    "fitness": {
      "average_trace_fitness": 1.0,
      "log_fitness": 1.0,
      "perc_fit_traces": 100.0,
      "percentage_of_fitting_traces": 100.0
    },
    "fitness_alignments": {
      "averageFitness": 1.0,
      "average_trace_fitness": 1.0,
      "percFitTraces": 100.0,
      "percentage_of_fitting_traces": 100.0
    },
    "fscore": 0.9997143673236218,
    "generalization": 0.9645992401098764,
    "metricsAverageWeight": 0.9615952697647621,
    "precision": 0.9994288977727013,
    "precision_alignments": 0.9994288977727013,
    "simplicity": 0.8823529411764706
  },
  "Top 30": {
    "fitness": {
      "average_trace_fitness": 1.0,
      "log_fitness": 1.0,
      "perc_fit_traces": 100.0,
      "percentage_of_fitting_traces": 100.0
    },
    "fitness_alignments": {
      "averageFitness": 1.0,
      "average_trace_fitness": 1.0,
      "percFitTraces": 100.0,
      "percentage_of_fitting_traces": 100.0
    },
    "fscore": 0.9997143673236218,
    "generalization": 0.9645992401098764,
    "metricsAverageWeight": 0.9615952697647621,
    "precision": 0.9994288977727013,
    "precision_alignments": 0.9994288977727013,
    "simplicity": 0.8823529411764706
  }
}