{
  "easy_soundness": true,
  "filename": "/mnt/c/Users/s140511/tue/thesis/thesis_data/process_trees_simple_ws2/predictions/2428_gcn_ep144b_cc.json",
  "full": {
    "fitness": {
      "average_trace_fitness": 0.991450360750359,
      "log_fitness": 0.9898034268895196,
      "perc_fit_traces": 90.3,
      "percentage_of_fitting_traces": 90.3
    },
    "fitness_alignments": {
      "averageFitness": 0.967666666666663,
      "average_trace_fitness": 0.967666666666663,
      "percFitTraces": 90.3,
      "percentage_of_fitting_traces": 90.3
    },
    "fscore": 0.994236111878128,
    "generalization": 0.9429972611660108,
    "metricsAverageWeight": 0.9114487700067988,
    "precision": 0.9987086776859504,
    "precision_alignments": 0.9987086776859504,
    "simplicity": 0.7142857142857143
  },
  "sound": true,
  "top 30": {
    "fitness": {
      "average_trace_fitness": 0.991450360750359,
      "log_fitness": 0.9898034268895196,
      "perc_fit_traces": 90.3,
      "percentage_of_fitting_traces": 90.3
    },
    "fitness_alignments": {
      "averageFitness": 0.967666666666663,
      "average_trace_fitness": 0.967666666666663,
      "percFitTraces": 90.3,
      "percentage_of_fitting_traces": 90.3
    },
    "fscore": 0.994236111878128,
    "generalization": 0.9429972611660108,
    "metricsAverageWeight": 0.9114487700067988,
    "precision": 0.9987086776859504,
    "precision_alignments": 0.9987086776859504,
    "simplicity": 0.7142857142857143
  }
}