{
  "FULL": {
    "fitness": {
      "average_trace_fitness": 0.9757999999999944,
      "log_fitness": 0.9738151915169877,
      "perc_fit_traces": 75.8,
      "percentage_of_fitting_traces": 75.8
    },
    "fitness_alignments": {
      "averageFitness": 0.9654285714285793,
      "average_trace_fitness": 0.9654285714285793,
      "percFitTraces": 75.8,
      "percentage_of_fitting_traces": 75.8
    },
    "fscore": 0.9867339107553996,
    "generalization": 0.9639295824627847,
    "metricsAverageWeight": 0.9606266696854193,
    "precision": 1.0,
    "precision_alignments": 1.0,
    "simplicity": 0.9047619047619049
  }
}