{
  "FULL": {
    "fitness": {
      "average_trace_fitness": 0.9440000000000046,
      "log_fitness": 0.9469250210614996,
      "perc_fit_traces": 49.6,
      "percentage_of_fitting_traces": 49.6
    },
    "fitness_alignments": {
      "averageFitness": 0.937,
      "average_trace_fitness": 0.937,
      "percFitTraces": 49.6,
      "percentage_of_fitting_traces": 49.6
    },
    "fscore": 0.9727390739939421,
    "generalization": 0.9639898251027508,
    "metricsAverageWeight": 0.9539191877315387,
    "precision": 1.0,
    "precision_alignments": 1.0,
    "simplicity": 0.9047619047619049
  },
  "Top 30": {
    "fitness": {
      "average_trace_fitness": 0.9440000000000046,
      "log_fitness": 0.9469250210614996,
      "perc_fit_traces": 49.6,
      "percentage_of_fitting_traces": 49.6
    },
    "fitness_alignments": {
      "averageFitness": 0.937,
      "average_trace_fitness": 0.937,
      "percFitTraces": 49.6,
      "percentage_of_fitting_traces": 49.6
    },
    "fscore": 0.9727390739939421,
    "generalization": 0.9639898251027508,
    "metricsAverageWeight": 0.9539191877315387,
    "precision": 1.0,
    "precision_alignments": 1.0,
    "simplicity": 0.9047619047619049
  }
}