{
  "FULL": {
    "fitness": {
      "average_trace_fitness": 1.0,
      "log_fitness": 1.0,
      "perc_fit_traces": 100.0,
      "percentage_of_fitting_traces": 100.0
    },
    "fitness_alignments": {
      "averageFitness": 1.0,
      "average_trace_fitness": 1.0,
      "percFitTraces": 100.0,
      "percentage_of_fitting_traces": 100.0
    },
    "fscore": 0.9872853269056945,
    "generalization": 0.9721899536890622,
    "metricsAverageWeight": 0.9510556827746227,
    "precision": 0.9748899202665715,
    "precision_alignments": 0.9748899202665715,
    "simplicity": 0.8571428571428572
  }
}