{
  "FULL": {
    "fitness": {
      "average_trace_fitness": 1.0,
      "log_fitness": 1.0,
      "perc_fit_traces": 100.0,
      "percentage_of_fitting_traces": 100.0
    },
    "fitness_alignments": {
      "averageFitness": 1.0,
      "average_trace_fitness": 1.0,
      "percFitTraces": 100.0,
      "percentage_of_fitting_traces": 100.0
    },
    "fscore": 0.9872853269056945,
    "generalization": 0.9718966667436202,
    "metricsAverageWeight": 0.9533633134192147,
    "precision": 0.9748899202665715,
    "precision_alignments": 0.9748899202665715,
    "simplicity": 0.8666666666666667
  }
}