{
  "FULL": {
    "fitness": {
      "average_trace_fitness": 1.0,
      "log_fitness": 1.0,
      "perc_fit_traces": 100.0,
      "percentage_of_fitting_traces": 100.0
    },
    "fitness_alignments": {
      "averageFitness": 1.0,
      "average_trace_fitness": 1.0,
      "percFitTraces": 100.0,
      "percentage_of_fitting_traces": 100.0
    },
    "fscore": 0.9049188804860707,
    "generalization": 0.9556041708681096,
    "metricsAverageWeight": 0.8954882225068987,
    "precision": 0.8263487191594853,
    "precision_alignments": 0.8263487191594853,
    "simplicity": 0.8
  }
}