{
  "FULL": {
    "fitness": {
      "average_trace_fitness": 0.9436602147852265,
      "log_fitness": 0.9447696896056557,
      "perc_fit_traces": 0.0,
      "percentage_of_fitting_traces": 0.0
    },
    "fscore": 0.8115829252090615,
    "generalization": 0.9673211029431509,
    "metricsAverageWeight": 0.8629925318458058,
    "precision": 0.7113079062629879,
    "simplicity": 0.8285714285714286
  }
}