{
  "easy_soundness": true,
  "filename": "/mnt/c/Users/s140511/tue/thesis/thesis_data/process_trees_simple_ws2/predictions/2449_gcn_ep144b_cc.json",
  "full": {
    "fitness": {
      "average_trace_fitness": 0.9049523636785495,
      "log_fitness": 0.8980948393174919,
      "perc_fit_traces": 2.1,
      "percentage_of_fitting_traces": 2.1
    },
    "fitness_alignments": {
      "averageFitness": 0.5675833333333289,
      "average_trace_fitness": 0.5675833333333289,
      "percFitTraces": 2.1,
      "percentage_of_fitting_traces": 2.1
    },
    "fscore": 0.9449152531894912,
    "generalization": 0.9674453524084644,
    "metricsAverageWeight": 0.9392907454177115,
    "precision": 0.9968859478396264,
    "precision_alignments": 0.9968859478396264,
    "simplicity": 0.8947368421052632
  },
  "sound": true,
  "top 30": {
    "fitness": {
      "average_trace_fitness": 0.9049523636785495,
      "log_fitness": 0.8980948393174919,
      "perc_fit_traces": 2.1,
      "percentage_of_fitting_traces": 2.1
    },
    "fitness_alignments": {
      "averageFitness": 0.5675833333333289,
      "average_trace_fitness": 0.5675833333333289,
      "percFitTraces": 2.1,
      "percentage_of_fitting_traces": 2.1
    },
    "fscore": 0.9449152531894912,
    "generalization": 0.9674453524084644,
    "metricsAverageWeight": 0.9392907454177115,
    "precision": 0.9968859478396264,
    "precision_alignments": 0.9968859478396264,
    "simplicity": 0.8947368421052632
  }
}