{
  "FULL": {
    "fitness": {
      "average_trace_fitness": 0.966493993506495,
      "log_fitness": 0.9695121951219512,
      "perc_fit_traces": 0.0,
      "percentage_of_fitting_traces": 0.0
    },
    "fscore": 0.7781893582416838,
    "generalization": 0.9687653993346588,
    "metricsAverageWeight": 0.8600154130293385,
    "precision": 0.6499322058088917,
    "simplicity": 0.851851851851852
  }
}