{
  "FULL": {
    "fitness": {
      "average_trace_fitness": 0.9747346670423604,
      "log_fitness": 0.9562995144390494,
      "perc_fit_traces": 73.15541601255887,
      "percentage_of_fitting_traces": 73.15541601255887
    },
    "fitness_alignments": {
      "averageFitness": 0.8657770800627943,
      "average_trace_fitness": 0.8657770800627943,
      "percFitTraces": 73.15541601255887,
      "percentage_of_fitting_traces": 73.15541601255887
    },
    "fscore": 0.960995662579813,
    "generalization": 0.9156850957769334,
    "metricsAverageWeight": 0.8942133016396199,
    "precision": 0.9657381615598886,
    "precision_alignments": 0.9657381615598886,
    "simplicity": 0.7391304347826086
  }
}