{
  "FULL": {
    "fitness": {
      "average_trace_fitness": 0.9764285714285768,
      "log_fitness": 0.9631037567084079,
      "perc_fit_traces": 83.5,
      "percentage_of_fitting_traces": 83.5
    },
    "fitness_alignments": {
      "averageFitness": 0.9175,
      "average_trace_fitness": 0.9175,
      "percFitTraces": 83.5,
      "percentage_of_fitting_traces": 83.5
    },
    "fscore": 0.9762396420554128,
    "generalization": 0.9429172072418087,
    "metricsAverageWeight": 0.9322732758134247,
    "precision": 0.9897388059701493,
    "precision_alignments": 0.9897388059701493,
    "simplicity": 0.8333333333333333
  }
}