{
  "FULL": {
    "fitness": {
      "average_trace_fitness": 1.0,
      "log_fitness": 1.0,
      "perc_fit_traces": 100.0,
      "percentage_of_fitting_traces": 100.0
    },
    "fitness_alignments": {
      "averageFitness": 1.0,
      "average_trace_fitness": 1.0,
      "percFitTraces": 100.0,
      "percentage_of_fitting_traces": 100.0
    },
    "fscore": 0.9995980707395499,
    "generalization": 0.9647407354041736,
    "metricsAverageWeight": 0.9525227615003928,
    "precision": 0.9991964644435516,
    "precision_alignments": 0.9991964644435516,
    "simplicity": 0.8461538461538463
  }
}