{
  "FULL": {
    "fitness": {
      "average_trace_fitness": 0.9805115491534602,
      "log_fitness": 0.9798608658697903,
      "perc_fit_traces": 86.8,
      "percentage_of_fitting_traces": 86.8
    },
    "fitness_alignments": {
      "averageFitness": 0.973599999999994,
      "average_trace_fitness": 0.973599999999994,
      "percFitTraces": 86.8,
      "percentage_of_fitting_traces": 86.8
    },
    "fscore": 0.8843914229374391,
    "generalization": 0.9407209310357889,
    "metricsAverageWeight": 0.8433786105112132,
    "precision": 0.8058738216098622,
    "precision_alignments": 0.8058738216098622,
    "simplicity": 0.6470588235294118
  }
}