{
  "FULL": {
    "fitness": {
      "average_trace_fitness": 0.9669910714285755,
      "log_fitness": 0.9660549192769422,
      "perc_fit_traces": 50.8,
      "percentage_of_fitting_traces": 50.8
    },
    "fitness_alignments": {
      "averageFitness": 0.9453333333333458,
      "average_trace_fitness": 0.9453333333333458,
      "percFitTraces": 50.8,
      "percentage_of_fitting_traces": 50.8
    },
    "fscore": 0.9749054731450231,
    "generalization": 0.9626288547691758,
    "metricsAverageWeight": 0.9376103269550062,
    "precision": 0.9839196959360687,
    "precision_alignments": 0.9839196959360687,
    "simplicity": 0.8378378378378379
  }
}