{
  "FULL": {
    "fitness": {
      "average_trace_fitness": 1.0,
      "log_fitness": 1.0,
      "perc_fit_traces": 100.0,
      "percentage_of_fitting_traces": 100.0
    },
    "fitness_alignments": {
      "averageFitness": 1.0,
      "average_trace_fitness": 1.0,
      "percFitTraces": 100.0,
      "percentage_of_fitting_traces": 100.0
    },
    "fscore": 0.9993455497382199,
    "generalization": 0.9557819395159042,
    "metricsAverageWeight": 0.9330629182050425,
    "precision": 0.9986919555264879,
    "precision_alignments": 0.9986919555264879,
    "simplicity": 0.7777777777777779
  }
}