{
  "easy_soundness": false,
  "filename": "/mnt/c/Users/s140511/tue/thesis/thesis_data/process_trees_simple_ws2/predictions/2510_gcn_ep144b_cc.json",
  "full": {
    "fitness": {
      "average_trace_fitness": 0.8586659801628868,
      "log_fitness": 0.8666780412294783,
      "perc_fit_traces": 0.0,
      "percentage_of_fitting_traces": 0.0
    },
    "fscore": 0.9280136265862404,
    "generalization": 0.829184033172611,
    "metricsAverageWeight": 0.8486385074821443,
    "precision": 0.9986919555264879,
    "simplicity": 0.7000000000000001
  },
  "sound": false,
  "top 30": {
    "fitness": {
      "average_trace_fitness": 0.8586659801628868,
      "log_fitness": 0.8666780412294783,
      "perc_fit_traces": 0.0,
      "percentage_of_fitting_traces": 0.0
    },
    "fscore": 0.9280136265862404,
    "generalization": 0.829184033172611,
    "metricsAverageWeight": 0.8486385074821443,
    "precision": 0.9986919555264879,
    "simplicity": 0.7000000000000001
  }
}