{
  "FULL": {
    "fitness": {
      "average_trace_fitness": 0.9486999999999883,
      "log_fitness": 0.9460737937559129,
      "perc_fit_traces": 48.7,
      "percentage_of_fitting_traces": 48.7
    },
    "fitness_alignments": {
      "averageFitness": 0.9267142857143007,
      "average_trace_fitness": 0.9267142857143007,
      "percFitTraces": 48.7,
      "percentage_of_fitting_traces": 48.7
    },
    "fscore": 0.9633138856425977,
    "generalization": 0.9645043411772831,
    "metricsAverageWeight": 0.9491335010674447,
    "precision": 0.9811939645746774,
    "precision_alignments": 0.9811939645746774,
    "simplicity": 0.9047619047619049
  }
}