{
  "FULL": {
    "fitness": {
      "average_trace_fitness": 1.0,
      "log_fitness": 1.0,
      "perc_fit_traces": 100.0,
      "percentage_of_fitting_traces": 100.0
    },
    "fitness_alignments": {
      "averageFitness": 1.0,
      "average_trace_fitness": 1.0,
      "percFitTraces": 100.0,
      "percentage_of_fitting_traces": 100.0
    },
    "fscore": 0.9665355521936461,
    "generalization": 0.9616983469140945,
    "metricsAverageWeight": 0.928779620850041,
    "precision": 0.9352383183042511,
    "precision_alignments": 0.9352383183042511,
    "simplicity": 0.8181818181818181
  }
}