{
  "FULL": {
    "fitness": {
      "average_trace_fitness": 1.0,
      "log_fitness": 1.0,
      "perc_fit_traces": 100.0,
      "percentage_of_fitting_traces": 100.0
    },
    "fitness_alignments": {
      "averageFitness": 1.0,
      "average_trace_fitness": 1.0,
      "percFitTraces": 100.0,
      "percentage_of_fitting_traces": 100.0
    },
    "fscore": 0.9047891078739407,
    "generalization": 0.954431455665526,
    "metricsAverageWeight": 0.8784742755771078,
    "precision": 0.8261323133095714,
    "precision_alignments": 0.8261323133095714,
    "simplicity": 0.7333333333333333
  }
}