{
  "FULL": {
    "fitness": {
      "average_trace_fitness": 1.0,
      "log_fitness": 1.0,
      "perc_fit_traces": 100.0,
      "percentage_of_fitting_traces": 100.0
    },
    "fitness_alignments": {
      "averageFitness": 1.0,
      "average_trace_fitness": 1.0,
      "percFitTraces": 100.0,
      "percentage_of_fitting_traces": 100.0
    },
    "fscore": 0.9999541094947455,
    "generalization": 0.969411815818758,
    "metricsAverageWeight": 0.9923300097549832,
    "precision": 0.9999082232011748,
    "precision_alignments": 0.9999082232011748,
    "simplicity": 1.0
  }
}