{
  "easy_soundness": true,
  "filename": "/mnt/c/Users/s140511/tue/thesis/thesis_data/process_trees_simple_ws2/predictions/2549_gcn_ep144b_cc.json",
  "full": {
    "fitness": {
      "average_trace_fitness": 0.9760333333333245,
      "log_fitness": 0.9746594404570089,
      "perc_fit_traces": 65.4,
      "percentage_of_fitting_traces": 65.4
    },
    "fitness_alignments": {
      "averageFitness": 0.961555555555559,
      "average_trace_fitness": 0.961555555555559,
      "percFitTraces": 65.4,
      "percentage_of_fitting_traces": 65.4
    },
    "fscore": 0.9871671241005859,
    "generalization": 0.9603747286716379,
    "metricsAverageWeight": 0.9543467775762794,
    "precision": 1.0,
    "precision_alignments": 1.0,
    "simplicity": 0.8823529411764706
  },
  "sound": true,
  "top 30": {
    "fitness": {
      "average_trace_fitness": 0.9760333333333245,
      "log_fitness": 0.9746594404570089,
      "perc_fit_traces": 65.4,
      "percentage_of_fitting_traces": 65.4
    },
    "fitness_alignments": {
      "averageFitness": 0.961555555555559,
      "average_trace_fitness": 0.961555555555559,
      "percFitTraces": 65.4,
      "percentage_of_fitting_traces": 65.4
    },
    "fscore": 0.9871671241005859,
    "generalization": 0.9603747286716379,
    "metricsAverageWeight": 0.9543467775762794,
    "precision": 1.0,
    "precision_alignments": 1.0,
    "simplicity": 0.8823529411764706
  }
}