{
  "FULL": {
    "fitness": {
      "average_trace_fitness": 0.8822458624708623,
      "log_fitness": 0.8898532854033272,
      "perc_fit_traces": 21.7,
      "percentage_of_fitting_traces": 21.7
    },
    "fitness_alignments": {
      "averageFitness": 0.722625,
      "average_trace_fitness": 0.722625,
      "percFitTraces": 21.7,
      "percentage_of_fitting_traces": 21.7
    },
    "fscore": 0.9286974786665337,
    "generalization": 0.8964179183484031,
    "metricsAverageWeight": 0.896482594999512,
    "precision": 0.9710877476748888,
    "precision_alignments": 0.9710877476748888,
    "simplicity": 0.8285714285714286
  }
}