{
  "FULL": {
    "fitness": {
      "average_trace_fitness": 1.0,
      "log_fitness": 1.0,
      "perc_fit_traces": 100.0,
      "percentage_of_fitting_traces": 100.0
    },
    "fitness_alignments": {
      "averageFitness": 0.0,
      "average_trace_fitness": 0.0,
      "percFitTraces": 0.0,
      "percentage_of_fitting_traces": 0.0
    },
    "fscore": 0.9996744438415627,
    "generalization": 0.8728047183024056,
    "metricsAverageWeight": 0.9263717878058755,
    "precision": 0.9993490995877631,
    "precision_alignments": 0.9993490995877631,
    "simplicity": 0.8333333333333333
  }
}