{
  "FULL": {
    "fitness": {
      "average_trace_fitness": 0.9378945082859449,
      "log_fitness": 0.9490249870245422,
      "perc_fit_traces": 28.0,
      "percentage_of_fitting_traces": 28.0
    },
    "fitness_alignments": {
      "averageFitness": 0.713,
      "average_trace_fitness": 0.713,
      "percFitTraces": 28.0,
      "percentage_of_fitting_traces": 28.0
    },
    "fscore": 0.9340752948821099,
    "generalization": 0.9689418489031473,
    "metricsAverageWeight": 0.9038334769150609,
    "precision": 0.9195892939547762,
    "precision_alignments": 0.9195892939547762,
    "simplicity": 0.7777777777777779
  }
}