{
  "FULL": {
    "fitness": {
      "average_trace_fitness": 0.9261136363636259,
      "log_fitness": 0.9271155033971588,
      "perc_fit_traces": 17.4,
      "percentage_of_fitting_traces": 17.4
    },
    "fitness_alignments": {
      "averageFitness": 0.8592857142857109,
      "average_trace_fitness": 0.8592857142857109,
      "percFitTraces": 17.4,
      "percentage_of_fitting_traces": 17.4
    },
    "fscore": 0.9172434343440966,
    "generalization": 0.8867556603445244,
    "metricsAverageWeight": 0.8819755413751277,
    "precision": 0.9075793888556022,
    "precision_alignments": 0.9075793888556022,
    "simplicity": 0.8064516129032256
  }
}