{
  "FULL": {
    "fitness": {
      "average_trace_fitness": 1.0,
      "log_fitness": 1.0,
      "perc_fit_traces": 100.0,
      "percentage_of_fitting_traces": 100.0
    },
    "fitness_alignments": {
      "averageFitness": 1.0,
      "average_trace_fitness": 1.0,
      "percFitTraces": 100.0,
      "percentage_of_fitting_traces": 100.0
    },
    "fscore": 0.9650305233071034,
    "generalization": 0.9451049747203649,
    "metricsAverageWeight": 0.9007548274763783,
    "precision": 0.9324241391067167,
    "precision_alignments": 0.9324241391067167,
    "simplicity": 0.7254901960784313
  }
}