{
  "FULL": {
    "fitness": {
      "average_trace_fitness": 0.9742222222222281,
      "log_fitness": 0.9763192814126773,
      "perc_fit_traces": 76.8,
      "percentage_of_fitting_traces": 76.8
    },
    "fitness_alignments": {
      "averageFitness": 0.942,
      "average_trace_fitness": 0.942,
      "percFitTraces": 76.8,
      "percentage_of_fitting_traces": 76.8
    },
    "fscore": 0.9880177667596323,
    "generalization": 0.9605379135114606,
    "metricsAverageWeight": 0.9642142987310345,
    "precision": 1.0,
    "precision_alignments": 1.0,
    "simplicity": 0.92
  }
}