{
  "FULL": {
    "fitness": {
      "average_trace_fitness": 1.0,
      "log_fitness": 1.0,
      "perc_fit_traces": 100.0,
      "percentage_of_fitting_traces": 100.0
    },
    "fitness_alignments": {
      "averageFitness": 1.0,
      "average_trace_fitness": 1.0,
      "percFitTraces": 100.0,
      "percentage_of_fitting_traces": 100.0
    },
    "fscore": 0.9994587646302686,
    "generalization": 0.965984656900645,
    "metricsAverageWeight": 0.9712256929289276,
    "precision": 0.9989181148150652,
    "precision_alignments": 0.9989181148150652,
    "simplicity": 0.92
  }
}