{
  "FULL": {
    "fitness": {
      "average_trace_fitness": 0.9388301282051211,
      "log_fitness": 0.9387742941452619,
      "perc_fit_traces": 0.0,
      "percentage_of_fitting_traces": 0.0
    },
    "fscore": 0.8448627092420173,
    "generalization": 0.965984656900645,
    "metricsAverageWeight": 0.8811606020644642,
    "precision": 0.7680316053600982,
    "simplicity": 0.851851851851852
  }
}