{
  "FULL": {
    "fitness": {
      "average_trace_fitness": 1.0,
      "log_fitness": 1.0,
      "perc_fit_traces": 100.0,
      "percentage_of_fitting_traces": 100.0
    },
    "fitness_alignments": {
      "averageFitness": 1.0,
      "average_trace_fitness": 1.0,
      "percFitTraces": 100.0,
      "percentage_of_fitting_traces": 100.0
    },
    "fscore": 0.9952160614853737,
    "generalization": 0.9682025098818104,
    "metricsAverageWeight": 0.96335425729118,
    "precision": 0.990477677177646,
    "precision_alignments": 0.990477677177646,
    "simplicity": 0.8947368421052632
  }
}