{
  "FULL": {
    "fitness": {
      "average_trace_fitness": 1.0,
      "log_fitness": 1.0,
      "perc_fit_traces": 100.0,
      "percentage_of_fitting_traces": 100.0
    },
    "fitness_alignments": {
      "averageFitness": 1.0,
      "average_trace_fitness": 1.0,
      "percFitTraces": 100.0,
      "percentage_of_fitting_traces": 100.0
    },
    "fscore": 0.9766348273328435,
    "generalization": 0.9351718243071501,
    "metricsAverageWeight": 0.9135535737069527,
    "precision": 0.9543365881677197,
    "precision_alignments": 0.9543365881677197,
    "simplicity": 0.7647058823529413
  }
}