{
  "FULL": {
    "fitness": {
      "average_trace_fitness": 1.0,
      "log_fitness": 1.0,
      "perc_fit_traces": 100.0,
      "percentage_of_fitting_traces": 100.0
    },
    "fitness_alignments": {
      "averageFitness": 1.0,
      "average_trace_fitness": 1.0,
      "percFitTraces": 100.0,
      "percentage_of_fitting_traces": 100.0
    },
    "fscore": 0.9996377905221853,
    "generalization": 0.9653143772569913,
    "metricsAverageWeight": 0.9578142218161085,
    "precision": 0.999275843340776,
    "precision_alignments": 0.999275843340776,
    "simplicity": 0.8666666666666667
  }
}