{
  "easy_soundness": true,
  "filename": "/mnt/c/Users/s140511/tue/thesis/thesis_data/process_trees_simple_ws2/predictions/2610_gcn_ep144b_cc.json",
  "full": {
    "fitness": {
      "average_trace_fitness": 1.0,
      "log_fitness": 1.0,
      "perc_fit_traces": 100.0,
      "percentage_of_fitting_traces": 100.0
    },
    "fitness_alignments": {
      "averageFitness": 1.0,
      "average_trace_fitness": 1.0,
      "percFitTraces": 100.0,
      "percentage_of_fitting_traces": 100.0
    },
    "fscore": 0.9981019054896838,
    "generalization": 0.9680427252080186,
    "metricsAverageWeight": 0.9616516673096348,
    "precision": 0.9962110028540498,
    "precision_alignments": 0.9962110028540498,
    "simplicity": 0.8823529411764706
  },
  "sound": true,
  "top 30": {
    "fitness": {
      "average_trace_fitness": 1.0,
      "log_fitness": 1.0,
      "perc_fit_traces": 100.0,
      "percentage_of_fitting_traces": 100.0
    },
    "fitness_alignments": {
      "averageFitness": 1.0,
      "average_trace_fitness": 1.0,
      "percFitTraces": 100.0,
      "percentage_of_fitting_traces": 100.0
    },
    "fscore": 0.9981019054896838,
    "generalization": 0.9680427252080186,
    "metricsAverageWeight": 0.9616516673096348,
    "precision": 0.9962110028540498,
    "precision_alignments": 0.9962110028540498,
    "simplicity": 0.8823529411764706
  }
}