{
  "FULL": {
    "fitness": {
      "average_trace_fitness": 1.0,
      "log_fitness": 1.0,
      "perc_fit_traces": 100.0,
      "percentage_of_fitting_traces": 100.0
    },
    "fitness_alignments": {
      "averageFitness": 1.0,
      "average_trace_fitness": 1.0,
      "percFitTraces": 100.0,
      "percentage_of_fitting_traces": 100.0
    },
    "fscore": 0.9975827801864713,
    "generalization": 0.9746010883132952,
    "metricsAverageWeight": 0.9686350527930288,
    "precision": 0.995177218096915,
    "precision_alignments": 0.995177218096915,
    "simplicity": 0.9047619047619049
  }
}