{
  "FULL": {
    "fitness": {
      "average_trace_fitness": 1.0,
      "log_fitness": 1.0,
      "perc_fit_traces": 100.0,
      "percentage_of_fitting_traces": 100.0
    },
    "fitness_alignments": {
      "averageFitness": 1.0,
      "average_trace_fitness": 1.0,
      "percFitTraces": 100.0,
      "percentage_of_fitting_traces": 100.0
    },
    "fscore": 0.9975827801864713,
    "generalization": 0.976160980905947,
    "metricsAverageWeight": 0.9595012164173822,
    "precision": 0.995177218096915,
    "precision_alignments": 0.995177218096915,
    "simplicity": 0.8666666666666667
  }
}