{
  "L": {
    "fitness": 0.9241303192576544,
    "fitness_alignments": 0.8773295808933964,
    "fitness_alignments_percFitTraces": 41.395793499043975,
    "fitness_entropy_exact": 0.0,
    "fitness_entropy_partial": 0.640045035356862,
    "fitness_percFitTraces": 41.395793499043975,
    "fscore": 0.9469085698437645,
    "fscore_alignments": 0.9346569614866312,
    "fscore_entropy_exact": 0,
    "fscore_entropy_partial": 0.726083983137825,
    "generalization": 0.9683051009731982,
    "metricsAverageWeight": 0.9364066123500557,
    "precision": 0.9708380879928997,
    "precision_alignments": 1.0,
    "precision_entropy_exact": 0.0,
    "precision_entropy_partial": 0.8388471879306427,
    "simplicity": 0.8823529411764706
  },
  "L_5": {
    "fitness": 0.970550576184379,
    "fitness_alignments": 0.9752015568529211,
    "fitness_alignments_percFitTraces": 63.55296080066722,
    "fitness_entropy_exact": 0.0,
    "fitness_entropy_partial": 0.994088063482129,
    "fitness_percFitTraces": 63.55296080066722,
    "fscore": 0.9498871924541051,
    "fscore_alignments": 0.9521092781841244,
    "fscore_entropy_exact": 0,
    "fscore_entropy_partial": 0.9098935452885317,
    "generalization": 0.9584662143660982,
    "metricsAverageWeight": 0.9353637651640518,
    "precision": 0.9300853289292595,
    "precision_alignments": 0.9300853289292595,
    "precision_entropy_exact": 0.0,
    "precision_entropy_partial": 0.8388471888371664,
    "simplicity": 0.8823529411764706
  },
  "args": {
    "beam_length": 20,
    "beam_width": -50,
    "config": "config.json",
    "conformanceChecking": true,
    "dataDirectory": "/mnt/c/Users/s140511/tue/thesis/APDGnn_data/evaluation_data/BPI_2020_Prepaid_travel_cost/",
    "export": "simple",
    "import_petrinet": null,
    "length_normalization": 0,
    "logFilename": "data",
    "miner": "gnn",
    "model_filename": "/mnt/c/Users/s140511/tue/thesis/git_clean/project/ml_models/models/simple_ws2_frequency_144_",
    "number_of_petrinets": 20,
    "prom": false,
    "timeout": null,
    "top_x_traces": 5,
    "visualize": false
  },
  "easy_soundness": true,
  "log_filename": "/mnt/c/Users/s140511/tue/thesis/APDGnn_data/evaluation_data/BPI_2020_Prepaid_travel_cost/data",
  "petrinet_filename": "/mnt/c/Users/s140511/tue/thesis/APDGnn_data/evaluation_data/BPI_2020_Prepaid_travel_cost/predictions/data_gcn_simple_8",
  "sound": true,
  "soundness_info": {
    "s_components": [
      [
        "Request For Payment APPROVED by BUDGET OWNER",
        "Request Payment",
        "p6",
        "sink",
        ">",
        "Permit SUBMITTED by EMPLOYEE",
        "Payment Handled",
        "p3",
        "p0",
        "p7",
        "st1",
        "p2",
        "Permit APPROVED by ADMINISTRATION",
        "p11",
        "p1",
        "p8",
        "Permit APPROVED by SUPERVISOR",
        "p10",
        "p9",
        "Permit APPROVED by BUDGET OWNER",
        "Request For Payment FINAL_APPROVED by SUPERVISOR",
        "|",
        "short_circuited_transition",
        "Request For Payment SUBMITTED by EMPLOYEE",
        "p4",
        "source",
        "st0",
        "Permit FINAL_APPROVED by SUPERVISOR",
        "Request For Payment APPROVED by ADMINISTRATION",
        "p5",
        "Permit FINAL_APPROVED by DIRECTOR"
      ]
    ],
    "uncovered_places_s_component": []
  }
}