{
  "L": {
    "fitness": 0.9433515336438092,
    "fitness_alignments": 0.8906545571721364,
    "fitness_alignments_percFitTraces": 56.54875717017208,
    "fitness_entropy_exact": 0.0,
    "fitness_entropy_partial": 0.643851444939988,
    "fitness_percFitTraces": 56.54875717017208,
    "fscore": 0.944251272537228,
    "fscore_alignments": 0.9296512749275532,
    "fscore_entropy_exact": 0,
    "fscore_entropy_partial": 0.7093470614090999,
    "generalization": 0.9673810040739513,
    "metricsAverageWeight": 0.9234307762274541,
    "precision": 0.9451527293542176,
    "precision_alignments": 0.9722192484744674,
    "precision_entropy_exact": 0.0,
    "precision_entropy_partial": 0.7896767145231283,
    "simplicity": 0.8378378378378379
  },
  "L_5": {
    "fitness": 0.9916831683168317,
    "fitness_alignments": 0.9924937447873244,
    "fitness_alignments_percFitTraces": 89.49124270225188,
    "fitness_entropy_exact": 0.0,
    "fitness_entropy_partial": 1.00000000020718,
    "fitness_percFitTraces": 89.49124270225188,
    "fscore": 0.9398809680569672,
    "fscore_alignments": 0.940244863906401,
    "fscore_entropy_exact": 0,
    "fscore_entropy_partial": 0.8824797332423834,
    "generalization": 0.957573801890894,
    "metricsAverageWeight": 0.9200792135957916,
    "precision": 0.8932220463376025,
    "precision_alignments": 0.8932220463376025,
    "precision_entropy_exact": 0.0,
    "precision_entropy_partial": 0.7896767149095558,
    "simplicity": 0.8378378378378379
  },
  "args": {
    "beam_length": 20,
    "beam_width": -50,
    "config": "config.json",
    "conformanceChecking": true,
    "dataDirectory": "/mnt/c/Users/s140511/tue/thesis/APDGnn_data/evaluation_data/BPI_2020_Prepaid_travel_cost/",
    "export": "medium",
    "import_petrinet": null,
    "length_normalization": 0,
    "logFilename": "data",
    "miner": "gnn",
    "model_filename": "/mnt/c/Users/s140511/tue/thesis/git_clean/project/ml_models/models/model_candidates_frequency_new_036",
    "number_of_petrinets": 20,
    "prom": false,
    "timeout": null,
    "top_x_traces": 5,
    "visualize": false
  },
  "easy_soundness": true,
  "log_filename": "/mnt/c/Users/s140511/tue/thesis/APDGnn_data/evaluation_data/BPI_2020_Prepaid_travel_cost/data",
  "petrinet_filename": "/mnt/c/Users/s140511/tue/thesis/APDGnn_data/evaluation_data/BPI_2020_Prepaid_travel_cost/predictions/data_gcn_medium_0",
  "sound": true,
  "soundness_info": {
    "s_components": [
      [
        "st1",
        "p9",
        "Request For Payment FINAL_APPROVED by SUPERVISOR",
        ">",
        "p5",
        "Permit FINAL_APPROVED by DIRECTOR",
        "Request Payment",
        "p2",
        "Payment Handled",
        "short_circuited_transition",
        "p0",
        "p8",
        "p10",
        "p4",
        "Permit APPROVED by BUDGET OWNER",
        "p6",
        "p7",
        "st0",
        "Request For Payment SUBMITTED by EMPLOYEE",
        "Permit FINAL_APPROVED by SUPERVISOR",
        "Permit APPROVED by ADMINISTRATION",
        "st2",
        "p1",
        "sink",
        "p3",
        "source",
        "p11",
        "Permit SUBMITTED by EMPLOYEE",
        "Permit APPROVED by SUPERVISOR",
        "Request For Payment APPROVED by ADMINISTRATION",
        "Request For Payment APPROVED by BUDGET OWNER",
        "|"
      ]
    ],
    "uncovered_places_s_component": []
  }
}