{
  "easy_soundness": true,
  "filename": "/home/dominique/TUe/thesis/git_data/evaluation_data/BPI_2017_A/predictions/data_gcn_beam_new_5_cc.txt",
  "full": {
    "fitness": "0.92746",
    "fitness_alignments": "0.92112",
    "fitness_alignments_percFitTraces": "16.66825",
    "fscore": "0.96220",
    "fscore_alignments": "0.9587796644054208",
    "generalization": "0.99261",
    "metricsAverageWeight": "0.93154",
    "precision": "0.99965",
    "precision_alignments": "0.99965",
    "simplicity": "0.80645",
    "entropia_precision              ": "0.997013061288196",
    "entropia_recall                 ": "0.818105964861804"
  },
  "s_components": [
    [
      "p0",
      "p5",
      "st1",
      "A_Complete",
      "A_Create Application",
      "A_Submitted",
      ">",
      "|",
      "A_Pending",
      "source",
      "A_Incomplete",
      "short_circuited_transition",
      "A_Cancelled",
      "p1",
      "st0",
      "p2",
      "A_Accepted",
      "p7",
      "p3",
      "A_Validating",
      "A_Concept",
      "p6",
      "sink",
      "A_Denied",
      "p4",
      "p8"
    ]
  ],
  "sound": true,
  "top 30": {
    "fitness": "0.92746",
    "fitness_alignments": "0.92112",
    "fitness_alignments_percFitTraces": "16.66825",
    "fscore": "0.96220",
    "generalization": "0.99261",
    "metricsAverageWeight": "0.93154",
    "precision": "0.99965",
    "precision_alignments": "0.99965",
    "simplicity": "0.80645"
  },
  "uncovered_places_s_component": []
}