{
  "easy_soundness": true,
  "filename": "/home/dominique/TUe/thesis/git_data/evaluation_data/BPI_2012_A/predictions/data_gcn_beam_new_0_cc.txt",
  "full": {
    "fitness                         ": "0.95214",
    "fitness_alignments              ": "0.94143",
    "fitness_alignments_percFitTraces": "68.41904",
    "fscore                          ": "0.91310",
    "fscore_alignments               ": "0.94143",
    "generalization                  ": "0.98308",
    "metricsAverageWeight            ": "0.89426",
    "precision                       ": "0.87713",
    "precision_alignments            ": "0.87713",
    "simplicity                      ": "0.76471"
  },
  "s_components": [
    [
      "st0",
      "A_PARTLYSUBMITTED",
      "p0",
      "A_SUBMITTED",
      "A_ACCEPTED",
      "A_APPROVED",
      "A_CANCELLED",
      "A_PREACCEPTED",
      "A_FINALIZED",
      "p5",
      "|",
      "A_DECLINED",
      "p2",
      "source",
      "p8",
      "p9",
      ">",
      "sink",
      "A_REGISTERED",
      "p3",
      "short_circuited_transition",
      "p1",
      "st1",
      "p4"
    ],
    [
      "st0",
      "A_PARTLYSUBMITTED",
      "p0",
      "A_SUBMITTED",
      "A_ACCEPTED",
      "A_APPROVED",
      "A_CANCELLED",
      "p6",
      "A_PREACCEPTED",
      "A_FINALIZED",
      "p5",
      "|",
      "A_DECLINED",
      "p7",
      "p2",
      "source",
      "p9",
      ">",
      "sink",
      "A_REGISTERED",
      "p3",
      "A_ACTIVATED",
      "short_circuited_transition",
      "p1",
      "st1",
      "p4"
    ]
  ],
  "sound": true,
  "top 30": {
    "fitness                         ": "0.95214",
    "fitness_alignments              ": "0.94143",
    "fitness_alignments_percFitTraces": "68.41904",
    "fscore                          ": "0.91310",
    "generalization                  ": "0.98308",
    "metricsAverageWeight            ": "0.89426",
    "precision                       ": "0.87713",
    "precision_alignments            ": "0.87713",
    "simplicity                      ": "0.76471"
  },
  "uncovered_places_s_component": []
}
