[
  {
    "i": 8,
    "L": {
      "fitness": 0.9348633850193907,
      "precision": 0.9067874106627603,
      "generalization": 0.9903955106156844,
      "simplicity": 0.6774193548387096,
      "metricsAverageWeight": 0.8773664152841362,
      "fscore": 0.9206113886657415,
      "fitness_percFitTraces": 48.557554984290206,
      "fitness_alignments": 0.9356089283918625,
      "fitness_alignments_percFitTraces": 48.557554984290206,
      "precision_alignments": 0.9067874106627603,
      "fscore_alignments": 0.9209727348945451,
      "fitness_entropy_partial": null,
      "precision_entropy_partial": null,
      "fscore_entropy_partial": null,
      "fitness_entropy_exact": null,
      "precision_entropy_exact": null,
      "fscore_entropy_exact": null
    },
    "L_30": {
      "fitness": 0.9372335847616573,
      "precision": 0.8524618323057005,
      "generalization": 0.9879755073528063,
      "simplicity": 0.6774193548387096,
      "metricsAverageWeight": 0.8637725698147184,
      "fscore": 0.8928400345054831,
      "fitness_percFitTraces": 52.60101536963627,
      "fitness_alignments": 0.9411455335582116,
      "fitness_alignments_percFitTraces": 52.60101536963627,
      "precision_alignments": 0.8524618323057005,
      "fscore_alignments": 0.8946112301639957,
      "fitness_entropy_partial": 0.987418826659841,
      "precision_entropy_partial": 0.5247135256671533,
      "fscore_entropy_partial": 0.6852733665138442,
      "fitness_entropy_exact": 0.0,
      "precision_entropy_exact": 0.0,
      "fscore_entropy_exact": 0
    },
    "args": {
      "config": "config.json",
      "dataDirectory": "/mnt/c/Users/s140511/tue/thesis/APDGnn_data/evaluation_data/BPI_2017_O/",
      "logFilename": "data",
      "miner": "gnn",
      "model_filename": "/mnt/c/Users/s140511/tue/thesis/git_clean/project/ml_models/models/simple_ws2_frequency_144_",
      "visualize": false,
      "export": "simple",
      "conformanceChecking": true,
      "beam_width": -50,
      "beam_length": 20,
      "number_of_petrinets": 20,
      "top_x_traces": 30,
      "length_normalization": 0,
      "timeout": null,
      "prom": false,
      "import_petrinet": null
    },
    "easy_soundness": true,
    "log_filename": "/mnt/c/Users/s140511/tue/thesis/APDGnn_data/evaluation_data/BPI_2017_O/data",
    "petrinet_filename": "/mnt/c/Users/s140511/tue/thesis/APDGnn_data/evaluation_data/BPI_2017_O/predictions/data_gcn_simple_8",
    "sound": true,
    "soundness_info": {
      "s_components": [
        [
          "|",
          "st0",
          "p2",
          "O_Sent (mail and online)",
          "O_Accepted",
          "O_Sent (online only)",
          "O_Returned",
          "p4",
          "source",
          "O_Create Offer",
          "p3",
          ">",
          "O_Cancelled",
          "st1",
          "O_Refused",
          "sink",
          "p1",
          "O_Created",
          "p5",
          "p0",
          "st2",
          "short_circuited_transition"
        ]
      ],
      "uncovered_places_s_component": []
    }
  },
  {
    "i": 18,
    "L": {
      "fitness": 0.8832950094579105,
      "precision": 0.874381599205946,
      "generalization": 0.9895351516584576,
      "simplicity": 0.7142857142857143,
      "metricsAverageWeight": 0.8653743686520072,
      "fscore": 0.8788157037915534,
      "fitness_percFitTraces": 14.716430226284553,
      "fitness_alignments": 0.8675040800250807,
      "fitness_alignments_percFitTraces": 14.716430226284553,
      "precision_alignments": 0.874381599205946,
      "fscore_alignments": 0.870929262297941,
      "fitness_entropy_partial": 0.83450920938436,
      "precision_entropy_partial": 0.7783721429128625,
      "fscore_entropy_partial": 0.8054637381278644,
      "fitness_entropy_exact": 0.0,
      "precision_entropy_exact": 0.0,
      "fscore_entropy_exact": 0
    },
    "L_30": {
      "fitness": 0.8861369527468563,
      "precision": 0.8403167196244088,
      "generalization": 0.9857537183559809,
      "simplicity": 0.7142857142857143,
      "metricsAverageWeight": 0.8566232762532401,
      "fscore": 0.862618799666323,
      "fitness_percFitTraces": 16.124208915779956,
      "fitness_alignments": 0.87671880664132,
      "fitness_alignments_percFitTraces": 16.124208915779956,
      "precision_alignments": 0.8403167196244088,
      "fscore_alignments": 0.8581318911113143,
      "fitness_entropy_partial": 0.943845241504367,
      "precision_entropy_partial": 0.7206702972497764,
      "fscore_entropy_partial": 0.8172963422881064,
      "fitness_entropy_exact": 0.0,
      "precision_entropy_exact": 0.0,
      "fscore_entropy_exact": 0
    },
    "args": {
      "config": "config.json",
      "dataDirectory": "/mnt/c/Users/s140511/tue/thesis/APDGnn_data/evaluation_data/BPI_2017_O/",
      "logFilename": "data",
      "miner": "gnn",
      "model_filename": "/mnt/c/Users/s140511/tue/thesis/git_clean/project/ml_models/models/simple_ws2_frequency_144_",
      "visualize": false,
      "export": "simple",
      "conformanceChecking": true,
      "beam_width": -50,
      "beam_length": 20,
      "number_of_petrinets": 20,
      "top_x_traces": 30,
      "length_normalization": 0,
      "timeout": null,
      "prom": false,
      "import_petrinet": null
    },
    "easy_soundness": true,
    "log_filename": "/mnt/c/Users/s140511/tue/thesis/APDGnn_data/evaluation_data/BPI_2017_O/data",
    "petrinet_filename": "/mnt/c/Users/s140511/tue/thesis/APDGnn_data/evaluation_data/BPI_2017_O/predictions/data_gcn_simple_18",
    "sound": true,
    "soundness_info": {
      "s_components": [
        [
          "st0",
          "O_Refused",
          "p5",
          "|",
          "O_Sent (mail and online)",
          "p4",
          "O_Created",
          "st1",
          "short_circuited_transition",
          "O_Sent (online only)",
          "source",
          "p2",
          "O_Returned",
          "O_Accepted",
          ">",
          "p3",
          "O_Cancelled",
          "O_Create Offer",
          "p0",
          "p1",
          "sink"
        ]
      ],
      "uncovered_places_s_component": []
    }
  },
  {
    "i": 11,
    "L": {
      "fitness": 0.912269131473681,
      "precision": 0.8482737212430587,
      "generalization": 0.9899029032239506,
      "simplicity": 0.7142857142857143,
      "metricsAverageWeight": 0.8661828675566012,
      "fscore": 0.8791083156382117,
      "fitness_percFitTraces": 47.47215081405313,
      "fitness_alignments": 0.8501030427108335,
      "fitness_alignments_percFitTraces": 47.47215081405313,
      "precision_alignments": 0.8482737212430587,
      "fscore_alignments": 0.8491873967959473,
      "fitness_entropy_partial": 0.6596707646731,
      "precision_entropy_partial": 0.78347458604746,
      "fscore_entropy_partial": 0.7162622656433235,
      "fitness_entropy_exact": 0.0,
      "precision_entropy_exact": 0.0,
      "fscore_entropy_exact": 0
    },
    "L_30": {
      "fitness": 0.9305369931166614,
      "precision": 0.843911046794938,
      "generalization": 0.9864908088541741,
      "simplicity": 0.7142857142857143,
      "metricsAverageWeight": 0.868806140762872,
      "fscore": 0.8851095442407182,
      "fitness_percFitTraces": 52.013352806175675,
      "fitness_alignments": 0.8813749498601924,
      "fitness_alignments_percFitTraces": 52.013352806175675,
      "precision_alignments": 0.843911046794938,
      "fscore_alignments": 0.8622362414085373,
      "fitness_entropy_partial": 0.801374763553345,
      "precision_entropy_partial": 0.7791356301113331,
      "fscore_entropy_partial": 0.7900987350152471,
      "fitness_entropy_exact": 0.0,
      "precision_entropy_exact": 0.0,
      "fscore_entropy_exact": 0
    },
    "args": {
      "config": "config.json",
      "dataDirectory": "/mnt/c/Users/s140511/tue/thesis/APDGnn_data/evaluation_data/BPI_2017_O/",
      "logFilename": "data",
      "miner": "gnn",
      "model_filename": "/mnt/c/Users/s140511/tue/thesis/git_clean/project/ml_models/models/simple_ws2_frequency_144_",
      "visualize": false,
      "export": "simple",
      "conformanceChecking": true,
      "beam_width": -50,
      "beam_length": 20,
      "number_of_petrinets": 20,
      "top_x_traces": 30,
      "length_normalization": 0,
      "timeout": null,
      "prom": false,
      "import_petrinet": null
    },
    "easy_soundness": true,
    "log_filename": "/mnt/c/Users/s140511/tue/thesis/APDGnn_data/evaluation_data/BPI_2017_O/data",
    "petrinet_filename": "/mnt/c/Users/s140511/tue/thesis/APDGnn_data/evaluation_data/BPI_2017_O/predictions/data_gcn_simple_11",
    "sound": true,
    "soundness_info": {
      "s_components": [
        [
          "st0",
          "O_Created",
          "O_Accepted",
          "O_Cancelled",
          "O_Returned",
          "source",
          "p4",
          "O_Sent (mail and online)",
          "O_Refused",
          "short_circuited_transition",
          "O_Sent (online only)",
          "p5",
          "sink",
          "O_Create Offer",
          "p2",
          "p1",
          ">",
          "|",
          "st1",
          "p3",
          "p0"
        ]
      ],
      "uncovered_places_s_component": []
    }
  },
  {
    "i": 9,
    "L": {
      "fitness": 0.8458809404485915,
      "precision": 0.8932201409712216,
      "generalization": 0.9071935305074661,
      "simplicity": 0.7777777777777779,
      "metricsAverageWeight": 0.8560180974262643,
      "fscore": 0.8689062423623107,
      "fitness_percFitTraces": 0.9298930464311784,
      "fitness_alignments": 0.7982036624433796,
      "fitness_alignments_percFitTraces": 0.9298930464311784,
      "precision_alignments": 0.8932201409712216,
      "fscore_alignments": 0.8430431054027889,
      "fitness_entropy_partial": 0.640151081952044,
      "precision_entropy_partial": 0.7795448278219971,
      "fscore_entropy_partial": 0.7030047230886175,
      "fitness_entropy_exact": 0.0,
      "precision_entropy_exact": 0.0,
      "fscore_entropy_exact": 0
    },
    "L_30": {
      "fitness": 0.8562273483136486,
      "precision": 0.8906865952057437,
      "generalization": 0.903756843979105,
      "simplicity": 0.7777777777777779,
      "metricsAverageWeight": 0.8571121413190688,
      "fscore": 0.8731171039314108,
      "fitness_percFitTraces": 1.0188469295500382,
      "fitness_alignments": 0.8248982247614157,
      "fitness_alignments_percFitTraces": 1.0188469295500382,
      "precision_alignments": 0.8906865952057437,
      "fscore_alignments": 0.8565310005693244,
      "fitness_entropy_partial": 0.781992956828926,
      "precision_entropy_partial": 0.7795449348376826,
      "fscore_entropy_partial": 0.7807670269520203,
      "fitness_entropy_exact": 0.0,
      "precision_entropy_exact": 0.0,
      "fscore_entropy_exact": 0
    },
    "args": {
      "config": "config.json",
      "dataDirectory": "/mnt/c/Users/s140511/tue/thesis/APDGnn_data/evaluation_data/BPI_2017_O/",
      "logFilename": "data",
      "miner": "gnn",
      "model_filename": "/mnt/c/Users/s140511/tue/thesis/git_clean/project/ml_models/models/simple_ws2_frequency_144_",
      "visualize": false,
      "export": "simple",
      "conformanceChecking": true,
      "beam_width": -50,
      "beam_length": 20,
      "number_of_petrinets": 20,
      "top_x_traces": 30,
      "length_normalization": 0,
      "timeout": null,
      "prom": false,
      "import_petrinet": null
    },
    "easy_soundness": true,
    "log_filename": "/mnt/c/Users/s140511/tue/thesis/APDGnn_data/evaluation_data/BPI_2017_O/data",
    "petrinet_filename": "/mnt/c/Users/s140511/tue/thesis/APDGnn_data/evaluation_data/BPI_2017_O/predictions/data_gcn_simple_9",
    "sound": true,
    "soundness_info": {
      "s_components": [
        [
          "|",
          "p6",
          "st1",
          ">",
          "O_Cancelled",
          "O_Sent (online only)",
          "O_Returned",
          "p0",
          "p5",
          "O_Sent (mail and online)",
          "O_Create Offer",
          "short_circuited_transition",
          "st0",
          "O_Refused",
          "p4",
          "p2",
          "p1",
          "sink",
          "O_Accepted",
          "O_Created",
          "source",
          "p3"
        ]
      ],
      "uncovered_places_s_component": []
    }
  },
  {
    "i": 16,
    "L": {
      "fitness": 0.8216181963713981,
      "precision": 0.8683188675975324,
      "generalization": 0.9896738387563065,
      "simplicity": 0.7777777777777779,
      "metricsAverageWeight": 0.8643471701257537,
      "fscore": 0.8443232556781839,
      "fitness_percFitTraces": 0.7267764765622521,
      "fitness_alignments": 0.7750807253167588,
      "fitness_alignments_percFitTraces": 0.7267764765622521,
      "precision_alignments": 0.8683188675975324,
      "fscore_alignments": 0.819054867246547,
      "fitness_entropy_partial": 0.630460164847992,
      "precision_entropy_partial": 0.7742769977654952,
      "fscore_entropy_partial": 0.6950066057070021,
      "fitness_entropy_exact": 0.0,
      "precision_entropy_exact": 0.0,
      "fscore_entropy_exact": 0
    },
    "L_30": {
      "fitness": 0.8383079243929725,
      "precision": 0.8639278975021489,
      "generalization": 0.9871897102933437,
      "simplicity": 0.7777777777777779,
      "metricsAverageWeight": 0.8668008274915608,
      "fscore": 0.8509251106863771,
      "fitness_percFitTraces": 0.7754364003060018,
      "fitness_alignments": 0.8041405063455217,
      "fitness_alignments_percFitTraces": 0.7754364003060018,
      "precision_alignments": 0.8639278975021489,
      "fscore_alignments": 0.8329627434233714,
      "fitness_entropy_partial": 0.754047520497845,
      "precision_entropy_partial": 0.7580832472957479,
      "fscore_entropy_partial": 0.7560599984198476,
      "fitness_entropy_exact": 0.0,
      "precision_entropy_exact": 0.0,
      "fscore_entropy_exact": 0
    },
    "args": {
      "config": "config.json",
      "dataDirectory": "/mnt/c/Users/s140511/tue/thesis/APDGnn_data/evaluation_data/BPI_2017_O/",
      "logFilename": "data",
      "miner": "gnn",
      "model_filename": "/mnt/c/Users/s140511/tue/thesis/git_clean/project/ml_models/models/simple_ws2_frequency_144_",
      "visualize": false,
      "export": "simple",
      "conformanceChecking": true,
      "beam_width": -50,
      "beam_length": 20,
      "number_of_petrinets": 20,
      "top_x_traces": 30,
      "length_normalization": 0,
      "timeout": null,
      "prom": false,
      "import_petrinet": null
    },
    "easy_soundness": true,
    "log_filename": "/mnt/c/Users/s140511/tue/thesis/APDGnn_data/evaluation_data/BPI_2017_O/data",
    "petrinet_filename": "/mnt/c/Users/s140511/tue/thesis/APDGnn_data/evaluation_data/BPI_2017_O/predictions/data_gcn_simple_16",
    "sound": true,
    "soundness_info": {
      "s_components": [
        [
          "O_Sent (mail and online)",
          "p1",
          "p5",
          "O_Created",
          "source",
          "|",
          "O_Refused",
          "O_Returned",
          "sink",
          "p6",
          "st1",
          "short_circuited_transition",
          "O_Create Offer",
          "p4",
          ">",
          "p3",
          "p2",
          "O_Sent (online only)",
          "st0",
          "O_Cancelled",
          "O_Accepted",
          "p0"
        ]
      ],
      "uncovered_places_s_component": []
    }
  },
  {
    "i": 13,
    "L": {
      "fitness": 0.8387861180746845,
      "precision": 0.9997152914380371,
      "generalization": 0.9914905750628111,
      "simplicity": 0.8333333333333333,
      "metricsAverageWeight": 0.9158313294772165,
      "fscore": 0.912207414306484,
      "fitness_percFitTraces": 1.1583991875337205,
      "fitness_alignments": 0.6909206353415286,
      "fitness_alignments_percFitTraces": 1.1583991875337205,
      "precision_alignments": 0.9997152914380371,
      "fscore_alignments": 0.8171172910500563,
      "fitness_entropy_partial": 0.647544139750262,
      "precision_entropy_partial": 0.8143833118359523,
      "fscore_entropy_partial": 0.7214436537430075,
      "fitness_entropy_exact": 0.0,
      "precision_entropy_exact": 0.0,
      "fscore_entropy_exact": 0
    },
    "L_30": {
      "fitness": 0.8477465124364699,
      "precision": 1.0,
      "generalization": 0.9898805427276475,
      "simplicity": 0.8333333333333333,
      "metricsAverageWeight": 0.9177400971243628,
      "fscore": 0.9176004465229561,
      "fitness_percFitTraces": 1.2692120453439044,
      "fitness_alignments": 0.708460052767003,
      "fitness_alignments_percFitTraces": 1.2692120453439044,
      "precision_alignments": 1.0,
      "fscore_alignments": 0.8293551278762286,
      "fitness_entropy_partial": 0.780113558113475,
      "precision_entropy_partial": 0.8031511680186877,
      "fscore_entropy_partial": 0.7914647563919147,
      "fitness_entropy_exact": 0.0,
      "precision_entropy_exact": 0.0,
      "fscore_entropy_exact": 0
    },
    "args": {
      "config": "config.json",
      "dataDirectory": "/mnt/c/Users/s140511/tue/thesis/APDGnn_data/evaluation_data/BPI_2017_O/",
      "logFilename": "data",
      "miner": "gnn",
      "model_filename": "/mnt/c/Users/s140511/tue/thesis/git_clean/project/ml_models/models/simple_ws2_frequency_144_",
      "visualize": false,
      "export": "simple",
      "conformanceChecking": true,
      "beam_width": -50,
      "beam_length": 20,
      "number_of_petrinets": 20,
      "top_x_traces": 30,
      "length_normalization": 0,
      "timeout": null,
      "prom": false,
      "import_petrinet": null
    },
    "easy_soundness": true,
    "log_filename": "/mnt/c/Users/s140511/tue/thesis/APDGnn_data/evaluation_data/BPI_2017_O/data",
    "petrinet_filename": "/mnt/c/Users/s140511/tue/thesis/APDGnn_data/evaluation_data/BPI_2017_O/predictions/data_gcn_simple_13",
    "sound": true,
    "soundness_info": {
      "s_components": [
        [
          "source",
          "|",
          "p6",
          "O_Refused",
          "O_Create Offer",
          "p1",
          "p5",
          "short_circuited_transition",
          "st0",
          "O_Sent (mail and online)",
          "p2",
          "O_Cancelled",
          "sink",
          ">",
          "O_Sent (online only)",
          "p3",
          "p4",
          "p0",
          "O_Created",
          "O_Returned",
          "O_Accepted"
        ]
      ],
      "uncovered_places_s_component": []
    }
  },
  {
    "i": 6,
    "L": {
      "fitness": 0.7902542725858099,
      "precision": 0.8489987595985912,
      "generalization": 0.9899393990126147,
      "simplicity": 0.7777777777777779,
      "metricsAverageWeight": 0.8517425522436983,
      "fscore": 0.8185739285152246,
      "fitness_percFitTraces": 0.5617442635437494,
      "fitness_alignments": 0.7608292681858307,
      "fitness_alignments_percFitTraces": 0.5617442635437494,
      "precision_alignments": 0.8489987595985912,
      "fscore_alignments": 0.8024995139947643,
      "fitness_entropy_partial": 0.772751689837724,
      "precision_entropy_partial": 0.8256588119687442,
      "fscore_entropy_partial": 0.7983296424256174,
      "fitness_entropy_exact": 0.0,
      "precision_entropy_exact": 0.0,
      "fscore_entropy_exact": 0
    },
    "L_30": {
      "fitness": 0.7926856376278629,
      "precision": 0.8376277777004422,
      "generalization": 0.986777883135257,
      "simplicity": 0.7777777777777779,
      "metricsAverageWeight": 0.8487172690603351,
      "fscore": 0.8145372574604943,
      "fitness_percFitTraces": 0.6120036163850059,
      "fitness_alignments": 0.768812076140471,
      "fitness_alignments_percFitTraces": 0.6120036163850059,
      "precision_alignments": 0.8376277777004422,
      "fscore_alignments": 0.8017459841612963,
      "fitness_entropy_partial": 0.898885347795489,
      "precision_entropy_partial": 0.7862216618831972,
      "fscore_entropy_partial": 0.838787243690811,
      "fitness_entropy_exact": 0.0,
      "precision_entropy_exact": 0.0,
      "fscore_entropy_exact": 0
    },
    "args": {
      "config": "config.json",
      "dataDirectory": "/mnt/c/Users/s140511/tue/thesis/APDGnn_data/evaluation_data/BPI_2017_O/",
      "logFilename": "data",
      "miner": "gnn",
      "model_filename": "/mnt/c/Users/s140511/tue/thesis/git_clean/project/ml_models/models/simple_ws2_frequency_144_",
      "visualize": false,
      "export": "simple",
      "conformanceChecking": true,
      "beam_width": -50,
      "beam_length": 20,
      "number_of_petrinets": 20,
      "top_x_traces": 30,
      "length_normalization": 0,
      "timeout": null,
      "prom": false,
      "import_petrinet": null
    },
    "easy_soundness": true,
    "log_filename": "/mnt/c/Users/s140511/tue/thesis/APDGnn_data/evaluation_data/BPI_2017_O/data",
    "petrinet_filename": "/mnt/c/Users/s140511/tue/thesis/APDGnn_data/evaluation_data/BPI_2017_O/predictions/data_gcn_simple_6",
    "sound": true,
    "soundness_info": {
      "s_components": [
        [
          "p3",
          "sink",
          "O_Returned",
          "p0",
          "O_Refused",
          "|",
          "O_Cancelled",
          "st0",
          "p6",
          "p5",
          "O_Sent (mail and online)",
          ">",
          "source",
          "p4",
          "O_Create Offer",
          "short_circuited_transition",
          "st1",
          "O_Sent (online only)",
          "p2",
          "O_Created",
          "O_Accepted",
          "p1"
        ]
      ],
      "uncovered_places_s_component": []
    }
  },
  {
    "i": 1,
    "L": {
      "fitness": 0.8392413070617886,
      "precision": 0.849246341490191,
      "generalization": 0.9914905750628111,
      "simplicity": 0.7599999999999999,
      "metricsAverageWeight": 0.8599945559036977,
      "fscore": 0.8442141821539407,
      "fitness_percFitTraces": 1.1996572407883461,
      "fitness_alignments": 0.7464205048342302,
      "fitness_alignments_percFitTraces": 1.1996572407883461,
      "precision_alignments": 0.849246341490191,
      "fscore_alignments": 0.7945203403879606,
      "fitness_entropy_partial": 0.67219770521552,
      "precision_entropy_partial": 0.8253674122420895,
      "fscore_entropy_partial": 0.7409495239989244,
      "fitness_entropy_exact": 0.0,
      "precision_entropy_exact": 0.0,
      "fscore_entropy_exact": 0
    },
    "L_30": {
      "fitness": 0.8477465124364699,
      "precision": 0.84380059041996,
      "generalization": 0.9898805427276475,
      "simplicity": 0.7599999999999999,
      "metricsAverageWeight": 0.8603569113960193,
      "fscore": 0.8457689490436482,
      "fitness_percFitTraces": 1.2692120453439044,
      "fitness_alignments": 0.7684328599687362,
      "fitness_alignments_percFitTraces": 1.2692120453439044,
      "precision_alignments": 0.84380059041996,
      "fscore_alignments": 0.8043551022755335,
      "fitness_entropy_partial": 0.793059768143494,
      "precision_entropy_partial": 0.797141474857506,
      "fscore_entropy_partial": 0.795095383066128,
      "fitness_entropy_exact": 0.0,
      "precision_entropy_exact": 0.0,
      "fscore_entropy_exact": 0
    },
    "args": {
      "config": "config.json",
      "dataDirectory": "/mnt/c/Users/s140511/tue/thesis/APDGnn_data/evaluation_data/BPI_2017_O/",
      "logFilename": "data",
      "miner": "gnn",
      "model_filename": "/mnt/c/Users/s140511/tue/thesis/git_clean/project/ml_models/models/simple_ws2_frequency_144_",
      "visualize": false,
      "export": "simple",
      "conformanceChecking": true,
      "beam_width": -50,
      "beam_length": 20,
      "number_of_petrinets": 20,
      "top_x_traces": 30,
      "length_normalization": 0,
      "timeout": null,
      "prom": false,
      "import_petrinet": null
    },
    "easy_soundness": true,
    "log_filename": "/mnt/c/Users/s140511/tue/thesis/APDGnn_data/evaluation_data/BPI_2017_O/data",
    "petrinet_filename": "/mnt/c/Users/s140511/tue/thesis/APDGnn_data/evaluation_data/BPI_2017_O/predictions/data_gcn_simple_1",
    "sound": true,
    "soundness_info": {
      "s_components": [
        [
          "O_Sent (mail and online)",
          "source",
          "p0",
          "|",
          "short_circuited_transition",
          "sink",
          "p2",
          "O_Returned",
          "O_Cancelled",
          "O_Created",
          "O_Accepted",
          ">",
          "O_Create Offer",
          "p4",
          "st0",
          "O_Refused",
          "p1",
          "O_Sent (online only)",
          "p3",
          "p5"
        ]
      ],
      "uncovered_places_s_component": []
    }
  },
  {
    "i": 14,
    "L": {
      "fitness": 0.9057155660852558,
      "precision": 0.8878571251360097,
      "generalization": 0.9890786677701692,
      "simplicity": 0.6774193548387096,
      "metricsAverageWeight": 0.8650176784575361,
      "fscore": 0.8966974381705556,
      "fitness_percFitTraces": 38.82382811260275,
      "fitness_alignments": 0.8915262421362072,
      "fitness_alignments_percFitTraces": 38.82382811260275,
      "precision_alignments": 0.8878571251360097,
      "fscore_alignments": 0.8896879007471008,
      "fitness_entropy_partial": 0.690541217630289,
      "precision_entropy_partial": 0.7490806037735821,
      "fscore_entropy_partial": 0.7186207162775791,
      "fitness_entropy_exact": 0.0,
      "precision_entropy_exact": 0.0,
      "fscore_entropy_exact": 0
    },
    "L_30": {
      "fitness": 0.9151973097304387,
      "precision": 0.8700752458449841,
      "generalization": 0.9862034906701402,
      "simplicity": 0.6774193548387096,
      "metricsAverageWeight": 0.8622238502710681,
      "fscore": 0.8920660565509247,
      "fitness_percFitTraces": 42.34647750191251,
      "fitness_alignments": 0.9045503184061852,
      "fitness_alignments_percFitTraces": 42.34647750191251,
      "precision_alignments": 0.8700752458449841,
      "fscore_alignments": 0.8869779141252463,
      "fitness_entropy_partial": 0.825290246260972,
      "precision_entropy_partial": 0.7328673833588462,
      "fscore_entropy_partial": 0.7763377617146875,
      "fitness_entropy_exact": 0.0,
      "precision_entropy_exact": 0.0,
      "fscore_entropy_exact": 0
    },
    "args": {
      "config": "config.json",
      "dataDirectory": "/mnt/c/Users/s140511/tue/thesis/APDGnn_data/evaluation_data/BPI_2017_O/",
      "logFilename": "data",
      "miner": "gnn",
      "model_filename": "/mnt/c/Users/s140511/tue/thesis/git_clean/project/ml_models/models/simple_ws2_frequency_144_",
      "visualize": false,
      "export": "simple",
      "conformanceChecking": true,
      "beam_width": -50,
      "beam_length": 20,
      "number_of_petrinets": 20,
      "top_x_traces": 30,
      "length_normalization": 0,
      "timeout": null,
      "prom": false,
      "import_petrinet": null
    },
    "easy_soundness": true,
    "log_filename": "/mnt/c/Users/s140511/tue/thesis/APDGnn_data/evaluation_data/BPI_2017_O/data",
    "petrinet_filename": "/mnt/c/Users/s140511/tue/thesis/APDGnn_data/evaluation_data/BPI_2017_O/predictions/data_gcn_simple_14",
    "sound": false,
    "soundness_info": {
      "s_components": [
        [
          "p2",
          "O_Created",
          "p1",
          "O_Sent (online only)",
          "st0",
          "O_Refused",
          "O_Accepted",
          "O_Sent (mail and online)",
          "st1",
          "|",
          ">",
          "p3",
          "O_Create Offer",
          "p5",
          "O_Cancelled",
          "O_Returned",
          "short_circuited_transition",
          "sink",
          "p4",
          "source",
          "p0"
        ],
        [
          "p6",
          "O_Refused"
        ]
      ],
      "uncovered_places_s_component": []
    }
  },
  {
    "i": 15,
    "L": {
      "fitness": 0.8440401326420784,
      "precision": 0.8878571251360097,
      "generalization": 0.9882881318757759,
      "simplicity": 0.6363636363636362,
      "metricsAverageWeight": 0.8391372565043751,
      "fscore": 0.8653943440368131,
      "fitness_percFitTraces": 0.0,
      "fitness_alignments": null,
      "fitness_alignments_percFitTraces": null,
      "precision_alignments": null,
      "fscore_alignments": null,
      "fitness_entropy_partial": null,
      "precision_entropy_partial": null,
      "fscore_entropy_partial": null,
      "fitness_entropy_exact": null,
      "precision_entropy_exact": null,
      "fscore_entropy_exact": null
    },
    "L_30": {
      "fitness": 0.8475706988739973,
      "precision": 0.8700752458449841,
      "generalization": 0.9853379195908878,
      "simplicity": 0.6363636363636362,
      "metricsAverageWeight": 0.8348368751683763,
      "fscore": 0.8586755454011217,
      "fitness_percFitTraces": 0.0,
      "fitness_alignments": null,
      "fitness_alignments_percFitTraces": null,
      "precision_alignments": null,
      "fscore_alignments": null,
      "fitness_entropy_partial": null,
      "precision_entropy_partial": null,
      "fscore_entropy_partial": null,
      "fitness_entropy_exact": null,
      "precision_entropy_exact": null,
      "fscore_entropy_exact": null
    },
    "args": {
      "config": "config.json",
      "dataDirectory": "/mnt/c/Users/s140511/tue/thesis/APDGnn_data/evaluation_data/BPI_2017_O/",
      "logFilename": "data",
      "miner": "gnn",
      "model_filename": "/mnt/c/Users/s140511/tue/thesis/git_clean/project/ml_models/models/simple_ws2_frequency_144_",
      "visualize": false,
      "export": "simple",
      "conformanceChecking": true,
      "beam_width": -50,
      "beam_length": 20,
      "number_of_petrinets": 20,
      "top_x_traces": 30,
      "length_normalization": 0,
      "timeout": null,
      "prom": false,
      "import_petrinet": null
    },
    "easy_soundness": false,
    "log_filename": "/mnt/c/Users/s140511/tue/thesis/APDGnn_data/evaluation_data/BPI_2017_O/data",
    "petrinet_filename": "/mnt/c/Users/s140511/tue/thesis/APDGnn_data/evaluation_data/BPI_2017_O/predictions/data_gcn_simple_15",
    "sound": false,
    "soundness_info": {
      "s_components": [
        [
          "sink",
          "p3",
          "O_Sent (mail and online)",
          "p1",
          "p4",
          "O_Refused",
          "short_circuited_transition",
          "O_Cancelled",
          "st1",
          "O_Created",
          "O_Create Offer",
          "O_Returned",
          "O_Sent (online only)",
          "st0",
          "|",
          "source",
          ">",
          "O_Accepted",
          "p0",
          "p2",
          "p5"
        ]
      ],
      "uncovered_places_s_component": [
        "p6"
      ]
    }
  },
  {
    "i": 3,
    "L": {
      "fitness": 0.6990514104624806,
      "precision": 0.9961888585153533,
      "generalization": 0.9883987577321485,
      "simplicity": 0.7241379310344828,
      "metricsAverageWeight": 0.8519442394361162,
      "fscore": 0.8215793824341627,
      "fitness_percFitTraces": 0.0,
      "fitness_alignments": null,
      "fitness_alignments_percFitTraces": null,
      "precision_alignments": null,
      "fscore_alignments": null,
      "fitness_entropy_partial": null,
      "precision_entropy_partial": null,
      "fscore_entropy_partial": null,
      "fitness_entropy_exact": null,
      "precision_entropy_exact": null,
      "fscore_entropy_exact": null
    },
    "L_30": {
      "fitness": 0.6935342854235046,
      "precision": 0.9952868065495932,
      "generalization": 0.9850207603840283,
      "simplicity": 0.7241379310344828,
      "metricsAverageWeight": 0.8494949458479022,
      "fscore": 0.8174525146004151,
      "fitness_percFitTraces": 0.0,
      "fitness_alignments": null,
      "fitness_alignments_percFitTraces": null,
      "precision_alignments": null,
      "fscore_alignments": null,
      "fitness_entropy_partial": null,
      "precision_entropy_partial": null,
      "fscore_entropy_partial": null,
      "fitness_entropy_exact": null,
      "precision_entropy_exact": null,
      "fscore_entropy_exact": null
    },
    "args": {
      "config": "config.json",
      "dataDirectory": "/mnt/c/Users/s140511/tue/thesis/APDGnn_data/evaluation_data/BPI_2017_O/",
      "logFilename": "data",
      "miner": "gnn",
      "model_filename": "/mnt/c/Users/s140511/tue/thesis/git_clean/project/ml_models/models/simple_ws2_frequency_144_",
      "visualize": false,
      "export": "simple",
      "conformanceChecking": true,
      "beam_width": -50,
      "beam_length": 20,
      "number_of_petrinets": 20,
      "top_x_traces": 30,
      "length_normalization": 0,
      "timeout": null,
      "prom": false,
      "import_petrinet": null
    },
    "easy_soundness": false,
    "log_filename": "/mnt/c/Users/s140511/tue/thesis/APDGnn_data/evaluation_data/BPI_2017_O/data",
    "petrinet_filename": "/mnt/c/Users/s140511/tue/thesis/APDGnn_data/evaluation_data/BPI_2017_O/predictions/data_gcn_simple_3",
    "sound": false,
    "soundness_info": {
      "s_components": [
        [
          "short_circuited_transition",
          "O_Sent (mail and online)",
          "O_Sent (online only)",
          "p6",
          "O_Created",
          "O_Refused",
          "|",
          ">",
          "p1",
          "p4",
          "st0",
          "O_Create Offer",
          "p5",
          "sink",
          "p3",
          "O_Cancelled",
          "O_Accepted",
          "O_Returned",
          "source",
          "p0",
          "p2"
        ]
      ],
      "uncovered_places_s_component": [
        "p7"
      ]
    }
  },
  {
    "i": 4,
    "L": {
      "fitness": 0.6899274602834722,
      "precision": 0.9961888585153533,
      "generalization": 0.9883987577321485,
      "simplicity": 0.7777777777777779,
      "metricsAverageWeight": 0.8630732135771879,
      "fscore": 0.8152439324089029,
      "fitness_percFitTraces": 0.0,
      "fitness_alignments": null,
      "fitness_alignments_percFitTraces": null,
      "precision_alignments": null,
      "fscore_alignments": null,
      "fitness_entropy_partial": null,
      "precision_entropy_partial": null,
      "fscore_entropy_partial": null,
      "fitness_entropy_exact": null,
      "precision_entropy_exact": null,
      "fscore_entropy_exact": null
    },
    "L_30": {
      "fitness": 0.68414053222198,
      "precision": 0.9952868065495932,
      "generalization": 0.9850207603840283,
      "simplicity": 0.7777777777777779,
      "metricsAverageWeight": 0.860556469233345,
      "fscore": 0.8108907480860869,
      "fitness_percFitTraces": 0.0,
      "fitness_alignments": null,
      "fitness_alignments_percFitTraces": null,
      "precision_alignments": null,
      "fscore_alignments": null,
      "fitness_entropy_partial": null,
      "precision_entropy_partial": null,
      "fscore_entropy_partial": null,
      "fitness_entropy_exact": null,
      "precision_entropy_exact": null,
      "fscore_entropy_exact": null
    },
    "args": {
      "config": "config.json",
      "dataDirectory": "/mnt/c/Users/s140511/tue/thesis/APDGnn_data/evaluation_data/BPI_2017_O/",
      "logFilename": "data",
      "miner": "gnn",
      "model_filename": "/mnt/c/Users/s140511/tue/thesis/git_clean/project/ml_models/models/simple_ws2_frequency_144_",
      "visualize": false,
      "export": "simple",
      "conformanceChecking": true,
      "beam_width": -50,
      "beam_length": 20,
      "number_of_petrinets": 20,
      "top_x_traces": 30,
      "length_normalization": 0,
      "timeout": null,
      "prom": false,
      "import_petrinet": null
    },
    "easy_soundness": false,
    "log_filename": "/mnt/c/Users/s140511/tue/thesis/APDGnn_data/evaluation_data/BPI_2017_O/data",
    "petrinet_filename": "/mnt/c/Users/s140511/tue/thesis/APDGnn_data/evaluation_data/BPI_2017_O/predictions/data_gcn_simple_4",
    "sound": false,
    "soundness_info": {
      "s_components": [
        [
          "p7",
          "O_Refused"
        ],
        [
          "p4",
          "O_Returned",
          "sink",
          "p3",
          "st0",
          "p1",
          "p6",
          "short_circuited_transition",
          "O_Sent (mail and online)",
          "O_Refused",
          "p2",
          "O_Sent (online only)",
          "source",
          ">",
          "O_Cancelled",
          "O_Create Offer",
          "O_Created",
          "p5",
          "O_Accepted",
          "|",
          "p0"
        ]
      ],
      "uncovered_places_s_component": []
    }
  },
  {
    "i": 5,
    "L": {
      "fitness": 0.7287751006604699,
      "precision": 0.8614152095167946,
      "generalization": 0.9905409244387825,
      "simplicity": 0.7037037037037037,
      "metricsAverageWeight": 0.8211087345799377,
      "fscore": 0.7895633019623682,
      "fitness_percFitTraces": 0.0,
      "fitness_alignments": null,
      "fitness_alignments_percFitTraces": null,
      "precision_alignments": null,
      "fscore_alignments": null,
      "fitness_entropy_partial": null,
      "precision_entropy_partial": null,
      "fscore_entropy_partial": null,
      "fitness_entropy_exact": null,
      "precision_entropy_exact": null,
      "fscore_entropy_exact": null
    },
    "L_30": {
      "fitness": 0.7286105854599173,
      "precision": 0.85804997059272,
      "generalization": 0.9887145777389428,
      "simplicity": 0.7037037037037037,
      "metricsAverageWeight": 0.819769709373821,
      "fscore": 0.7880504611304979,
      "fitness_percFitTraces": 0.0,
      "fitness_alignments": null,
      "fitness_alignments_percFitTraces": null,
      "precision_alignments": null,
      "fscore_alignments": null,
      "fitness_entropy_partial": null,
      "precision_entropy_partial": null,
      "fscore_entropy_partial": null,
      "fitness_entropy_exact": null,
      "precision_entropy_exact": null,
      "fscore_entropy_exact": null
    },
    "args": {
      "config": "config.json",
      "dataDirectory": "/mnt/c/Users/s140511/tue/thesis/APDGnn_data/evaluation_data/BPI_2017_O/",
      "logFilename": "data",
      "miner": "gnn",
      "model_filename": "/mnt/c/Users/s140511/tue/thesis/git_clean/project/ml_models/models/simple_ws2_frequency_144_",
      "visualize": false,
      "export": "simple",
      "conformanceChecking": true,
      "beam_width": -50,
      "beam_length": 20,
      "number_of_petrinets": 20,
      "top_x_traces": 30,
      "length_normalization": 0,
      "timeout": null,
      "prom": false,
      "import_petrinet": null
    },
    "easy_soundness": false,
    "log_filename": "/mnt/c/Users/s140511/tue/thesis/APDGnn_data/evaluation_data/BPI_2017_O/data",
    "petrinet_filename": "/mnt/c/Users/s140511/tue/thesis/APDGnn_data/evaluation_data/BPI_2017_O/predictions/data_gcn_simple_5",
    "sound": false,
    "soundness_info": {
      "s_components": [
        [
          "p3",
          "p1",
          "source",
          "O_Sent (online only)",
          "O_Sent (mail and online)",
          "O_Refused",
          "p2",
          "O_Cancelled",
          "O_Accepted",
          "O_Returned",
          "O_Created",
          "p0",
          "p5",
          "p4",
          "O_Create Offer",
          "short_circuited_transition",
          ">",
          "sink",
          "|"
        ]
      ],
      "uncovered_places_s_component": [
        "p6"
      ]
    }
  },
  {
    "i": 17,
    "L": {
      "fitness": 0.7613743348883458,
      "precision": 0.848576414697993,
      "generalization": 0.9895084222561377,
      "simplicity": 0.7777777777777779,
      "metricsAverageWeight": 0.8443092374050636,
      "fscore": 0.8026137489095572,
      "fitness_percFitTraces": 0.0,
      "fitness_alignments": 0.7323189279733735,
      "fitness_alignments_percFitTraces": 0.0,
      "precision_alignments": 0.848576414697993,
      "fscore_alignments": 0.7861729407906852,
      "fitness_entropy_partial": 0.50514690723719,
      "precision_entropy_partial": 0.8064980853621075,
      "fscore_entropy_partial": 0.6212046945813225,
      "fitness_entropy_exact": 0.0,
      "precision_entropy_exact": 0.0,
      "fscore_entropy_exact": 0
    },
    "L_30": {
      "fitness": 0.7744168960063759,
      "precision": 0.8443583193869462,
      "generalization": 0.9868293803505872,
      "simplicity": 0.7777777777777779,
      "metricsAverageWeight": 0.8458455933804219,
      "fscore": 0.8078766497026223,
      "fitness_percFitTraces": 0.0,
      "fitness_alignments": 0.7592026116228517,
      "fitness_alignments_percFitTraces": 0.0,
      "precision_alignments": 0.8443583193869462,
      "fscore_alignments": 0.7995194056272935,
      "fitness_entropy_partial": 0.617075106723495,
      "precision_entropy_partial": 0.806498085362107,
      "fscore_entropy_partial": 0.6991841302771468,
      "fitness_entropy_exact": 0.0,
      "precision_entropy_exact": 0.0,
      "fscore_entropy_exact": 0
    },
    "args": {
      "config": "config.json",
      "dataDirectory": "/mnt/c/Users/s140511/tue/thesis/APDGnn_data/evaluation_data/BPI_2017_O/",
      "logFilename": "data",
      "miner": "gnn",
      "model_filename": "/mnt/c/Users/s140511/tue/thesis/git_clean/project/ml_models/models/simple_ws2_frequency_144_",
      "visualize": false,
      "export": "simple",
      "conformanceChecking": true,
      "beam_width": -50,
      "beam_length": 20,
      "number_of_petrinets": 20,
      "top_x_traces": 30,
      "length_normalization": 0,
      "timeout": null,
      "prom": false,
      "import_petrinet": null
    },
    "easy_soundness": true,
    "log_filename": "/mnt/c/Users/s140511/tue/thesis/APDGnn_data/evaluation_data/BPI_2017_O/data",
    "petrinet_filename": "/mnt/c/Users/s140511/tue/thesis/APDGnn_data/evaluation_data/BPI_2017_O/predictions/data_gcn_simple_17",
    "sound": false,
    "soundness_info": {
      "s_components": [
        [
          "p7",
          "O_Refused"
        ],
        [
          "p1",
          "p5",
          "st0",
          "O_Sent (online only)",
          "O_Accepted",
          "p3",
          "O_Returned",
          "O_Refused",
          "|",
          "p4",
          "p2",
          "sink",
          "O_Create Offer",
          ">",
          "O_Created",
          "source",
          "p0",
          "O_Sent (mail and online)",
          "p6",
          "short_circuited_transition",
          "O_Cancelled"
        ]
      ],
      "uncovered_places_s_component": []
    }
  },
  {
    "i": 10,
    "L": {
      "fitness": 0.7198264488355788,
      "precision": 0.8614152095167946,
      "generalization": 0.9905409244387825,
      "simplicity": 0.7599999999999999,
      "metricsAverageWeight": 0.832945645697789,
      "fscore": 0.784281704145756,
      "fitness_percFitTraces": 0.0,
      "fitness_alignments": null,
      "fitness_alignments_percFitTraces": null,
      "precision_alignments": null,
      "fscore_alignments": null,
      "fitness_entropy_partial": null,
      "precision_entropy_partial": null,
      "fscore_entropy_partial": null,
      "fitness_entropy_exact": null,
      "precision_entropy_exact": null,
      "fscore_entropy_exact": null
    },
    "L_30": {
      "fitness": 0.7194511271496036,
      "precision": 0.85804997059272,
      "generalization": 0.9887145777389428,
      "simplicity": 0.7599999999999999,
      "metricsAverageWeight": 0.8315539188703165,
      "fscore": 0.782661919382643,
      "fitness_percFitTraces": 0.0,
      "fitness_alignments": null,
      "fitness_alignments_percFitTraces": null,
      "precision_alignments": null,
      "fscore_alignments": null,
      "fitness_entropy_partial": null,
      "precision_entropy_partial": null,
      "fscore_entropy_partial": null,
      "fitness_entropy_exact": null,
      "precision_entropy_exact": null,
      "fscore_entropy_exact": null
    },
    "args": {
      "config": "config.json",
      "dataDirectory": "/mnt/c/Users/s140511/tue/thesis/APDGnn_data/evaluation_data/BPI_2017_O/",
      "logFilename": "data",
      "miner": "gnn",
      "model_filename": "/mnt/c/Users/s140511/tue/thesis/git_clean/project/ml_models/models/simple_ws2_frequency_144_",
      "visualize": false,
      "export": "simple",
      "conformanceChecking": true,
      "beam_width": -50,
      "beam_length": 20,
      "number_of_petrinets": 20,
      "top_x_traces": 30,
      "length_normalization": 0,
      "timeout": null,
      "prom": false,
      "import_petrinet": null
    },
    "easy_soundness": false,
    "log_filename": "/mnt/c/Users/s140511/tue/thesis/APDGnn_data/evaluation_data/BPI_2017_O/data",
    "petrinet_filename": "/mnt/c/Users/s140511/tue/thesis/APDGnn_data/evaluation_data/BPI_2017_O/predictions/data_gcn_simple_10",
    "sound": false,
    "soundness_info": {
      "s_components": [
        [
          "p6",
          "O_Refused"
        ],
        [
          "O_Returned",
          "p1",
          "source",
          "p4",
          "O_Sent (mail and online)",
          "sink",
          "short_circuited_transition",
          "p3",
          "p5",
          "O_Create Offer",
          "O_Created",
          "O_Sent (online only)",
          "|",
          "O_Refused",
          ">",
          "p2",
          "O_Accepted",
          "O_Cancelled",
          "p0"
        ]
      ],
      "uncovered_places_s_component": []
    }
  },
  {
    "i": 0,
    "L": {
      "fitness": 0.6298790800250158,
      "precision": 0.9956255084798799,
      "generalization": 0.9905409244387825,
      "simplicity": 0.7037037037037037,
      "metricsAverageWeight": 0.8299373041618455,
      "fscore": 0.7716049327274557,
      "fitness_percFitTraces": 0.0,
      "fitness_alignments": null,
      "fitness_alignments_percFitTraces": null,
      "precision_alignments": null,
      "fscore_alignments": null,
      "fitness_entropy_partial": null,
      "precision_entropy_partial": null,
      "fscore_entropy_partial": null,
      "fitness_entropy_exact": null,
      "precision_entropy_exact": null,
      "fscore_entropy_exact": null
    },
    "L_30": {
      "fitness": 0.629512574206901,
      "precision": 0.9956623818343305,
      "generalization": 0.9887145777389428,
      "simplicity": 0.7037037037037037,
      "metricsAverageWeight": 0.8293983093709695,
      "fscore": 0.7713409398779857,
      "fitness_percFitTraces": 0.0,
      "fitness_alignments": null,
      "fitness_alignments_percFitTraces": null,
      "precision_alignments": null,
      "fscore_alignments": null,
      "fitness_entropy_partial": null,
      "precision_entropy_partial": null,
      "fscore_entropy_partial": null,
      "fitness_entropy_exact": null,
      "precision_entropy_exact": null,
      "fscore_entropy_exact": null
    },
    "args": {
      "config": "config.json",
      "dataDirectory": "/mnt/c/Users/s140511/tue/thesis/APDGnn_data/evaluation_data/BPI_2017_O/",
      "logFilename": "data",
      "miner": "gnn",
      "model_filename": "/mnt/c/Users/s140511/tue/thesis/git_clean/project/ml_models/models/simple_ws2_frequency_144_",
      "visualize": false,
      "export": "simple",
      "conformanceChecking": true,
      "beam_width": -50,
      "beam_length": 20,
      "number_of_petrinets": 20,
      "top_x_traces": 30,
      "length_normalization": 0,
      "timeout": null,
      "prom": false,
      "import_petrinet": null
    },
    "easy_soundness": false,
    "log_filename": "/mnt/c/Users/s140511/tue/thesis/APDGnn_data/evaluation_data/BPI_2017_O/data",
    "petrinet_filename": "/mnt/c/Users/s140511/tue/thesis/APDGnn_data/evaluation_data/BPI_2017_O/predictions/data_gcn_simple_0",
    "sound": false,
    "soundness_info": {
      "s_components": [
        [
          "p4",
          "O_Sent (online only)",
          "|",
          "O_Refused",
          "O_Cancelled",
          "p1",
          "O_Returned",
          "O_Sent (mail and online)",
          "O_Accepted",
          "O_Created",
          "p3",
          "p2",
          "short_circuited_transition",
          "p0",
          "sink",
          ">",
          "O_Create Offer",
          "p5",
          "source"
        ]
      ],
      "uncovered_places_s_component": [
        "p6"
      ]
    }
  },
  {
    "i": 7,
    "L": {
      "fitness": 0.7043821457647517,
      "precision": 0.9956255084798799,
      "generalization": 0.9914895675120544,
      "simplicity": 0.7599999999999999,
      "metricsAverageWeight": 0.8628743054391714,
      "fscore": 0.825056087588959,
      "fitness_percFitTraces": 0.0,
      "fitness_alignments": 0.5613076972426203,
      "fitness_alignments_percFitTraces": 0.0,
      "precision_alignments": 0.9956255084798799,
      "fscore_alignments": 0.717888550936926,
      "fitness_entropy_partial": 0.659222425007251,
      "precision_entropy_partial": 0.8825547480556027,
      "fscore_entropy_partial": 0.7547133157498883,
      "fitness_entropy_exact": 0.0,
      "precision_entropy_exact": 0.0,
      "fscore_entropy_exact": 0
    },
    "L_30": {
      "fitness": 0.7109210203325942,
      "precision": 0.9956623818343305,
      "generalization": 0.9897532630340458,
      "simplicity": 0.7599999999999999,
      "metricsAverageWeight": 0.8640841663002425,
      "fscore": 0.8295373264519867,
      "fitness_percFitTraces": 0.0,
      "fitness_alignments": 0.5678438895945829,
      "fitness_alignments_percFitTraces": 0.0,
      "precision_alignments": 0.9956623818343305,
      "fscore_alignments": 0.7232216588515535,
      "fitness_entropy_partial": 0.725009234172956,
      "precision_entropy_partial": 0.7945714883513848,
      "fscore_entropy_partial": 0.7581981762815839,
      "fitness_entropy_exact": 0.0,
      "precision_entropy_exact": 0.0,
      "fscore_entropy_exact": 0
    },
    "args": {
      "config": "config.json",
      "dataDirectory": "/mnt/c/Users/s140511/tue/thesis/APDGnn_data/evaluation_data/BPI_2017_O/",
      "logFilename": "data",
      "miner": "gnn",
      "model_filename": "/mnt/c/Users/s140511/tue/thesis/git_clean/project/ml_models/models/simple_ws2_frequency_144_",
      "visualize": false,
      "export": "simple",
      "conformanceChecking": true,
      "beam_width": -50,
      "beam_length": 20,
      "number_of_petrinets": 20,
      "top_x_traces": 30,
      "length_normalization": 0,
      "timeout": null,
      "prom": false,
      "import_petrinet": null
    },
    "easy_soundness": true,
    "log_filename": "/mnt/c/Users/s140511/tue/thesis/APDGnn_data/evaluation_data/BPI_2017_O/data",
    "petrinet_filename": "/mnt/c/Users/s140511/tue/thesis/APDGnn_data/evaluation_data/BPI_2017_O/predictions/data_gcn_simple_7",
    "sound": false,
    "soundness_info": {
      "s_components": [
        [
          "p6",
          "O_Refused"
        ],
        [
          "p2",
          "O_Cancelled",
          "source",
          "p4",
          "p5",
          "O_Sent (online only)",
          "O_Create Offer",
          "O_Sent (mail and online)",
          "O_Created",
          "p1",
          "p3",
          "O_Accepted",
          "O_Returned",
          ">",
          "sink",
          "p0",
          "short_circuited_transition",
          "O_Refused",
          "|"
        ]
      ],
      "uncovered_places_s_component": []
    }
  }
]