[
  {
    "i": 13,
    "L": {
      "fitness": 0.8416791101119071,
      "precision": 0.9936269707679568,
      "generalization": 0.988682776629597,
      "simplicity": 0.6774193548387096,
      "metricsAverageWeight": 0.8753520530870426,
      "fscore": 0.9113630399330733,
      "fitness_percFitTraces": 23.320321178076107,
      "fitness_alignments": 0.7873925328236877,
      "fitness_alignments_percFitTraces": 23.320321178076107,
      "precision_alignments": 0.9936269707679568,
      "fscore_alignments": 0.8785692190536439,
      "fitness_entropy_partial": 0.910534629624104,
      "precision_entropy_partial": 0.6422324594797376,
      "fscore_entropy_partial": 0.7532036178876705,
      "fitness_entropy_exact": 0.0,
      "precision_entropy_exact": 0.0,
      "fscore_entropy_exact": 0
    },
    "L_30": {
      "fitness": 0.843700704491181,
      "precision": 0.8354939968980368,
      "generalization": 0.9846661332833011,
      "simplicity": 0.6774193548387096,
      "metricsAverageWeight": 0.8353200473778071,
      "fscore": 0.8395772964241114,
      "fitness_percFitTraces": 25.46769594547604,
      "fitness_alignments": 0.7888258122883052,
      "fitness_alignments_percFitTraces": 25.46769594547604,
      "precision_alignments": 0.8354939968980368,
      "fscore_alignments": 0.8114894949107764,
      "fitness_entropy_partial": 0.950294777909379,
      "precision_entropy_partial": 0.5486985735685213,
      "fscore_entropy_partial": 0.6957007362232833,
      "fitness_entropy_exact": 0.0,
      "precision_entropy_exact": 0.0,
      "fscore_entropy_exact": 0
    },
    "args": {
      "config": "config.json",
      "dataDirectory": "/mnt/c/Users/s140511/tue/thesis/APDGnn_data/evaluation_data/BPI_2017_O/",
      "logFilename": "data",
      "miner": "gnn",
      "model_filename": "/mnt/c/Users/s140511/tue/thesis/git_clean/project/ml_models/models/complex_ws_frequency_100_",
      "visualize": false,
      "export": "complex",
      "conformanceChecking": true,
      "beam_width": -50,
      "beam_length": 20,
      "number_of_petrinets": 20,
      "top_x_traces": 30,
      "length_normalization": 0,
      "timeout": null,
      "prom": false,
      "import_petrinet": null
    },
    "easy_soundness": true,
    "log_filename": "/mnt/c/Users/s140511/tue/thesis/APDGnn_data/evaluation_data/BPI_2017_O/data",
    "petrinet_filename": "/mnt/c/Users/s140511/tue/thesis/APDGnn_data/evaluation_data/BPI_2017_O/predictions/data_gcn_complex_13",
    "sound": true,
    "soundness_info": {
      "s_components": [
        [
          "st2",
          "p3",
          "p1",
          "O_Created",
          "sink",
          ">",
          "O_Sent (online only)",
          "O_Returned",
          "st0",
          "p0",
          "O_Sent (mail and online)",
          "st1",
          "p5",
          "O_Accepted",
          "|",
          "O_Refused",
          "p4",
          "source",
          "O_Create Offer",
          "O_Cancelled",
          "short_circuited_transition",
          "p2"
        ]
      ],
      "uncovered_places_s_component": []
    }
  },
  {
    "i": 10,
    "L": {
      "fitness": 0.8385706854303276,
      "precision": 0.9987520972755392,
      "generalization": 0.9850029455429886,
      "simplicity": 0.7142857142857143,
      "metricsAverageWeight": 0.8841528606336424,
      "fscore": 0.9116789261752748,
      "fitness_percFitTraces": 0.9425878320479862,
      "fitness_alignments": 0.7733441526915382,
      "fitness_alignments_percFitTraces": 0.9425878320479862,
      "precision_alignments": 0.9987520972755392,
      "fscore_alignments": 0.871712351324933,
      "fitness_entropy_partial": 0.910534545490717,
      "precision_entropy_partial": 0.7108015978586946,
      "fscore_entropy_partial": 0.7983654870029783,
      "fitness_entropy_exact": 0.0,
      "precision_entropy_exact": 0.0,
      "fscore_entropy_exact": 0
    },
    "L_30": {
      "fitness": 0.8481994816567666,
      "precision": 0.9355453718603512,
      "generalization": 0.9064406042747157,
      "simplicity": 0.7142857142857143,
      "metricsAverageWeight": 0.851117793019387,
      "fscore": 0.8897338629049861,
      "fitness_percFitTraces": 0.987551290075805,
      "fitness_alignments": 0.7774955481846032,
      "fitness_alignments_percFitTraces": 0.987551290075805,
      "precision_alignments": 0.9355453718603512,
      "fscore_alignments": 0.8492294062970124,
      "fitness_entropy_partial": 0.950294778003152,
      "precision_entropy_partial": 0.6072814188986546,
      "fscore_entropy_partial": 0.7410184648502531,
      "fitness_entropy_exact": 0.0,
      "precision_entropy_exact": 0.0,
      "fscore_entropy_exact": 0
    },
    "args": {
      "config": "config.json",
      "dataDirectory": "/mnt/c/Users/s140511/tue/thesis/APDGnn_data/evaluation_data/BPI_2017_O/",
      "logFilename": "data",
      "miner": "gnn",
      "model_filename": "/mnt/c/Users/s140511/tue/thesis/git_clean/project/ml_models/models/complex_ws_frequency_100_",
      "visualize": false,
      "export": "complex",
      "conformanceChecking": true,
      "beam_width": -50,
      "beam_length": 20,
      "number_of_petrinets": 20,
      "top_x_traces": 30,
      "length_normalization": 0,
      "timeout": null,
      "prom": false,
      "import_petrinet": null
    },
    "easy_soundness": true,
    "log_filename": "/mnt/c/Users/s140511/tue/thesis/APDGnn_data/evaluation_data/BPI_2017_O/data",
    "petrinet_filename": "/mnt/c/Users/s140511/tue/thesis/APDGnn_data/evaluation_data/BPI_2017_O/predictions/data_gcn_complex_10",
    "sound": true,
    "soundness_info": {
      "s_components": [
        [
          "p0",
          "short_circuited_transition",
          "|",
          "p5",
          "O_Refused",
          "p2",
          "O_Cancelled",
          "O_Returned",
          "st1",
          "O_Sent (mail and online)",
          "O_Created",
          ">",
          "st0",
          "O_Accepted",
          "p1",
          "O_Create Offer",
          "source",
          "O_Sent (online only)",
          "sink",
          "p3",
          "p4"
        ]
      ],
      "uncovered_places_s_component": []
    }
  },
  {
    "i": 2,
    "L": {
      "fitness": 0.8533074309751483,
      "precision": 0.9041026615503439,
      "generalization": 0.9911589097279241,
      "simplicity": 0.7142857142857143,
      "metricsAverageWeight": 0.8657136791347827,
      "fscore": 0.8779709673302986,
      "fitness_percFitTraces": 0.7077342981370403,
      "fitness_alignments": 0.8350041749441797,
      "fitness_alignments_percFitTraces": 0.7077342981370403,
      "precision_alignments": 0.9041026615503439,
      "fscore_alignments": 0.8681807018761141,
      "fitness_entropy_partial": 0.910535167865812,
      "precision_entropy_partial": 0.7108019133774316,
      "fscore_entropy_partial": 0.798365925264817,
      "fitness_entropy_exact": 0.0,
      "precision_entropy_exact": 0.0,
      "fscore_entropy_exact": 0
    },
    "L_30": {
      "fitness": 0.8646560190210368,
      "precision": 0.8620247801157681,
      "generalization": 0.9892168199329656,
      "simplicity": 0.7142857142857143,
      "metricsAverageWeight": 0.8575458333388712,
      "fscore": 0.8633383947339883,
      "fitness_percFitTraces": 0.7754364003060018,
      "fitness_alignments": 0.8450701651606353,
      "fitness_alignments_percFitTraces": 0.7754364003060018,
      "precision_alignments": 0.8620247801157681,
      "fscore_alignments": 0.8534632772719533,
      "fitness_entropy_partial": 0.950294777816402,
      "precision_entropy_partial": 0.6072814188986517,
      "fscore_entropy_partial": 0.7410184647934741,
      "fitness_entropy_exact": 0.0,
      "precision_entropy_exact": 0.0,
      "fscore_entropy_exact": 0
    },
    "args": {
      "config": "config.json",
      "dataDirectory": "/mnt/c/Users/s140511/tue/thesis/APDGnn_data/evaluation_data/BPI_2017_O/",
      "logFilename": "data",
      "miner": "gnn",
      "model_filename": "/mnt/c/Users/s140511/tue/thesis/git_clean/project/ml_models/models/complex_ws_frequency_100_",
      "visualize": false,
      "export": "complex",
      "conformanceChecking": true,
      "beam_width": -50,
      "beam_length": 20,
      "number_of_petrinets": 20,
      "top_x_traces": 30,
      "length_normalization": 0,
      "timeout": null,
      "prom": false,
      "import_petrinet": null
    },
    "easy_soundness": true,
    "log_filename": "/mnt/c/Users/s140511/tue/thesis/APDGnn_data/evaluation_data/BPI_2017_O/data",
    "petrinet_filename": "/mnt/c/Users/s140511/tue/thesis/APDGnn_data/evaluation_data/BPI_2017_O/predictions/data_gcn_complex_2",
    "sound": true,
    "soundness_info": {
      "s_components": [
        [
          "O_Accepted",
          "p3",
          "short_circuited_transition",
          "O_Returned",
          ">",
          "O_Sent (online only)",
          "O_Refused",
          "|",
          "O_Created",
          "O_Sent (mail and online)",
          "p0",
          "st0",
          "p4",
          "p5",
          "O_Create Offer",
          "source",
          "p2",
          "O_Cancelled",
          "p1",
          "st1",
          "sink"
        ]
      ],
      "uncovered_places_s_component": []
    }
  },
  {
    "i": 9,
    "L": {
      "fitness": 0.84159971820682,
      "precision": 0.9038662067859148,
      "generalization": 0.9901735608473313,
      "simplicity": 0.7142857142857143,
      "metricsAverageWeight": 0.8624813000314451,
      "fscore": 0.8716223376642078,
      "fitness_percFitTraces": 0.7077342981370403,
      "fitness_alignments": 0.834729981707934,
      "fitness_alignments_percFitTraces": 0.7077342981370403,
      "precision_alignments": 0.9038662067859148,
      "fscore_alignments": 0.8679234744100507,
      "fitness_entropy_partial": 0.830067892437076,
      "precision_entropy_partial": 0.7763972718817769,
      "fscore_entropy_partial": 0.8023360375051226,
      "fitness_entropy_exact": 0.0,
      "precision_entropy_exact": 0.0,
      "fscore_entropy_exact": 0
    },
    "L_30": {
      "fitness": 0.8538998951844634,
      "precision": 0.8635258650881398,
      "generalization": 0.988084478441706,
      "simplicity": 0.7142857142857143,
      "metricsAverageWeight": 0.8549489882500059,
      "fscore": 0.8586859039202899,
      "fitness_percFitTraces": 0.7754364003060018,
      "fitness_alignments": 0.8450701651606353,
      "fitness_alignments_percFitTraces": 0.7754364003060018,
      "precision_alignments": 0.8635258650881398,
      "fscore_alignments": 0.8541983388832561,
      "fitness_entropy_partial": 0.936669809409978,
      "precision_entropy_partial": 0.717194195547741,
      "fscore_entropy_partial": 0.8123692739425923,
      "fitness_entropy_exact": 0.0,
      "precision_entropy_exact": 0.0,
      "fscore_entropy_exact": 0
    },
    "args": {
      "config": "config.json",
      "dataDirectory": "/mnt/c/Users/s140511/tue/thesis/APDGnn_data/evaluation_data/BPI_2017_O/",
      "logFilename": "data",
      "miner": "gnn",
      "model_filename": "/mnt/c/Users/s140511/tue/thesis/git_clean/project/ml_models/models/complex_ws_frequency_100_",
      "visualize": false,
      "export": "complex",
      "conformanceChecking": true,
      "beam_width": -50,
      "beam_length": 20,
      "number_of_petrinets": 20,
      "top_x_traces": 30,
      "length_normalization": 0,
      "timeout": null,
      "prom": false,
      "import_petrinet": null
    },
    "easy_soundness": true,
    "log_filename": "/mnt/c/Users/s140511/tue/thesis/APDGnn_data/evaluation_data/BPI_2017_O/data",
    "petrinet_filename": "/mnt/c/Users/s140511/tue/thesis/APDGnn_data/evaluation_data/BPI_2017_O/predictions/data_gcn_complex_9",
    "sound": true,
    "soundness_info": {
      "s_components": [
        [
          "sink",
          "short_circuited_transition",
          "p3",
          "st1",
          "O_Sent (online only)",
          "O_Refused",
          "st0",
          "p2",
          "O_Sent (mail and online)",
          "p5",
          "p0",
          "source",
          "O_Accepted",
          "O_Created",
          "|",
          "p1",
          ">",
          "O_Create Offer",
          "O_Returned",
          "O_Cancelled",
          "p4"
        ]
      ],
      "uncovered_places_s_component": []
    }
  },
  {
    "i": 11,
    "L": {
      "fitness": 0.8870605131233684,
      "precision": 0.8313168726143202,
      "generalization": 0.9886869216807049,
      "simplicity": 0.6774193548387096,
      "metricsAverageWeight": 0.8461209155642758,
      "fscore": 0.8582845394846713,
      "fitness_percFitTraces": 23.320321178076107,
      "fitness_alignments": 0.8812578924907872,
      "fitness_alignments_percFitTraces": 23.320321178076107,
      "precision_alignments": 0.8313168726143202,
      "fscore_alignments": 0.8555592083679515,
      "fitness_entropy_partial": 0.91053388154695,
      "precision_entropy_partial": 0.6422325663926718,
      "fscore_entropy_partial": 0.7532034354674789,
      "fitness_entropy_exact": 0.0,
      "precision_entropy_exact": 0.0,
      "fscore_entropy_exact": 0
    },
    "L_30": {
      "fitness": 0.896654759586921,
      "precision": 0.6974898505568652,
      "generalization": 0.9846661332833011,
      "simplicity": 0.6774193548387096,
      "metricsAverageWeight": 0.8140575245664492,
      "fscore": 0.7846309428715803,
      "fitness_percFitTraces": 25.46769594547604,
      "fitness_alignments": 0.891854627944922,
      "fitness_alignments_percFitTraces": 25.46769594547604,
      "precision_alignments": 0.6974898505568652,
      "fscore_alignments": 0.7827875700680615,
      "fitness_entropy_partial": 0.950294778138,
      "precision_entropy_partial": 0.5486985735710889,
      "fscore_entropy_partial": 0.6957007362866122,
      "fitness_entropy_exact": 0.0,
      "precision_entropy_exact": 0.0,
      "fscore_entropy_exact": 0
    },
    "args": {
      "config": "config.json",
      "dataDirectory": "/mnt/c/Users/s140511/tue/thesis/APDGnn_data/evaluation_data/BPI_2017_O/",
      "logFilename": "data",
      "miner": "gnn",
      "model_filename": "/mnt/c/Users/s140511/tue/thesis/git_clean/project/ml_models/models/complex_ws_frequency_100_",
      "visualize": false,
      "export": "complex",
      "conformanceChecking": true,
      "beam_width": -50,
      "beam_length": 20,
      "number_of_petrinets": 20,
      "top_x_traces": 30,
      "length_normalization": 0,
      "timeout": null,
      "prom": false,
      "import_petrinet": null
    },
    "easy_soundness": true,
    "log_filename": "/mnt/c/Users/s140511/tue/thesis/APDGnn_data/evaluation_data/BPI_2017_O/data",
    "petrinet_filename": "/mnt/c/Users/s140511/tue/thesis/APDGnn_data/evaluation_data/BPI_2017_O/predictions/data_gcn_complex_11",
    "sound": true,
    "soundness_info": {
      "s_components": [
        [
          "O_Sent (mail and online)",
          "source",
          "|",
          "O_Sent (online only)",
          "O_Cancelled",
          "sink",
          "st0",
          "p3",
          "short_circuited_transition",
          "st2",
          "p1",
          "p0",
          "O_Returned",
          ">",
          "p2",
          "O_Refused",
          "O_Accepted",
          "O_Create Offer",
          "O_Created",
          "st1",
          "p4",
          "p5"
        ]
      ],
      "uncovered_places_s_component": []
    }
  },
  {
    "i": 1,
    "L": {
      "fitness": 0.8323807698915069,
      "precision": 0.8840790022027742,
      "generalization": 0.9908678513034508,
      "simplicity": 0.7142857142857143,
      "metricsAverageWeight": 0.8554033344208616,
      "fscore": 0.8574513338003703,
      "fitness_percFitTraces": 0.7077342981370403,
      "fitness_alignments": 0.8248077501031752,
      "fitness_alignments_percFitTraces": 0.7077342981370403,
      "precision_alignments": 0.8840790022027742,
      "fscore_alignments": 0.8534154902147422,
      "fitness_entropy_partial": 0.90643192429244,
      "precision_entropy_partial": 0.7724542499740663,
      "fscore_entropy_partial": 0.8340972758772868,
      "fitness_entropy_exact": 0.0,
      "precision_entropy_exact": 0.0,
      "fscore_entropy_exact": 0
    },
    "L_30": {
      "fitness": 0.8450846091861401,
      "precision": 0.845335086507494,
      "generalization": 0.9889253627637804,
      "simplicity": 0.7142857142857143,
      "metricsAverageWeight": 0.8484076931857822,
      "fscore": 0.8452098292896243,
      "fitness_percFitTraces": 0.7754364003060018,
      "fitness_alignments": 0.8374845390427983,
      "fitness_alignments_percFitTraces": 0.7754364003060018,
      "precision_alignments": 0.845335086507494,
      "fscore_alignments": 0.841391500920875,
      "fitness_entropy_partial": 0.916788807581718,
      "precision_entropy_partial": 0.6395674021655112,
      "fscore_entropy_partial": 0.7534884781867334,
      "fitness_entropy_exact": 0.0,
      "precision_entropy_exact": 0.0,
      "fscore_entropy_exact": 0
    },
    "args": {
      "config": "config.json",
      "dataDirectory": "/mnt/c/Users/s140511/tue/thesis/APDGnn_data/evaluation_data/BPI_2017_O/",
      "logFilename": "data",
      "miner": "gnn",
      "model_filename": "/mnt/c/Users/s140511/tue/thesis/git_clean/project/ml_models/models/complex_ws_frequency_100_",
      "visualize": false,
      "export": "complex",
      "conformanceChecking": true,
      "beam_width": -50,
      "beam_length": 20,
      "number_of_petrinets": 20,
      "top_x_traces": 30,
      "length_normalization": 0,
      "timeout": null,
      "prom": false,
      "import_petrinet": null
    },
    "easy_soundness": true,
    "log_filename": "/mnt/c/Users/s140511/tue/thesis/APDGnn_data/evaluation_data/BPI_2017_O/data",
    "petrinet_filename": "/mnt/c/Users/s140511/tue/thesis/APDGnn_data/evaluation_data/BPI_2017_O/predictions/data_gcn_complex_1",
    "sound": true,
    "soundness_info": {
      "s_components": [
        [
          "p0",
          "O_Create Offer",
          "O_Sent (online only)",
          "p3",
          "O_Returned",
          "O_Cancelled",
          "source",
          ">",
          "O_Created",
          "O_Sent (mail and online)",
          "sink",
          "st1",
          "O_Accepted",
          "|",
          "st0",
          "O_Refused",
          "p4",
          "p1",
          "p5",
          "p2",
          "short_circuited_transition"
        ]
      ],
      "uncovered_places_s_component": []
    }
  },
  {
    "i": 3,
    "L": {
      "fitness": 0.7851212713229385,
      "precision": 0.995141572094215,
      "generalization": 0.9905252330203161,
      "simplicity": 0.7142857142857143,
      "metricsAverageWeight": 0.871268447680796,
      "fscore": 0.8777432154110751,
      "fitness_percFitTraces": 0.7077342981370403,
      "fitness_alignments": 0.7370757420599814,
      "fitness_alignments_percFitTraces": 0.7077342981370403,
      "precision_alignments": 0.995141572094215,
      "fscore_alignments": 0.8468853263532115,
      "fitness_entropy_partial": 0.910534552849661,
      "precision_entropy_partial": 0.7108016692262084,
      "fscore_entropy_partial": 0.7983655348488138,
      "fitness_entropy_exact": 0.0,
      "precision_entropy_exact": 0.0,
      "fscore_entropy_exact": 0
    },
    "L_30": {
      "fitness": 0.7883301383265588,
      "precision": 0.9246291625205378,
      "generalization": 0.9882396465782186,
      "simplicity": 0.7142857142857143,
      "metricsAverageWeight": 0.8538711654277574,
      "fscore": 0.8510570393938981,
      "fitness_percFitTraces": 0.7754364003060018,
      "fitness_alignments": 0.7372768346010857,
      "fitness_alignments_percFitTraces": 0.7754364003060018,
      "precision_alignments": 0.9246291625205378,
      "fscore_alignments": 0.8203925652879216,
      "fitness_entropy_partial": 0.950294778028254,
      "precision_entropy_partial": 0.6072814188986677,
      "fscore_entropy_partial": 0.7410184648578945,
      "fitness_entropy_exact": 0.0,
      "precision_entropy_exact": 0.0,
      "fscore_entropy_exact": 0
    },
    "args": {
      "config": "config.json",
      "dataDirectory": "/mnt/c/Users/s140511/tue/thesis/APDGnn_data/evaluation_data/BPI_2017_O/",
      "logFilename": "data",
      "miner": "gnn",
      "model_filename": "/mnt/c/Users/s140511/tue/thesis/git_clean/project/ml_models/models/complex_ws_frequency_100_",
      "visualize": false,
      "export": "complex",
      "conformanceChecking": true,
      "beam_width": -50,
      "beam_length": 20,
      "number_of_petrinets": 20,
      "top_x_traces": 30,
      "length_normalization": 0,
      "timeout": null,
      "prom": false,
      "import_petrinet": null
    },
    "easy_soundness": true,
    "log_filename": "/mnt/c/Users/s140511/tue/thesis/APDGnn_data/evaluation_data/BPI_2017_O/data",
    "petrinet_filename": "/mnt/c/Users/s140511/tue/thesis/APDGnn_data/evaluation_data/BPI_2017_O/predictions/data_gcn_complex_3",
    "sound": true,
    "soundness_info": {
      "s_components": [
        [
          "p2",
          "O_Returned",
          "st1",
          "O_Sent (mail and online)",
          "st0",
          "p1",
          "O_Cancelled",
          "p0",
          "p3",
          "O_Refused",
          "source",
          "O_Sent (online only)",
          ">",
          "O_Accepted",
          "short_circuited_transition",
          "p5",
          "p4",
          "|",
          "O_Created",
          "O_Create Offer",
          "sink"
        ]
      ],
      "uncovered_places_s_component": []
    }
  },
  {
    "i": 12,
    "L": {
      "fitness": 0.8489130576870286,
      "precision": 0.8410141308678151,
      "generalization": 0.9893425659932484,
      "simplicity": 0.6774193548387096,
      "metricsAverageWeight": 0.8391722773467004,
      "fscore": 0.8449451340013466,
      "fitness_percFitTraces": 23.323494874480307,
      "fitness_alignments": 0.8430194990233025,
      "fitness_alignments_percFitTraces": 23.323494874480307,
      "precision_alignments": 0.8410141308678151,
      "fscore_alignments": 0.8420156209369097,
      "fitness_entropy_partial": 0.910534119311034,
      "precision_entropy_partial": 0.642232235276778,
      "fscore_entropy_partial": 0.7532032891015705,
      "fitness_entropy_exact": 0.0,
      "precision_entropy_exact": 0.0,
      "fscore_entropy_exact": 0
    },
    "L_30": {
      "fitness": 0.8498045283930792,
      "precision": 0.6972933809970643,
      "generalization": 0.9855730496363978,
      "simplicity": 0.6774193548387096,
      "metricsAverageWeight": 0.8025225784663127,
      "fscore": 0.7660317672116959,
      "fitness_percFitTraces": 25.46769594547604,
      "fitness_alignments": 0.8474562697947481,
      "fitness_alignments_percFitTraces": 25.46769594547604,
      "precision_alignments": 0.6972933809970643,
      "fscore_alignments": 0.7650762663185477,
      "fitness_entropy_partial": 0.95029477825842,
      "precision_entropy_partial": 0.5486985735710924,
      "fscore_entropy_partial": 0.6957007363188851,
      "fitness_entropy_exact": 0.0,
      "precision_entropy_exact": 0.0,
      "fscore_entropy_exact": 0
    },
    "args": {
      "config": "config.json",
      "dataDirectory": "/mnt/c/Users/s140511/tue/thesis/APDGnn_data/evaluation_data/BPI_2017_O/",
      "logFilename": "data",
      "miner": "gnn",
      "model_filename": "/mnt/c/Users/s140511/tue/thesis/git_clean/project/ml_models/models/complex_ws_frequency_100_",
      "visualize": false,
      "export": "complex",
      "conformanceChecking": true,
      "beam_width": -50,
      "beam_length": 20,
      "number_of_petrinets": 20,
      "top_x_traces": 30,
      "length_normalization": 0,
      "timeout": null,
      "prom": false,
      "import_petrinet": null
    },
    "easy_soundness": true,
    "log_filename": "/mnt/c/Users/s140511/tue/thesis/APDGnn_data/evaluation_data/BPI_2017_O/data",
    "petrinet_filename": "/mnt/c/Users/s140511/tue/thesis/APDGnn_data/evaluation_data/BPI_2017_O/predictions/data_gcn_complex_12",
    "sound": true,
    "soundness_info": {
      "s_components": [
        [
          "st0",
          "p4",
          "p5",
          "O_Refused",
          "|",
          "p3",
          "st2",
          "p2",
          "source",
          "sink",
          "O_Create Offer",
          "O_Returned",
          "O_Sent (online only)",
          "O_Accepted",
          "O_Sent (mail and online)",
          "O_Created",
          "p1",
          "p0",
          "O_Cancelled",
          "st1",
          ">",
          "short_circuited_transition"
        ]
      ],
      "uncovered_places_s_component": []
    }
  },
  {
    "i": 19,
    "L": {
      "fitness": 0.7906811866417125,
      "precision": 0.8824809170258501,
      "generalization": 0.9909149005189336,
      "simplicity": 0.7777777777777779,
      "metricsAverageWeight": 0.8604636954910685,
      "fscore": 0.8340627093252677,
      "fitness_percFitTraces": 0.371322479291631,
      "fitness_alignments": 0.8050456911954381,
      "fitness_alignments_percFitTraces": 0.371322479291631,
      "precision_alignments": 0.8824809170258501,
      "fscore_alignments": 0.8419866760651382,
      "fitness_entropy_partial": 0.82949169707213,
      "precision_entropy_partial": 0.7691815317748631,
      "fscore_entropy_partial": 0.7981990098234598,
      "fitness_entropy_exact": 0.0,
      "precision_entropy_exact": 0.0,
      "fscore_entropy_exact": 0
    },
    "L_30": {
      "fitness": 0.8023574075605597,
      "precision": 0.8449289604743742,
      "generalization": 0.9889840453428286,
      "simplicity": 0.7777777777777779,
      "metricsAverageWeight": 0.8535120477888851,
      "fscore": 0.8230930862467752,
      "fitness_percFitTraces": 0.40684331316503236,
      "fitness_alignments": 0.8162457088902766,
      "fitness_alignments_percFitTraces": 0.40684331316503236,
      "precision_alignments": 0.8449289604743742,
      "fscore_alignments": 0.8303397000004917,
      "fitness_entropy_partial": 0.903771004353606,
      "precision_entropy_partial": 0.6860489016843762,
      "fscore_entropy_partial": 0.7800016876831881,
      "fitness_entropy_exact": 0.0,
      "precision_entropy_exact": 0.0,
      "fscore_entropy_exact": 0
    },
    "args": {
      "config": "config.json",
      "dataDirectory": "/mnt/c/Users/s140511/tue/thesis/APDGnn_data/evaluation_data/BPI_2017_O/",
      "logFilename": "data",
      "miner": "gnn",
      "model_filename": "/mnt/c/Users/s140511/tue/thesis/git_clean/project/ml_models/models/complex_ws_frequency_100_",
      "visualize": false,
      "export": "complex",
      "conformanceChecking": true,
      "beam_width": -50,
      "beam_length": 20,
      "number_of_petrinets": 20,
      "top_x_traces": 30,
      "length_normalization": 0,
      "timeout": null,
      "prom": false,
      "import_petrinet": null
    },
    "easy_soundness": true,
    "log_filename": "/mnt/c/Users/s140511/tue/thesis/APDGnn_data/evaluation_data/BPI_2017_O/data",
    "petrinet_filename": "/mnt/c/Users/s140511/tue/thesis/APDGnn_data/evaluation_data/BPI_2017_O/predictions/data_gcn_complex_19",
    "sound": true,
    "soundness_info": {
      "s_components": [
        [
          "p3",
          "p1",
          "p0",
          "O_Sent (mail and online)",
          "p2",
          "O_Refused",
          "O_Created",
          "st0",
          "st1",
          "source",
          "O_Sent (online only)",
          "O_Create Offer",
          ">",
          "sink",
          "short_circuited_transition",
          "O_Cancelled",
          "p5",
          "O_Accepted",
          "p6",
          "O_Returned",
          "|",
          "p4"
        ]
      ],
      "uncovered_places_s_component": []
    }
  },
  {
    "i": 14,
    "L": {
      "fitness": 0.77628474952588,
      "precision": 0.9950935708134675,
      "generalization": 0.990867248777433,
      "simplicity": 0.7777777777777779,
      "metricsAverageWeight": 0.8850058367236395,
      "fscore": 0.8721750226973095,
      "fitness_percFitTraces": 0.7077342981370403,
      "fitness_alignments": 0.7214045969027765,
      "fitness_alignments_percFitTraces": 0.7077342981370403,
      "precision_alignments": 0.9950935708134675,
      "fscore_alignments": 0.8364297612835028,
      "fitness_entropy_partial": 0.825088640261843,
      "precision_entropy_partial": 0.7717411638800202,
      "fscore_entropy_partial": 0.7975237760320365,
      "fitness_entropy_exact": 0.0,
      "precision_entropy_exact": 0.0,
      "fscore_entropy_exact": 0
    },
    "L_30": {
      "fitness": 0.7845061364904233,
      "precision": 0.9574067520702102,
      "generalization": 0.9889253627637804,
      "simplicity": 0.7777777777777779,
      "metricsAverageWeight": 0.8771540072755479,
      "fscore": 0.8623754690018768,
      "fitness_percFitTraces": 0.7754364003060018,
      "fitness_alignments": 0.7263322566577933,
      "fitness_alignments_percFitTraces": 0.7754364003060018,
      "precision_alignments": 0.9574067520702102,
      "fscore_alignments": 0.826013299170288,
      "fitness_entropy_partial": 0.896813462899151,
      "precision_entropy_partial": 0.6866767815666409,
      "fscore_entropy_partial": 0.7778020540656722,
      "fitness_entropy_exact": 0.0,
      "precision_entropy_exact": 0.0,
      "fscore_entropy_exact": 0
    },
    "args": {
      "config": "config.json",
      "dataDirectory": "/mnt/c/Users/s140511/tue/thesis/APDGnn_data/evaluation_data/BPI_2017_O/",
      "logFilename": "data",
      "miner": "gnn",
      "model_filename": "/mnt/c/Users/s140511/tue/thesis/git_clean/project/ml_models/models/complex_ws_frequency_100_",
      "visualize": false,
      "export": "complex",
      "conformanceChecking": true,
      "beam_width": -50,
      "beam_length": 20,
      "number_of_petrinets": 20,
      "top_x_traces": 30,
      "length_normalization": 0,
      "timeout": null,
      "prom": false,
      "import_petrinet": null
    },
    "easy_soundness": true,
    "log_filename": "/mnt/c/Users/s140511/tue/thesis/APDGnn_data/evaluation_data/BPI_2017_O/data",
    "petrinet_filename": "/mnt/c/Users/s140511/tue/thesis/APDGnn_data/evaluation_data/BPI_2017_O/predictions/data_gcn_complex_14",
    "sound": true,
    "soundness_info": {
      "s_components": [
        [
          "O_Created",
          "O_Sent (online only)",
          ">",
          "p2",
          "p0",
          "O_Sent (mail and online)",
          "O_Create Offer",
          "source",
          "O_Returned",
          "p1",
          "short_circuited_transition",
          "st1",
          "O_Refused",
          "O_Cancelled",
          "sink",
          "|",
          "p3",
          "p4",
          "st0",
          "O_Accepted",
          "p5",
          "p6"
        ]
      ],
      "uncovered_places_s_component": []
    }
  },
  {
    "i": 8,
    "L": {
      "fitness": 0.8555428228850843,
      "precision": 0.8297994569868251,
      "generalization": 0.9915768256737196,
      "simplicity": 0.7142857142857143,
      "metricsAverageWeight": 0.8478012049578358,
      "fscore": 0.842474526792237,
      "fitness_percFitTraces": 23.250499857183662,
      "fitness_alignments": 0.8425984291973575,
      "fitness_alignments_percFitTraces": 23.250499857183662,
      "precision_alignments": 0.8297994569868251,
      "fscore_alignments": 0.8361499673994648,
      "fitness_entropy_partial": 0.910534390112466,
      "precision_entropy_partial": 0.7108013531556766,
      "fscore_entropy_partial": 0.7983652729226012,
      "fitness_entropy_exact": 0.0,
      "precision_entropy_exact": 0.0,
      "fscore_entropy_exact": 0
    },
    "L_30": {
      "fitness": 0.8568616088674927,
      "precision": 0.7620837365827908,
      "generalization": 0.9897742167586646,
      "simplicity": 0.7142857142857143,
      "metricsAverageWeight": 0.8307513191236656,
      "fscore": 0.8066983835559428,
      "fitness_percFitTraces": 25.46769594547604,
      "fitness_alignments": 0.8474562697947481,
      "fitness_alignments_percFitTraces": 25.46769594547604,
      "precision_alignments": 0.7620837365827908,
      "fscore_alignments": 0.8025058564766197,
      "fitness_entropy_partial": 0.950294778168368,
      "precision_entropy_partial": 0.6072814188829294,
      "fscore_entropy_partial": 0.7410184648887762,
      "fitness_entropy_exact": 0.0,
      "precision_entropy_exact": 0.0,
      "fscore_entropy_exact": 0
    },
    "args": {
      "config": "config.json",
      "dataDirectory": "/mnt/c/Users/s140511/tue/thesis/APDGnn_data/evaluation_data/BPI_2017_O/",
      "logFilename": "data",
      "miner": "gnn",
      "model_filename": "/mnt/c/Users/s140511/tue/thesis/git_clean/project/ml_models/models/complex_ws_frequency_100_",
      "visualize": false,
      "export": "complex",
      "conformanceChecking": true,
      "beam_width": -50,
      "beam_length": 20,
      "number_of_petrinets": 20,
      "top_x_traces": 30,
      "length_normalization": 0,
      "timeout": null,
      "prom": false,
      "import_petrinet": null
    },
    "easy_soundness": true,
    "log_filename": "/mnt/c/Users/s140511/tue/thesis/APDGnn_data/evaluation_data/BPI_2017_O/data",
    "petrinet_filename": "/mnt/c/Users/s140511/tue/thesis/APDGnn_data/evaluation_data/BPI_2017_O/predictions/data_gcn_complex_8",
    "sound": true,
    "soundness_info": {
      "s_components": [
        [
          "p5",
          "p2",
          "p4",
          "O_Returned",
          "O_Create Offer",
          "O_Sent (online only)",
          "p1",
          "short_circuited_transition",
          "O_Refused",
          "O_Accepted",
          ">",
          "st1",
          "st0",
          "O_Sent (mail and online)",
          "p0",
          "source",
          "|",
          "O_Created",
          "O_Cancelled",
          "p3",
          "sink"
        ]
      ],
      "uncovered_places_s_component": []
    }
  },
  {
    "i": 7,
    "L": {
      "fitness": 0.8947735892968343,
      "precision": 0.7788588560252538,
      "generalization": 0.9890768309502157,
      "simplicity": 0.6774193548387096,
      "metricsAverageWeight": 0.8350321577777533,
      "fscore": 0.83280213180526,
      "fitness_percFitTraces": 23.317147481671903,
      "fitness_alignments": 0.8764118964141533,
      "fitness_alignments_percFitTraces": 23.317147481671903,
      "precision_alignments": 0.7788588560252538,
      "fscore_alignments": 0.8247607420623934,
      "fitness_entropy_partial": 0.910533582149902,
      "precision_entropy_partial": 0.6422324433489303,
      "fscore_entropy_partial": 0.7532032484128114,
      "fitness_entropy_exact": 0.0,
      "precision_entropy_exact": 0.0,
      "fscore_entropy_exact": 0
    },
    "L_30": {
      "fitness": 0.9043094159150958,
      "precision": 0.672952624987404,
      "generalization": 0.9855808356388178,
      "simplicity": 0.6774193548387096,
      "metricsAverageWeight": 0.8100655578450068,
      "fscore": 0.7716630204232608,
      "fitness_percFitTraces": 25.46769594547604,
      "fitness_alignments": 0.8884956761194323,
      "fitness_alignments_percFitTraces": 25.46769594547604,
      "precision_alignments": 0.672952624987404,
      "fscore_alignments": 0.7658473189419035,
      "fitness_entropy_partial": 0.95029477804672,
      "precision_entropy_partial": 0.5486985735773708,
      "fscore_entropy_partial": 0.6957007362672007,
      "fitness_entropy_exact": 0.0,
      "precision_entropy_exact": 0.0,
      "fscore_entropy_exact": 0
    },
    "args": {
      "config": "config.json",
      "dataDirectory": "/mnt/c/Users/s140511/tue/thesis/APDGnn_data/evaluation_data/BPI_2017_O/",
      "logFilename": "data",
      "miner": "gnn",
      "model_filename": "/mnt/c/Users/s140511/tue/thesis/git_clean/project/ml_models/models/complex_ws_frequency_100_",
      "visualize": false,
      "export": "complex",
      "conformanceChecking": true,
      "beam_width": -50,
      "beam_length": 20,
      "number_of_petrinets": 20,
      "top_x_traces": 30,
      "length_normalization": 0,
      "timeout": null,
      "prom": false,
      "import_petrinet": null
    },
    "easy_soundness": true,
    "log_filename": "/mnt/c/Users/s140511/tue/thesis/APDGnn_data/evaluation_data/BPI_2017_O/data",
    "petrinet_filename": "/mnt/c/Users/s140511/tue/thesis/APDGnn_data/evaluation_data/BPI_2017_O/predictions/data_gcn_complex_7",
    "sound": true,
    "soundness_info": {
      "s_components": [
        [
          "O_Returned",
          "st2",
          "source",
          ">",
          "p0",
          "sink",
          "short_circuited_transition",
          "O_Accepted",
          "O_Refused",
          "p1",
          "O_Sent (online only)",
          "|",
          "O_Cancelled",
          "st0",
          "p3",
          "p2",
          "O_Created",
          "O_Sent (mail and online)",
          "p5",
          "st1",
          "O_Create Offer",
          "p4"
        ]
      ],
      "uncovered_places_s_component": []
    }
  },
  {
    "i": 17,
    "L": {
      "fitness": 0.8222452908154524,
      "precision": 0.9978303383329277,
      "generalization": 0.9886327148948918,
      "simplicity": 0.6774193548387096,
      "metricsAverageWeight": 0.8715319247204953,
      "fscore": 0.9015683563775162,
      "fitness_percFitTraces": 22.872829985083627,
      "fitness_alignments": 0.7453361472873377,
      "fitness_alignments_percFitTraces": 22.872829985083627,
      "precision_alignments": 0.9978303383329277,
      "fscore_alignments": 0.8532966026533603,
      "fitness_entropy_partial": 0.797666006238518,
      "precision_entropy_partial": 0.7619658489105436,
      "fscore_entropy_partial": 0.7794073371661487,
      "fitness_entropy_exact": 0.0,
      "precision_entropy_exact": 0.0,
      "fscore_entropy_exact": 0
    },
    "L_30": {
      "fitness": 0.8250680356994308,
      "precision": 0.9676344440778621,
      "generalization": 0.9849384471648353,
      "simplicity": 0.6774193548387096,
      "metricsAverageWeight": 0.8637650704452094,
      "fscore": 0.8906823737418081,
      "fitness_percFitTraces": 25.060852632311008,
      "fitness_alignments": 0.7510071388552267,
      "fitness_alignments_percFitTraces": 25.060852632311008,
      "precision_alignments": 0.9676344440778621,
      "fscore_alignments": 0.8456683261026107,
      "fitness_entropy_partial": 0.84440797686974,
      "precision_entropy_partial": 0.6603077826878229,
      "fscore_entropy_partial": 0.7410956592289729,
      "fitness_entropy_exact": 0.0,
      "precision_entropy_exact": 0.0,
      "fscore_entropy_exact": 0
    },
    "args": {
      "config": "config.json",
      "dataDirectory": "/mnt/c/Users/s140511/tue/thesis/APDGnn_data/evaluation_data/BPI_2017_O/",
      "logFilename": "data",
      "miner": "gnn",
      "model_filename": "/mnt/c/Users/s140511/tue/thesis/git_clean/project/ml_models/models/complex_ws_frequency_100_",
      "visualize": false,
      "export": "complex",
      "conformanceChecking": true,
      "beam_width": -50,
      "beam_length": 20,
      "number_of_petrinets": 20,
      "top_x_traces": 30,
      "length_normalization": 0,
      "timeout": null,
      "prom": false,
      "import_petrinet": null
    },
    "easy_soundness": true,
    "log_filename": "/mnt/c/Users/s140511/tue/thesis/APDGnn_data/evaluation_data/BPI_2017_O/data",
    "petrinet_filename": "/mnt/c/Users/s140511/tue/thesis/APDGnn_data/evaluation_data/BPI_2017_O/predictions/data_gcn_complex_17",
    "sound": false,
    "soundness_info": {
      "s_components": [
        [
          "p6",
          "O_Refused"
        ],
        [
          ">",
          "O_Sent (mail and online)",
          "O_Sent (online only)",
          "st0",
          "O_Created",
          "p4",
          "p1",
          "short_circuited_transition",
          "O_Accepted",
          "p5",
          "p0",
          "st1",
          "source",
          "sink",
          "O_Cancelled",
          "|",
          "p2",
          "p3",
          "O_Refused",
          "O_Returned",
          "O_Create Offer"
        ]
      ],
      "uncovered_places_s_component": []
    }
  },
  {
    "i": 6,
    "L": {
      "fitness": 0.790790074641405,
      "precision": 0.9971193559814238,
      "generalization": 0.9909255437077389,
      "simplicity": 0.7142857142857143,
      "metricsAverageWeight": 0.8732801721540706,
      "fscore": 0.8820492542155862,
      "fitness_percFitTraces": 0.371322479291631,
      "fitness_alignments": 0.7091585523774552,
      "fitness_alignments_percFitTraces": 0.371322479291631,
      "precision_alignments": 0.9971193559814238,
      "fscore_alignments": 0.8288400331168096,
      "fitness_entropy_partial": 0.803864272838045,
      "precision_entropy_partial": 0.7880548450941977,
      "fscore_entropy_partial": 0.7958810568604641,
      "fitness_entropy_exact": 0.0,
      "precision_entropy_exact": 0.0,
      "fscore_entropy_exact": 0
    },
    "L_30": {
      "fitness": 0.8012579807892692,
      "precision": 0.9633893751624925,
      "generalization": 0.9888442955724172,
      "simplicity": 0.7142857142857143,
      "metricsAverageWeight": 0.8669443414524733,
      "fscore": 0.874875564064411,
      "fitness_percFitTraces": 0.40684331316503236,
      "fitness_alignments": 0.7120925934399883,
      "fitness_alignments_percFitTraces": 0.40684331316503236,
      "precision_alignments": 0.9633893751624925,
      "fscore_alignments": 0.8188956389953874,
      "fitness_entropy_partial": 0.896773711852618,
      "precision_entropy_partial": 0.7196749902920069,
      "fscore_entropy_partial": 0.7985228501410454,
      "fitness_entropy_exact": 0.0,
      "precision_entropy_exact": 0.0,
      "fscore_entropy_exact": 0
    },
    "args": {
      "config": "config.json",
      "dataDirectory": "/mnt/c/Users/s140511/tue/thesis/APDGnn_data/evaluation_data/BPI_2017_O/",
      "logFilename": "data",
      "miner": "gnn",
      "model_filename": "/mnt/c/Users/s140511/tue/thesis/git_clean/project/ml_models/models/complex_ws_frequency_100_",
      "visualize": false,
      "export": "complex",
      "conformanceChecking": true,
      "beam_width": -50,
      "beam_length": 20,
      "number_of_petrinets": 20,
      "top_x_traces": 30,
      "length_normalization": 0,
      "timeout": null,
      "prom": false,
      "import_petrinet": null
    },
    "easy_soundness": true,
    "log_filename": "/mnt/c/Users/s140511/tue/thesis/APDGnn_data/evaluation_data/BPI_2017_O/data",
    "petrinet_filename": "/mnt/c/Users/s140511/tue/thesis/APDGnn_data/evaluation_data/BPI_2017_O/predictions/data_gcn_complex_6",
    "sound": false,
    "soundness_info": {
      "s_components": [
        [
          "O_Refused",
          "O_Accepted",
          "O_Cancelled",
          "st0",
          "|",
          "p5",
          "source",
          "O_Returned",
          "short_circuited_transition",
          "p0",
          "O_Create Offer",
          "p1",
          "O_Sent (mail and online)",
          "p3",
          "O_Created",
          "O_Sent (online only)",
          "p2",
          "sink",
          ">",
          "p4"
        ],
        [
          "p6",
          "O_Cancelled"
        ]
      ],
      "uncovered_places_s_component": []
    }
  },
  {
    "i": 0,
    "L": {
      "fitness": 0.7308501838088516,
      "precision": 0.9966934341048653,
      "generalization": 0.9909255437077389,
      "simplicity": 0.7142857142857143,
      "metricsAverageWeight": 0.8581887189767925,
      "fscore": 0.8433171492321745,
      "fitness_percFitTraces": 0.371322479291631,
      "fitness_alignments": 0.7021918366398966,
      "fitness_alignments_percFitTraces": 0.371322479291631,
      "precision_alignments": 0.9966934341048653,
      "fscore_alignments": 0.8239167236457471,
      "fitness_entropy_partial": 0.794265273647083,
      "precision_entropy_partial": 0.77864501573044,
      "fscore_entropy_partial": 0.786377583858042,
      "fitness_entropy_exact": 0.0,
      "precision_entropy_exact": 0.0,
      "fscore_entropy_exact": 0
    },
    "L_30": {
      "fitness": 0.737460924919008,
      "precision": 0.9621162386561112,
      "generalization": 0.9888442955724172,
      "simplicity": 0.7142857142857143,
      "metricsAverageWeight": 0.8506767933583127,
      "fscore": 0.8349407681454444,
      "fitness_percFitTraces": 0.40684331316503236,
      "fitness_alignments": 0.7073783772715755,
      "fitness_alignments_percFitTraces": 0.40684331316503236,
      "precision_alignments": 0.9621162386561112,
      "fscore_alignments": 0.8153128703191586,
      "fitness_entropy_partial": 0.8289236479928,
      "precision_entropy_partial": 0.6652242482382252,
      "fscore_entropy_partial": 0.7381064645258344,
      "fitness_entropy_exact": 0.0,
      "precision_entropy_exact": 0.0,
      "fscore_entropy_exact": 0
    },
    "args": {
      "config": "config.json",
      "dataDirectory": "/mnt/c/Users/s140511/tue/thesis/APDGnn_data/evaluation_data/BPI_2017_O/",
      "logFilename": "data",
      "miner": "gnn",
      "model_filename": "/mnt/c/Users/s140511/tue/thesis/git_clean/project/ml_models/models/complex_ws_frequency_100_",
      "visualize": false,
      "export": "complex",
      "conformanceChecking": true,
      "beam_width": -50,
      "beam_length": 20,
      "number_of_petrinets": 20,
      "top_x_traces": 30,
      "length_normalization": 0,
      "timeout": null,
      "prom": false,
      "import_petrinet": null
    },
    "easy_soundness": true,
    "log_filename": "/mnt/c/Users/s140511/tue/thesis/APDGnn_data/evaluation_data/BPI_2017_O/data",
    "petrinet_filename": "/mnt/c/Users/s140511/tue/thesis/APDGnn_data/evaluation_data/BPI_2017_O/predictions/data_gcn_complex_0",
    "sound": false,
    "soundness_info": {
      "s_components": [
        [
          "p6",
          "O_Cancelled"
        ],
        [
          "|",
          "O_Create Offer",
          "O_Sent (online only)",
          "short_circuited_transition",
          "p4",
          "sink",
          ">",
          "O_Cancelled",
          "O_Sent (mail and online)",
          "p3",
          "source",
          "O_Created",
          "O_Returned",
          "p1",
          "p2",
          "O_Accepted",
          "st0",
          "p5",
          "O_Refused",
          "p0"
        ]
      ],
      "uncovered_places_s_component": []
    }
  },
  {
    "i": 5,
    "L": {
      "fitness": 0.7816266853672413,
      "precision": 0.868211127680578,
      "generalization": 0.9909149005189336,
      "simplicity": 0.7333333333333333,
      "metricsAverageWeight": 0.8435215117250215,
      "fscore": 0.8226469057274003,
      "fitness_percFitTraces": 0.0,
      "fitness_alignments": 0.7813320766424989,
      "fitness_alignments_percFitTraces": 0.0,
      "precision_alignments": 0.868211127680578,
      "fscore_alignments": 0.8224837052790878,
      "fitness_entropy_partial": 0.801596612033045,
      "precision_entropy_partial": 0.7607899330539415,
      "fscore_entropy_partial": 0.780660374633389,
      "fitness_entropy_exact": 0.0,
      "precision_entropy_exact": 0.0,
      "fscore_entropy_exact": 0
    },
    "L_30": {
      "fitness": 0.7926610063552331,
      "precision": 0.834416212517989,
      "generalization": 0.9889840453428286,
      "simplicity": 0.7333333333333333,
      "metricsAverageWeight": 0.837348649387346,
      "fscore": 0.8130028336229402,
      "fitness_percFitTraces": 0.0,
      "fitness_alignments": 0.7922867867203536,
      "fitness_alignments_percFitTraces": 0.0,
      "precision_alignments": 0.834416212517989,
      "fscore_alignments": 0.8128059518090088,
      "fitness_entropy_partial": 0.871966016720784,
      "precision_entropy_partial": 0.6774665335722686,
      "fscore_entropy_partial": 0.7625085643501174,
      "fitness_entropy_exact": 0.0,
      "precision_entropy_exact": 0.0,
      "fscore_entropy_exact": 0
    },
    "args": {
      "config": "config.json",
      "dataDirectory": "/mnt/c/Users/s140511/tue/thesis/APDGnn_data/evaluation_data/BPI_2017_O/",
      "logFilename": "data",
      "miner": "gnn",
      "model_filename": "/mnt/c/Users/s140511/tue/thesis/git_clean/project/ml_models/models/complex_ws_frequency_100_",
      "visualize": false,
      "export": "complex",
      "conformanceChecking": true,
      "beam_width": -50,
      "beam_length": 20,
      "number_of_petrinets": 20,
      "top_x_traces": 30,
      "length_normalization": 0,
      "timeout": null,
      "prom": false,
      "import_petrinet": null
    },
    "easy_soundness": true,
    "log_filename": "/mnt/c/Users/s140511/tue/thesis/APDGnn_data/evaluation_data/BPI_2017_O/data",
    "petrinet_filename": "/mnt/c/Users/s140511/tue/thesis/APDGnn_data/evaluation_data/BPI_2017_O/predictions/data_gcn_complex_5",
    "sound": false,
    "soundness_info": {
      "s_components": [
        [
          "p7",
          "O_Refused"
        ],
        [
          "st1",
          "short_circuited_transition",
          "p2",
          "O_Returned",
          ">",
          "O_Sent (online only)",
          "O_Create Offer",
          "source",
          "p6",
          "O_Sent (mail and online)",
          "p4",
          "O_Cancelled",
          "sink",
          "|",
          "p0",
          "p5",
          "p3",
          "st0",
          "O_Refused",
          "p1",
          "O_Created",
          "O_Accepted"
        ]
      ],
      "uncovered_places_s_component": []
    }
  },
  {
    "i": 4,
    "L": {
      "fitness": 0.7564517976112687,
      "precision": 0.9975324081868251,
      "generalization": 0.9909255437077389,
      "simplicity": 0.7142857142857143,
      "metricsAverageWeight": 0.8647988659478867,
      "fscore": 0.8604241484661171,
      "fitness_percFitTraces": 0.33641181884540927,
      "fitness_alignments": 0.6820772338580989,
      "fitness_alignments_percFitTraces": 0.33641181884540927,
      "precision_alignments": 0.9975324081868251,
      "fscore_alignments": 0.8101812809689495,
      "fitness_entropy_partial": 0.764207559569027,
      "precision_entropy_partial": 0.7708054860859828,
      "fscore_entropy_partial": 0.7674923429368368,
      "fitness_entropy_exact": 0.0,
      "precision_entropy_exact": 0.0,
      "fscore_entropy_exact": 0
    },
    "L_30": {
      "fitness": 0.7654118281616854,
      "precision": 0.9626706241132439,
      "generalization": 0.9888442955724172,
      "simplicity": 0.7142857142857143,
      "metricsAverageWeight": 0.8578031155332652,
      "fscore": 0.8527827840043841,
      "fitness_percFitTraces": 0.36859308714096944,
      "fitness_alignments": 0.6860211134230307,
      "fitness_alignments_percFitTraces": 0.36859308714096944,
      "precision_alignments": 0.9626706241132439,
      "fscore_alignments": 0.8011350556056037,
      "fitness_entropy_partial": 0.802931229239407,
      "precision_entropy_partial": 0.662966664313715,
      "fscore_entropy_partial": 0.7262670081773606,
      "fitness_entropy_exact": 0.0,
      "precision_entropy_exact": 0.0,
      "fscore_entropy_exact": 0
    },
    "args": {
      "config": "config.json",
      "dataDirectory": "/mnt/c/Users/s140511/tue/thesis/APDGnn_data/evaluation_data/BPI_2017_O/",
      "logFilename": "data",
      "miner": "gnn",
      "model_filename": "/mnt/c/Users/s140511/tue/thesis/git_clean/project/ml_models/models/complex_ws_frequency_100_",
      "visualize": false,
      "export": "complex",
      "conformanceChecking": true,
      "beam_width": -50,
      "beam_length": 20,
      "number_of_petrinets": 20,
      "top_x_traces": 30,
      "length_normalization": 0,
      "timeout": null,
      "prom": false,
      "import_petrinet": null
    },
    "easy_soundness": true,
    "log_filename": "/mnt/c/Users/s140511/tue/thesis/APDGnn_data/evaluation_data/BPI_2017_O/data",
    "petrinet_filename": "/mnt/c/Users/s140511/tue/thesis/APDGnn_data/evaluation_data/BPI_2017_O/predictions/data_gcn_complex_4",
    "sound": false,
    "soundness_info": {
      "s_components": [
        [
          "p6",
          "O_Refused"
        ],
        [
          ">",
          "|",
          "p3",
          "O_Returned",
          "O_Sent (online only)",
          "O_Created",
          "p5",
          "O_Accepted",
          "short_circuited_transition",
          "p1",
          "sink",
          "p0",
          "O_Cancelled",
          "st0",
          "O_Create Offer",
          "source",
          "O_Sent (mail and online)",
          "p4",
          "O_Refused",
          "p2"
        ]
      ],
      "uncovered_places_s_component": []
    }
  },
  {
    "i": 15,
    "L": {
      "fitness": 0.8847754736453881,
      "precision": 0.7429585407299357,
      "generalization": 0.9890768309502157,
      "simplicity": 0.6470588235294118,
      "metricsAverageWeight": 0.8159674172137378,
      "fscore": 0.8076890806087718,
      "fitness_percFitTraces": 22.872829985083627,
      "fitness_alignments": 0.8499330855308612,
      "fitness_alignments_percFitTraces": 22.872829985083627,
      "precision_alignments": 0.7429585407299357,
      "fscore_alignments": 0.7928537441387911,
      "fitness_entropy_partial": 0.886364298349465,
      "precision_entropy_partial": 0.6331136636736131,
      "fscore_entropy_partial": 0.7386344024764449,
      "fitness_entropy_exact": 0.0,
      "precision_entropy_exact": 0.0,
      "fscore_entropy_exact": 0
    },
    "L_30": {
      "fitness": 0.8938568640587224,
      "precision": 0.7139866419711511,
      "generalization": 0.9855808356388178,
      "simplicity": 0.6470588235294118,
      "metricsAverageWeight": 0.8101207912995257,
      "fscore": 0.7938606691244655,
      "fitness_percFitTraces": 25.060852632311008,
      "fitness_alignments": 0.8616215806296308,
      "fitness_alignments_percFitTraces": 25.060852632311008,
      "precision_alignments": 0.7139866419711511,
      "fscore_alignments": 0.7808873934259706,
      "fitness_entropy_partial": 0.919741551016119,
      "precision_entropy_partial": 0.5377928728595165,
      "fscore_entropy_partial": 0.6787221528449207,
      "fitness_entropy_exact": 0.0,
      "precision_entropy_exact": 0.0,
      "fscore_entropy_exact": 0
    },
    "args": {
      "config": "config.json",
      "dataDirectory": "/mnt/c/Users/s140511/tue/thesis/APDGnn_data/evaluation_data/BPI_2017_O/",
      "logFilename": "data",
      "miner": "gnn",
      "model_filename": "/mnt/c/Users/s140511/tue/thesis/git_clean/project/ml_models/models/complex_ws_frequency_100_",
      "visualize": false,
      "export": "complex",
      "conformanceChecking": true,
      "beam_width": -50,
      "beam_length": 20,
      "number_of_petrinets": 20,
      "top_x_traces": 30,
      "length_normalization": 0,
      "timeout": null,
      "prom": false,
      "import_petrinet": null
    },
    "easy_soundness": true,
    "log_filename": "/mnt/c/Users/s140511/tue/thesis/APDGnn_data/evaluation_data/BPI_2017_O/data",
    "petrinet_filename": "/mnt/c/Users/s140511/tue/thesis/APDGnn_data/evaluation_data/BPI_2017_O/predictions/data_gcn_complex_15",
    "sound": false,
    "soundness_info": {
      "s_components": [
        [
          "p6",
          "O_Refused"
        ],
        [
          "p1",
          "O_Cancelled",
          "p5",
          "O_Refused",
          "short_circuited_transition",
          "sink",
          "O_Created",
          "st2",
          "p0",
          ">",
          "p4",
          "p2",
          "st0",
          "O_Create Offer",
          "p3",
          "O_Sent (mail and online)",
          "O_Returned",
          "st1",
          "O_Sent (online only)",
          "O_Accepted",
          "|",
          "source"
        ]
      ],
      "uncovered_places_s_component": []
    }
  },
  {
    "i": 16,
    "L": {
      "fitness": 0.7140647638997992,
      "precision": 0.9952089061378968,
      "generalization": 0.9908103240973665,
      "simplicity": 0.7777777777777779,
      "metricsAverageWeight": 0.86946544297821,
      "fscore": 0.8315153097475168,
      "fitness_percFitTraces": 0.0,
      "fitness_alignments": 0.5820049198164627,
      "fitness_alignments_percFitTraces": 0.0,
      "precision_alignments": 0.9952089061378968,
      "fscore_alignments": 0.7344806012804724,
      "fitness_entropy_partial": 0.769275150789917,
      "precision_entropy_partial": 0.7729438050183572,
      "fscore_entropy_partial": 0.771105114378518,
      "fitness_entropy_exact": 0.0,
      "precision_entropy_exact": 0.0,
      "fscore_entropy_exact": 0
    },
    "L_30": {
      "fitness": 0.7175670103092784,
      "precision": 0.9625521167851427,
      "generalization": 0.9887228194092454,
      "simplicity": 0.7777777777777779,
      "metricsAverageWeight": 0.8616549310703612,
      "fscore": 0.8221984186357827,
      "fitness_percFitTraces": 0.0,
      "fitness_alignments": 0.5829296072851542,
      "fitness_alignments_percFitTraces": 0.0,
      "precision_alignments": 0.9625521167851427,
      "fscore_alignments": 0.7261168070642746,
      "fitness_entropy_partial": 0.825446185746424,
      "precision_entropy_partial": 0.6789446808351062,
      "fscore_entropy_partial": 0.7450620840335833,
      "fitness_entropy_exact": 0.0,
      "precision_entropy_exact": 0.0,
      "fscore_entropy_exact": 0
    },
    "args": {
      "config": "config.json",
      "dataDirectory": "/mnt/c/Users/s140511/tue/thesis/APDGnn_data/evaluation_data/BPI_2017_O/",
      "logFilename": "data",
      "miner": "gnn",
      "model_filename": "/mnt/c/Users/s140511/tue/thesis/git_clean/project/ml_models/models/complex_ws_frequency_100_",
      "visualize": false,
      "export": "complex",
      "conformanceChecking": true,
      "beam_width": -50,
      "beam_length": 20,
      "number_of_petrinets": 20,
      "top_x_traces": 30,
      "length_normalization": 0,
      "timeout": null,
      "prom": false,
      "import_petrinet": null
    },
    "easy_soundness": true,
    "log_filename": "/mnt/c/Users/s140511/tue/thesis/APDGnn_data/evaluation_data/BPI_2017_O/data",
    "petrinet_filename": "/mnt/c/Users/s140511/tue/thesis/APDGnn_data/evaluation_data/BPI_2017_O/predictions/data_gcn_complex_16",
    "sound": false,
    "soundness_info": {
      "s_components": [
        [
          "p2",
          "sink",
          "O_Refused",
          "short_circuited_transition",
          ">",
          "p5",
          "p3",
          "O_Returned",
          "O_Cancelled",
          "O_Sent (mail and online)",
          "p4",
          "O_Accepted",
          "st0",
          "O_Created",
          "source",
          "O_Sent (online only)",
          "|",
          "p1",
          "O_Create Offer",
          "p0",
          "p6"
        ],
        [
          "p7",
          "O_Refused"
        ]
      ],
      "uncovered_places_s_component": []
    }
  }
]