{
  "easy_soundness": true,
  "filename": "/mnt/c/Users/s140511/tue/thesis/thesis_data/evaluation_data/BPI_2017_O/predictions/data_gcn_simpleep144_9_cca.json",
  "full": {
    "entropia_precision": 0.9323961982601348,
    "entropia_recall": 0.662364284696096,
    "fitness": {
      "average_trace_fitness": 0.8518223093372206,
      "log_fitness": 0.8458809404485915,
      "perc_fit_traces": 0.9298930464311784,
      "percentage_of_fitting_traces": 0.9298930464311784
    },
    "fitness_alignments": {
      "averageFitness": 0.7982036624433796,
      "average_trace_fitness": 0.7982036624433796,
      "log_fitness": 0.7610828453553268,
      "percFitTraces": 0.9298930464311784,
      "percentage_of_fitting_traces": 0.9298930464311784
    },
    "fscore": 0.8689062423623107,
    "generalization": 0.9071935305074661,
    "metricsAverageWeight": 0.8560180974262643,
    "precision": 0.8932201409712216,
    "precision_alignments": 0.8932201409712216,
    "simplicity": 0.7777777777777779
  },
  "sound": true,
  "top 30": {
    "fitness": {
      "average_trace_fitness": 0.8570880525751132,
      "log_fitness": 0.8562273483136486,
      "perc_fit_traces": 1.0188469295500382,
      "percentage_of_fitting_traces": 1.0188469295500382
    },
    "fitness_alignments": {
      "averageFitness": 0.8248982247614157,
      "average_trace_fitness": 0.8248982247614157,
      "log_fitness": 0.8073371908366173,
      "percFitTraces": 1.0188469295500382,
      "percentage_of_fitting_traces": 1.0188469295500382
    },
    "fscore": 0.8731171039314108,
    "generalization": 0.903756843979105,
    "metricsAverageWeight": 0.8571121413190688,
    "precision": 0.8906865952057437,
    "precision_alignments": 0.8906865952057437,
    "simplicity": 0.7777777777777779
  }
}