{
  "L": {
    "fitness": 0.9879850726357361,
    "fitness_alignments": 0.9851072951183203,
    "fitness_alignments_percFitTraces": 87.85109016471485,
    "fitness_entropy_exact": 0.0,
    "fitness_entropy_partial": 0.99999954350522,
    "fitness_percFitTraces": 87.85109016471485,
    "fscore": 0.6652449820424381,
    "fscore_alignments": 0.6645913556244847,
    "fscore_entropy_exact": 0,
    "fscore_entropy_partial": 0.5840159896639371,
    "generalization": 0.8970035435902342,
    "metricsAverageWeight": 0.7540149593455934,
    "precision": 0.5014415915267737,
    "precision_alignments": 0.5014415915267737,
    "precision_entropy_exact": 0.0,
    "precision_entropy_partial": 0.41244540571007454,
    "simplicity": 0.6296296296296295
  },
  "L_0": null,
  "args": {},
  "easy_soundness": true,
  "log_filename": "/mnt/c/Users/s140511/tue/thesis/APDGnn_data/evaluation_data/BPI_2017_O/data",
  "petrinet_filename": "/mnt/c/Users/s140511/tue/thesis/APDGnn_data/evaluation_data/BPI_2017_O/results/data_inductive_reduced.pnml",
  "sound": true,
  "soundness_info": {
    "s_components": [
      [
        "n32",
        "n3",
        "n17",
        "source",
        "O_Create Offer",
        "n14",
        "n26",
        "O_Cancelled",
        "n8",
        "n19",
        "n12",
        "n29",
        "n28",
        "n7",
        "n5",
        "O_Created",
        "n30",
        "n6",
        "n11",
        "short_circuited_transition",
        "n10",
        "O_Refused",
        "n22",
        "start"
      ],
      [
        "n16",
        "O_Accepted",
        "n32",
        "n9",
        "O_Sent (online only)",
        "n17",
        "source",
        "n14",
        "n26",
        "n8",
        "O_Create Offer",
        "n19",
        "n13",
        "n12",
        "O_Returned",
        "n7",
        "n5",
        "n30",
        "O_Created",
        "n6",
        "n29",
        "short_circuited_transition",
        "n21",
        "O_Sent (mail and online)",
        "O_Refused",
        "n22",
        "n2",
        "n10",
        "start",
        "n1",
        "n4"
      ]
    ],
    "uncovered_places_s_component": []
  }
}