{
  "easy_soundness": true,
  "filename": "/mnt/c/Users/s140511/tue/thesis/thesis_data/evaluation_data/BPI_2012_A/predictions/data_gcn_simpleep144_3_cc.json",
  "full": {
    "entropia_precision": 0.9233146182172194,
    "entropia_recall": 0.775500030982942,
    "fitness": {
      "average_trace_fitness": 0.8847386719645559,
      "log_fitness": 0.8887058892321487,
      "perc_fit_traces": 23.25972338962329,
      "percentage_of_fitting_traces": 23.25972338962329
    },
    "fitness_alignments": {
      "averageFitness": 0.7818445785894399,
      "average_trace_fitness": 0.7818445785894399,
      "percFitTraces": 23.25972338962329,
      "percentage_of_fitting_traces": 23.25972338962329
    },
    "fscore": 0.9380199510099513,
    "generalization": 0.9125951804815513,
    "metricsAverageWeight": 0.8771787936490398,
    "precision": 0.9931283905967451,
    "precision_alignments": 0.9931283905967451,
    "simplicity": 0.7142857142857143
  },
  "sound": false,
  "top 17": {
    "fitness": {
      "average_trace_fitness": 0.8847386719645559,
      "log_fitness": 0.8887058892321487,
      "perc_fit_traces": 23.25972338962329,
      "percentage_of_fitting_traces": 23.25972338962329
    },
    "fitness_alignments": {
      "averageFitness": 0.7818445785894399,
      "average_trace_fitness": 0.7818445785894399,
      "percFitTraces": 23.25972338962329,
      "percentage_of_fitting_traces": 23.25972338962329
    },
    "fscore": 0.9380199510099513,
    "generalization": 0.9125951804815513,
    "metricsAverageWeight": 0.8771787936490398,
    "precision": 0.9931283905967451,
    "precision_alignments": 0.9931283905967451,
    "simplicity": 0.7142857142857143
  }
}