{
  "L": {
    "fitness": 0.9554975030231421,
    "fitness_alignments": 0.9435594028242772,
    "fitness_alignments_percFitTraces": 69.37418812562085,
    "fitness_entropy_exact": 0.0,
    "fitness_entropy_partial": 0.972437881672572,
    "fitness_percFitTraces": 69.37418812562085,
    "fscore": 0.9147183709681042,
    "fscore_alignments": 0.9092120817346936,
    "fscore_entropy_exact": 0,
    "fscore_entropy_partial": 0.8860257305805589,
    "generalization": 0.9830793128291442,
    "metricsAverageWeight": 0.8951400605170416,
    "precision": 0.8772775438629394,
    "precision_alignments": 0.8772775438629394,
    "precision_entropy_exact": 0.0,
    "precision_entropy_partial": 0.8137176728450961,
    "simplicity": 0.7647058823529413
  },
  "L_17": {
    "fitness": 0.9554975030231421,
    "fitness_alignments": 0.9435594028242772,
    "fitness_alignments_percFitTraces": 69.37418812562085,
    "fitness_entropy_exact": 0.0,
    "fitness_entropy_partial": 0.972437767916179,
    "fitness_percFitTraces": 69.37418812562085,
    "fscore": 0.9147183709681042,
    "fscore_alignments": 0.9092120817346936,
    "fscore_entropy_exact": 0,
    "fscore_entropy_partial": 0.8860256279332932,
    "generalization": 0.9830793128291442,
    "metricsAverageWeight": 0.8951400605170416,
    "precision": 0.8772775438629394,
    "precision_alignments": 0.8772775438629394,
    "precision_entropy_exact": 0.0,
    "precision_entropy_partial": 0.8137175793437526,
    "simplicity": 0.7647058823529413
  },
  "args": {
    "beam_length": 20,
    "beam_width": -50,
    "config": "config.json",
    "conformanceChecking": true,
    "dataDirectory": "/mnt/c/Users/s140511/tue/thesis/APDGnn_data/evaluation_data/BPI_2012_A/",
    "export": "medium",
    "import_petrinet": null,
    "length_normalization": 0,
    "logFilename": "data",
    "miner": "gnn",
    "model_filename": "/mnt/c/Users/s140511/tue/thesis/git_clean/project/ml_models/models/model_candidates_frequency_new_036",
    "number_of_petrinets": 20,
    "prom": false,
    "timeout": null,
    "top_x_traces": 17,
    "visualize": false
  },
  "easy_soundness": true,
  "log_filename": "/mnt/c/Users/s140511/tue/thesis/APDGnn_data/evaluation_data/BPI_2012_A/data",
  "petrinet_filename": "/mnt/c/Users/s140511/tue/thesis/APDGnn_data/evaluation_data/BPI_2012_A/predictions/data_gcn_medium_1",
  "sound": true,
  "soundness_info": {
    "s_components": [
      [
        "A_PREACCEPTED",
        "p4",
        "A_FINALIZED",
        "st1",
        "sink",
        "p8",
        "A_SUBMITTED",
        "|",
        "A_ACCEPTED",
        "A_APPROVED",
        "A_ACTIVATED",
        "short_circuited_transition",
        "A_CANCELLED",
        "p2",
        "p3",
        "source",
        "p1",
        "A_DECLINED",
        "p0",
        ">",
        "p9",
        "A_PARTLYSUBMITTED",
        "st0",
        "p5"
      ],
      [
        "A_PREACCEPTED",
        "p4",
        "A_FINALIZED",
        "st1",
        "sink",
        "A_SUBMITTED",
        "|",
        "A_REGISTERED",
        "A_APPROVED",
        "A_ACCEPTED",
        "short_circuited_transition",
        "A_ACTIVATED",
        "A_CANCELLED",
        "p2",
        "p3",
        "source",
        "p1",
        "A_DECLINED",
        "p0",
        "p7",
        "p6",
        ">",
        "p9",
        "A_PARTLYSUBMITTED",
        "st0",
        "p5"
      ]
    ],
    "uncovered_places_s_component": []
  }
}