{
  "easy_soundness": true,
  "filename": "/mnt/c/Users/s140511/tue/thesis/thesis_data/evaluation_data/BPI_2012_A/predictions/data_gcn_simpleep144_11_cca.json",
  "full": {
    "entropia_precision": 0.9207558122026271,
    "entropia_recall": 0.767377287446006,
    "fitness": {
      "average_trace_fitness": 0.870497440207882,
      "log_fitness": 0.8743214665094385,
      "perc_fit_traces": 13.586001375410714,
      "percentage_of_fitting_traces": 13.586001375410714
    },
    "fitness_alignments": {
      "averageFitness": 0.8224102799215603,
      "average_trace_fitness": 0.8224102799215603,
      "log_fitness": 0.8355308239760888,
      "percFitTraces": 13.586001375410714,
      "percentage_of_fitting_traces": 13.586001375410714
    },
    "fscore": 0.9310637077112325,
    "generalization": 0.9125951804815513,
    "metricsAverageWeight": 0.8742211111511126,
    "precision": 0.995682083327746,
    "precision_alignments": 0.995682083327746,
    "simplicity": 0.7142857142857143
  },
  "sound": false,
  "top 17": {
    "fitness": {
      "average_trace_fitness": 0.870497440207882,
      "log_fitness": 0.8743214665094385,
      "perc_fit_traces": 13.586001375410714,
      "percentage_of_fitting_traces": 13.586001375410714
    },
    "fitness_alignments": {
      "averageFitness": 0.8224102799215603,
      "average_trace_fitness": 0.8224102799215603,
      "log_fitness": 0.8355308239760888,
      "percFitTraces": 13.586001375410714,
      "percentage_of_fitting_traces": 13.586001375410714
    },
    "fscore": 0.9310637077112325,
    "generalization": 0.9125951804815513,
    "metricsAverageWeight": 0.8742211111511126,
    "precision": 0.995682083327746,
    "precision_alignments": 0.995682083327746,
    "simplicity": 0.7142857142857143
  }
}