{
  "easy_soundness": true,
  "filename": "/mnt/c/Users/s140511/tue/thesis/thesis_data/evaluation_data/BPI_2012_A/predictions/data_gcn_blahblah_repro_13_cc.json",
  "full": {
    "fitness": {
      "average_trace_fitness": 0.8745139774643227,
      "log_fitness": 0.884713202619186,
      "perc_fit_traces": 19.68365553602812,
      "percentage_of_fitting_traces": 19.68365553602812
    },
    "fitness_alignments": {
      "averageFitness": 0.8443799934305378,
      "average_trace_fitness": 0.8443799934305378,
      "log_fitness": 0.8374676338470716,
      "percFitTraces": 19.68365553602812,
      "percentage_of_fitting_traces": 19.68365553602812
    },
    "fscore": 0.9316928094289088,
    "generalization": 0.9232351065483368,
    "metricsAverageWeight": 0.8838699115935229,
    "precision": 0.9839415936168253,
    "precision_alignments": 0.9839415936168253,
    "simplicity": 0.7435897435897437
  },
  "s_components": [
    [
      "source",
      "sink",
      "short_circuited_transition",
      ">",
      "|",
      "p2",
      "A_PARTLYSUBMITTED",
      "st0",
      "A_PREACCEPTED",
      "p1",
      "A_SUBMITTED",
      "p7",
      "A_DECLINED",
      "A_CANCELLED",
      "st2",
      "p0",
      "p9"
    ]
  ],
  "sound": false,
  "top 17": {
    "fitness": {
      "average_trace_fitness": 0.8745139774643227,
      "log_fitness": 0.884713202619186,
      "perc_fit_traces": 19.68365553602812,
      "percentage_of_fitting_traces": 19.68365553602812
    },
    "fitness_alignments": {
      "averageFitness": 0.8443799934305378,
      "average_trace_fitness": 0.8443799934305378,
      "log_fitness": 0.8374676338470716,
      "percFitTraces": 19.68365553602812,
      "percentage_of_fitting_traces": 19.68365553602812
    },
    "fscore": 0.9316928094289088,
    "generalization": 0.9232351065483368,
    "metricsAverageWeight": 0.8838699115935229,
    "precision": 0.9839415936168253,
    "precision_alignments": 0.9839415936168253,
    "simplicity": 0.7435897435897437
  },
  "uncovered_places_s_component": [
    "p10",
    "p4",
    "p3",
    "p5",
    "p8",
    "p6"
  ]
}