{
  "easy_soundness": true,
  "filename": "/mnt/c/Users/s140511/tue/thesis/thesis_data/evaluation_data/BPI_2012_A/predictions/data_gcn_blahblah_repro_3_cc.json",
  "full": {
    "fitness": {
      "average_trace_fitness": 0.9501998529984785,
      "log_fitness": 0.9435710923004496,
      "perc_fit_traces": 67.3263543974937,
      "percentage_of_fitting_traces": 67.3263543974937
    },
    "fitness_alignments": {
      "averageFitness": 0.9365753728709154,
      "average_trace_fitness": 0.9365753728709154,
      "log_fitness": 0.9226054864208276,
      "percFitTraces": 67.3263543974937,
      "percentage_of_fitting_traces": 67.3263543974937
    },
    "fscore": 0.9086895248678416,
    "generalization": 0.9830793128291442,
    "metricsAverageWeight": 0.891912820358232,
    "precision": 0.8762949939503932,
    "precision_alignments": 0.8762949939503932,
    "simplicity": 0.7647058823529413
  },
  "s_components": [
    [
      "p3",
      "|",
      "p9",
      "p5",
      "p8",
      "A_FINALIZED",
      "p1",
      "A_PARTLYSUBMITTED",
      "A_CANCELLED",
      "st0",
      "sink",
      "p0",
      "A_ACCEPTED",
      "p4",
      "A_REGISTERED",
      "st1",
      "p2",
      "source",
      ">",
      "A_PREACCEPTED",
      "A_DECLINED",
      "A_SUBMITTED",
      "short_circuited_transition",
      "A_ACTIVATED"
    ],
    [
      "p3",
      "|",
      "p9",
      "p5",
      "p7",
      "A_APPROVED",
      "A_FINALIZED",
      "p1",
      "A_PARTLYSUBMITTED",
      "A_CANCELLED",
      "st0",
      "sink",
      "p0",
      "A_ACCEPTED",
      "p4",
      "A_REGISTERED",
      "st1",
      "p6",
      "p2",
      "source",
      ">",
      "A_PREACCEPTED",
      "A_DECLINED",
      "A_SUBMITTED",
      "short_circuited_transition",
      "A_ACTIVATED"
    ]
  ],
  "sound": true,
  "top 17": {
    "fitness": {
      "average_trace_fitness": 0.9501998529984785,
      "log_fitness": 0.9435710923004496,
      "perc_fit_traces": 67.3263543974937,
      "percentage_of_fitting_traces": 67.3263543974937
    },
    "fitness_alignments": {
      "averageFitness": 0.9365753728709154,
      "average_trace_fitness": 0.9365753728709154,
      "log_fitness": 0.9226054864208276,
      "percFitTraces": 67.3263543974937,
      "percentage_of_fitting_traces": 67.3263543974937
    },
    "fscore": 0.9086895248678416,
    "generalization": 0.9830793128291442,
    "metricsAverageWeight": 0.891912820358232,
    "precision": 0.8762949939503932,
    "precision_alignments": 0.8762949939503932,
    "simplicity": 0.7647058823529413
  },
  "uncovered_places_s_component": []
}