{
  "args": {
    "beam_length": 20,
    "beam_width": -50,
    "config": "config.json",
    "conformanceChecking": true,
    "dataDirectory": "/mnt/c/Users/s140511/tue/thesis/thesis_data/evaluation_data/BPI_2012_A/",
    "export": "reproduction",
    "length_normalization": 0,
    "logFilename": "data",
    "miner": "ai",
    "model_filename": "./project/ml_models/models/model_candidates_frequency_new_036.pth",
    "number_of_petrinets": 20,
    "timeout": null,
    "top_x_traces": 17,
    "visualize": false
  },
  "easy_soundness": true,
  "filename": "/mnt/c/Users/s140511/tue/thesis/thesis_data/evaluation_data/BPI_2012_A/predictions/data_gcn_reproduction_15_cc.json",
  "full": {
    "fitness": {
      "average_trace_fitness": 0.8783110514837367,
      "log_fitness": 0.8906915572974983,
      "perc_fit_traces": 21.731489264155268,
      "percentage_of_fitting_traces": 21.731489264155268
    },
    "fitness_alignments": {
      "averageFitness": 0.8533548956582782,
      "average_trace_fitness": 0.8533548956582782,
      "log_fitness": 0.8503727626477084,
      "percFitTraces": 21.731489264155268,
      "percentage_of_fitting_traces": 21.731489264155268
    },
    "fscore": 0.9278579991320557,
    "generalization": 0.9232351065483368,
    "metricsAverageWeight": 0.8814444117208147,
    "precision": 0.9682612394476802,
    "precision_alignments": 0.9682612394476802,
    "simplicity": 0.7435897435897437
  },
  "s_components": [
    [
      "p0",
      ">",
      "p2",
      "A_PARTLYSUBMITTED",
      "A_SUBMITTED",
      "A_PREACCEPTED",
      "sink",
      "|",
      "p1",
      "p7",
      "A_CANCELLED",
      "source",
      "st0",
      "short_circuited_transition",
      "st2",
      "A_DECLINED",
      "p9"
    ]
  ],
  "sound": false,
  "top 17": {
    "fitness": {
      "average_trace_fitness": 0.8783110514837367,
      "log_fitness": 0.8906915572974983,
      "perc_fit_traces": 21.731489264155268,
      "percentage_of_fitting_traces": 21.731489264155268
    },
    "fitness_alignments": {
      "averageFitness": 0.8533548956582782,
      "average_trace_fitness": 0.8533548956582782,
      "log_fitness": 0.8503727626477084,
      "percFitTraces": 21.731489264155268,
      "percentage_of_fitting_traces": 21.731489264155268
    },
    "fscore": 0.9278579991320557,
    "generalization": 0.9232351065483368,
    "metricsAverageWeight": 0.8814444117208147,
    "precision": 0.9682612394476802,
    "precision_alignments": 0.9682612394476802,
    "simplicity": 0.7435897435897437
  },
  "uncovered_places_s_component": [
    "p4",
    "p6",
    "p5",
    "p3",
    "p8",
    "p10"
  ]
}