{
  "easy_soundness": false,
  "filename": "/mnt/c/Users/s140511/tue/thesis/thesis_data/evaluation_data/BPI_2012_A/predictions/data_gcn_simpleep144_18_cc.json",
  "full": {
    "fitness": {
      "average_trace_fitness": 0.7297807347894509,
      "log_fitness": 0.7619590516360932,
      "perc_fit_traces": 0.0,
      "percentage_of_fitting_traces": 0.0
    },
    "fscore": 0.8298247289101779,
    "generalization": 0.9765272808969052,
    "metricsAverageWeight": 0.8388325903164133,
    "precision": 0.9109616757914782,
    "simplicity": 0.7058823529411765
  },
  "s_components": [],
  "sound": false,
  "top 17": {
    "fitness": {
      "average_trace_fitness": 0.7297807347894509,
      "log_fitness": 0.7619590516360932,
      "perc_fit_traces": 0.0,
      "percentage_of_fitting_traces": 0.0
    },
    "fscore": 0.8298247289101779,
    "generalization": 0.9765272808969052,
    "metricsAverageWeight": 0.8388325903164133,
    "precision": 0.9109616757914782,
    "simplicity": 0.7058823529411765
  },
  "uncovered_places_s_component": [
    "p3",
    "p7",
    "sink",
    "p0",
    "p2",
    "p1",
    "p4",
    "p5",
    "p6",
    "source"
  ]
}