{
  "easy_soundness": true,
  "filename": "/mnt/c/Users/s140511/tue/thesis/thesis_data/evaluation_data/BPI_2012_A/predictions/data_gcn_simpleep144_10_cca.json",
  "full": {
    "entropia_precision": 0.9164243156107003,
    "entropia_recall": 0.763767326950884,
    "fitness": {
      "average_trace_fitness": 0.8733615146983702,
      "log_fitness": 0.8786289968911715,
      "perc_fit_traces": 15.358752960953618,
      "percentage_of_fitting_traces": 15.358752960953618
    },
    "fitness_alignments": {
      "averageFitness": 0.8876730027738345,
      "average_trace_fitness": 0.8876730027738345,
      "log_fitness": 0.8899487093142773,
      "percFitTraces": 15.358752960953618,
      "percentage_of_fitting_traces": 15.358752960953618
    },
    "fscore": 0.9322885247392254,
    "generalization": 0.9125951804815513,
    "metricsAverageWeight": 0.8746096081762,
    "precision": 0.9929285410463633,
    "precision_alignments": 0.9929285410463633,
    "simplicity": 0.7142857142857143
  },
  "sound": false,
  "top 17": {
    "fitness": {
      "average_trace_fitness": 0.8733615146983702,
      "log_fitness": 0.8786289968911715,
      "perc_fit_traces": 15.358752960953618,
      "percentage_of_fitting_traces": 15.358752960953618
    },
    "fitness_alignments": {
      "averageFitness": 0.8876730027738345,
      "average_trace_fitness": 0.8876730027738345,
      "log_fitness": 0.8899487093142773,
      "percFitTraces": 15.358752960953618,
      "percentage_of_fitting_traces": 15.358752960953618
    },
    "fscore": 0.9322885247392254,
    "generalization": 0.9125951804815513,
    "metricsAverageWeight": 0.8746096081762,
    "precision": 0.9929285410463633,
    "precision_alignments": 0.9929285410463633,
    "simplicity": 0.7142857142857143
  }
}