{
  "easy_soundness": true,
  "filename": "/mnt/c/Users/s140511/tue/thesis/thesis_data/evaluation_data/BPI_2012_A/predictions/data_gcn_complexep100_3_cc.json",
  "full": {
    "entropia_precision": 0.8740428605100925,
    "entropia_recall": 0.850254500904578,
    "fitness": {
      "average_trace_fitness": 0.8783025734866684,
      "log_fitness": 0.8845719226876554,
      "perc_fit_traces": 14.304271414380683,
      "percentage_of_fitting_traces": 14.304271414380683
    },
    "fitness_alignments": {
      "averageFitness": 0.7007717582334003,
      "average_trace_fitness": 0.7007717582334003,
      "percFitTraces": 14.304271414380683,
      "percentage_of_fitting_traces": 14.304271414380683
    },
    "fscore": 0.8604693596654942,
    "generalization": 0.8943929822748669,
    "metricsAverageWeight": 0.8263748074982469,
    "precision": 0.8376454361415764,
    "precision_alignments": 0.8376454361415764,
    "simplicity": 0.6888888888888889
  },
  "sound": true,
  "top 17": {
    "fitness": {
      "average_trace_fitness": 0.8783025734866684,
      "log_fitness": 0.8845719226876554,
      "perc_fit_traces": 14.304271414380683,
      "percentage_of_fitting_traces": 14.304271414380683
    },
    "fitness_alignments": {
      "averageFitness": 0.7007717582334003,
      "average_trace_fitness": 0.7007717582334003,
      "percFitTraces": 14.304271414380683,
      "percentage_of_fitting_traces": 14.304271414380683
    },
    "fscore": 0.8604693596654942,
    "generalization": 0.8943929822748669,
    "metricsAverageWeight": 0.8263748074982469,
    "precision": 0.8376454361415764,
    "precision_alignments": 0.8376454361415764,
    "simplicity": 0.6888888888888889
  }
}