{
  "easy_soundness": true,
  "filename": "/mnt/c/Users/s140511/tue/thesis/thesis_data/evaluation_data/BPI_2012_A/predictions/data_gcn_complexep100_6_cc.json",
  "full": {
    "fitness": {
      "average_trace_fitness": 0.876602991898638,
      "log_fitness": 0.8820242986786485,
      "perc_fit_traces": 13.020554748987545,
      "percentage_of_fitting_traces": 13.020554748987545
    },
    "fitness_alignments": {
      "averageFitness": 0.6950154096941269,
      "average_trace_fitness": 0.6950154096941269,
      "percFitTraces": 13.020554748987545,
      "percentage_of_fitting_traces": 13.020554748987545
    },
    "fscore": 0.8587765490776833,
    "generalization": 0.8944559359076403,
    "metricsAverageWeight": 0.8255229865089941,
    "precision": 0.8367228225607983,
    "precision_alignments": 0.8367228225607983,
    "simplicity": 0.6888888888888889
  },
  "sound": true,
  "top 17": {
    "fitness": {
      "average_trace_fitness": 0.876602991898638,
      "log_fitness": 0.8820242986786485,
      "perc_fit_traces": 13.020554748987545,
      "percentage_of_fitting_traces": 13.020554748987545
    },
    "fitness_alignments": {
      "averageFitness": 0.6950154096941269,
      "average_trace_fitness": 0.6950154096941269,
      "percFitTraces": 13.020554748987545,
      "percentage_of_fitting_traces": 13.020554748987545
    },
    "fscore": 0.8587765490776833,
    "generalization": 0.8944559359076403,
    "metricsAverageWeight": 0.8255229865089941,
    "precision": 0.8367228225607983,
    "precision_alignments": 0.8367228225607983,
    "simplicity": 0.6888888888888889
  }
}