{
  "easy_soundness": false,
  "filename": "/mnt/c/Users/s140511/tue/thesis/thesis_data/evaluation_data/BPI_2012_A/predictions/data_gcn_complexep100_13_cc.json",
  "full": {
    "fitness": {
      "average_trace_fitness": 0.7030687156250104,
      "log_fitness": 0.729098653060342,
      "perc_fit_traces": 0.0,
      "percentage_of_fitting_traces": 0.0
    },
    "fscore": 0.8433279983995199,
    "generalization": 0.851416164472394,
    "metricsAverageWeight": 0.8201287043831841,
    "precision": 1.0,
    "simplicity": 0.7000000000000001
  },
  "s_components": [],
  "sound": false,
  "top 17": {
    "fitness": {
      "average_trace_fitness": 0.7030687156250104,
      "log_fitness": 0.729098653060342,
      "perc_fit_traces": 0.0,
      "percentage_of_fitting_traces": 0.0
    },
    "fscore": 0.8433279983995199,
    "generalization": 0.851416164472394,
    "metricsAverageWeight": 0.8201287043831841,
    "precision": 1.0,
    "simplicity": 0.7000000000000001
  },
  "uncovered_places_s_component": [
    "p4",
    "p2",
    "p3",
    "p8",
    "p0",
    "p9",
    "p7",
    "p6",
    "p1",
    "p5",
    "source",
    "sink"
  ]
}