{
  "L": {
    "fitness": 0.8906915572974983,
    "fitness_alignments": 0.8533548956582782,
    "fitness_alignments_percFitTraces": 21.731489264155268,
    "fitness_entropy_exact": 0.0,
    "fitness_entropy_partial": 0.981075334895444,
    "fitness_percFitTraces": 21.731489264155268,
    "fscore": 0.9278579991320557,
    "fscore_alignments": 0.9071839593809574,
    "fscore_entropy_exact": 0,
    "fscore_entropy_partial": 0.7887916137222483,
    "generalization": 0.9232351065483368,
    "metricsAverageWeight": 0.8814444117208147,
    "precision": 0.9682612394476802,
    "precision_alignments": 0.9682612394476802,
    "precision_entropy_exact": 0.0,
    "precision_entropy_partial": 0.6595287202095814,
    "simplicity": 0.7435897435897437
  },
  "L_17": {
    "fitness": 0.8906915572974983,
    "fitness_alignments": 0.8533548956582782,
    "fitness_alignments_percFitTraces": 21.731489264155268,
    "fitness_entropy_exact": 0.0,
    "fitness_entropy_partial": 0.98107532915658,
    "fitness_percFitTraces": 21.731489264155268,
    "fscore": 0.9278579991320557,
    "fscore_alignments": 0.9071839593809574,
    "fscore_entropy_exact": 0,
    "fscore_entropy_partial": 0.7887916088950729,
    "generalization": 0.9232351065483368,
    "metricsAverageWeight": 0.8814444117208147,
    "precision": 0.9682612394476802,
    "precision_alignments": 0.9682612394476802,
    "precision_entropy_exact": 0.0,
    "precision_entropy_partial": 0.659528716053684,
    "simplicity": 0.7435897435897437
  },
  "args": {
    "beam_length": 20,
    "beam_width": -50,
    "config": "config.json",
    "conformanceChecking": true,
    "dataDirectory": "/mnt/c/Users/s140511/tue/thesis/APDGnn_data/evaluation_data/BPI_2012_A/",
    "export": "medium",
    "import_petrinet": null,
    "length_normalization": 0,
    "logFilename": "data",
    "miner": "gnn",
    "model_filename": "/mnt/c/Users/s140511/tue/thesis/git_clean/project/ml_models/models/model_candidates_frequency_new_036",
    "number_of_petrinets": 20,
    "prom": false,
    "timeout": null,
    "top_x_traces": 17,
    "visualize": false
  },
  "easy_soundness": true,
  "log_filename": "/mnt/c/Users/s140511/tue/thesis/APDGnn_data/evaluation_data/BPI_2012_A/data",
  "petrinet_filename": "/mnt/c/Users/s140511/tue/thesis/APDGnn_data/evaluation_data/BPI_2012_A/predictions/data_gcn_medium_15",
  "sound": false,
  "soundness_info": {
    "s_components": [
      [
        "p0",
        "A_SUBMITTED",
        "p2",
        "A_PARTLYSUBMITTED",
        "p1",
        "A_CANCELLED",
        "|",
        ">",
        "A_PREACCEPTED",
        "st0",
        "p7",
        "st2",
        "A_DECLINED",
        "source",
        "short_circuited_transition",
        "sink",
        "p9"
      ]
    ],
    "uncovered_places_s_component": [
      "p4",
      "p3",
      "p5",
      "p6",
      "p10",
      "p8"
    ]
  }
}