{
  "L": {
    "fitness": 0.8924250923545279,
    "fitness_alignments": null,
    "fitness_alignments_percFitTraces": null,
    "fitness_entropy_exact": null,
    "fitness_entropy_partial": null,
    "fitness_percFitTraces": 22.556735691908,
    "fscore": 0.9357305394042522,
    "fscore_alignments": null,
    "fscore_entropy_exact": null,
    "fscore_entropy_partial": null,
    "generalization": 0.92341295472477,
    "metricsAverageWeight": 0.8857202419816417,
    "precision": 0.9834531772575251,
    "precision_alignments": null,
    "precision_entropy_exact": null,
    "precision_entropy_partial": null,
    "simplicity": 0.7435897435897437
  },
  "L_17": {
    "fitness": 0.8924250923545279,
    "fitness_alignments": null,
    "fitness_alignments_percFitTraces": null,
    "fitness_entropy_exact": null,
    "fitness_entropy_partial": null,
    "fitness_percFitTraces": 22.556735691908,
    "fscore": 0.9357305394042522,
    "fscore_alignments": null,
    "fscore_entropy_exact": null,
    "fscore_entropy_partial": null,
    "generalization": 0.92341295472477,
    "metricsAverageWeight": 0.8857202419816417,
    "precision": 0.9834531772575251,
    "precision_alignments": null,
    "precision_entropy_exact": null,
    "precision_entropy_partial": null,
    "simplicity": 0.7435897435897437
  },
  "args": {
    "beam_length": 20,
    "beam_width": -50,
    "config": "config.json",
    "conformanceChecking": true,
    "dataDirectory": "/mnt/c/Users/s140511/tue/thesis/thesis_data/evaluation_data/BPI_2012_A/",
    "export": "reproduction_medium",
    "length_normalization": 0,
    "logFilename": "data",
    "miner": "gnn",
    "model_filename": "/mnt/c/Users/s140511/tue/thesis/git_clean/project/ml_models/models/model_candidates_frequency_new_036",
    "number_of_petrinets": 20,
    "timeout": null,
    "top_x_traces": 17,
    "visualize": false
  },
  "easy_soundness": false,
  "log_filename": "/mnt/c/Users/s140511/tue/thesis/thesis_data/evaluation_data/BPI_2012_A/data",
  "petrinet_filename": "/mnt/c/Users/s140511/tue/thesis/thesis_data/evaluation_data/BPI_2012_A/predictions/data_gcn_reproduction_medium_10",
  "sound": false,
  "soundness_info": {
    "s_components": [
      [
        "p1",
        "p7",
        "A_PARTLYSUBMITTED",
        "st0",
        "A_DECLINED",
        "source",
        "short_circuited_transition",
        "sink",
        "|",
        "A_SUBMITTED",
        "A_PREACCEPTED",
        "A_CANCELLED",
        "st2",
        ">",
        "p2",
        "p9",
        "p0"
      ]
    ],
    "uncovered_places_s_component": [
      "p5",
      "p10",
      "p6",
      "p8",
      "p4",
      "p3"
    ]
  }
}