{
  "easy_soundness": true,
  "filename": "/mnt/c/Users/s140511/tue/thesis/thesis_data/evaluation_data/BPI_2012_A/predictions/data_gcn_complexep100_11_cca.json",
  "full": {
    "entropia_precision": 0.9225803525936283,
    "entropia_recall": 0.797814471353738,
    "fitness": {
      "average_trace_fitness": 0.8767091578602241,
      "log_fitness": 0.8834029698503305,
      "perc_fit_traces": 12.714907923893941,
      "percentage_of_fitting_traces": 12.714907923893941
    },
    "fitness_alignments": {
      "averageFitness": 0.8892362589312737,
      "average_trace_fitness": 0.8892362589312737,
      "log_fitness": 0.8921039418636763,
      "percFitTraces": 12.714907923893941,
      "percentage_of_fitting_traces": 12.714907923893941
    },
    "fscore": 0.9380923615306102,
    "generalization": 0.8956220085608475,
    "metricsAverageWeight": 0.8733276731742231,
    "precision": 1.0,
    "precision_alignments": 1.0,
    "simplicity": 0.7142857142857143
  },
  "sound": true,
  "top 17": {
    "fitness": {
      "average_trace_fitness": 0.8767091578602241,
      "log_fitness": 0.8834029698503305,
      "perc_fit_traces": 12.714907923893941,
      "percentage_of_fitting_traces": 12.714907923893941
    },
    "fitness_alignments": {
      "averageFitness": 0.8892362589312737,
      "average_trace_fitness": 0.8892362589312737,
      "log_fitness": 0.8921039418636763,
      "percFitTraces": 12.714907923893941,
      "percentage_of_fitting_traces": 12.714907923893941
    },
    "fscore": 0.9380923615306102,
    "generalization": 0.8956220085608475,
    "metricsAverageWeight": 0.8733276731742231,
    "precision": 1.0,
    "precision_alignments": 1.0,
    "simplicity": 0.7142857142857143
  }
}