{
  "easy_soundness": true,
  "filename": "/mnt/c/Users/s140511/tue/thesis/thesis_data/evaluation_data/BPI_2012_A/predictions/data_gcn_simpleep144_12_cc.json",
  "full": {
    "entropia_precision": 0.727473235938963,
    "entropia_recall": 0.776199736036472,
    "fitness": {
      "average_trace_fitness": 0.8903659310301713,
      "log_fitness": 0.8969466784343669,
      "perc_fit_traces": 20.592954840681593,
      "percentage_of_fitting_traces": 20.592954840681593
    },
    "fitness_alignments": {
      "averageFitness": 0.8014823871017039,
      "average_trace_fitness": 0.8014823871017039,
      "percFitTraces": 20.592954840681593,
      "percentage_of_fitting_traces": 20.592954840681593
    },
    "fscore": 0.9402855840584671,
    "generalization": 0.9160620704929593,
    "metricsAverageWeight": 0.8788299277960464,
    "precision": 0.9880252479711452,
    "precision_alignments": 0.9880252479711452,
    "simplicity": 0.7142857142857143
  },
  "sound": true,
  "top 17": {
    "fitness": {
      "average_trace_fitness": 0.8903659310301713,
      "log_fitness": 0.8969466784343669,
      "perc_fit_traces": 20.592954840681593,
      "percentage_of_fitting_traces": 20.592954840681593
    },
    "fitness_alignments": {
      "averageFitness": 0.8014823871017039,
      "average_trace_fitness": 0.8014823871017039,
      "percFitTraces": 20.592954840681593,
      "percentage_of_fitting_traces": 20.592954840681593
    },
    "fscore": 0.9402855840584671,
    "generalization": 0.9160620704929593,
    "metricsAverageWeight": 0.8788299277960464,
    "precision": 0.9880252479711452,
    "precision_alignments": 0.9880252479711452,
    "simplicity": 0.7142857142857143
  }
}