FULL
{
  "fitness": "0.847",
  "fscore": "0.916",
  "generalization": "0.920",
  "metricsAverageWeight": "0.860",
  "precision": "0.998",
  "simplicity": "0.674"
}
Top 30:
{
  "fitness": "0.847",
  "fscore": "0.916",
  "generalization": "0.920",
  "metricsAverageWeight": "0.860",
  "precision": "0.998",
  "simplicity": "0.674"
}