FULL
{
  "fitness": "0.938",
  "fscore": "0.906",
  "generalization": "0.974",
  "metricsAverageWeight": "0.871",
  "precision": "0.877",
  "simplicity": "0.697"
}
Top 30:
{
  "fitness": "0.938",
  "fscore": "0.906",
  "generalization": "0.974",
  "metricsAverageWeight": "0.871",
  "precision": "0.877",
  "simplicity": "0.697"
}