{
  "easy_soundness": false,
  "filename": "/mnt/c/Users/s140511/tue/thesis/thesis_data/evaluation_data/BPI_2012_A/predictions/data_gcn_complexep100_11_cc.json",
  "full": {
    "fitness": {
      "average_trace_fitness": 0.7039012558974532,
      "log_fitness": 0.7303144490644491,
      "perc_fit_traces": 0.0,
      "percentage_of_fitting_traces": 0.0
    },
    "fscore": 0.8441407276686818,
    "generalization": 0.8513371796148527,
    "metricsAverageWeight": 0.8204129071698255,
    "precision": 1.0,
    "simplicity": 0.7000000000000001
  },
  "s_components": [],
  "sound": false,
  "top 17": {
    "fitness": {
      "average_trace_fitness": 0.7039012558974532,
      "log_fitness": 0.7303144490644491,
      "perc_fit_traces": 0.0,
      "percentage_of_fitting_traces": 0.0
    },
    "fscore": 0.8441407276686818,
    "generalization": 0.8513371796148527,
    "metricsAverageWeight": 0.8204129071698255,
    "precision": 1.0,
    "simplicity": 0.7000000000000001
  },
  "uncovered_places_s_component": [
    "p5",
    "sink",
    "p3",
    "p2",
    "p0",
    "p8",
    "p6",
    "p7",
    "p9",
    "source",
    "p1",
    "p4"
  ]
}