{
  "easy_soundness": true,
  "filename": "/mnt/c/Users/s140511/tue/thesis/thesis_data/evaluation_data/BPI_2012_A/predictions/data_gcn_simpleep144_6_cc.json",
  "full": {
    "fitness": {
      "average_trace_fitness": 0.8883427574437402,
      "log_fitness": 0.8942218670512908,
      "perc_fit_traces": 23.702911286009016,
      "percentage_of_fitting_traces": 23.702911286009016
    },
    "fitness_alignments": {
      "averageFitness": 0.7926568350271261,
      "average_trace_fitness": 0.7926568350271261,
      "percFitTraces": 23.702911286009016,
      "percentage_of_fitting_traces": 23.702911286009016
    },
    "fscore": 0.9407670994437133,
    "generalization": 0.9125951804815513,
    "metricsAverageWeight": 0.8783816537809528,
    "precision": 0.9924238533052545,
    "precision_alignments": 0.9924238533052545,
    "simplicity": 0.7142857142857143
  },
  "sound": false,
  "top 17": {
    "fitness": {
      "average_trace_fitness": 0.8883427574437402,
      "log_fitness": 0.8942218670512908,
      "perc_fit_traces": 23.702911286009016,
      "percentage_of_fitting_traces": 23.702911286009016
    },
    "fitness_alignments": {
      "averageFitness": 0.7926568350271261,
      "average_trace_fitness": 0.7926568350271261,
      "percFitTraces": 23.702911286009016,
      "percentage_of_fitting_traces": 23.702911286009016
    },
    "fscore": 0.9407670994437133,
    "generalization": 0.9125951804815513,
    "metricsAverageWeight": 0.8783816537809528,
    "precision": 0.9924238533052545,
    "precision_alignments": 0.9924238533052545,
    "simplicity": 0.7142857142857143
  }
}