{
  "L": {
    "fitness": 0.9508081712529193,
    "fitness_alignments": 0.941389310366128,
    "fitness_alignments_percFitTraces": 68.93100022923512,
    "fitness_entropy_exact": 0.0,
    "fitness_entropy_partial": 0.972437682059005,
    "fitness_percFitTraces": 68.93100022923512,
    "fscore": 0.9123152576799536,
    "fscore_alignments": 0.9079569647025583,
    "fscore_entropy_exact": 0,
    "fscore_entropy_partial": 0.886025550079255,
    "generalization": 0.9830793128291442,
    "metricsAverageWeight": 0.8938527918680672,
    "precision": 0.8768178010372644,
    "precision_alignments": 0.8768178010372644,
    "precision_entropy_exact": 0.0,
    "precision_entropy_partial": 0.8137175081305627,
    "simplicity": 0.7647058823529413
  },
  "L_17": {
    "fitness": 0.9508081712529193,
    "fitness_alignments": 0.941389310366128,
    "fitness_alignments_percFitTraces": 68.93100022923512,
    "fitness_entropy_exact": 0.0,
    "fitness_entropy_partial": 0.972437655679551,
    "fitness_percFitTraces": 68.93100022923512,
    "fscore": 0.9123152576799536,
    "fscore_alignments": 0.9079569647025583,
    "fscore_entropy_exact": 0,
    "fscore_entropy_partial": 0.8860255247697216,
    "generalization": 0.9830793128291442,
    "metricsAverageWeight": 0.8938527918680672,
    "precision": 0.8768178010372644,
    "precision_alignments": 0.8768178010372644,
    "precision_entropy_exact": 0.0,
    "precision_entropy_partial": 0.8137174839073188,
    "simplicity": 0.7647058823529413
  },
  "args": {
    "beam_length": 20,
    "beam_width": -50,
    "config": "config.json",
    "conformanceChecking": true,
    "dataDirectory": "/mnt/c/Users/s140511/tue/thesis/thesis_data/evaluation_data/BPI_2012_A/",
    "export": "reproduction_medium",
    "length_normalization": 0,
    "logFilename": "data",
    "miner": "gnn",
    "model_filename": "/mnt/c/Users/s140511/tue/thesis/git_clean/project/ml_models/models/model_candidates_frequency_new_036",
    "number_of_petrinets": 20,
    "timeout": null,
    "top_x_traces": 17,
    "visualize": false
  },
  "easy_soundness": true,
  "log_filename": "/mnt/c/Users/s140511/tue/thesis/thesis_data/evaluation_data/BPI_2012_A/data",
  "petrinet_filename": "/mnt/c/Users/s140511/tue/thesis/thesis_data/evaluation_data/BPI_2012_A/predictions/data_gcn_reproduction_medium_2",
  "sound": true,
  "soundness_info": {
    "s_components": [
      [
        ">",
        "p5",
        "st1",
        "A_CANCELLED",
        "p9",
        "p0",
        "A_FINALIZED",
        "p2",
        "A_ACCEPTED",
        "sink",
        "p7",
        "A_SUBMITTED",
        "p3",
        "A_PREACCEPTED",
        "p6",
        "p1",
        "A_DECLINED",
        "A_REGISTERED",
        "p4",
        "A_APPROVED",
        "|",
        "short_circuited_transition",
        "A_ACTIVATED",
        "source",
        "st0",
        "A_PARTLYSUBMITTED"
      ],
      [
        ">",
        "p5",
        "st1",
        "A_CANCELLED",
        "p9",
        "p0",
        "A_FINALIZED",
        "p2",
        "A_ACCEPTED",
        "sink",
        "A_SUBMITTED",
        "p3",
        "A_PREACCEPTED",
        "p1",
        "p8",
        "A_DECLINED",
        "A_REGISTERED",
        "p4",
        "short_circuited_transition",
        "|",
        "A_ACTIVATED",
        "source",
        "st0",
        "A_PARTLYSUBMITTED"
      ]
    ],
    "uncovered_places_s_component": []
  }
}