FULL
{
  "fitness": "0.826",
  "fscore": "0.905",
  "generalization": "0.982",
  "metricsAverageWeight": "0.888",
  "precision": "1.000",
  "simplicity": "0.742"
}
Top 30:
{
  "fitness": "0.826",
  "fscore": "0.905",
  "generalization": "0.982",
  "metricsAverageWeight": "0.888",
  "precision": "1.000",
  "simplicity": "0.742"
}