{
  "args": {
    "beam_length": 20,
    "beam_width": -50,
    "config": "config.json",
    "conformanceChecking": true,
    "dataDirectory": "/mnt/c/Users/s140511/tue/thesis/thesis_data/evaluation_data/BPI_2012_A/",
    "export": "reproduction",
    "length_normalization": 0,
    "logFilename": "data",
    "miner": "ai",
    "model_filename": "./project/ml_models/models/model_candidates_frequency_new_036.pth",
    "number_of_petrinets": 20,
    "timeout": null,
    "top_x_traces": 17,
    "visualize": false
  },
  "easy_soundness": true,
  "filename": "/mnt/c/Users/s140511/tue/thesis/thesis_data/evaluation_data/BPI_2012_A/predictions/data_gcn_reproduction_1_cc.json",
  "full": {
    "fitness": {
      "average_trace_fitness": 0.9584268467072181,
      "log_fitness": 0.9554975030231421,
      "perc_fit_traces": 69.37418812562085,
      "percentage_of_fitting_traces": 69.37418812562085
    },
    "fitness_alignments": {
      "averageFitness": 0.9435594028242772,
      "average_trace_fitness": 0.9435594028242772,
      "log_fitness": 0.9331082594817837,
      "percFitTraces": 69.37418812562085,
      "percentage_of_fitting_traces": 69.37418812562085
    },
    "fscore": 0.9147183709681042,
    "generalization": 0.9830793128291442,
    "metricsAverageWeight": 0.8951400605170416,
    "precision": 0.8772775438629394,
    "precision_alignments": 0.8772775438629394,
    "simplicity": 0.7647058823529413
  },
  "s_components": [
    [
      "p5",
      "A_CANCELLED",
      "sink",
      "p9",
      "|",
      ">",
      "p1",
      "A_FINALIZED",
      "p3",
      "A_APPROVED",
      "A_ACTIVATED",
      "short_circuited_transition",
      "A_PREACCEPTED",
      "p8",
      "A_PARTLYSUBMITTED",
      "A_SUBMITTED",
      "A_ACCEPTED",
      "p2",
      "st1",
      "st0",
      "A_DECLINED",
      "p0",
      "source",
      "p4"
    ],
    [
      "p5",
      "A_CANCELLED",
      "sink",
      "p9",
      "|",
      ">",
      "A_REGISTERED",
      "p1",
      "A_FINALIZED",
      "p3",
      "A_APPROVED",
      "short_circuited_transition",
      "A_PREACCEPTED",
      "A_ACTIVATED",
      "A_PARTLYSUBMITTED",
      "A_SUBMITTED",
      "A_ACCEPTED",
      "p7",
      "p2",
      "st1",
      "st0",
      "A_DECLINED",
      "p0",
      "source",
      "p4",
      "p6"
    ]
  ],
  "sound": true,
  "top 17": {
    "fitness": {
      "average_trace_fitness": 0.9584268467072181,
      "log_fitness": 0.9554975030231421,
      "perc_fit_traces": 69.37418812562085,
      "percentage_of_fitting_traces": 69.37418812562085
    },
    "fitness_alignments": {
      "averageFitness": 0.9435594028242772,
      "average_trace_fitness": 0.9435594028242772,
      "log_fitness": 0.9331082594817837,
      "percFitTraces": 69.37418812562085,
      "percentage_of_fitting_traces": 69.37418812562085
    },
    "fscore": 0.9147183709681042,
    "generalization": 0.9830793128291442,
    "metricsAverageWeight": 0.8951400605170416,
    "precision": 0.8772775438629394,
    "precision_alignments": 0.8772775438629394,
    "simplicity": 0.7647058823529413
  },
  "uncovered_places_s_component": []
}