{
  "easy_soundness": false,
  "filename": "/mnt/c/Users/s140511/tue/thesis/thesis_data/evaluation_data/BPI_2012_A/predictions/data_gcn_simpleep144_3_cc.json",
  "full": {
    "fitness": {
      "average_trace_fitness": 0.7291220623190152,
      "log_fitness": 0.7631771398073476,
      "perc_fit_traces": 0.0,
      "percentage_of_fitting_traces": 0.0
    },
    "fscore": 0.8630991265201018,
    "generalization": 0.9842697385156837,
    "metricsAverageWeight": 0.8616144054652383,
    "precision": 0.9931283905967451,
    "simplicity": 0.7058823529411765
  },
  "s_components": [
    [
      "sink",
      "A_ACTIVATED",
      "p7",
      "source",
      "A_PREACCEPTED",
      "p4",
      "p2",
      "A_DECLINED",
      "p0",
      "p1",
      "A_CANCELLED",
      "p6",
      "A_REGISTERED",
      "A_PARTLYSUBMITTED",
      "A_SUBMITTED",
      "short_circuited_transition",
      "A_FINALIZED",
      "p5",
      "p3",
      "A_ACCEPTED",
      "|",
      "st0",
      "A_APPROVED",
      ">"
    ]
  ],
  "sound": false,
  "top 17": {
    "fitness": {
      "average_trace_fitness": 0.7291220623190152,
      "log_fitness": 0.7631771398073476,
      "perc_fit_traces": 0.0,
      "percentage_of_fitting_traces": 0.0
    },
    "fscore": 0.8630991265201018,
    "generalization": 0.9842697385156837,
    "metricsAverageWeight": 0.8616144054652383,
    "precision": 0.9931283905967451,
    "simplicity": 0.7058823529411765
  },
  "uncovered_places_s_component": [
    "p8"
  ]
}