{
  "L": {
    "fitness": 0.9435710923004496,
    "fitness_alignments": 0.9365753728709154,
    "fitness_alignments_percFitTraces": 67.3263543974937,
    "fitness_entropy_exact": 0.0,
    "fitness_entropy_partial": 0.97243782076766,
    "fitness_percFitTraces": 67.3263543974937,
    "fscore": 0.9086895248678416,
    "fscore_alignments": 0.9054329815573654,
    "fscore_entropy_exact": 0,
    "fscore_entropy_partial": 0.8860256764451511,
    "generalization": 0.9830793128291442,
    "metricsAverageWeight": 0.891912820358232,
    "precision": 0.8762949939503932,
    "precision_alignments": 0.8762949939503932,
    "precision_entropy_exact": 0.0,
    "precision_entropy_partial": 0.8137176241708073,
    "simplicity": 0.7647058823529413
  },
  "L_17": {
    "fitness": 0.9435710923004496,
    "fitness_alignments": 0.9365753728709154,
    "fitness_alignments_percFitTraces": 67.3263543974937,
    "fitness_entropy_exact": 0.0,
    "fitness_entropy_partial": 0.97243772529436,
    "fitness_percFitTraces": 67.3263543974937,
    "fscore": 0.9086895248678416,
    "fscore_alignments": 0.9054329815573654,
    "fscore_entropy_exact": 0,
    "fscore_entropy_partial": 0.8860255894240526,
    "generalization": 0.9830793128291442,
    "metricsAverageWeight": 0.891912820358232,
    "precision": 0.8762949939503932,
    "precision_alignments": 0.8762949939503932,
    "precision_entropy_exact": 0.0,
    "precision_entropy_partial": 0.8137175442271013,
    "simplicity": 0.7647058823529413
  },
  "args": {
    "beam_length": 20,
    "beam_width": -50,
    "config": "config.json",
    "conformanceChecking": true,
    "dataDirectory": "/mnt/c/Users/s140511/tue/thesis/APDGnn_data/evaluation_data/BPI_2012_A/",
    "export": "medium",
    "import_petrinet": null,
    "length_normalization": 0,
    "logFilename": "data",
    "miner": "gnn",
    "model_filename": "/mnt/c/Users/s140511/tue/thesis/git_clean/project/ml_models/models/model_candidates_frequency_new_036",
    "number_of_petrinets": 20,
    "prom": false,
    "timeout": null,
    "top_x_traces": 17,
    "visualize": false
  },
  "easy_soundness": true,
  "log_filename": "/mnt/c/Users/s140511/tue/thesis/APDGnn_data/evaluation_data/BPI_2012_A/data",
  "petrinet_filename": "/mnt/c/Users/s140511/tue/thesis/APDGnn_data/evaluation_data/BPI_2012_A/predictions/data_gcn_medium_3",
  "sound": true,
  "soundness_info": {
    "s_components": [
      [
        "p2",
        "A_SUBMITTED",
        "A_ACTIVATED",
        "|",
        "short_circuited_transition",
        "st0",
        "A_FINALIZED",
        "st1",
        "A_CANCELLED",
        "p6",
        "p3",
        "A_PARTLYSUBMITTED",
        ">",
        "p0",
        "A_DECLINED",
        "A_REGISTERED",
        "p9",
        "A_ACCEPTED",
        "sink",
        "A_PREACCEPTED",
        "p4",
        "p7",
        "source",
        "p5",
        "p1",
        "A_APPROVED"
      ],
      [
        "p2",
        "A_SUBMITTED",
        "A_ACTIVATED",
        "|",
        "short_circuited_transition",
        "st0",
        "A_FINALIZED",
        "st1",
        "A_CANCELLED",
        "p8",
        "p3",
        "A_PARTLYSUBMITTED",
        ">",
        "p0",
        "A_DECLINED",
        "A_REGISTERED",
        "p9",
        "A_ACCEPTED",
        "sink",
        "A_PREACCEPTED",
        "p4",
        "source",
        "p5",
        "p1"
      ]
    ],
    "uncovered_places_s_component": []
  }
}