FULL
{
  "fitness": "0.934",
  "fscore": "0.952",
  "generalization": "0.872",
  "metricsAverageWeight": "0.863",
  "precision": "0.971",
  "simplicity": "0.676"
}
Top 30:
{
  "fitness": "0.934",
  "fscore": "0.952",
  "generalization": "0.872",
  "metricsAverageWeight": "0.863",
  "precision": "0.971",
  "simplicity": "0.676"
}