{
  "easy_soundness": false,
  "filename": "/mnt/c/Users/s140511/tue/thesis/thesis_data/evaluation_data/BPI_2012_A/predictions/data_gcn_simpleep144_12_cc.json",
  "full": {
    "fitness": {
      "average_trace_fitness": 0.7297215646989433,
      "log_fitness": 0.7630029695645344,
      "perc_fit_traces": 0.0,
      "percentage_of_fitting_traces": 0.0
    },
    "fscore": 0.8610554537695316,
    "generalization": 0.9818523471993593,
    "metricsAverageWeight": 0.8596907294190539,
    "precision": 0.9880252479711452,
    "simplicity": 0.7058823529411765
  },
  "s_components": [],
  "sound": false,
  "top 17": {
    "fitness": {
      "average_trace_fitness": 0.7297215646989433,
      "log_fitness": 0.7630029695645344,
      "perc_fit_traces": 0.0,
      "percentage_of_fitting_traces": 0.0
    },
    "fscore": 0.8610554537695316,
    "generalization": 0.9818523471993593,
    "metricsAverageWeight": 0.8596907294190539,
    "precision": 0.9880252479711452,
    "simplicity": 0.7058823529411765
  },
  "uncovered_places_s_component": [
    "p1",
    "p5",
    "p7",
    "source",
    "sink",
    "p4",
    "p6",
    "p0",
    "p3",
    "p2"
  ]
}