{
  "easy_soundness": true,
  "filename": "/mnt/c/Users/s140511/tue/thesis/thesis_data/evaluation_data/BPI_2012_A/predictions/data_gcn_complexep100_13_cc.json",
  "full": {
    "fitness": {
      "average_trace_fitness": 0.8755901894645751,
      "log_fitness": 0.881648779337186,
      "perc_fit_traces": 12.493313975701078,
      "percentage_of_fitting_traces": 12.493313975701078
    },
    "fitness_alignments": {
      "averageFitness": 0.7597806984029953,
      "average_trace_fitness": 0.7597806984029953,
      "percFitTraces": 12.493313975701078,
      "percentage_of_fitting_traces": 12.493313975701078
    },
    "fscore": 0.9371023849070794,
    "generalization": 0.8951382256100787,
    "metricsAverageWeight": 0.8727681798082448,
    "precision": 1.0,
    "precision_alignments": 1.0,
    "simplicity": 0.7142857142857143
  },
  "sound": true,
  "top 17": {
    "fitness": {
      "average_trace_fitness": 0.8755901894645751,
      "log_fitness": 0.881648779337186,
      "perc_fit_traces": 12.493313975701078,
      "percentage_of_fitting_traces": 12.493313975701078
    },
    "fitness_alignments": {
      "averageFitness": 0.7597806984029953,
      "average_trace_fitness": 0.7597806984029953,
      "percFitTraces": 12.493313975701078,
      "percentage_of_fitting_traces": 12.493313975701078
    },
    "fscore": 0.9371023849070794,
    "generalization": 0.8951382256100787,
    "metricsAverageWeight": 0.8727681798082448,
    "precision": 1.0,
    "precision_alignments": 1.0,
    "simplicity": 0.7142857142857143
  }
}