{
  "easy_soundness": true,
  "filename": "/mnt/c/Users/s140511/tue/thesis/thesis_data/evaluation_data/BPI_2012_A/predictions/data_gcn_complexep100_19_cc.json",
  "full": {
    "entropia_precision": 0.9144509003271271,
    "entropia_recall": 0.849632832384988,
    "fitness": {
      "average_trace_fitness": 0.8773896851473005,
      "log_fitness": 0.883122533943811,
      "perc_fit_traces": 13.242148697180408,
      "percentage_of_fitting_traces": 13.242148697180408
    },
    "fitness_alignments": {
      "averageFitness": 0.6703598991365394,
      "average_trace_fitness": 0.6703598991365394,
      "percFitTraces": 13.242148697180408,
      "percentage_of_fitting_traces": 13.242148697180408
    },
    "fscore": 0.8593246917794877,
    "generalization": 0.8941971337121651,
    "metricsAverageWeight": 0.8257460825288556,
    "precision": 0.8367757735705579,
    "precision_alignments": 0.8367757735705579,
    "simplicity": 0.6888888888888889
  },
  "sound": true,
  "top 17": {
    "fitness": {
      "average_trace_fitness": 0.8773896851473005,
      "log_fitness": 0.883122533943811,
      "perc_fit_traces": 13.242148697180408,
      "percentage_of_fitting_traces": 13.242148697180408
    },
    "fitness_alignments": {
      "averageFitness": 0.6703598991365394,
      "average_trace_fitness": 0.6703598991365394,
      "percFitTraces": 13.242148697180408,
      "percentage_of_fitting_traces": 13.242148697180408
    },
    "fscore": 0.8593246917794877,
    "generalization": 0.8941971337121651,
    "metricsAverageWeight": 0.8257460825288556,
    "precision": 0.8367757735705579,
    "precision_alignments": 0.8367757735705579,
    "simplicity": 0.6888888888888889
  }
}