{
  "easy_soundness": true,
  "filename": "/mnt/c/Users/s140511/tue/thesis/thesis_data/evaluation_data/BPI_2012_A/predictions/data_gcn_simpleep144_2_cca.json",
  "full": {
    "entropia_precision": 0.9237477903470104,
    "entropia_recall": 0.775863856046946,
    "fitness": {
      "average_trace_fitness": 0.8888840070298183,
      "log_fitness": 0.8950502382785471,
      "perc_fit_traces": 22.747764957591503,
      "percentage_of_fitting_traces": 22.747764957591503
    },
    "fitness_alignments": {
      "averageFitness": 0.901775510897056,
      "average_trace_fitness": 0.901775510897056,
      "log_fitness": 0.9048406077033261,
      "percFitTraces": 22.747764957591503,
      "percentage_of_fitting_traces": 22.747764957591503
    },
    "fscore": 0.9419379632688796,
    "generalization": 0.9125951804815513,
    "metricsAverageWeight": 0.8789852180126964,
    "precision": 0.9940097390049726,
    "precision_alignments": 0.9940097390049726,
    "simplicity": 0.7142857142857143
  },
  "sound": false,
  "top 17": {
    "fitness": {
      "average_trace_fitness": 0.8888840070298183,
      "log_fitness": 0.8950502382785471,
      "perc_fit_traces": 22.747764957591503,
      "percentage_of_fitting_traces": 22.747764957591503
    },
    "fitness_alignments": {
      "averageFitness": 0.901775510897056,
      "average_trace_fitness": 0.901775510897056,
      "log_fitness": 0.9048406077033261,
      "percFitTraces": 22.747764957591503,
      "percentage_of_fitting_traces": 22.747764957591503
    },
    "fscore": 0.9419379632688796,
    "generalization": 0.9125951804815513,
    "metricsAverageWeight": 0.8789852180126964,
    "precision": 0.9940097390049726,
    "precision_alignments": 0.9940097390049726,
    "simplicity": 0.7142857142857143
  }
}