{
  "args": {
    "beam_length": 20,
    "beam_width": -50,
    "config": "config.json",
    "conformanceChecking": true,
    "dataDirectory": "/mnt/c/Users/s140511/tue/thesis/thesis_data/evaluation_data/BPI_2012_A/",
    "export": "reproduction",
    "length_normalization": 0,
    "logFilename": "data",
    "miner": "ai",
    "model_filename": "./project/ml_models/models/model_candidates_frequency_new_036.pth",
    "number_of_petrinets": 20,
    "timeout": null,
    "top_x_traces": 17,
    "visualize": false
  },
  "easy_soundness": true,
  "filename": "/mnt/c/Users/s140511/tue/thesis/thesis_data/evaluation_data/BPI_2012_A/predictions/data_gcn_reproduction_13_cc.json",
  "full": {
    "fitness": {
      "average_trace_fitness": 0.8745139774643227,
      "log_fitness": 0.884713202619186,
      "perc_fit_traces": 19.68365553602812,
      "percentage_of_fitting_traces": 19.68365553602812
    },
    "fitness_alignments": {
      "averageFitness": 0.8443799934305378,
      "average_trace_fitness": 0.8443799934305378,
      "log_fitness": 0.8374676338470716,
      "percFitTraces": 19.68365553602812,
      "percentage_of_fitting_traces": 19.68365553602812
    },
    "fscore": 0.9316928094289088,
    "generalization": 0.9232351065483368,
    "metricsAverageWeight": 0.8838699115935229,
    "precision": 0.9839415936168253,
    "precision_alignments": 0.9839415936168253,
    "simplicity": 0.7435897435897437
  },
  "s_components": [
    [
      "p0",
      "p2",
      ">",
      "A_PARTLYSUBMITTED",
      "A_SUBMITTED",
      "st0",
      "p7",
      "A_CANCELLED",
      "st2",
      "p9",
      "|",
      "A_PREACCEPTED",
      "A_DECLINED",
      "short_circuited_transition",
      "p1",
      "source",
      "sink"
    ]
  ],
  "sound": false,
  "top 17": {
    "fitness": {
      "average_trace_fitness": 0.8745139774643227,
      "log_fitness": 0.884713202619186,
      "perc_fit_traces": 19.68365553602812,
      "percentage_of_fitting_traces": 19.68365553602812
    },
    "fitness_alignments": {
      "averageFitness": 0.8443799934305378,
      "average_trace_fitness": 0.8443799934305378,
      "log_fitness": 0.8374676338470716,
      "percFitTraces": 19.68365553602812,
      "percentage_of_fitting_traces": 19.68365553602812
    },
    "fscore": 0.9316928094289088,
    "generalization": 0.9232351065483368,
    "metricsAverageWeight": 0.8838699115935229,
    "precision": 0.9839415936168253,
    "precision_alignments": 0.9839415936168253,
    "simplicity": 0.7435897435897437
  },
  "uncovered_places_s_component": [
    "p4",
    "p3",
    "p6",
    "p10",
    "p8",
    "p5"
  ]
}