{
  "easy_soundness": true,
  "filename": "/mnt/c/Users/s140511/tue/thesis/thesis_data/evaluation_data/BPI_2012_A/predictions/data_gcn_complexep100_8_cc.json",
  "full": {
    "entropia_precision": 0.9450930972725732,
    "entropia_recall": 0.802653148734157,
    "fitness": {
      "average_trace_fitness": 0.875829265484929,
      "log_fitness": 0.8821838795675054,
      "perc_fit_traces": 12.714907923893941,
      "percentage_of_fitting_traces": 12.714907923893941
    },
    "fitness_alignments": {
      "averageFitness": 0.7667341636738748,
      "average_trace_fitness": 0.7667341636738748,
      "percFitTraces": 12.714907923893941,
      "percentage_of_fitting_traces": 12.714907923893941
    },
    "fscore": 0.9374045640750218,
    "generalization": 0.8943143860801477,
    "metricsAverageWeight": 0.8726959949833419,
    "precision": 1.0,
    "precision_alignments": 1.0,
    "simplicity": 0.7142857142857143
  },
  "sound": true,
  "top 17": {
    "fitness": {
      "average_trace_fitness": 0.875829265484929,
      "log_fitness": 0.8821838795675054,
      "perc_fit_traces": 12.714907923893941,
      "percentage_of_fitting_traces": 12.714907923893941
    },
    "fitness_alignments": {
      "averageFitness": 0.7667341636738748,
      "average_trace_fitness": 0.7667341636738748,
      "percFitTraces": 12.714907923893941,
      "percentage_of_fitting_traces": 12.714907923893941
    },
    "fscore": 0.9374045640750218,
    "generalization": 0.8943143860801477,
    "metricsAverageWeight": 0.8726959949833419,
    "precision": 1.0,
    "precision_alignments": 1.0,
    "simplicity": 0.7142857142857143
  }
}