{
  "FULL": {
    "entropia_precision": 0.9759560677650176,
    "entropia_recall": 0.997417914676658,
    "fitness": {
      "average_trace_fitness": 1.0,
      "log_fitness": 1.0,
      "perc_fit_traces": 100.0,
      "percentage_of_fitting_traces": 100.0
    },
    "fitness_alignments": {
      "averageFitness": 1.0,
      "average_trace_fitness": 1.0,
      "percFitTraces": 100.0,
      "percentage_of_fitting_traces": 100.0
    },
    "fscore": 0.9913178851565775,
    "generalization": 0.9396111884401671,
    "metricsAverageWeight": 0.9130315372713119,
    "precision": 0.9827852309153509,
    "precision_alignments": 0.9827852309153509,
    "simplicity": 0.7297297297297298
  },
  "easy_soundness": true,
  "sound": true
}