{
  "FULL": {
    "entropia_precision": 0.0,
    "entropia_recall": 0.0,
    "fitness": {
      "average_trace_fitness": 0.4679149852993045,
      "log_fitness": 0.8303473463015228,
      "perc_fit_traces": 0.0,
      "percentage_of_fitting_traces": 0.0
    },
    "fitness_alignments": {
      "averageFitness": 0.182,
      "average_trace_fitness": 0.182,
      "percFitTraces": 0.0,
      "percentage_of_fitting_traces": 0.0
    },
    "fscore": 0.874695097521764,
    "generalization": 0.934382234679403,
    "metricsAverageWeight": 0.8596942041555911,
    "precision": 0.9240472356414385,
    "precision_alignments": 0.9240472356414385,
    "simplicity": 0.7499999999999999
  },
  "easy_soundness": true,
  "sound": false
}