{
  "FULL": {
    "fitness": {
      "average_trace_fitness": 0.9824555398405991,
      "log_fitness": 0.9717380779472282,
      "perc_fit_traces": 53.3,
      "percentage_of_fitting_traces": 53.3
    },
    "fitness_alignments": {
      "averageFitness": -2.326,
      "average_trace_fitness": -2.326,
      "percFitTraces": 53.3,
      "percentage_of_fitting_traces": 53.3
    },
    "fscore": 0.895650578476332,
    "generalization": 0.936915230594105,
    "metricsAverageWeight": 0.8848166308906811,
    "precision": 0.8306132150213912,
    "precision_alignments": 0.8306132150213912,
    "simplicity": 0.8
  }
}