{
  "FULL": {
    "fitness": {
      "average_trace_fitness": 0.8485346253462268,
      "log_fitness": 0.8736633156175962,
      "perc_fit_traces": 18.5,
      "percentage_of_fitting_traces": 18.5
    },
    "fitness_alignments": {
      "averageFitness": -0.6260000000000017,
      "average_trace_fitness": -0.6260000000000017,
      "percFitTraces": 18.5,
      "percentage_of_fitting_traces": 18.5
    },
    "fscore": 0.9189836008025588,
    "generalization": 0.9662239601134998,
    "metricsAverageWeight": 0.9039004748655312,
    "precision": 0.969263010827803,
    "precision_alignments": 0.969263010827803,
    "simplicity": 0.8064516129032256
  }
}