{
  "FULL": {
    "fitness": {
      "average_trace_fitness": 0.9632310606060583,
      "log_fitness": 0.9561409191960437,
      "perc_fit_traces": 64.7,
      "percentage_of_fitting_traces": 64.7
    },
    "fitness_alignments": {
      "averageFitness": 0.91175,
      "average_trace_fitness": 0.91175,
      "percFitTraces": 64.7,
      "percentage_of_fitting_traces": 64.7
    },
    "fscore": 0.9769913885912472,
    "generalization": 0.9545545795976585,
    "metricsAverageWeight": 0.9218111938357447,
    "precision": 0.9987714987714987,
    "precision_alignments": 0.9987714987714987,
    "simplicity": 0.7777777777777779
  }
}