{
  "FULL": {
    "fitness": {
      "average_trace_fitness": 1.0,
      "log_fitness": 1.0,
      "perc_fit_traces": 100.0,
      "percentage_of_fitting_traces": 100.0
    },
    "fitness_alignments": {
      "averageFitness": 1.0,
      "average_trace_fitness": 1.0,
      "percFitTraces": 100.0,
      "percentage_of_fitting_traces": 100.0
    },
    "fscore": 0.9811817263853615,
    "generalization": 0.9593035598172517,
    "metricsAverageWeight": 0.9270191177980693,
    "precision": 0.9630586256607401,
    "precision_alignments": 0.9630586256607401,
    "simplicity": 0.7857142857142856
  }
}