{
  "FULL": {
    "fitness": {
      "average_trace_fitness": 0.9681828513751459,
      "log_fitness": 0.9472112676056338,
      "perc_fit_traces": 62.1,
      "percentage_of_fitting_traces": 62.1
    },
    "fitness_alignments": {
      "averageFitness": 0.003,
      "average_trace_fitness": 0.003,
      "percFitTraces": 62.1,
      "percentage_of_fitting_traces": 62.1
    },
    "fscore": 0.9709720156425604,
    "generalization": 0.9672902742895458,
    "metricsAverageWeight": 0.9220587075724356,
    "precision": 0.9959555106167847,
    "precision_alignments": 0.9959555106167847,
    "simplicity": 0.7777777777777779
  }
}