{
  "easy_soundness": true,
  "filename": "/mnt/c/Users/s140511/tue/thesis/thesis_data/process_trees_complex_ws/predictions/1499_gcn_ep100b_cc.json",
  "full": {
    "fitness": {
      "average_trace_fitness": 0.9713915912969889,
      "log_fitness": 0.9533319747299775,
      "perc_fit_traces": 67.9,
      "percentage_of_fitting_traces": 67.9
    },
    "fitness_alignments": {
      "averageFitness": -0.702,
      "average_trace_fitness": -0.702,
      "percFitTraces": 67.9,
      "percentage_of_fitting_traces": 67.9
    },
    "fscore": 0.9751661925754751,
    "generalization": 0.9661908336398303,
    "metricsAverageWeight": 0.9293867006810193,
    "precision": 0.9980239943542696,
    "precision_alignments": 0.9980239943542696,
    "simplicity": 0.8
  },
  "sound": true,
  "top 30": {
    "fitness": {
      "average_trace_fitness": 0.9837379445449039,
      "log_fitness": 0.9762245262781551,
      "perc_fit_traces": 83.16455696202532,
      "percentage_of_fitting_traces": 83.16455696202532
    },
    "fitness_alignments": {
      "averageFitness": 0.529113924050633,
      "average_trace_fitness": 0.529113924050633,
      "percFitTraces": 83.16455696202532,
      "percentage_of_fitting_traces": 83.16455696202532
    },
    "fscore": 0.9836176562508514,
    "generalization": 0.9550104704754041,
    "metricsAverageWeight": 0.9305896541461729,
    "precision": 0.9911236198311323,
    "precision_alignments": 0.9911236198311323,
    "simplicity": 0.8
  }
}