{
  "easy_soundness": false,
  "filename": "/mnt/c/Users/s140511/tue/thesis/thesis_data/process_trees_complex_ws/predictions/1501_gcn_ep100b_cc.json",
  "full": {
    "entropia_precision": "nan",
    "entropia_recall": "nan",
    "fitness": {
      "average_trace_fitness": 0.9278755411255584,
      "log_fitness": 0.9291126713552067,
      "perc_fit_traces": 0.0,
      "percentage_of_fitting_traces": 0.0
    },
    "fscore": 0.9632539199511894,
    "generalization": 0.874640530451138,
    "metricsAverageWeight": 0.8315353153769592,
    "precision": 1.0,
    "simplicity": 0.5223880597014926
  },
  "sound": false,
  "top 30": {
    "fitness": {
      "average_trace_fitness": 0.9278755411255584,
      "log_fitness": 0.9291126713552067,
      "perc_fit_traces": 0.0,
      "percentage_of_fitting_traces": 0.0
    },
    "fscore": 0.9632539199511894,
    "generalization": 0.874640530451138,
    "metricsAverageWeight": 0.8315353153769592,
    "precision": 1.0,
    "simplicity": 0.5223880597014926
  }
}