{
  "FULL": {
    "fitness": {
      "average_trace_fitness": 0.9096444444444434,
      "log_fitness": 0.9072598494909252,
      "perc_fit_traces": 23.6,
      "percentage_of_fitting_traces": 23.6
    },
    "fitness_alignments": {
      "averageFitness": -1.284,
      "average_trace_fitness": -1.284,
      "percFitTraces": 23.6,
      "percentage_of_fitting_traces": 23.6
    },
    "fscore": 0.9301160405625242,
    "generalization": 0.8189590512842116,
    "metricsAverageWeight": 0.8182412745958508,
    "precision": 0.954153605015674,
    "precision_alignments": 0.954153605015674,
    "simplicity": 0.5925925925925926
  },
  "Top 30": {
    "fitness": {
      "average_trace_fitness": 0.9096444444444434,
      "log_fitness": 0.9072598494909252,
      "perc_fit_traces": 23.6,
      "percentage_of_fitting_traces": 23.6
    },
    "fitness_alignments": {
      "averageFitness": -1.284,
      "average_trace_fitness": -1.284,
      "percFitTraces": 23.6,
      "percentage_of_fitting_traces": 23.6
    },
    "fscore": 0.9301160405625242,
    "generalization": 0.8189590512842116,
    "metricsAverageWeight": 0.8182412745958508,
    "precision": 0.954153605015674,
    "precision_alignments": 0.954153605015674,
    "simplicity": 0.5925925925925926
  }
}