{
  "FULL": {
    "fitness": {
      "average_trace_fitness": 0.951599999999989,
      "log_fitness": 0.9489666807254323,
      "perc_fit_traces": 51.6,
      "percentage_of_fitting_traces": 51.6
    },
    "fitness_alignments": {
      "averageFitness": 0.903199999999981,
      "average_trace_fitness": 0.903199999999981,
      "percFitTraces": 51.6,
      "percentage_of_fitting_traces": 51.6
    },
    "fscore": 0.9675441721706353,
    "generalization": 0.9600416113435141,
    "metricsAverageWeight": 0.9139679614053849,
    "precision": 0.9868635535525937,
    "precision_alignments": 0.9868635535525937,
    "simplicity": 0.7599999999999999
  }
}