{
  "FULL": {
    "entropia_precision": NaN,
    "entropia_recall": 0.0,
    "fitness": {
      "average_trace_fitness": 1.0,
      "log_fitness": 1.0,
      "perc_fit_traces": 100.0,
      "percentage_of_fitting_traces": 100.0
    },
    "fitness_alignments": {
      "averageFitness": 1.0,
      "average_trace_fitness": 1.0,
      "percFitTraces": 100.0,
      "percentage_of_fitting_traces": 100.0
    },
    "fscore": 0.8355795148247979,
    "generalization": 0.9655936898651636,
    "metricsAverageWeight": 0.8345896740627149,
    "precision": 0.7175925925925926,
    "precision_alignments": 0.7175925925925926,
    "simplicity": 0.6551724137931035
  },
  "easy_soundness": true,
  "sound": false
}