{
  "FULL": {
    "entropia_precision": 0.898434492872827,
    "entropia_recall": 1.000455643692204,
    "fitness": {
      "average_trace_fitness": 1.0,
      "log_fitness": 1.0,
      "perc_fit_traces": 100.0,
      "percentage_of_fitting_traces": 100.0
    },
    "fitness_alignments": {
      "averageFitness": 1.0,
      "average_trace_fitness": 1.0,
      "percFitTraces": 100.0,
      "percentage_of_fitting_traces": 100.0
    },
    "fscore": 0.9635915546634822,
    "generalization": 0.9680637193816819,
    "metricsAverageWeight": 0.9119512112731514,
    "precision": 0.9297411257109237,
    "precision_alignments": 0.9297411257109237,
    "simplicity": 0.7499999999999999
  },
  "easy_soundness": true,
  "sound": true
}