{
  "FULL": {
    "fitness": {
      "average_trace_fitness": 0.8936800336395099,
      "log_fitness": 0.8807729174037078,
      "perc_fit_traces": 26.3,
      "percentage_of_fitting_traces": 26.3
    },
    "fitness_alignments": {
      "averageFitness": 0.433555555555553,
      "average_trace_fitness": 0.433555555555553,
      "percFitTraces": 26.3,
      "percentage_of_fitting_traces": 26.3
    },
    "fscore": 0.9346258419484267,
    "generalization": 0.760621493799893,
    "metricsAverageWeight": 0.8203329835761383,
    "precision": 0.9954930786565082,
    "precision_alignments": 0.9954930786565082,
    "simplicity": 0.6444444444444444
  },
  "Top 30": {
    "fitness": {
      "average_trace_fitness": 0.9181518633943627,
      "log_fitness": 0.9254956890532359,
      "perc_fit_traces": 38.24503311258278,
      "percentage_of_fitting_traces": 38.24503311258278
    },
    "fitness_alignments": {
      "averageFitness": 0.6074319352465041,
      "average_trace_fitness": 0.6074319352465041,
      "percFitTraces": 38.24503311258278,
      "percentage_of_fitting_traces": 38.24503311258278
    },
    "fscore": 0.9356687084406952,
    "generalization": 0.7434378372927234,
    "metricsAverageWeight": 0.8148614568082109,
    "precision": 0.9460678564424397,
    "precision_alignments": 0.9460678564424397,
    "simplicity": 0.6444444444444444
  }
}