{
  "FULL": {
    "fitness": {
      "average_trace_fitness": 1.0,
      "log_fitness": 1.0,
      "perc_fit_traces": 100.0,
      "percentage_of_fitting_traces": 100.0
    },
    "fitness_alignments": {
      "averageFitness": 1.0,
      "average_trace_fitness": 1.0,
      "percFitTraces": 100.0,
      "percentage_of_fitting_traces": 100.0
    },
    "fscore": 0.9910569386416215,
    "generalization": 0.9725799989375069,
    "metricsAverageWeight": 0.9432585583181612,
    "precision": 0.9822724161533196,
    "precision_alignments": 0.9822724161533196,
    "simplicity": 0.8181818181818181
  }
}