{
  "FULL": {
    "entropia_precision": 0.9319964160112304,
    "entropia_recall": 0.940998987866904,
    "fitness": {
      "average_trace_fitness": 1.0,
      "log_fitness": 1.0,
      "perc_fit_traces": 100.0,
      "percentage_of_fitting_traces": 100.0
    },
    "fitness_alignments": {
      "averageFitness": 1.0,
      "average_trace_fitness": 1.0,
      "percFitTraces": 100.0,
      "percentage_of_fitting_traces": 100.0
    },
    "fscore": 0.9910569386416215,
    "generalization": 0.9717394438296687,
    "metricsAverageWeight": 0.9500414265342086,
    "precision": 0.9822724161533196,
    "precision_alignments": 0.9822724161533196,
    "simplicity": 0.8461538461538463
  },
  "easy_soundness": true,
  "sound": true
}