{
  "FULL": {
    "entropia_precision": 0.9892549103504309,
    "entropia_recall": 0.99970957762508,
    "fitness": {
      "average_trace_fitness": 1.0,
      "log_fitness": 1.0,
      "perc_fit_traces": 100.0,
      "percentage_of_fitting_traces": 100.0
    },
    "fitness_alignments": {
      "averageFitness": 1.0,
      "average_trace_fitness": 1.0,
      "percFitTraces": 100.0,
      "percentage_of_fitting_traces": 100.0
    },
    "fscore": 0.990138575572027,
    "generalization": 0.9719066004570165,
    "metricsAverageWeight": 0.9496325484666038,
    "precision": 0.9804697472555527,
    "precision_alignments": 0.9804697472555527,
    "simplicity": 0.8461538461538463
  },
  "easy_soundness": true,
  "sound": true
}