{
  "FULL": {
    "entropia_precision": 0.9986601476502602,
    "entropia_recall": 0.82721369093436,
    "fitness": {
      "average_trace_fitness": 0.9222534796630889,
      "log_fitness": 0.8945000562366439,
      "perc_fit_traces": 50.6,
      "percentage_of_fitting_traces": 50.6
    },
    "fitness_alignments": {
      "averageFitness": 0.062,
      "average_trace_fitness": 0.062,
      "percFitTraces": 50.6,
      "percentage_of_fitting_traces": 50.6
    },
    "fscore": 0.9438747384530997,
    "generalization": 0.9728181520329031,
    "metricsAverageWeight": 0.9665842135001639,
    "precision": 0.9990186457311089,
    "precision_alignments": 0.9990186457311089,
    "simplicity": 1.0
  },
  "easy_soundness": true,
  "sound": true
}