{
  "FULL": {
    "entropia_precision": 0.9815552517627385,
    "entropia_recall": 1.008488865493403,
    "fitness": {
      "average_trace_fitness": 1.0,
      "log_fitness": 1.0,
      "perc_fit_traces": 100.0,
      "percentage_of_fitting_traces": 100.0
    },
    "fitness_alignments": {
      "averageFitness": 1.0,
      "average_trace_fitness": 1.0,
      "percFitTraces": 100.0,
      "percentage_of_fitting_traces": 100.0
    },
    "fscore": 0.9789325049421067,
    "generalization": 0.967354761922173,
    "metricsAverageWeight": 0.9360677383438427,
    "precision": 0.9587343732713796,
    "precision_alignments": 0.9587343732713796,
    "simplicity": 0.8181818181818181
  },
  "easy_soundness": true,
  "sound": true
}