{
  "FULL": {
    "fitness": {
      "average_trace_fitness": 0.9999871426466255,
      "log_fitness": 0.999931011222142,
      "perc_fit_traces": 99.9,
      "percentage_of_fitting_traces": 99.9
    },
    "fitness_alignments": {
      "averageFitness": 0.999,
      "average_trace_fitness": 0.999,
      "percFitTraces": 99.9,
      "percentage_of_fitting_traces": 99.9
    },
    "fscore": 0.944676655370246,
    "generalization": 0.9702082679939626,
    "metricsAverageWeight": 0.8949085092762263,
    "precision": 0.8952090436030863,
    "precision_alignments": 0.8952090436030863,
    "simplicity": 0.7142857142857143
  }
}