{
  "FULL": {
    "entropia_precision": "nan",
    "entropia_recall": "nan",
    "fitness": {
      "average_trace_fitness": 0.968769188025611,
      "log_fitness": 0.9616367277147552,
      "perc_fit_traces": 48.1,
      "percentage_of_fitting_traces": 48.1
    },
    "fitness_alignments": {
      "averageFitness": -0.3260000000000011,
      "average_trace_fitness": -0.3260000000000011,
      "percFitTraces": 48.1,
      "percentage_of_fitting_traces": 48.1
    },
    "fscore": 0.9690490735800044,
    "generalization": 0.9677840922877028,
    "metricsAverageWeight": 0.9183598142610377,
    "precision": 0.9765765765765766,
    "precision_alignments": 0.9765765765765766,
    "simplicity": 0.7674418604651162
  },
  "easy_soundness": true,
  "sound": true
}