{
  "FULL": {
    "fitness": {
      "average_trace_fitness": 0.9833897637085184,
      "log_fitness": 0.9793554232461817,
      "perc_fit_traces": 68.1,
      "percentage_of_fitting_traces": 68.1
    },
    "fitness_alignments": {
      "averageFitness": 0.10825,
      "average_trace_fitness": 0.10825,
      "percFitTraces": 68.1,
      "percentage_of_fitting_traces": 68.1
    },
    "fscore": 0.9892412586310446,
    "generalization": 0.9473632773851556,
    "metricsAverageWeight": 0.9190118523786891,
    "precision": 0.9993287088834191,
    "precision_alignments": 0.9993287088834191,
    "simplicity": 0.7499999999999999
  },
  "Top 30": {
    "fitness": {
      "average_trace_fitness": 0.9833897637085184,
      "log_fitness": 0.9793554232461817,
      "perc_fit_traces": 68.1,
      "percentage_of_fitting_traces": 68.1
    },
    "fitness_alignments": {
      "averageFitness": 0.10825,
      "average_trace_fitness": 0.10825,
      "percFitTraces": 68.1,
      "percentage_of_fitting_traces": 68.1
    },
    "fscore": 0.9892412586310446,
    "generalization": 0.9473632773851556,
    "metricsAverageWeight": 0.9190118523786891,
    "precision": 0.9993287088834191,
    "precision_alignments": 0.9993287088834191,
    "simplicity": 0.7499999999999999
  }
}