{
  "FULL": {
    "entropia_precision": 0.9663902228174196,
    "entropia_recall": 1.000485199145433,
    "fitness": {
      "average_trace_fitness": 1.0,
      "log_fitness": 1.0,
      "perc_fit_traces": 100.0,
      "percentage_of_fitting_traces": 100.0
    },
    "fitness_alignments": {
      "averageFitness": 1.0,
      "average_trace_fitness": 1.0,
      "percFitTraces": 100.0,
      "percentage_of_fitting_traces": 100.0
    },
    "fscore": 0.9987786259541984,
    "generalization": 0.9663026849890658,
    "metricsAverageWeight": 0.9409657291917617,
    "precision": 0.9975602317779811,
    "precision_alignments": 0.9975602317779811,
    "simplicity": 0.8
  },
  "easy_soundness": true,
  "sound": true
}