{
  "FULL": {
    "fitness": {
      "average_trace_fitness": 0.9483374944499907,
      "log_fitness": 0.9489388527001471,
      "perc_fit_traces": 51.4,
      "percentage_of_fitting_traces": 51.4
    },
    "fitness_alignments": {
      "averageFitness": 0.9027999999999875,
      "average_trace_fitness": 0.9027999999999875,
      "percFitTraces": 51.4,
      "percentage_of_fitting_traces": 51.4
    },
    "fscore": 0.9719984275283822,
    "generalization": 0.9650067287499862,
    "metricsAverageWeight": 0.9275380521738688,
    "precision": 0.9962066272453419,
    "precision_alignments": 0.9962066272453419,
    "simplicity": 0.8
  }
}