{
  "easy_soundness": true,
  "filename": "/mnt/c/Users/s140511/tue/thesis/thesis_data/process_trees_complex_ws/predictions/1517_gcn_ep100b_cc.json",
  "full": {
    "entropia_precision": 0.9856278129009953,
    "entropia_recall": 0.962133653582931,
    "fitness": {
      "average_trace_fitness": 0.9677552455039,
      "log_fitness": 0.9501051998797716,
      "perc_fit_traces": 73.9,
      "percentage_of_fitting_traces": 73.9
    },
    "fitness_alignments": {
      "averageFitness": 0.106,
      "average_trace_fitness": 0.106,
      "percFitTraces": 73.9,
      "percentage_of_fitting_traces": 73.9
    },
    "fscore": 0.970724917532589,
    "generalization": 0.8542020068938982,
    "metricsAverageWeight": 0.8777131030993466,
    "precision": 0.9922594913380022,
    "precision_alignments": 0.9922594913380022,
    "simplicity": 0.7142857142857143
  },
  "sound": true,
  "top 30": {
    "fitness": {
      "average_trace_fitness": 0.9738689886140667,
      "log_fitness": 0.9608686744519566,
      "perc_fit_traces": 79.837775202781,
      "percentage_of_fitting_traces": 79.837775202781
    },
    "fitness_alignments": {
      "averageFitness": 0.4287369640787949,
      "average_trace_fitness": 0.4287369640787949,
      "percFitTraces": 79.837775202781,
      "percentage_of_fitting_traces": 79.837775202781
    },
    "fscore": 0.9758992967073336,
    "generalization": 0.8479220906088187,
    "metricsAverageWeight": 0.878621027847742,
    "precision": 0.9914076320444781,
    "precision_alignments": 0.9914076320444781,
    "simplicity": 0.7142857142857143
  }
}