{
  "FULL": {
    "fitness": {
      "average_trace_fitness": 0.6931233466042617,
      "log_fitness": 0.7999003653271338,
      "perc_fit_traces": 27.3,
      "percentage_of_fitting_traces": 27.3
    },
    "fitness_alignments": {
      "averageFitness": -1.1,
      "average_trace_fitness": -1.1,
      "percFitTraces": 27.3,
      "percentage_of_fitting_traces": 27.3
    },
    "fscore": 0.8863590165485207,
    "generalization": 0.955197275450624,
    "metricsAverageWeight": 0.8872175861155605,
    "precision": 0.9937727036844837,
    "precision_alignments": 0.9937727036844837,
    "simplicity": 0.8
  }
}