{
  "FULL": {
    "fitness": {
      "average_trace_fitness": 1.0,
      "log_fitness": 1.0,
      "perc_fit_traces": 100.0,
      "percentage_of_fitting_traces": 100.0
    },
    "fitness_alignments": {
      "averageFitness": 1.0,
      "average_trace_fitness": 1.0,
      "percFitTraces": 100.0,
      "percentage_of_fitting_traces": 100.0
    },
    "fscore": 0.9791575389622583,
    "generalization": 0.9492659457748056,
    "metricsAverageWeight": 0.9056794539482999,
    "precision": 0.9591661557326794,
    "precision_alignments": 0.9591661557326794,
    "simplicity": 0.7142857142857143
  }
}