{
  "FULL": {
    "entropia_precision": 0.9994871059998746,
    "entropia_recall": 1.000058588836924,
    "fitness": {
      "average_trace_fitness": 1.0,
      "log_fitness": 1.0,
      "perc_fit_traces": 100.0,
      "percentage_of_fitting_traces": 100.0
    },
    "fitness_alignments": {
      "averageFitness": 1.0,
      "average_trace_fitness": 1.0,
      "percFitTraces": 100.0,
      "percentage_of_fitting_traces": 100.0
    },
    "fscore": 0.9985441941074524,
    "generalization": 0.937965357100624,
    "metricsAverageWeight": 0.908006918716251,
    "precision": 0.9970926207946836,
    "precision_alignments": 0.9970926207946836,
    "simplicity": 0.6969696969696969
  },
  "easy_soundness": true,
  "sound": true
}