{
  "easy_soundness": true,
  "filename": "/mnt/c/Users/s140511/tue/thesis/thesis_data/process_trees_complex_ws/predictions/1519_gcn_ep100b_cc.json",
  "full": {
    "entropia_precision": 1.000000000000001,
    "entropia_recall": 0.901982772088812,
    "fitness": {
      "average_trace_fitness": 0.9534638832791987,
      "log_fitness": 0.9117252481888919,
      "perc_fit_traces": 77.8,
      "percentage_of_fitting_traces": 77.8
    },
    "fitness_alignments": {
      "averageFitness": -0.778,
      "average_trace_fitness": -0.778,
      "percFitTraces": 77.8,
      "percentage_of_fitting_traces": 77.8
    },
    "fscore": 0.9538245614035088,
    "generalization": 0.9423707667327662,
    "metricsAverageWeight": 0.8821286548932051,
    "precision": 1.0,
    "precision_alignments": 1.0,
    "simplicity": 0.6744186046511628
  },
  "sound": false,
  "top 30": {
    "fitness": {
      "average_trace_fitness": 0.9546130096251247,
      "log_fitness": 0.9149720212911151,
      "perc_fit_traces": 78.19095477386935,
      "percentage_of_fitting_traces": 78.19095477386935
    },
    "fitness_alignments": {
      "averageFitness": -0.7105527638190955,
      "average_trace_fitness": -0.7105527638190955,
      "percFitTraces": 78.19095477386935,
      "percentage_of_fitting_traces": 78.19095477386935
    },
    "fscore": 0.9555983180101204,
    "generalization": 0.9417573779583747,
    "metricsAverageWeight": 0.8827870009751632,
    "precision": 1.0,
    "precision_alignments": 1.0,
    "simplicity": 0.6744186046511628
  }
}