{
  "FULL": {
    "entropia_precision": 0.7050454648773229,
    "entropia_recall": 1.00002745167552,
    "fitness": {
      "average_trace_fitness": 0.9999929797465689,
      "log_fitness": 0.999951221891615,
      "perc_fit_traces": 99.89118607181719,
      "percentage_of_fitting_traces": 99.89118607181719
    },
    "fitness_alignments": {
      "averageFitness": 0.998911860718172,
      "average_trace_fitness": 0.998911860718172,
      "percFitTraces": 99.89118607181719,
      "percentage_of_fitting_traces": 99.89118607181719
    },
    "fscore": 0.7416073619703415,
    "generalization": 0.9713792267496089,
    "metricsAverageWeight": 0.8095239537468845,
    "precision": 0.5893460115076041,
    "precision_alignments": 0.5893460115076041,
    "simplicity": 0.6774193548387096
  },
  "easy_soundness": true,
  "sound": true
}