{
  "FULL": {
    "fitness": {
      "average_trace_fitness": 0.7566505860081968,
      "log_fitness": 0.7149905113175665,
      "perc_fit_traces": 17.6278563656148,
      "percentage_of_fitting_traces": 17.6278563656148
    },
    "fitness_alignments": {
      "averageFitness": -10.982589771490751,
      "average_trace_fitness": -10.982589771490751,
      "percFitTraces": 17.6278563656148,
      "percentage_of_fitting_traces": 17.6278563656148
    },
    "fscore": 0.8338127897492151,
    "generalization": 0.9708267680832894,
    "metricsAverageWeight": 0.844531242927137,
    "precision": 1.0,
    "precision_alignments": 1.0,
    "simplicity": 0.6923076923076922
  },
  "Top 30": {
    "fitness": {
      "average_trace_fitness": 0.85717978568925,
      "log_fitness": 0.7791534276399397,
      "perc_fit_traces": 51.10410094637224,
      "percentage_of_fitting_traces": 51.10410094637224
    },
    "fitness_alignments": {
      "averageFitness": -0.8485804416403786,
      "average_trace_fitness": -0.8485804416403786,
      "percFitTraces": 51.10410094637224,
      "percentage_of_fitting_traces": 51.10410094637224
    },
    "fscore": 0.8758698553316928,
    "generalization": 0.8830870491355367,
    "metricsAverageWeight": 0.8386370422707922,
    "precision": 1.0,
    "precision_alignments": 1.0,
    "simplicity": 0.6923076923076922
  }
}