{
  "FULL": {
    "fitness": {
      "average_trace_fitness": 0.943607142857133,
      "log_fitness": 0.9478169384534456,
      "perc_fit_traces": 50.4,
      "percentage_of_fitting_traces": 50.4
    },
    "fitness_alignments": {
      "averageFitness": 0.8346666666666567,
      "average_trace_fitness": 0.8346666666666567,
      "percFitTraces": 50.4,
      "percentage_of_fitting_traces": 50.4
    },
    "fscore": 0.9732094631089986,
    "generalization": 0.9612487675530555,
    "metricsAverageWeight": 0.9572664265016253,
    "precision": 1.0,
    "precision_alignments": 1.0,
    "simplicity": 0.92
  }
}