{
  "FULL": {
    "fitness": {
      "average_trace_fitness": 1.0,
      "log_fitness": 1.0,
      "perc_fit_traces": 100.0,
      "percentage_of_fitting_traces": 100.0
    },
    "fitness_alignments": {
      "averageFitness": 1.0,
      "average_trace_fitness": 1.0,
      "percFitTraces": 100.0,
      "percentage_of_fitting_traces": 100.0
    },
    "fscore": 0.9987678225664496,
    "generalization": 0.9497821651532387,
    "metricsAverageWeight": 0.9351060728368814,
    "precision": 0.9975386779184248,
    "precision_alignments": 0.9975386779184248,
    "simplicity": 0.7931034482758622
  }
}