{
  "FULL": {
    "fitness": {
      "average_trace_fitness": 1.0,
      "log_fitness": 1.0,
      "perc_fit_traces": 100.0,
      "percentage_of_fitting_traces": 100.0
    },
    "fitness_alignments": {
      "averageFitness": 0.0,
      "average_trace_fitness": 0.0,
      "percFitTraces": 0.0,
      "percentage_of_fitting_traces": 0.0
    },
    "fscore": 0.9987678225664496,
    "generalization": 0.8524243983209561,
    "metricsAverageWeight": 0.8910621976312738,
    "precision": 0.9975386779184248,
    "precision_alignments": 0.9975386779184248,
    "simplicity": 0.7142857142857143
  }
}