{
  "FULL": {
    "fitness": {
      "average_trace_fitness": 1.0,
      "log_fitness": 1.0,
      "perc_fit_traces": 100.0,
      "percentage_of_fitting_traces": 100.0
    },
    "fitness_alignments": {
      "averageFitness": 1.0,
      "average_trace_fitness": 1.0,
      "percFitTraces": 100.0,
      "percentage_of_fitting_traces": 100.0
    },
    "fscore": 0.9987678225664496,
    "generalization": 0.9471382203566179,
    "metricsAverageWeight": 0.9261692245687606,
    "precision": 0.9975386779184248,
    "precision_alignments": 0.9975386779184248,
    "simplicity": 0.7599999999999999
  },
  "Top 30": {
    "fitness": {
      "average_trace_fitness": 1.0,
      "log_fitness": 1.0,
      "perc_fit_traces": 100.0,
      "percentage_of_fitting_traces": 100.0
    },
    "fitness_alignments": {
      "averageFitness": 1.0,
      "average_trace_fitness": 1.0,
      "percFitTraces": 100.0,
      "percentage_of_fitting_traces": 100.0
    },
    "fscore": 0.9983810037776578,
    "generalization": 0.9465690505579879,
    "metricsAverageWeight": 0.9258340729843245,
    "precision": 0.9967672413793104,
    "precision_alignments": 0.9967672413793104,
    "simplicity": 0.7599999999999999
  }
}