{
  "FULL": {
    "fitness": {
      "average_trace_fitness": 1.0,
      "log_fitness": 1.0,
      "perc_fit_traces": 100.0,
      "percentage_of_fitting_traces": 100.0
    },
    "fitness_alignments": {
      "averageFitness": 1.0,
      "average_trace_fitness": 1.0,
      "percFitTraces": 100.0,
      "percentage_of_fitting_traces": 100.0
    },
    "fscore": 0.9843409316154609,
    "generalization": 0.9579762278427509,
    "metricsAverageWeight": 0.9262296801717207,
    "precision": 0.9691647150663544,
    "precision_alignments": 0.9691647150663544,
    "simplicity": 0.7777777777777779
  }
}