{
  "FULL": {
    "fitness": {
      "average_trace_fitness": 0.9999811175666439,
      "log_fitness": 0.999922245790369,
      "perc_fit_traces": 99.8,
      "percentage_of_fitting_traces": 99.8
    },
    "fitness_alignments": {
      "averageFitness": 0.9991,
      "average_trace_fitness": 0.9991,
      "percFitTraces": 99.8,
      "percentage_of_fitting_traces": 99.8
    },
    "fscore": 0.7534777677712897,
    "generalization": 0.9709295418009201,
    "metricsAverageWeight": 0.8277983049404655,
    "precision": 0.6044923755667991,
    "precision_alignments": 0.6044923755667991,
    "simplicity": 0.7358490566037735
  }
}