{
  "FULL": {
    "entropia_precision": 0.9999999999999952,
    "entropia_recall": 0.865506323976736,
    "fitness": {
      "average_trace_fitness": 0.9603910256410324,
      "log_fitness": 0.9365781431973214,
      "perc_fit_traces": 66.6,
      "percentage_of_fitting_traces": 66.6
    },
    "fitness_alignments": {
      "averageFitness": 0.162,
      "average_trace_fitness": 0.162,
      "percFitTraces": 66.6,
      "percentage_of_fitting_traces": 66.6
    },
    "fscore": 0.9672505563354298,
    "generalization": 0.9539606946784996,
    "metricsAverageWeight": 0.9393013761356219,
    "precision": 1.0,
    "precision_alignments": 1.0,
    "simplicity": 0.8666666666666667
  },
  "easy_soundness": true,
  "sound": true
}