{
  "easy_soundness": true,
  "filename": "/mnt/c/Users/s140511/tue/thesis/thesis_data/process_trees_complex_ws/predictions/1530_gcn_ep100b_cca.json",
  "full": {
    "entropia_precision": 0.612659231352903,
    "entropia_recall": 0.606978730773867,
    "fitness": {
      "average_trace_fitness": 0.9145984216612112,
      "log_fitness": 0.8598612043877323,
      "perc_fit_traces": 51.2,
      "percentage_of_fitting_traces": 51.2
    },
    "fitness_alignments": {
      "averageFitness": 0.8949188318488216,
      "average_trace_fitness": 0.8949188318488216,
      "log_fitness": 0.831833686981279,
      "percFitTraces": 51.2,
      "percentage_of_fitting_traces": 51.2
    },
    "fscore": 0.8464488017210463,
    "generalization": 0.9602015796729798,
    "metricsAverageWeight": 0.8578222391824393,
    "precision": 0.8334483948912668,
    "precision_alignments": 0.8334483948912668,
    "simplicity": 0.7777777777777779
  },
  "sound": true,
  "top 30": {
    "fitness": {
      "average_trace_fitness": 0.9378635292970362,
      "log_fitness": 0.9125199220825218,
      "perc_fit_traces": 59.95316159250586,
      "percentage_of_fitting_traces": 59.95316159250586
    },
    "fitness_alignments": {
      "averageFitness": 0.9188337853770321,
      "average_trace_fitness": 0.9188337853770321,
      "log_fitness": 0.8889795916166596,
      "percFitTraces": 59.95316159250586,
      "percentage_of_fitting_traces": 59.95316159250586
    },
    "fscore": 0.8884580107798544,
    "generalization": 0.9422499355272294,
    "metricsAverageWeight": 0.8745450234053549,
    "precision": 0.8656324582338902,
    "precision_alignments": 0.8656324582338902,
    "simplicity": 0.7777777777777779
  }
}