{
  "FULL": {
    "entropia_precision": 0.9383947701407875,
    "entropia_recall": 1.000569142454246,
    "fitness": {
      "average_trace_fitness": 1.0,
      "log_fitness": 1.0,
      "perc_fit_traces": 100.0,
      "percentage_of_fitting_traces": 100.0
    },
    "fitness_alignments": {
      "averageFitness": 1.0,
      "average_trace_fitness": 1.0,
      "percFitTraces": 100.0,
      "percentage_of_fitting_traces": 100.0
    },
    "fscore": 0.9385163842359722,
    "generalization": 0.9486456954766915,
    "metricsAverageWeight": 0.8900184352788159,
    "precision": 0.8841553183658447,
    "precision_alignments": 0.8841553183658447,
    "simplicity": 0.7272727272727273
  },
  "easy_soundness": true,
  "sound": true
}