{
  "FULL": {
    "fitness": {
      "average_trace_fitness": 1.0,
      "log_fitness": 1.0,
      "perc_fit_traces": 100.0,
      "percentage_of_fitting_traces": 100.0
    },
    "fitness_alignments": {
      "averageFitness": 1.0,
      "average_trace_fitness": 1.0,
      "percFitTraces": 100.0,
      "percentage_of_fitting_traces": 100.0
    },
    "fscore": 0.978682021753039,
    "generalization": 0.9679857741195104,
    "metricsAverageWeight": 0.9298358016397372,
    "precision": 0.9582539841635762,
    "precision_alignments": 0.9582539841635762,
    "simplicity": 0.7931034482758622
  }
}