{
  "FULL": {
    "fitness": {
      "average_trace_fitness": 0.515,
      "log_fitness": 0.9651955507714388,
      "perc_fit_traces": 51.5,
      "percentage_of_fitting_traces": 51.5
    },
    "fitness_alignments": {
      "averageFitness": 0.35333333333333317,
      "average_trace_fitness": 0.35333333333333317,
      "percFitTraces": 51.5,
      "percentage_of_fitting_traces": 51.5
    },
    "fscore": 0.8995948070285125,
    "generalization": 0.8669933184724048,
    "metricsAverageWeight": 0.8472046049758113,
    "precision": 0.8423438363736871,
    "precision_alignments": 0.8423438363736871,
    "simplicity": 0.7142857142857143
  }
}