{
  "FULL": {
    "fitness": {
      "average_trace_fitness": 1.0,
      "log_fitness": 1.0,
      "perc_fit_traces": 100.0,
      "percentage_of_fitting_traces": 100.0
    },
    "fitness_alignments": {
      "averageFitness": 1.0,
      "average_trace_fitness": 1.0,
      "percFitTraces": 100.0,
      "percentage_of_fitting_traces": 100.0
    },
    "fscore": 0.9557165311282717,
    "generalization": 0.954422790361489,
    "metricsAverageWeight": 0.8924028967265545,
    "precision": 0.9151887965447287,
    "precision_alignments": 0.9151887965447287,
    "simplicity": 0.7000000000000001
  }
}