{
  "FULL": {
    "fitness": {
      "average_trace_fitness": 0.9696646825396792,
      "log_fitness": 0.9361178219354307,
      "perc_fit_traces": 90.4,
      "percentage_of_fitting_traces": 90.4
    },
    "fitness_alignments": {
      "averageFitness": 0.858,
      "average_trace_fitness": 0.858,
      "percFitTraces": 90.4,
      "percentage_of_fitting_traces": 90.4
    },
    "fscore": 0.9535847955462601,
    "generalization": 0.9223565596411769,
    "metricsAverageWeight": 0.8742142604570863,
    "precision": 0.9717159935850707,
    "precision_alignments": 0.9717159935850707,
    "simplicity": 0.6666666666666666
  }
}