{
  "FULL": {
    "fitness": {
      "average_trace_fitness": 1.0,
      "log_fitness": 1.0,
      "perc_fit_traces": 100.0,
      "percentage_of_fitting_traces": 100.0
    },
    "fitness_alignments": {
      "averageFitness": 1.0,
      "average_trace_fitness": 1.0,
      "percFitTraces": 100.0,
      "percentage_of_fitting_traces": 100.0
    },
    "fscore": 0.9852397513486869,
    "generalization": 0.9673716357215295,
    "metricsAverageWeight": 0.9361830358176741,
    "precision": 0.9709088946459413,
    "precision_alignments": 0.9709088946459413,
    "simplicity": 0.8064516129032256
  },
  "Top 30": {
    "fitness": {
      "average_trace_fitness": 1.0,
      "log_fitness": 1.0,
      "perc_fit_traces": 100.0,
      "percentage_of_fitting_traces": 100.0
    },
    "fitness_alignments": {
      "averageFitness": 1.0,
      "average_trace_fitness": 1.0,
      "percFitTraces": 100.0,
      "percentage_of_fitting_traces": 100.0
    },
    "fscore": 0.9924541245069456,
    "generalization": 0.9583762509847045,
    "metricsAverageWeight": 0.9374622851209187,
    "precision": 0.9850212765957447,
    "precision_alignments": 0.9850212765957447,
    "simplicity": 0.8064516129032256
  }
}