{
  "FULL": {
    "entropia_precision": "nan",
    "entropia_recall": "nan",
    "fitness": {
      "average_trace_fitness": 1.0,
      "log_fitness": 1.0,
      "perc_fit_traces": 100.0,
      "percentage_of_fitting_traces": 100.0
    },
    "fitness_alignments": {
      "averageFitness": 1.0,
      "average_trace_fitness": 1.0,
      "percFitTraces": 100.0,
      "percentage_of_fitting_traces": 100.0
    },
    "fscore": 0.6406045489343838,
    "generalization": 0.9700871607854473,
    "metricsAverageWeight": 0.7889037772098207,
    "precision": 0.47124223376812124,
    "precision_alignments": 0.47124223376812124,
    "simplicity": 0.7142857142857143
  },
  "easy_soundness": true,
  "sound": true
}