{
  "FULL": {
    "entropia_precision": 0.996740748285005,
    "entropia_recall": 0.948339903893492,
    "fitness": {
      "average_trace_fitness": 0.9660615213787537,
      "log_fitness": 0.9255281690140845,
      "perc_fit_traces": 82.0,
      "percentage_of_fitting_traces": 82.0
    },
    "fitness_alignments": {
      "averageFitness": 0.395,
      "average_trace_fitness": 0.395,
      "percFitTraces": 82.0,
      "percentage_of_fitting_traces": 82.0
    },
    "fscore": 0.9599561963734169,
    "generalization": 0.9506341980928961,
    "metricsAverageWeight": 0.9030843270370705,
    "precision": 0.9970445062586927,
    "precision_alignments": 0.9970445062586927,
    "simplicity": 0.7391304347826086
  },
  "easy_soundness": true,
  "sound": true
}