{
  "FULL": {
    "entropia_precision": 0.9935316731071604,
    "entropia_recall": 0.96658144373258,
    "fitness": {
      "average_trace_fitness": 0.9600000000000023,
      "log_fitness": 0.9722338058343896,
      "perc_fit_traces": 85.0,
      "percentage_of_fitting_traces": 85.0
    },
    "fitness_alignments": {
      "averageFitness": 0.9625,
      "average_trace_fitness": 0.9625,
      "percFitTraces": 85.0,
      "percentage_of_fitting_traces": 85.0
    },
    "fscore": 0.9832287093776028,
    "generalization": 0.9404355665014175,
    "metricsAverageWeight": 0.9257657194510733,
    "precision": 0.994475138121547,
    "precision_alignments": 0.994475138121547,
    "simplicity": 0.7959183673469388
  },
  "easy_soundness": true,
  "sound": true
}