{
  "FULL": {
    "entropia_precision": 0.9626425286533145,
    "entropia_recall": 0.95662846376317,
    "fitness": {
      "average_trace_fitness": 0.9801666666666712,
      "log_fitness": 0.9831085876508162,
      "perc_fit_traces": 88.1,
      "percentage_of_fitting_traces": 88.1
    },
    "fitness_alignments": {
      "averageFitness": 0.97025,
      "average_trace_fitness": 0.97025,
      "percFitTraces": 88.1,
      "percentage_of_fitting_traces": 88.1
    },
    "fscore": 0.985213721832842,
    "generalization": 0.9418753013955374,
    "metricsAverageWeight": 0.9171023352117171,
    "precision": 0.9873278908249056,
    "precision_alignments": 0.9873278908249056,
    "simplicity": 0.7560975609756097
  },
  "easy_soundness": true,
  "sound": true
}