{
  "easy_soundness": false,
  "filename": "/mnt/c/Users/s140511/tue/thesis/thesis_data/process_trees_complex_ws/predictions/1548_gcn_ep100b_cc.json",
  "full": {
    "entropia_precision": "nan",
    "entropia_recall": "nan",
    "fitness": {
      "average_trace_fitness": 0.8122338590889666,
      "log_fitness": 0.8008543531326282,
      "perc_fit_traces": 0.0,
      "percentage_of_fitting_traces": 0.0
    },
    "fscore": 0.8894160171693212,
    "generalization": 0.8098745753064189,
    "metricsAverageWeight": 0.8693488987764285,
    "precision": 1.0,
    "simplicity": 0.8666666666666667
  },
  "sound": false,
  "top 30": {
    "fitness": {
      "average_trace_fitness": 0.8122338590889666,
      "log_fitness": 0.8008543531326282,
      "perc_fit_traces": 0.0,
      "percentage_of_fitting_traces": 0.0
    },
    "fscore": 0.8894160171693212,
    "generalization": 0.8098745753064189,
    "metricsAverageWeight": 0.8693488987764285,
    "precision": 1.0,
    "simplicity": 0.8666666666666667
  }
}