{
  "FULL": {
    "fitness": {
      "average_trace_fitness": 0.8810388952414439,
      "log_fitness": 0.8807450425028247,
      "perc_fit_traces": 0.0,
      "percentage_of_fitting_traces": 0.0
    },
    "fscore": 0.8150925396709163,
    "generalization": 0.9671232314794705,
    "metricsAverageWeight": 0.8693462016441653,
    "precision": 0.7585487906588824,
    "simplicity": 0.8709677419354838
  }
}