{
  "FULL": {
    "fitness": {
      "average_trace_fitness": 0.9311399899392357,
      "log_fitness": 0.9330745549457904,
      "perc_fit_traces": 0.0,
      "percentage_of_fitting_traces": 0.0
    },
    "fscore": 0.8292060511010992,
    "generalization": 0.8811274255196603,
    "metricsAverageWeight": 0.8400870316528992,
    "precision": 0.7461461461461462,
    "simplicity": 0.8
  }
}