{
  "FULL": {
    "fitness": {
      "average_trace_fitness": 0.9666735554168817,
      "log_fitness": 0.9675871904576689,
      "perc_fit_traces": 0.0,
      "percentage_of_fitting_traces": 0.0
    },
    "fscore": 0.9818048417262097,
    "generalization": 0.9679042850237924,
    "metricsAverageWeight": 0.932984506418485,
    "precision": 0.9964465501924785,
    "simplicity": 0.8
  },
  "Top 30": {
    "fitness": {
      "average_trace_fitness": 0.9639849536408737,
      "log_fitness": 0.9641488779419813,
      "perc_fit_traces": 0.0,
      "percentage_of_fitting_traces": 0.0
    },
    "fscore": 0.9409471095049365,
    "generalization": 0.9560200845573946,
    "metricsAverageWeight": 0.9097511852533342,
    "precision": 0.9188357785139611,
    "simplicity": 0.8
  }
}