{
  "FULL": {
    "fitness": {
      "average_trace_fitness": 0.9076952006326934,
      "log_fitness": 0.9155559304875991,
      "perc_fit_traces": 49.2,
      "percentage_of_fitting_traces": 49.2
    },
    "fitness_alignments": {
      "averageFitness": 0.4246666666666687,
      "average_trace_fitness": 0.4246666666666687,
      "percFitTraces": 49.2,
      "percentage_of_fitting_traces": 49.2
    },
    "fscore": 0.8877998691763878,
    "generalization": 0.9573125271154761,
    "metricsAverageWeight": 0.8654545960840363,
    "precision": 0.8616771994603423,
    "precision_alignments": 0.8616771994603423,
    "simplicity": 0.7272727272727273
  },
  "Top 30": {
    "fitness": {
      "average_trace_fitness": 0.9081517857142788,
      "log_fitness": 0.8874223602484472,
      "perc_fit_traces": 45.0,
      "percentage_of_fitting_traces": 45.0
    },
    "fitness_alignments": {
      "averageFitness": 0.4941666666666692,
      "average_trace_fitness": 0.4941666666666692,
      "percFitTraces": 45.0,
      "percentage_of_fitting_traces": 45.0
    },
    "fscore": 0.8538292264447471,
    "generalization": 0.9292978821260837,
    "metricsAverageWeight": 0.8416699038208577,
    "precision": 0.8226866456361724,
    "precision_alignments": 0.8226866456361724,
    "simplicity": 0.7272727272727273
  }
}