{
  "FULL": {
    "fitness": {
      "average_trace_fitness": 0.9634197751322698,
      "log_fitness": 0.9192560175054705,
      "perc_fit_traces": 64.4,
      "percentage_of_fitting_traces": 64.4
    },
    "fitness_alignments": {
      "averageFitness": -1.188,
      "average_trace_fitness": -1.188,
      "percFitTraces": 64.4,
      "percentage_of_fitting_traces": 64.4
    },
    "fscore": 0.9579295405312963,
    "generalization": 0.9467584626616906,
    "metricsAverageWeight": 0.8755945291326993,
    "precision": 1.0,
    "precision_alignments": 1.0,
    "simplicity": 0.6363636363636362
  },
  "Top 30": {
    "fitness": {
      "average_trace_fitness": 0.9657734037718647,
      "log_fitness": 0.9259708737864077,
      "perc_fit_traces": 65.84867075664621,
      "percentage_of_fitting_traces": 65.84867075664621
    },
    "fitness_alignments": {
      "averageFitness": -0.9304703476482618,
      "average_trace_fitness": -0.9304703476482618,
      "percFitTraces": 65.84867075664621,
      "percentage_of_fitting_traces": 65.84867075664621
    },
    "fscore": 0.9615626969124134,
    "generalization": 0.943680603877929,
    "metricsAverageWeight": 0.8765037785069932,
    "precision": 1.0,
    "precision_alignments": 1.0,
    "simplicity": 0.6363636363636362
  }
}