{
  "FULL": {
    "entropia_precision": "nan",
    "entropia_recall": "nan",
    "fitness": {
      "average_trace_fitness": 0.9132936216561186,
      "log_fitness": 0.9166944351882707,
      "perc_fit_traces": 0.0,
      "percentage_of_fitting_traces": 0.0
    },
    "fscore": 0.8509837983117172,
    "generalization": 0.8698499334551322,
    "metricsAverageWeight": 0.8374596855286136,
    "precision": 0.7940636042402827,
    "simplicity": 0.7692307692307694
  },
  "easy_soundness": false,
  "sound": false
}