{
  "FULL": {
    "fitness": {
      "average_trace_fitness": 1.0,
      "log_fitness": 1.0,
      "perc_fit_traces": 100.0,
      "percentage_of_fitting_traces": 100.0
    },
    "fitness_alignments": {
      "averageFitness": 1.0,
      "average_trace_fitness": 1.0,
      "percFitTraces": 100.0,
      "percentage_of_fitting_traces": 100.0
    },
    "fscore": 0.9735097236762793,
    "generalization": 0.9593836662516321,
    "metricsAverageWeight": 0.9188030561754166,
    "precision": 0.9483866979849178,
    "precision_alignments": 0.9483866979849178,
    "simplicity": 0.7674418604651162
  }
}