{
  "FULL": {
    "entropia_precision": 0.918201560180669,
    "entropia_recall": 0.939262400139111,
    "fitness": {
      "average_trace_fitness": 0.9886131983096255,
      "log_fitness": 0.9820170435482789,
      "perc_fit_traces": 73.2,
      "percentage_of_fitting_traces": 73.2
    },
    "fitness_alignments": {
      "averageFitness": 0.732,
      "average_trace_fitness": 0.732,
      "percFitTraces": 73.2,
      "percentage_of_fitting_traces": 73.2
    },
    "fscore": 0.9702051172578161,
    "generalization": 0.9585550467205889,
    "metricsAverageWeight": 0.9216200249178076,
    "precision": 0.9586739668491713,
    "precision_alignments": 0.9586739668491713,
    "simplicity": 0.7872340425531915
  },
  "easy_soundness": true,
  "sound": true
}