{
  "easy_soundness": true,
  "filename": "/mnt/c/Users/s140511/tue/thesis/thesis_data/process_trees_complex_ws/predictions/1556_gcn_ep100b_cc.json",
  "full": {
    "fitness": {
      "average_trace_fitness": 0.9776460411736899,
      "log_fitness": 0.9559615835090185,
      "perc_fit_traces": 63.5,
      "percentage_of_fitting_traces": 63.5
    },
    "fitness_alignments": {
      "averageFitness": -0.02,
      "average_trace_fitness": -0.02,
      "percFitTraces": 63.5,
      "percentage_of_fitting_traces": 63.5
    },
    "fscore": 0.9673117464733416,
    "generalization": 0.9603829503790414,
    "metricsAverageWeight": 0.8934626580239292,
    "precision": 0.9789346696362287,
    "precision_alignments": 0.9789346696362287,
    "simplicity": 0.6785714285714285
  },
  "sound": false,
  "top 30": {
    "fitness": {
      "average_trace_fitness": 0.9878818181818195,
      "log_fitness": 0.9723979298447384,
      "perc_fit_traces": 80.0,
      "percentage_of_fitting_traces": 80.0
    },
    "fitness_alignments": {
      "averageFitness": 0.5773333333333334,
      "average_trace_fitness": 0.5773333333333334,
      "percFitTraces": 80.0,
      "percentage_of_fitting_traces": 80.0
    },
    "fscore": 0.9761315471220066,
    "generalization": 0.9267697380657024,
    "metricsAverageWeight": 0.8894082606427828,
    "precision": 0.9798939460892621,
    "precision_alignments": 0.9798939460892621,
    "simplicity": 0.6785714285714285
  }
}