{
  "FULL": {
    "fitness": {
      "average_trace_fitness": 0.9632393460705898,
      "log_fitness": 0.9644633972992183,
      "perc_fit_traces": 0.0,
      "percentage_of_fitting_traces": 0.0
    },
    "fscore": 0.9359926905508178,
    "generalization": 0.8863287207857249,
    "metricsAverageWeight": 0.8899867001631159,
    "precision": 0.9091546825675202,
    "simplicity": 0.8
  },
  "Top 30": {
    "fitness": {
      "average_trace_fitness": 0.9626484133021725,
      "log_fitness": 0.9635448444173276,
      "perc_fit_traces": 0.0,
      "percentage_of_fitting_traces": 0.0
    },
    "fscore": 0.9280302420713537,
    "generalization": 0.8852890105889205,
    "metricsAverageWeight": 0.8859686108849969,
    "precision": 0.8950405885337392,
    "simplicity": 0.8
  }
}