{
  "FULL": {
    "fitness": {
      "average_trace_fitness": 0.9311229731079232,
      "log_fitness": 0.9260492304925261,
      "perc_fit_traces": 24.7,
      "percentage_of_fitting_traces": 24.7
    },
    "fscore": 0.6875751438939187,
    "generalization": 0.9089515673185398,
    "metricsAverageWeight": 0.767521054931807,
    "precision": 0.5467717336044738,
    "simplicity": 0.6883116883116883
  }
}