{
  "easy_soundness": true,
  "filename": "/mnt/c/Users/s140511/tue/thesis/thesis_data/process_trees_complex_ws/predictions/1562_gcn_ep100b_cca.json",
  "full": {
    "entropia_precision": 0.0,
    "entropia_recall": 0.0,
    "fitness": {
      "average_trace_fitness": 0.9010374057315104,
      "log_fitness": 0.8992986177060251,
      "perc_fit_traces": 0.0,
      "percentage_of_fitting_traces": 0.0
    },
    "fitness_alignments": {
      "averageFitness": 0.8641333333333171,
      "average_trace_fitness": 0.8641333333333171,
      "log_fitness": 0.8641218117091772,
      "percFitTraces": 0.0,
      "percentage_of_fitting_traces": 0.0
    },
    "fscore": 0.920782853548808,
    "generalization": 0.9596415667029576,
    "metricsAverageWeight": 0.8623294343504256,
    "precision": 0.9433187294633077,
    "precision_alignments": 0.9433187294633077,
    "simplicity": 0.6470588235294118
  },
  "sound": false,
  "top 65": {
    "fitness": {
      "average_trace_fitness": 0.9020178854183601,
      "log_fitness": 0.90036650612576,
      "perc_fit_traces": 0.0,
      "percentage_of_fitting_traces": 0.0
    },
    "fitness_alignments": {
      "averageFitness": 0.8602739726027318,
      "average_trace_fitness": 0.8602739726027318,
      "log_fitness": 0.8602625024360406,
      "percFitTraces": 0.0,
      "percentage_of_fitting_traces": 0.0
    },
    "fscore": 0.9155499663086814,
    "generalization": 0.954942427089915,
    "metricsAverageWeight": 0.8584055160298278,
    "precision": 0.9312543073742247,
    "precision_alignments": 0.9312543073742247,
    "simplicity": 0.6470588235294118
  }
}