{
  "easy_soundness": true,
  "filename": "/mnt/c/Users/s140511/tue/thesis/thesis_data/process_trees_complex_ws/predictions/1563_gcn_ep100b_cca.json",
  "full": {
    "entropia_precision": 0.9999999999999983,
    "entropia_recall": 1.0,
    "fitness": {
      "average_trace_fitness": 1.0,
      "log_fitness": 1.0,
      "perc_fit_traces": 100.0,
      "percentage_of_fitting_traces": 100.0
    },
    "fitness_alignments": {
      "averageFitness": 1.0,
      "average_trace_fitness": 1.0,
      "log_fitness": 0.9999469101720111,
      "percFitTraces": 100.0,
      "percentage_of_fitting_traces": 100.0
    },
    "fscore": 1.0,
    "generalization": 0.9424715765324589,
    "metricsAverageWeight": 0.9189512274664481,
    "precision": 1.0,
    "precision_alignments": 1.0,
    "simplicity": 0.7333333333333333
  },
  "sound": true,
  "top 7": {
    "fitness": {
      "average_trace_fitness": 1.0,
      "log_fitness": 1.0,
      "perc_fit_traces": 100.0,
      "percentage_of_fitting_traces": 100.0
    },
    "fitness_alignments": {
      "averageFitness": 1.0,
      "average_trace_fitness": 1.0,
      "log_fitness": 0.9999469101720111,
      "percFitTraces": 100.0,
      "percentage_of_fitting_traces": 100.0
    },
    "fscore": 1.0,
    "generalization": 0.9424715765324589,
    "metricsAverageWeight": 0.9189512274664481,
    "precision": 1.0,
    "precision_alignments": 1.0,
    "simplicity": 0.7333333333333333
  }
}