{
  "FULL": {
    "entropia_precision": 0.8751537838142897,
    "entropia_recall": 0.882141303601487,
    "fitness": {
      "average_trace_fitness": 0.9450036001101015,
      "log_fitness": 0.9604939114477495,
      "perc_fit_traces": 48.1,
      "percentage_of_fitting_traces": 48.1
    },
    "fitness_alignments": {
      "averageFitness": 0.8645999999999928,
      "average_trace_fitness": 0.8645999999999928,
      "percFitTraces": 48.1,
      "percentage_of_fitting_traces": 48.1
    },
    "fscore": 0.9623054800635618,
    "generalization": 0.968284474642784,
    "metricsAverageWeight": 0.9248384735284294,
    "precision": 0.9641238951199584,
    "precision_alignments": 0.9641238951199584,
    "simplicity": 0.8064516129032256
  },
  "easy_soundness": true,
  "sound": true
}