{
  "FULL": {
    "fitness": {
      "average_trace_fitness": 1.0,
      "log_fitness": 1.0,
      "perc_fit_traces": 100.0,
      "percentage_of_fitting_traces": 100.0
    },
    "fitness_alignments": {
      "averageFitness": 1.0,
      "average_trace_fitness": 1.0,
      "percFitTraces": 100.0,
      "percentage_of_fitting_traces": 100.0
    },
    "fscore": 0.9759177460008485,
    "generalization": 0.969629279167936,
    "metricsAverageWeight": 0.9289252132480244,
    "precision": 0.952968125548299,
    "precision_alignments": 0.952968125548299,
    "simplicity": 0.7931034482758622
  }
}