{
  "FULL": {
    "fitness": {
      "average_trace_fitness": 1.0,
      "log_fitness": 1.0,
      "perc_fit_traces": 100.0,
      "percentage_of_fitting_traces": 100.0
    },
    "fitness_alignments": {
      "averageFitness": 1.0,
      "average_trace_fitness": 1.0,
      "percFitTraces": 100.0,
      "percentage_of_fitting_traces": 100.0
    },
    "fscore": 0.9840486762045717,
    "generalization": 0.9442784863631573,
    "metricsAverageWeight": 0.9100373663743322,
    "precision": 0.9685982518614439,
    "precision_alignments": 0.9685982518614439,
    "simplicity": 0.7272727272727273
  }
}