{
  "FULL": {
    "fitness": {
      "average_trace_fitness": 1.0,
      "log_fitness": 1.0,
      "perc_fit_traces": 100.0,
      "percentage_of_fitting_traces": 100.0
    },
    "fitness_alignments": {
      "averageFitness": 1.0,
      "average_trace_fitness": 1.0,
      "percFitTraces": 100.0,
      "percentage_of_fitting_traces": 100.0
    },
    "fscore": 0.994343891402715,
    "generalization": 0.9514230036681034,
    "metricsAverageWeight": 0.922543602435586,
    "precision": 0.9887514060742407,
    "precision_alignments": 0.9887514060742407,
    "simplicity": 0.7499999999999999
  }
}