{
  "FULL": {
    "fitness": {
      "average_trace_fitness": 1.0,
      "log_fitness": 1.0,
      "perc_fit_traces": 100.0,
      "percentage_of_fitting_traces": 100.0
    },
    "fitness_alignments": {
      "averageFitness": 1.0,
      "average_trace_fitness": 1.0,
      "percFitTraces": 100.0,
      "percentage_of_fitting_traces": 100.0
    },
    "fscore": 0.9996988858777477,
    "generalization": 0.9692666417758854,
    "metricsAverageWeight": 0.9537046102425172,
    "precision": 0.9993979530403372,
    "precision_alignments": 0.9993979530403372,
    "simplicity": 0.8461538461538463
  }
}