{
  "FULL": {
    "entropia_precision": 0.9704383730591211,
    "entropia_recall": 1.000305818065945,
    "fitness": {
      "average_trace_fitness": 1.0,
      "log_fitness": 1.0,
      "perc_fit_traces": 100.0,
      "percentage_of_fitting_traces": 100.0
    },
    "fitness_alignments": {
      "averageFitness": 1.0,
      "average_trace_fitness": 1.0,
      "percFitTraces": 100.0,
      "percentage_of_fitting_traces": 100.0
    },
    "fscore": 0.9927997320830543,
    "generalization": 0.9735386746769737,
    "metricsAverageWeight": 0.9564769379959267,
    "precision": 0.9857024106400665,
    "precision_alignments": 0.9857024106400665,
    "simplicity": 0.8666666666666667
  },
  "easy_soundness": true,
  "sound": true
}