{
  "FULL": {
    "entropia_precision": 0.9925923519347283,
    "entropia_recall": 0.999999999999998,
    "fitness": {
      "average_trace_fitness": 1.0,
      "log_fitness": 1.0,
      "perc_fit_traces": 100.0,
      "percentage_of_fitting_traces": 100.0
    },
    "fitness_alignments": {
      "averageFitness": 1.0,
      "average_trace_fitness": 1.0,
      "percFitTraces": 100.0,
      "percentage_of_fitting_traces": 100.0
    },
    "fscore": 0.9998637787767335,
    "generalization": 0.9515232488584346,
    "metricsAverageWeight": 0.9394256141056289,
    "precision": 0.9997275946608554,
    "precision_alignments": 0.9997275946608554,
    "simplicity": 0.8064516129032256
  },
  "easy_soundness": true,
  "sound": true
}