{
  "easy_soundness": true,
  "filename": "/mnt/c/Users/s140511/tue/thesis/thesis_data/process_trees_complex_ws/predictions/1572_gcn_ep100b_cca.json",
  "full": {
    "entropia_precision": 1.0000000001111564,
    "entropia_recall": 1.000000000010309,
    "fitness": {
      "average_trace_fitness": 1.0,
      "log_fitness": 1.0,
      "perc_fit_traces": 100.0,
      "percentage_of_fitting_traces": 100.0
    },
    "fitness_alignments": {
      "averageFitness": 1.0,
      "average_trace_fitness": 1.0,
      "log_fitness": 0.999976451749635,
      "percFitTraces": 100.0,
      "percentage_of_fitting_traces": 100.0
    },
    "fscore": 1.0,
    "generalization": 0.9583274149966923,
    "metricsAverageWeight": 0.9441273082946275,
    "precision": 1.0,
    "precision_alignments": 1.0,
    "simplicity": 0.8181818181818181
  },
  "sound": true,
  "top 8": {
    "fitness": {
      "average_trace_fitness": 1.0,
      "log_fitness": 1.0,
      "perc_fit_traces": 100.0,
      "percentage_of_fitting_traces": 100.0
    },
    "fitness_alignments": {
      "averageFitness": 1.0,
      "average_trace_fitness": 1.0,
      "log_fitness": 0.999976451749635,
      "percFitTraces": 100.0,
      "percentage_of_fitting_traces": 100.0
    },
    "fscore": 1.0,
    "generalization": 0.9583274149966923,
    "metricsAverageWeight": 0.9441273082946275,
    "precision": 1.0,
    "precision_alignments": 1.0,
    "simplicity": 0.8181818181818181
  }
}