{
  "FULL": {
    "fitness": {
      "average_trace_fitness": 0.9107797619047755,
      "log_fitness": 0.9172600308887545,
      "perc_fit_traces": 50.7,
      "percentage_of_fitting_traces": 50.7
    },
    "fitness_alignments": {
      "averageFitness": 0.87675,
      "average_trace_fitness": 0.87675,
      "percFitTraces": 50.7,
      "percentage_of_fitting_traces": 50.7
    },
    "fscore": 0.9499835109968848,
    "generalization": 0.9563465500277586,
    "metricsAverageWeight": 0.9192291510566342,
    "precision": 0.9851282051282051,
    "precision_alignments": 0.9851282051282051,
    "simplicity": 0.8181818181818181
  }
}