{
  "FULL": {
    "entropia_precision": 0.35446974441245066,
    "entropia_recall": 0.955967040664933,
    "fitness": {
      "average_trace_fitness": 0.9895759046234487,
      "log_fitness": 0.9846401343963666,
      "perc_fit_traces": 82.2,
      "percentage_of_fitting_traces": 82.2
    },
    "fitness_alignments": {
      "averageFitness": 0.813,
      "average_trace_fitness": 0.813,
      "percFitTraces": 82.2,
      "percentage_of_fitting_traces": 82.2
    },
    "fscore": 0.5195640016454468,
    "generalization": 0.9285739992868972,
    "metricsAverageWeight": 0.7375774914760067,
    "precision": 0.3528853059049737,
    "precision_alignments": 0.3528853059049737,
    "simplicity": 0.6842105263157894
  },
  "easy_soundness": true,
  "sound": true
}