{
  "FULL": {
    "entropia_precision": null,
    "entropia_recall": null,
    "fitness": {
      "average_trace_fitness": 0.9655815191316334,
      "log_fitness": 0.947173474983175,
      "perc_fit_traces": 48.7,
      "percentage_of_fitting_traces": 48.7
    },
    "fitness_alignments": {
      "averageFitness": -1.054,
      "average_trace_fitness": -1.054,
      "percFitTraces": 48.7,
      "percentage_of_fitting_traces": 48.7
    },
    "fscore": 0.7322693098413088,
    "generalization": 0.8536665227604117,
    "metricsAverageWeight": 0.7396664077517429,
    "precision": 0.5968500235072873,
    "precision_alignments": 0.5968500235072873,
    "simplicity": 0.5609756097560976
  },
  "easy_soundness": true,
  "sound": false
}