{
  "FULL": {
    "fitness": {
      "average_trace_fitness": 0.9845028677381804,
      "log_fitness": 0.9777527682116592,
      "perc_fit_traces": 70.4,
      "percentage_of_fitting_traces": 70.4
    },
    "fitness_alignments": {
      "averageFitness": -0.565,
      "average_trace_fitness": -0.565,
      "percFitTraces": 70.4,
      "percentage_of_fitting_traces": 70.4
    },
    "fscore": 0.8919067380165897,
    "generalization": 0.9656545961130034,
    "metricsAverageWeight": 0.8694028830624403,
    "precision": 0.8199184536393839,
    "precision_alignments": 0.8199184536393839,
    "simplicity": 0.7142857142857143
  }
}