{
  "FULL": {
    "entropia_precision": "nan",
    "entropia_recall": "nan",
    "fitness": {
      "average_trace_fitness": 0.9035689586278751,
      "log_fitness": 0.917844232665133,
      "perc_fit_traces": 0.0,
      "percentage_of_fitting_traces": 0.0
    },
    "fitness_alignments": {
      "averageFitness": 0.5016666666666659,
      "average_trace_fitness": 0.5016666666666659,
      "percFitTraces": 0.0,
      "percentage_of_fitting_traces": 0.0
    },
    "fscore": 0.9124591235977938,
    "generalization": 0.9057359524297564,
    "metricsAverageWeight": 0.8644974371393894,
    "precision": 0.907136836189941,
    "precision_alignments": 0.907136836189941,
    "simplicity": 0.7272727272727273
  },
  "easy_soundness": true,
  "sound": true
}