{
  "FULL": {
    "fitness": {
      "average_trace_fitness": 1.0,
      "log_fitness": 1.0,
      "perc_fit_traces": 100.0,
      "percentage_of_fitting_traces": 100.0
    },
    "fitness_alignments": {
      "averageFitness": 1.0,
      "average_trace_fitness": 1.0,
      "percFitTraces": 100.0,
      "percentage_of_fitting_traces": 100.0
    },
    "fscore": 0.9826834656953484,
    "generalization": 0.9641216466719796,
    "metricsAverageWeight": 0.9173021322964992,
    "precision": 0.9659564477314081,
    "precision_alignments": 0.9659564477314081,
    "simplicity": 0.7391304347826086
  }
}