{
  "FULL": {
    "entropia_precision": "nan",
    "entropia_recall": "nan",
    "fitness": {
      "average_trace_fitness": 0.9224612360383129,
      "log_fitness": 0.9321013703801115,
      "perc_fit_traces": 38.7,
      "percentage_of_fitting_traces": 38.7
    },
    "fitness_alignments": {
      "averageFitness": 0.7380000000000082,
      "average_trace_fitness": 0.7380000000000082,
      "percFitTraces": 38.7,
      "percentage_of_fitting_traces": 38.7
    },
    "fscore": 0.9514469713682978,
    "generalization": 0.9612838639378122,
    "metricsAverageWeight": 0.9056434033397267,
    "precision": 0.9716126214652254,
    "precision_alignments": 0.9716126214652254,
    "simplicity": 0.7575757575757577
  },
  "easy_soundness": true,
  "sound": true
}