{
  "easy_soundness": true,
  "filename": "/mnt/c/Users/s140511/tue/thesis/thesis_data/process_trees_complex_ws/predictions/1577_gcn_ep100b_cc.json",
  "full": {
    "fitness": {
      "average_trace_fitness": 1.0,
      "log_fitness": 1.0,
      "perc_fit_traces": 100.0,
      "percentage_of_fitting_traces": 100.0
    },
    "fitness_alignments": {
      "averageFitness": 1.0,
      "average_trace_fitness": 1.0,
      "percFitTraces": 100.0,
      "percentage_of_fitting_traces": 100.0
    },
    "fscore": 0.9994809635758556,
    "generalization": 0.9645977664445842,
    "metricsAverageWeight": 0.9503495174880605,
    "precision": 0.9989624656698199,
    "precision_alignments": 0.9989624656698199,
    "simplicity": 0.8378378378378379
  },
  "sound": true,
  "top 30": {
    "fitness": {
      "average_trace_fitness": 1.0,
      "log_fitness": 1.0,
      "perc_fit_traces": 100.0,
      "percentage_of_fitting_traces": 100.0
    },
    "fitness_alignments": {
      "averageFitness": 1.0,
      "average_trace_fitness": 1.0,
      "percFitTraces": 100.0,
      "percentage_of_fitting_traces": 100.0
    },
    "fscore": 0.9960561378575236,
    "generalization": 0.9622979034204684,
    "metricsAverageWeight": 0.9480697507166151,
    "precision": 0.992143261608154,
    "precision_alignments": 0.992143261608154,
    "simplicity": 0.8378378378378379
  }
}