{
  "FULL": {
    "fitness": {
      "average_trace_fitness": 1.0,
      "log_fitness": 1.0,
      "perc_fit_traces": 100.0,
      "percentage_of_fitting_traces": 100.0
    },
    "fitness_alignments": {
      "averageFitness": 1.0,
      "average_trace_fitness": 1.0,
      "percFitTraces": 100.0,
      "percentage_of_fitting_traces": 100.0
    },
    "fscore": 0.9994809635758556,
    "generalization": 0.9640163115286254,
    "metricsAverageWeight": 0.9452901488450658,
    "precision": 0.9989624656698199,
    "precision_alignments": 0.9989624656698199,
    "simplicity": 0.8181818181818181
  },
  "Top 30": {
    "fitness": {
      "average_trace_fitness": 1.0,
      "log_fitness": 1.0,
      "perc_fit_traces": 100.0,
      "percentage_of_fitting_traces": 100.0
    },
    "fitness_alignments": {
      "averageFitness": 1.0,
      "average_trace_fitness": 1.0,
      "percFitTraces": 100.0,
      "percentage_of_fitting_traces": 100.0
    },
    "fscore": 0.9960561378575236,
    "generalization": 0.9615808008732719,
    "metricsAverageWeight": 0.942976470165811,
    "precision": 0.992143261608154,
    "precision_alignments": 0.992143261608154,
    "simplicity": 0.8181818181818181
  }
}