{
  "FULL": {
    "fitness": {
      "average_trace_fitness": 0.948555374896093,
      "log_fitness": 0.9463016678752719,
      "perc_fit_traces": 0.0,
      "percentage_of_fitting_traces": 0.0
    },
    "fscore": 0.5569525511580673,
    "generalization": 0.8107760513803353,
    "metricsAverageWeight": 0.7297793948908077,
    "precision": 0.3945979998425073,
    "simplicity": 0.7674418604651162
  }
}