{
  "FULL": {
    "fitness": {
      "average_trace_fitness": 1.0,
      "log_fitness": 1.0,
      "perc_fit_traces": 100.0,
      "percentage_of_fitting_traces": 100.0
    },
    "fitness_alignments": {
      "averageFitness": 1.0,
      "average_trace_fitness": 1.0,
      "percFitTraces": 100.0,
      "percentage_of_fitting_traces": 100.0
    },
    "fscore": 0.8369661438760001,
    "generalization": 0.9714704024133924,
    "metricsAverageWeight": 0.8602776994084952,
    "precision": 0.7196403952205883,
    "precision_alignments": 0.7196403952205883,
    "simplicity": 0.7499999999999999
  }
}