{
  "FULL": {
    "fitness": {
      "average_trace_fitness": 1.0,
      "log_fitness": 1.0,
      "perc_fit_traces": 100.0,
      "percentage_of_fitting_traces": 100.0
    },
    "fitness_alignments": {
      "averageFitness": 1.0,
      "average_trace_fitness": 1.0,
      "percFitTraces": 100.0,
      "percentage_of_fitting_traces": 100.0
    },
    "fscore": 0.9954516667626231,
    "generalization": 0.9464431405510823,
    "metricsAverageWeight": 0.9287913597977124,
    "precision": 0.9909445208619899,
    "precision_alignments": 0.9909445208619899,
    "simplicity": 0.7777777777777779
  }
}