{
  "FULL": {
    "fitness": {
      "average_trace_fitness": 0.9657457506185498,
      "log_fitness": 0.9440993788819876,
      "perc_fit_traces": 80.1,
      "percentage_of_fitting_traces": 80.1
    },
    "fitness_alignments": {
      "averageFitness": 0.782000000000001,
      "average_trace_fitness": 0.782000000000001,
      "percFitTraces": 80.1,
      "percentage_of_fitting_traces": 80.1
    },
    "fscore": 0.9710265433927933,
    "generalization": 0.9512148575290562,
    "metricsAverageWeight": 0.9282577165478898,
    "precision": 0.9995348115986975,
    "precision_alignments": 0.9995348115986975,
    "simplicity": 0.8181818181818181
  }
}