{
  "FULL": {
    "entropia_precision": 0.9736810377485576,
    "entropia_recall": 0.906610020005097,
    "fitness": {
      "average_trace_fitness": 0.646,
      "log_fitness": 0.9474465558194775,
      "perc_fit_traces": 64.6,
      "percentage_of_fitting_traces": 64.6
    },
    "fitness_alignments": {
      "averageFitness": 0.469,
      "average_trace_fitness": 0.469,
      "percFitTraces": 64.6,
      "percentage_of_fitting_traces": 64.6
    },
    "fscore": 0.9591458678838866,
    "generalization": 0.9475131917834504,
    "metricsAverageWeight": 0.9077008386266918,
    "precision": 0.9711377245508982,
    "precision_alignments": 0.9711377245508982,
    "simplicity": 0.7647058823529413
  },
  "easy_soundness": true,
  "sound": true
}