{
  "FULL": {
    "fitness": {
      "average_trace_fitness": 1.0,
      "log_fitness": 1.0,
      "perc_fit_traces": 100.0,
      "percentage_of_fitting_traces": 100.0
    },
    "fitness_alignments": {
      "averageFitness": 1.0,
      "average_trace_fitness": 1.0,
      "percFitTraces": 100.0,
      "percentage_of_fitting_traces": 100.0
    },
    "fscore": 0.9907278038867013,
    "generalization": 0.9682764093110211,
    "metricsAverageWeight": 0.9274755961611305,
    "precision": 0.9816259753335012,
    "precision_alignments": 0.9816259753335012,
    "simplicity": 0.7599999999999999
  }
}