{
  "FULL": {
    "entropia_precision": 0.9921823180643266,
    "entropia_recall": 0.936730543805871,
    "fitness": {
      "average_trace_fitness": 0.971655896677519,
      "log_fitness": 0.9651793006162299,
      "perc_fit_traces": 67.8,
      "percentage_of_fitting_traces": 67.8
    },
    "fitness_alignments": {
      "averageFitness": 0.8659999999999902,
      "average_trace_fitness": 0.8659999999999902,
      "percFitTraces": 67.8,
      "percentage_of_fitting_traces": 67.8
    },
    "fscore": 0.9814493253147653,
    "generalization": 0.9671943600229858,
    "metricsAverageWeight": 0.930938597878908,
    "precision": 0.9982772826005543,
    "precision_alignments": 0.9982772826005543,
    "simplicity": 0.7931034482758622
  },
  "easy_soundness": true,
  "sound": true
}