{
  "FULL": {
    "entropia_precision": 0.9945130434520605,
    "entropia_recall": 1.0016544700618,
    "fitness": {
      "average_trace_fitness": 1.0,
      "log_fitness": 1.0,
      "perc_fit_traces": 100.0,
      "percentage_of_fitting_traces": 100.0
    },
    "fitness_alignments": {
      "averageFitness": 1.0,
      "average_trace_fitness": 1.0,
      "percFitTraces": 100.0,
      "percentage_of_fitting_traces": 100.0
    },
    "fscore": 0.9978499667722138,
    "generalization": 0.9740218869799309,
    "metricsAverageWeight": 0.9661169720200893,
    "precision": 0.9957091589951631,
    "precision_alignments": 0.9957091589951631,
    "simplicity": 0.8947368421052632
  },
  "easy_soundness": true,
  "sound": true
}