{
  "FULL": {
    "entropia_precision": NaN,
    "entropia_recall": 0.0,
    "fitness": {
      "average_trace_fitness": 1.0,
      "log_fitness": 1.0,
      "perc_fit_traces": 100.0,
      "percentage_of_fitting_traces": 100.0
    },
    "fitness_alignments": {
      "averageFitness": 1.0,
      "average_trace_fitness": 1.0,
      "percFitTraces": 100.0,
      "percentage_of_fitting_traces": 100.0
    },
    "fscore": 0.9696714799756998,
    "generalization": 0.9653685378298139,
    "metricsAverageWeight": 0.8976768777925692,
    "precision": 0.9411284470246735,
    "precision_alignments": 0.9411284470246735,
    "simplicity": 0.6842105263157894
  },
  "easy_soundness": true,
  "sound": false
}