{
  "FULL": {
    "entropia_precision": 0.9320283359426859,
    "entropia_recall": 0.843596253854237,
    "fitness": {
      "average_trace_fitness": 0.9449924671849275,
      "log_fitness": 0.945313418793367,
      "perc_fit_traces": 53.5,
      "percentage_of_fitting_traces": 53.5
    },
    "fitness_alignments": {
      "averageFitness": 0.88375,
      "average_trace_fitness": 0.88375,
      "percFitTraces": 53.5,
      "percentage_of_fitting_traces": 53.5
    },
    "fscore": 0.9670893501078798,
    "generalization": 0.9644552994405413,
    "metricsAverageWeight": 0.9193596698250239,
    "precision": 0.9898921832884097,
    "precision_alignments": 0.9898921832884097,
    "simplicity": 0.7777777777777779
  },
  "easy_soundness": true,
  "sound": true
}