{
  "FULL": {
    "fitness": {
      "average_trace_fitness": 0.9017476836624356,
      "log_fitness": 0.9093711297383029,
      "perc_fit_traces": 0.0,
      "percentage_of_fitting_traces": 0.0
    },
    "fitness_alignments": {
      "averageFitness": -0.6966666666666665,
      "average_trace_fitness": -0.6966666666666665,
      "percFitTraces": 0.0,
      "percentage_of_fitting_traces": 0.0
    },
    "fscore": 0.8546767568816078,
    "generalization": 0.965644474507703,
    "metricsAverageWeight": 0.8676694073159268,
    "precision": 0.8061883408071748,
    "precision_alignments": 0.8061883408071748,
    "simplicity": 0.7894736842105263
  }
}