{
  "easy_soundness": true,
  "filename": "/mnt/c/Users/s140511/tue/thesis/thesis_data/process_trees_complex_ws/predictions/1589_gcn_ep100b_cc.json",
  "full": {
    "fitness": {
      "average_trace_fitness": 1.0,
      "log_fitness": 1.0,
      "perc_fit_traces": 100.0,
      "percentage_of_fitting_traces": 100.0
    },
    "fitness_alignments": {
      "averageFitness": 1.0,
      "average_trace_fitness": 1.0,
      "percFitTraces": 100.0,
      "percentage_of_fitting_traces": 100.0
    },
    "fscore": 0.9983961951111603,
    "generalization": 0.9668861264285558,
    "metricsAverageWeight": 0.9425338164242435,
    "precision": 0.9967975263651925,
    "precision_alignments": 0.9967975263651925,
    "simplicity": 0.8064516129032256
  },
  "sound": true,
  "top 48": {
    "fitness": {
      "average_trace_fitness": 1.0,
      "log_fitness": 1.0,
      "perc_fit_traces": 100.0,
      "percentage_of_fitting_traces": 100.0
    },
    "fitness_alignments": {
      "averageFitness": 1.0,
      "average_trace_fitness": 1.0,
      "percFitTraces": 100.0,
      "percentage_of_fitting_traces": 100.0
    },
    "fscore": 0.9909531625758674,
    "generalization": 0.9614894694867965,
    "metricsAverageWeight": 0.9375024076180094,
    "precision": 0.9820685480820156,
    "precision_alignments": 0.9820685480820156,
    "simplicity": 0.8064516129032256
  }
}