{
  "FULL": {
    "entropia_precision": 0.536871146426521,
    "entropia_recall": 1.001450682178,
    "fitness": {
      "average_trace_fitness": 0.9997811308069802,
      "log_fitness": 0.9993274363899138,
      "perc_fit_traces": 97.9,
      "percentage_of_fitting_traces": 97.9
    },
    "fitness_alignments": {
      "averageFitness": 0.9927999999999998,
      "average_trace_fitness": 0.9927999999999998,
      "percFitTraces": 97.9,
      "percentage_of_fitting_traces": 97.9
    },
    "fscore": 0.6636535288212113,
    "generalization": 0.9344436836509533,
    "metricsAverageWeight": 0.7795137560310057,
    "precision": 0.4967839040831554,
    "precision_alignments": 0.4967839040831554,
    "simplicity": 0.6875
  },
  "easy_soundness": true,
  "sound": true
}