{
  "FULL": {
    "fitness": {
      "average_trace_fitness": 0.9429414087460448,
      "log_fitness": 0.9454543615557944,
      "perc_fit_traces": 0.0,
      "percentage_of_fitting_traces": 0.0
    },
    "fscore": 0.8280636529032933,
    "generalization": 0.9696620337806094,
    "metricsAverageWeight": 0.8653111599297532,
    "precision": 0.736604434858799,
    "simplicity": 0.8095238095238095
  }
}