{
  "FULL": {
    "fitness": {
      "average_trace_fitness": 1.0,
      "log_fitness": 1.0,
      "perc_fit_traces": 100.0,
      "percentage_of_fitting_traces": 100.0
    },
    "fitness_alignments": {
      "averageFitness": 1.0,
      "average_trace_fitness": 1.0,
      "percFitTraces": 100.0,
      "percentage_of_fitting_traces": 100.0
    },
    "fscore": 0.9953679876479671,
    "generalization": 0.9702920892021133,
    "metricsAverageWeight": 0.9347121388761204,
    "precision": 0.9907786885245902,
    "precision_alignments": 0.9907786885245902,
    "simplicity": 0.7777777777777779
  }
}