{
  "FULL": {
    "entropia_precision": -1.634625891816864,
    "entropia_recall": 1.0,
    "fitness": {
      "average_trace_fitness": 1.0,
      "log_fitness": 1.0,
      "perc_fit_traces": 100.0,
      "percentage_of_fitting_traces": 100.0
    },
    "fitness_alignments": {
      "averageFitness": 1.0,
      "average_trace_fitness": 1.0,
      "percFitTraces": 100.0,
      "percentage_of_fitting_traces": 100.0
    },
    "fscore": 1.0,
    "generalization": 0.9336787775436246,
    "metricsAverageWeight": 0.9093456203118321,
    "precision": 1.0,
    "precision_alignments": 1.0,
    "simplicity": 0.7037037037037037
  },
  "easy_soundness": true,
  "sound": true
}