{
  "easy_soundness": true,
  "filename": "/mnt/c/Users/s140511/tue/thesis/thesis_data/process_trees_complex_ws/predictions/1596_gcn_ep100b_cca.json",
  "full": {
    "entropia_precision": 0.9957758509813828,
    "entropia_recall": 0.938982931196753,
    "fitness": {
      "average_trace_fitness": 0.9598239265256072,
      "log_fitness": 0.9335478282390793,
      "perc_fit_traces": 65.9,
      "percentage_of_fitting_traces": 65.9
    },
    "fitness_alignments": {
      "averageFitness": 0.8538338405367255,
      "average_trace_fitness": 0.8538338405367255,
      "log_fitness": 0.7350522923107281,
      "percFitTraces": 65.9,
      "percentage_of_fitting_traces": 65.9
    },
    "fscore": 0.9655133526864621,
    "generalization": 0.8580069416727119,
    "metricsAverageWeight": 0.8978250792463955,
    "precision": 0.9997455470737914,
    "precision_alignments": 0.9997455470737914,
    "simplicity": 0.8
  },
  "sound": true,
  "top 30": {
    "fitness": {
      "average_trace_fitness": 0.9655339400277871,
      "log_fitness": 0.9461595824011931,
      "perc_fit_traces": 70.33084311632871,
      "percentage_of_fitting_traces": 70.33084311632871
    },
    "fitness_alignments": {
      "averageFitness": 0.8718497262253923,
      "average_trace_fitness": 0.8718497262253923,
      "log_fitness": 0.7757927171278846,
      "percFitTraces": 70.33084311632871,
      "percentage_of_fitting_traces": 70.33084311632871
    },
    "fscore": 0.9720688728707058,
    "generalization": 0.8550459196000857,
    "metricsAverageWeight": 0.9001606493534016,
    "precision": 0.9994370954123276,
    "precision_alignments": 0.9994370954123276,
    "simplicity": 0.8
  }
}