{
  "FULL": {
    "fitness": {
      "average_trace_fitness": 1.0,
      "log_fitness": 1.0,
      "perc_fit_traces": 100.0,
      "percentage_of_fitting_traces": 100.0
    },
    "fitness_alignments": {
      "averageFitness": 1.0,
      "average_trace_fitness": 1.0,
      "percFitTraces": 100.0,
      "percentage_of_fitting_traces": 100.0
    },
    "fscore": 0.9958981612446959,
    "generalization": 0.9605236603215075,
    "metricsAverageWeight": 0.9363642359463561,
    "precision": 0.9918298351880547,
    "precision_alignments": 0.9918298351880547,
    "simplicity": 0.7931034482758622
  }
}