{
  "FULL": {
    "fitness": {
      "average_trace_fitness": 1.0,
      "log_fitness": 1.0,
      "perc_fit_traces": 100.0,
      "percentage_of_fitting_traces": 100.0
    },
    "fitness_alignments": {
      "averageFitness": 1.0,
      "average_trace_fitness": 1.0,
      "percFitTraces": 100.0,
      "percentage_of_fitting_traces": 100.0
    },
    "fscore": 0.9464677997456353,
    "generalization": 0.8058389192105597,
    "metricsAverageWeight": 0.8584861042895061,
    "precision": 0.8983757682177349,
    "precision_alignments": 0.8983757682177349,
    "simplicity": 0.7297297297297298
  }
}