{
  "FULL": {
    "entropia_precision": 0.3192014744232417,
    "entropia_recall": 1.00385233060298,
    "fitness": {
      "average_trace_fitness": 1.0,
      "log_fitness": 1.0,
      "perc_fit_traces": 100.0,
      "percentage_of_fitting_traces": 100.0
    },
    "fitness_alignments": {
      "averageFitness": 1.0,
      "average_trace_fitness": 1.0,
      "percFitTraces": 100.0,
      "percentage_of_fitting_traces": 100.0
    },
    "fscore": 0.45517394769521624,
    "generalization": 0.9683710957128365,
    "metricsAverageWeight": 0.7368064411648807,
    "precision": 0.294644142630897,
    "precision_alignments": 0.294644142630897,
    "simplicity": 0.6842105263157894
  },
  "easy_soundness": true,
  "sound": true
}