{
  "FULL": {
    "fitness": {
      "average_trace_fitness": 0.9999607843137255,
      "log_fitness": 0.9996935335580754,
      "perc_fit_traces": 99.6,
      "percentage_of_fitting_traces": 99.6
    },
    "fitness_alignments": {
      "averageFitness": 0.984,
      "average_trace_fitness": 0.984,
      "percFitTraces": 99.6,
      "percentage_of_fitting_traces": 99.6
    },
    "fscore": 0.9463305110643602,
    "generalization": 0.9700646128232738,
    "metricsAverageWeight": 0.9215789331952255,
    "precision": 0.8983757682177349,
    "precision_alignments": 0.8983757682177349,
    "simplicity": 0.8181818181818181
  }
}