{
  "FULL": {
    "fitness": {
      "average_trace_fitness": 1.0,
      "log_fitness": 1.0,
      "perc_fit_traces": 100.0,
      "percentage_of_fitting_traces": 100.0
    },
    "fitness_alignments": {
      "averageFitness": 1.0,
      "average_trace_fitness": 1.0,
      "percFitTraces": 100.0,
      "percentage_of_fitting_traces": 100.0
    },
    "fscore": 0.9998087771297448,
    "generalization": 0.9532005863895049,
    "metricsAverageWeight": 0.9257045534418461,
    "precision": 0.9996176273778797,
    "precision_alignments": 0.9996176273778797,
    "simplicity": 0.7499999999999999
  }
}