{
  "easy_soundness": false,
  "filename": "/mnt/c/Users/s140511/tue/thesis/thesis_data/process_trees_complex_ws/predictions/1600_gcn_ep100b_cca.json",
  "full": {
    "entropia_precision": "nan",
    "entropia_recall": "nan",
    "fitness": {
      "average_trace_fitness": 0.7668742030799739,
      "log_fitness": 0.7508204998737693,
      "perc_fit_traces": 0.0,
      "percentage_of_fitting_traces": 0.0
    },
    "fscore": 0.8576784426820476,
    "generalization": 0.6470341538601192,
    "metricsAverageWeight": 0.7869636634334721,
    "precision": 1.0,
    "simplicity": 0.7499999999999999
  },
  "sound": false,
  "top 10": {
    "fitness": {
      "average_trace_fitness": 0.7668742030799739,
      "log_fitness": 0.7508204998737693,
      "perc_fit_traces": 0.0,
      "percentage_of_fitting_traces": 0.0
    },
    "fscore": 0.8576784426820476,
    "generalization": 0.6470341538601192,
    "metricsAverageWeight": 0.7869636634334721,
    "precision": 1.0,
    "simplicity": 0.7499999999999999
  }
}