{
  "FULL": {
    "entropia_precision": 0.964489913114649,
    "entropia_recall": 0.99140700530246,
    "fitness": {
      "average_trace_fitness": 1.0,
      "log_fitness": 1.0,
      "perc_fit_traces": 100.0,
      "percentage_of_fitting_traces": 100.0
    },
    "fitness_alignments": {
      "averageFitness": 1.0,
      "average_trace_fitness": 1.0,
      "percFitTraces": 100.0,
      "percentage_of_fitting_traces": 100.0
    },
    "fscore": 0.9699254024342364,
    "generalization": 0.9704199730929044,
    "metricsAverageWeight": 0.9296196345688602,
    "precision": 0.9416069522793109,
    "precision_alignments": 0.9416069522793109,
    "simplicity": 0.8064516129032256
  },
  "easy_soundness": true,
  "sound": true
}