{
  "FULL": {
    "entropia_precision": "nan",
    "entropia_recall": "nan",
    "fitness": {
      "average_trace_fitness": 0.9906370119014968,
      "log_fitness": 0.9787130716309187,
      "perc_fit_traces": 74.5,
      "percentage_of_fitting_traces": 74.5
    },
    "fitness_alignments": {
      "averageFitness": 0.456,
      "average_trace_fitness": 0.456,
      "percFitTraces": 74.5,
      "percentage_of_fitting_traces": 74.5
    },
    "fscore": 0.9672478464076345,
    "generalization": 0.955500426754938,
    "metricsAverageWeight": 0.8975654075286997,
    "precision": 0.9560481317289423,
    "precision_alignments": 0.9560481317289423,
    "simplicity": 0.7000000000000001
  },
  "easy_soundness": true,
  "sound": true
}