{
  "easy_soundness": false,
  "filename": "/mnt/c/Users/s140511/tue/thesis/thesis_data/process_trees_complex_ws/predictions/1604_gcn_ep100b_cca.json",
  "full": {
    "entropia_precision": "nan",
    "entropia_recall": "nan",
    "fitness": {
      "average_trace_fitness": 0.7661728390920798,
      "log_fitness": 0.749441271417929,
      "perc_fit_traces": 0.0,
      "percentage_of_fitting_traces": 0.0
    },
    "fscore": 0.856777856635912,
    "generalization": 0.6471919598148104,
    "metricsAverageWeight": 0.7866583078081848,
    "precision": 1.0,
    "simplicity": 0.7499999999999999
  },
  "sound": false,
  "top 10": {
    "fitness": {
      "average_trace_fitness": 0.7661728390920798,
      "log_fitness": 0.749441271417929,
      "perc_fit_traces": 0.0,
      "percentage_of_fitting_traces": 0.0
    },
    "fscore": 0.856777856635912,
    "generalization": 0.6471919598148104,
    "metricsAverageWeight": 0.7866583078081848,
    "precision": 1.0,
    "simplicity": 0.7499999999999999
  }
}