{
  "FULL": {
    "fitness": {
      "average_trace_fitness": 1.0,
      "log_fitness": 1.0,
      "perc_fit_traces": 100.0,
      "percentage_of_fitting_traces": 100.0
    },
    "fitness_alignments": {
      "averageFitness": 1.0,
      "average_trace_fitness": 1.0,
      "percFitTraces": 100.0,
      "percentage_of_fitting_traces": 100.0
    },
    "fscore": 0.9519017067136327,
    "generalization": 0.9577023064743371,
    "metricsAverageWeight": 0.8998134030302565,
    "precision": 0.9082179723133552,
    "precision_alignments": 0.9082179723133552,
    "simplicity": 0.7333333333333333
  }
}