{
  "FULL": {
    "entropia_precision": "nan",
    "entropia_recall": "nan",
    "fitness": {
      "average_trace_fitness": 0.897917503617697,
      "log_fitness": 0.8889016799696476,
      "perc_fit_traces": 0.0,
      "percentage_of_fitting_traces": 0.0
    },
    "fscore": 0.9239115413446617,
    "generalization": 0.892864557051856,
    "metricsAverageWeight": 0.8569422497571405,
    "precision": 0.961792235691269,
    "simplicity": 0.6842105263157894
  },
  "easy_soundness": true,
  "sound": false
}