{
  "FULL": {
    "entropia_precision": NaN,
    "entropia_recall": 0.0,
    "fitness": {
      "average_trace_fitness": 0.999968748081181,
      "log_fitness": 0.9998693834896553,
      "perc_fit_traces": 99.8,
      "percentage_of_fitting_traces": 99.8
    },
    "fitness_alignments": {
      "averageFitness": 0.9992000000000001,
      "average_trace_fitness": 0.9992000000000001,
      "percFitTraces": 99.8,
      "percentage_of_fitting_traces": 99.8
    },
    "fscore": 0.8927534864409272,
    "generalization": 0.9746150131778492,
    "metricsAverageWeight": 0.8811103931018903,
    "precision": 0.8063674321503131,
    "precision_alignments": 0.8063674321503131,
    "simplicity": 0.7435897435897437
  },
  "easy_soundness": true,
  "sound": false
}