{
  "FULL": {
    "entropia_precision": 0.9925383440309453,
    "entropia_recall": 0.996551746339517,
    "fitness": {
      "average_trace_fitness": 1.0,
      "log_fitness": 1.0,
      "perc_fit_traces": 100.0,
      "percentage_of_fitting_traces": 100.0
    },
    "fitness_alignments": {
      "averageFitness": 1.0,
      "average_trace_fitness": 1.0,
      "percFitTraces": 100.0,
      "percentage_of_fitting_traces": 100.0
    },
    "fscore": 0.9912153682787914,
    "generalization": 0.9529899074782552,
    "metricsAverageWeight": 0.9257538750001969,
    "precision": 0.9825837320574162,
    "precision_alignments": 0.9825837320574162,
    "simplicity": 0.7674418604651162
  },
  "easy_soundness": true,
  "sound": true
}