{
  "FULL": {
    "fitness": {
      "average_trace_fitness": 0.516,
      "log_fitness": 0.9528907922912205,
      "perc_fit_traces": 51.6,
      "percentage_of_fitting_traces": 51.6
    },
    "fitness_alignments": {
      "averageFitness": 0.41919999999999913,
      "average_trace_fitness": 0.41919999999999913,
      "percFitTraces": 51.6,
      "percentage_of_fitting_traces": 51.6
    },
    "fscore": 0.925262736594881,
    "generalization": 0.9443747817118329,
    "metricsAverageWeight": 0.8809324830697773,
    "precision": 0.8991916310033286,
    "precision_alignments": 0.8991916310033286,
    "simplicity": 0.7272727272727273
  }
}