{
  "FULL": {
    "fitness": {
      "average_trace_fitness": 0.9999908256880734,
      "log_fitness": 0.9999419515876241,
      "perc_fit_traces": 99.9,
      "percentage_of_fitting_traces": 99.9
    },
    "fitness_alignments": {
      "averageFitness": 0.9985,
      "average_trace_fitness": 0.9985,
      "percFitTraces": 99.9,
      "percentage_of_fitting_traces": 99.9
    },
    "fscore": 0.9774469757553811,
    "generalization": 0.9737569325790559,
    "metricsAverageWeight": 0.9369556353006918,
    "precision": 0.9559418388542692,
    "precision_alignments": 0.9559418388542692,
    "simplicity": 0.8181818181818181
  }
}