{
  "FULL": {
    "fitness": {
      "average_trace_fitness": 1.0,
      "log_fitness": 1.0,
      "perc_fit_traces": 100.0,
      "percentage_of_fitting_traces": 100.0
    },
    "fitness_alignments": {
      "averageFitness": 1.0,
      "average_trace_fitness": 1.0,
      "percFitTraces": 100.0,
      "percentage_of_fitting_traces": 100.0
    },
    "fscore": 0.999623311628908,
    "generalization": 0.9423981214914375,
    "metricsAverageWeight": 0.921308693005099,
    "precision": 0.9992469069392146,
    "precision_alignments": 0.9992469069392146,
    "simplicity": 0.7435897435897437
  }
}