{
  "FULL": {
    "entropia_precision": 1.0001311211279384,
    "entropia_recall": 1.001060996375187,
    "fitness": {
      "average_trace_fitness": 1.0,
      "log_fitness": 1.0,
      "perc_fit_traces": 100.0,
      "percentage_of_fitting_traces": 100.0
    },
    "fitness_alignments": {
      "averageFitness": 1.0,
      "average_trace_fitness": 1.0,
      "percFitTraces": 100.0,
      "percentage_of_fitting_traces": 100.0
    },
    "fscore": 0.999623311628908,
    "generalization": 0.9458165918803509,
    "metricsAverageWeight": 0.9252902649487937,
    "precision": 0.9992469069392146,
    "precision_alignments": 0.9992469069392146,
    "simplicity": 0.7560975609756097
  },
  "easy_soundness": true,
  "sound": true
}