{
  "FULL": {
    "fitness": {
      "average_trace_fitness": 0.8270649113571418,
      "log_fitness": 0.8541160800635534,
      "perc_fit_traces": 0.0,
      "percentage_of_fitting_traces": 0.0
    },
    "fitness_alignments": {
      "averageFitness": 0.44620000000000015,
      "average_trace_fitness": 0.44620000000000015,
      "percFitTraces": 0.0,
      "percentage_of_fitting_traces": 0.0
    },
    "fscore": 0.8702489605552216,
    "generalization": 0.9467475022054834,
    "metricsAverageWeight": 0.845043574282406,
    "precision": 0.8870030225528946,
    "precision_alignments": 0.8870030225528946,
    "simplicity": 0.6923076923076922
  }
}