{
  "FULL": {
    "fitness": {
      "average_trace_fitness": 1.0,
      "log_fitness": 1.0,
      "perc_fit_traces": 100.0,
      "percentage_of_fitting_traces": 100.0
    },
    "fitness_alignments": {
      "averageFitness": 1.0,
      "average_trace_fitness": 1.0,
      "percFitTraces": 100.0,
      "percentage_of_fitting_traces": 100.0
    },
    "fscore": 0.9805902685455996,
    "generalization": 0.9433085283202617,
    "metricsAverageWeight": 0.9048784771877486,
    "precision": 0.9619196661450182,
    "precision_alignments": 0.9619196661450182,
    "simplicity": 0.7142857142857143
  }
}