{
  "FULL": {
    "fitness": {
      "average_trace_fitness": 1.0,
      "log_fitness": 1.0,
      "perc_fit_traces": 100.0,
      "percentage_of_fitting_traces": 100.0
    },
    "fitness_alignments": {
      "averageFitness": 1.0,
      "average_trace_fitness": 1.0,
      "percFitTraces": 100.0,
      "percentage_of_fitting_traces": 100.0
    },
    "fscore": 0.9805902685455996,
    "generalization": 0.9401749414355048,
    "metricsAverageWeight": 0.8965762834740781,
    "precision": 0.9619196661450182,
    "precision_alignments": 0.9619196661450182,
    "simplicity": 0.6842105263157894
  }
}