{
  "easy_soundness": true,
  "filename": "/mnt/c/Users/s140511/tue/thesis/thesis_data/process_trees_complex_ws/predictions/1617_gcn_ep100b_cc.json",
  "full": {
    "entropia_precision": 0.4948971004207147,
    "entropia_recall": 0.624768385889788,
    "fitness": {
      "average_trace_fitness": 0.8795483841483835,
      "log_fitness": 0.7803898349188707,
      "perc_fit_traces": 50.9,
      "percentage_of_fitting_traces": 50.9
    },
    "fitness_alignments": {
      "averageFitness": -0.8555,
      "average_trace_fitness": -0.8555,
      "percFitTraces": 50.9,
      "percentage_of_fitting_traces": 50.9
    },
    "fscore": 0.7882904067887444,
    "generalization": 0.9598036101532165,
    "metricsAverageWeight": 0.8216365071646783,
    "precision": 0.7963525835866261,
    "precision_alignments": 0.7963525835866261,
    "simplicity": 0.7499999999999999
  },
  "sound": false,
  "top 75": {
    "fitness": {
      "average_trace_fitness": 0.9378045318598618,
      "log_fitness": 0.8633837611400004,
      "perc_fit_traces": 69.91758241758242,
      "percentage_of_fitting_traces": 69.91758241758242
    },
    "fitness_alignments": {
      "averageFitness": 0.28846153846153844,
      "average_trace_fitness": 0.28846153846153844,
      "percFitTraces": 69.91758241758242,
      "percentage_of_fitting_traces": 69.91758241758242
    },
    "fscore": 0.8468417819925769,
    "generalization": 0.9349077047515759,
    "metricsAverageWeight": 0.8448033059155522,
    "precision": 0.8309217577706324,
    "precision_alignments": 0.8309217577706324,
    "simplicity": 0.7499999999999999
  }
}