{
  "FULL": {
    "fitness": {
      "average_trace_fitness": 1.0,
      "log_fitness": 1.0,
      "perc_fit_traces": 100.0,
      "percentage_of_fitting_traces": 100.0
    },
    "fitness_alignments": {
      "averageFitness": 1.0,
      "average_trace_fitness": 1.0,
      "percFitTraces": 100.0,
      "percentage_of_fitting_traces": 100.0
    },
    "fscore": 0.9804925085298917,
    "generalization": 0.9521980361089865,
    "metricsAverageWeight": 0.9070538222840153,
    "precision": 0.9617315387413605,
    "precision_alignments": 0.9617315387413605,
    "simplicity": 0.7142857142857143
  }
}