{
  "FULL": {
    "fitness": {
      "average_trace_fitness": 0.944024359034739,
      "log_fitness": 0.9529040789339843,
      "perc_fit_traces": 53.7,
      "percentage_of_fitting_traces": 53.7
    },
    "fitness_alignments": {
      "averageFitness": 0.8456666666666613,
      "average_trace_fitness": 0.8456666666666613,
      "percFitTraces": 53.7,
      "percentage_of_fitting_traces": 53.7
    },
    "fscore": 0.9421268114285049,
    "generalization": 0.9503713298660638,
    "metricsAverageWeight": 0.8905346834331829,
    "precision": 0.9315905976599558,
    "precision_alignments": 0.9315905976599558,
    "simplicity": 0.7272727272727273
  }
}