{
  "easy_soundness": false,
  "filename": "/mnt/c/Users/s140511/tue/thesis/thesis_data/process_trees_complex_ws/predictions/1619_gcn_ep100b_cc.json",
  "full": {
    "fitness": {
      "average_trace_fitness": 0.8552915429447784,
      "log_fitness": 0.8396386158318458,
      "perc_fit_traces": 0.0,
      "percentage_of_fitting_traces": 0.0
    },
    "fscore": 0.9128299532375047,
    "generalization": 0.9667661485016537,
    "metricsAverageWeight": 0.8734761910833748,
    "precision": 1.0,
    "simplicity": 0.6875
  },
  "sound": false,
  "top 58": {
    "fitness": {
      "average_trace_fitness": 0.8653533956775981,
      "log_fitness": 0.8546183027440455,
      "perc_fit_traces": 0.0,
      "percentage_of_fitting_traces": 0.0
    },
    "fscore": 0.9216109875326629,
    "generalization": 0.9548262089645875,
    "metricsAverageWeight": 0.8742361279271582,
    "precision": 1.0,
    "simplicity": 0.6875
  }
}