{
  "easy_soundness": true,
  "filename": "/mnt/c/Users/s140511/tue/thesis/thesis_data/process_trees_complex_ws/predictions/1620_gcn_ep100b_cca.json",
  "full": {
    "entropia_precision": 0.9986728343364821,
    "entropia_recall": 1.003698632517624,
    "fitness": {
      "average_trace_fitness": 1.0,
      "log_fitness": 1.0,
      "perc_fit_traces": 100.0,
      "percentage_of_fitting_traces": 100.0
    },
    "fitness_alignments": {
      "averageFitness": 1.0,
      "average_trace_fitness": 1.0,
      "log_fitness": 0.999987500156248,
      "percFitTraces": 100.0,
      "percentage_of_fitting_traces": 100.0
    },
    "fscore": 1.0,
    "generalization": 0.9683772233983162,
    "metricsAverageWeight": 0.972094305849579,
    "precision": 1.0,
    "precision_alignments": 1.0,
    "simplicity": 0.92
  },
  "sound": true,
  "top 6": {
    "fitness": {
      "average_trace_fitness": 1.0,
      "log_fitness": 1.0,
      "perc_fit_traces": 100.0,
      "percentage_of_fitting_traces": 100.0
    },
    "fitness_alignments": {
      "averageFitness": 1.0,
      "average_trace_fitness": 1.0,
      "log_fitness": 0.999987500156248,
      "percFitTraces": 100.0,
      "percentage_of_fitting_traces": 100.0
    },
    "fscore": 1.0,
    "generalization": 0.9683772233983162,
    "metricsAverageWeight": 0.972094305849579,
    "precision": 1.0,
    "precision_alignments": 1.0,
    "simplicity": 0.92
  }
}