{
  "FULL": {
    "entropia_precision": 0.6173526009239644,
    "entropia_recall": 0.664528763363359,
    "fitness": {
      "average_trace_fitness": 0.9230499540351095,
      "log_fitness": 0.9222772805397714,
      "perc_fit_traces": 0.0,
      "percentage_of_fitting_traces": 0.0
    },
    "fitness_alignments": {
      "averageFitness": 0.8765,
      "average_trace_fitness": 0.8765,
      "percFitTraces": 50.6,
      "percentage_of_fitting_traces": 50.6
    },
    "fscore": 0.8509660204875188,
    "generalization": 0.8839657821786301,
    "metricsAverageWeight": 0.8211114330498911,
    "precision": 0.7898909811694748,
    "precision_alignments": 0.7898909811694748,
    "simplicity": 0.6883116883116883
  },
  "easy_soundness": true,
  "sound": false
}