{
  "FULL": {
    "entropia_precision": NaN,
    "entropia_recall": 0.0,
    "fitness": {
      "average_trace_fitness": 1.0,
      "log_fitness": 1.0,
      "perc_fit_traces": 100.0,
      "percentage_of_fitting_traces": 100.0
    },
    "fitness_alignments": {
      "averageFitness": 1.0,
      "average_trace_fitness": 1.0,
      "percFitTraces": 100.0,
      "percentage_of_fitting_traces": 100.0
    },
    "fscore": 0.9825181327877999,
    "generalization": 0.9619895471501537,
    "metricsAverageWeight": 0.9166892442494126,
    "precision": 0.9656369950648875,
    "precision_alignments": 0.9656369950648875,
    "simplicity": 0.7391304347826086
  },
  "easy_soundness": true,
  "sound": false
}