{
  "FULL": {
    "fitness": {
      "average_trace_fitness": 1.0,
      "log_fitness": 1.0,
      "perc_fit_traces": 100.0,
      "percentage_of_fitting_traces": 100.0
    },
    "fitness_alignments": {
      "averageFitness": 1.0,
      "average_trace_fitness": 1.0,
      "percFitTraces": 100.0,
      "percentage_of_fitting_traces": 100.0
    },
    "fscore": 0.9770847121111847,
    "generalization": 0.952484173391881,
    "metricsAverageWeight": 0.9087382546849552,
    "precision": 0.9551961180752123,
    "precision_alignments": 0.9551961180752123,
    "simplicity": 0.7272727272727273
  }
}