{
  "FULL": {
    "fitness": {
      "average_trace_fitness": 0.9911927046920592,
      "log_fitness": 0.9775362980549722,
      "perc_fit_traces": 75.4,
      "percentage_of_fitting_traces": 75.4
    },
    "fscore": 0.860282697415137,
    "generalization": 0.9427920347770931,
    "metricsAverageWeight": 0.8495377283693066,
    "precision": 0.7681451612903226,
    "simplicity": 0.7096774193548386
  }
}