{
  "FULL": {
    "entropia_precision": 0.9918466005431543,
    "entropia_recall": 1.007446717279068,
    "fitness": {
      "average_trace_fitness": 1.0,
      "log_fitness": 1.0,
      "perc_fit_traces": 100.0,
      "percentage_of_fitting_traces": 100.0
    },
    "fitness_alignments": {
      "averageFitness": 1.0,
      "average_trace_fitness": 1.0,
      "percFitTraces": 100.0,
      "percentage_of_fitting_traces": 100.0
    },
    "fscore": 0.999336540056394,
    "generalization": 0.9608851040705354,
    "metricsAverageWeight": 0.9482230993227889,
    "precision": 0.9986739598872866,
    "precision_alignments": 0.9986739598872866,
    "simplicity": 0.8333333333333333
  },
  "easy_soundness": true,
  "sound": true
}