{
  "easy_soundness": true,
  "filename": "/mnt/c/Users/s140511/tue/thesis/thesis_data/process_trees_complex_ws/predictions/1630_gcn_ep100b_cc.json",
  "full": {
    "fitness": {
      "average_trace_fitness": 0.8864303643905816,
      "log_fitness": 0.8781923564571635,
      "perc_fit_traces": 32.6,
      "percentage_of_fitting_traces": 32.6
    },
    "fitness_alignments": {
      "averageFitness": 0.8078571428571408,
      "average_trace_fitness": 0.8078571428571408,
      "percFitTraces": 32.6,
      "percentage_of_fitting_traces": 32.6
    },
    "fscore": 0.9351463426394715,
    "generalization": 0.9630504680719196,
    "metricsAverageWeight": 0.9603107061322709,
    "precision": 1.0,
    "precision_alignments": 1.0,
    "simplicity": 1.0
  },
  "sound": true,
  "top 25": {
    "fitness": {
      "average_trace_fitness": 0.8864303643905816,
      "log_fitness": 0.8781923564571635,
      "perc_fit_traces": 32.6,
      "percentage_of_fitting_traces": 32.6
    },
    "fitness_alignments": {
      "averageFitness": 0.8078571428571408,
      "average_trace_fitness": 0.8078571428571408,
      "percFitTraces": 32.6,
      "percentage_of_fitting_traces": 32.6
    },
    "fscore": 0.9351463426394715,
    "generalization": 0.9630504680719196,
    "metricsAverageWeight": 0.9603107061322709,
    "precision": 1.0,
    "precision_alignments": 1.0,
    "simplicity": 1.0
  }
}