{
  "FULL": {
    "entropia_precision": 1.0,
    "entropia_recall": 0.589411186625505,
    "fitness": {
      "average_trace_fitness": 0.9235500793997975,
      "log_fitness": 0.8690045499166759,
      "perc_fit_traces": 51.71898355754858,
      "percentage_of_fitting_traces": 51.71898355754858
    },
    "fitness_alignments": {
      "averageFitness": -4.4992526158445445,
      "average_trace_fitness": -4.4992526158445445,
      "percFitTraces": 51.71898355754858,
      "percentage_of_fitting_traces": 51.71898355754858
    },
    "fscore": 0.9139015456376631,
    "generalization": 0.9282844745455241,
    "metricsAverageWeight": 0.8777448751631691,
    "precision": 0.9636904761904762,
    "precision_alignments": 0.9636904761904762,
    "simplicity": 0.7499999999999999
  },
  "easy_soundness": true,
  "sound": false
}