{
  "FULL": {
    "fitness": {
      "average_trace_fitness": 1.0,
      "log_fitness": 1.0,
      "perc_fit_traces": 100.0,
      "percentage_of_fitting_traces": 100.0
    },
    "fitness_alignments": {
      "averageFitness": 1.0,
      "average_trace_fitness": 1.0,
      "percFitTraces": 100.0,
      "percentage_of_fitting_traces": 100.0
    },
    "fscore": 0.9905340979755406,
    "generalization": 0.9717394438296687,
    "metricsAverageWeight": 0.949784753022915,
    "precision": 0.9812457221081451,
    "precision_alignments": 0.9812457221081451,
    "simplicity": 0.8461538461538463
  }
}