{
  "FULL": {
    "fitness": {
      "average_trace_fitness": 0.9999901960784314,
      "log_fitness": 0.9999440089585666,
      "perc_fit_traces": 99.9,
      "percentage_of_fitting_traces": 99.9
    },
    "fitness_alignments": {
      "averageFitness": 0.9996666666666666,
      "average_trace_fitness": 0.9996666666666666,
      "percFitTraces": 99.9,
      "percentage_of_fitting_traces": 99.9
    },
    "fscore": 0.964358342268448,
    "generalization": 0.9735235730708829,
    "metricsAverageWeight": 0.9307169643282316,
    "precision": 0.9312184571016583,
    "precision_alignments": 0.9312184571016583,
    "simplicity": 0.8181818181818181
  }
}