{
  "easy_soundness": true,
  "filename": "/mnt/c/Users/s140511/tue/thesis/thesis_data/process_trees_complex_ws/predictions/1635_gcn_ep100b_cc.json",
  "full": {
    "entropia_precision": 0.9820713470221909,
    "entropia_recall": 1.00579652100154,
    "fitness": {
      "average_trace_fitness": 1.0,
      "log_fitness": 1.0,
      "perc_fit_traces": 100.0,
      "percentage_of_fitting_traces": 100.0
    },
    "fitness_alignments": {
      "averageFitness": 1.0,
      "average_trace_fitness": 1.0,
      "percFitTraces": 100.0,
      "percentage_of_fitting_traces": 100.0
    },
    "fscore": 0.9983430832178001,
    "generalization": 0.9675543624351616,
    "metricsAverageWeight": 0.9493948359669702,
    "precision": 0.9966916480993856,
    "precision_alignments": 0.9966916480993856,
    "simplicity": 0.8333333333333333
  },
  "sound": true,
  "top 30": {
    "fitness": {
      "average_trace_fitness": 1.0,
      "log_fitness": 1.0,
      "perc_fit_traces": 100.0,
      "percentage_of_fitting_traces": 100.0
    },
    "fitness_alignments": {
      "averageFitness": 1.0,
      "average_trace_fitness": 1.0,
      "percFitTraces": 100.0,
      "percentage_of_fitting_traces": 100.0
    },
    "fscore": 0.9952582979785376,
    "generalization": 0.9646162223879292,
    "metricsAverageWeight": 0.9471277267345879,
    "precision": 0.9905613512170889,
    "precision_alignments": 0.9905613512170889,
    "simplicity": 0.8333333333333333
  }
}