{
  "FULL": {
    "entropia_precision": "nan",
    "entropia_recall": "nan",
    "fitness": {
      "average_trace_fitness": 1.0,
      "log_fitness": 1.0,
      "perc_fit_traces": 100.0,
      "percentage_of_fitting_traces": 100.0
    },
    "fitness_alignments": {
      "averageFitness": 1.0,
      "average_trace_fitness": 1.0,
      "percFitTraces": 100.0,
      "percentage_of_fitting_traces": 100.0
    },
    "fscore": 0.9640294517656991,
    "generalization": 0.9695775147752442,
    "metricsAverageWeight": 0.919478026397649,
    "precision": 0.9305568130375735,
    "precision_alignments": 0.9305568130375735,
    "simplicity": 0.7777777777777779
  },
  "easy_soundness": true,
  "sound": true
}