{
  "easy_soundness": false,
  "filename": "/mnt/c/Users/s140511/tue/thesis/thesis_data/process_trees_complex_ws/predictions/1636_gcn_ep100b_cca.json",
  "full": {
    "entropia_precision": "nan",
    "entropia_recall": "nan",
    "fitness": {
      "average_trace_fitness": 0.9071408485548499,
      "log_fitness": 0.9143171408991749,
      "perc_fit_traces": 0.0,
      "percentage_of_fitting_traces": 0.0
    },
    "fscore": 0.9552410322875868,
    "generalization": 0.9665224624032849,
    "metricsAverageWeight": 0.890209900825615,
    "precision": 1.0,
    "simplicity": 0.6799999999999999
  },
  "sound": false,
  "top 38": {
    "fitness": {
      "average_trace_fitness": 0.9022922225201863,
      "log_fitness": 0.9032880243508857,
      "perc_fit_traces": 0.0,
      "percentage_of_fitting_traces": 0.0
    },
    "fscore": 0.9491868942525934,
    "generalization": 0.9521335097311323,
    "metricsAverageWeight": 0.8838553835205045,
    "precision": 1.0,
    "simplicity": 0.6799999999999999
  }
}