{
  "easy_soundness": false,
  "filename": "/mnt/c/Users/s140511/tue/thesis/thesis_data/process_trees_complex_ws/predictions/1638_gcn_ep100b_cc.json",
  "full": {
    "entropia_precision": "nan",
    "entropia_recall": "nan",
    "fitness": {
      "average_trace_fitness": 0.9073350692970577,
      "log_fitness": 0.9144473537111462,
      "perc_fit_traces": 0.0,
      "percentage_of_fitting_traces": 0.0
    },
    "fscore": 0.9553120924829767,
    "generalization": 0.9668764586255898,
    "metricsAverageWeight": 0.8903309530841839,
    "precision": 1.0,
    "simplicity": 0.6799999999999999
  },
  "sound": false,
  "top 42": {
    "fitness": {
      "average_trace_fitness": 0.904251369141378,
      "log_fitness": 0.908195676557561,
      "perc_fit_traces": 0.0,
      "percentage_of_fitting_traces": 0.0
    },
    "fscore": 0.9518894605148375,
    "generalization": 0.9529681602480817,
    "metricsAverageWeight": 0.8852909592014107,
    "precision": 1.0,
    "simplicity": 0.6799999999999999
  }
}