{
  "FULL": {
    "entropia_precision": null,
    "entropia_recall": null,
    "fitness": {
      "average_trace_fitness": 0.9925342740439305,
      "log_fitness": 0.9801654903869554,
      "perc_fit_traces": 73.9,
      "percentage_of_fitting_traces": 73.9
    },
    "fscore": 0.6653069312782179,
    "generalization": 0.823360260438442,
    "metricsAverageWeight": 0.7506822774012325,
    "precision": 0.5035511848664891,
    "simplicity": 0.6956521739130435
  },
  "easy_soundness": true,
  "sound": false
}