{
  "easy_soundness": true,
  "filename": "/mnt/c/Users/s140511/tue/thesis/thesis_data/process_trees_complex_ws/predictions/1640_gcn_ep100b_cca.json",
  "full": {
    "entropia_precision": 0.9966385390718073,
    "entropia_recall": 0.969358162686565,
    "fitness": {
      "average_trace_fitness": 0.9400338787927164,
      "log_fitness": 0.7970211216249306,
      "perc_fit_traces": 73.9,
      "percentage_of_fitting_traces": 73.9
    },
    "fitness_alignments": {
      "averageFitness": 0.8303627390780394,
      "average_trace_fitness": 0.8303627390780394,
      "log_fitness": 0.5246428050145149,
      "percFitTraces": 73.9,
      "percentage_of_fitting_traces": 73.9
    },
    "fscore": 0.8577903018574535,
    "generalization": 0.9586771919008547,
    "metricsAverageWeight": 0.8258342541945344,
    "precision": 0.9285910842047331,
    "precision_alignments": 0.9285910842047331,
    "simplicity": 0.6190476190476191
  },
  "sound": false,
  "top 30": {
    "fitness": {
      "average_trace_fitness": 0.9859042345267099,
      "log_fitness": 0.9449736472901962,
      "perc_fit_traces": 90.34229828850856,
      "percentage_of_fitting_traces": 90.34229828850856
    },
    "fitness_alignments": {
      "averageFitness": 0.9496330172671805,
      "average_trace_fitness": 0.9496330172671805,
      "log_fitness": 0.8625286598685508,
      "percFitTraces": 90.34229828850856,
      "percentage_of_fitting_traces": 90.34229828850856
    },
    "fscore": 0.9547299529405643,
    "generalization": 0.9133415687377939,
    "metricsAverageWeight": 0.860513162924189,
    "precision": 0.9646898166211471,
    "precision_alignments": 0.9646898166211471,
    "simplicity": 0.6190476190476191
  }
}