{
  "FULL": {
    "fitness": {
      "average_trace_fitness": 0.9999757154781204,
      "log_fitness": 0.9997971785271427,
      "perc_fit_traces": 99.8,
      "percentage_of_fitting_traces": 99.8
    },
    "fitness_alignments": {
      "averageFitness": 0.994,
      "average_trace_fitness": 0.994,
      "percFitTraces": 99.8,
      "percentage_of_fitting_traces": 99.8
    },
    "fscore": 0.807170409636139,
    "generalization": 0.9583731974729026,
    "metricsAverageWeight": 0.8401097276914871,
    "precision": 0.6767783386874713,
    "precision_alignments": 0.6767783386874713,
    "simplicity": 0.7254901960784313
  }
}