{
  "FULL": {
    "fitness": {
      "average_trace_fitness": 1.0,
      "log_fitness": 1.0,
      "perc_fit_traces": 100.0,
      "percentage_of_fitting_traces": 100.0
    },
    "fitness_alignments": {
      "averageFitness": 1.0,
      "average_trace_fitness": 1.0,
      "percFitTraces": 100.0,
      "percentage_of_fitting_traces": 100.0
    },
    "fscore": 0.9937560791942518,
    "generalization": 0.9648087087511797,
    "metricsAverageWeight": 0.9363754511682042,
    "precision": 0.9875896476457748,
    "precision_alignments": 0.9875896476457748,
    "simplicity": 0.7931034482758622
  }
}