{
  "FULL": {
    "fitness": {
      "average_trace_fitness": 1.0,
      "log_fitness": 1.0,
      "perc_fit_traces": 100.0,
      "percentage_of_fitting_traces": 100.0
    },
    "fitness_alignments": {
      "averageFitness": 1.0,
      "average_trace_fitness": 1.0,
      "percFitTraces": 100.0,
      "percentage_of_fitting_traces": 100.0
    },
    "fscore": 0.3912800335536959,
    "generalization": 0.9694144180847905,
    "metricsAverageWeight": 0.7217643688849765,
    "precision": 0.243224452803953,
    "precision_alignments": 0.243224452803953,
    "simplicity": 0.6744186046511628
  }
}