{
  "easy_soundness": false,
  "filename": "/mnt/c/Users/s140511/tue/thesis/thesis_data/process_trees_complex_ws/predictions/1649_gcn_ep100b_cca.json",
  "full": {
    "entropia_precision": "nan",
    "entropia_recall": "nan",
    "fitness": {
      "average_trace_fitness": 0.7653739438894768,
      "log_fitness": 0.7488899851998027,
      "perc_fit_traces": 0.0,
      "percentage_of_fitting_traces": 0.0
    },
    "fscore": 0.8564174894217207,
    "generalization": 0.6472539746896127,
    "metricsAverageWeight": 0.7865359899723539,
    "precision": 1.0,
    "simplicity": 0.7499999999999999
  },
  "sound": false,
  "top 11": {
    "fitness": {
      "average_trace_fitness": 0.7653739438894768,
      "log_fitness": 0.7488899851998027,
      "perc_fit_traces": 0.0,
      "percentage_of_fitting_traces": 0.0
    },
    "fscore": 0.8564174894217207,
    "generalization": 0.6472539746896127,
    "metricsAverageWeight": 0.7865359899723539,
    "precision": 1.0,
    "simplicity": 0.7499999999999999
  }
}