{
  "FULL": {
    "entropia_precision": 0.7015403671415341,
    "entropia_recall": 0.744155080145557,
    "fitness": {
      "average_trace_fitness": 0.9567038048568638,
      "log_fitness": 0.924081125184552,
      "perc_fit_traces": 51.8,
      "percentage_of_fitting_traces": 51.8
    },
    "fitness_alignments": {
      "averageFitness": 0.023,
      "average_trace_fitness": 0.023,
      "percFitTraces": 51.8,
      "percentage_of_fitting_traces": 51.8
    },
    "fscore": 0.9242898888523857,
    "generalization": 0.9575189184828435,
    "metricsAverageWeight": 0.8737469198558632,
    "precision": 0.9244987468671679,
    "precision_alignments": 0.9244987468671679,
    "simplicity": 0.6888888888888889
  },
  "easy_soundness": true,
  "sound": true
}