{
  "easy_soundness": true,
  "filename": "/mnt/c/Users/s140511/tue/thesis/thesis_data/process_trees_complex_ws/predictions/1656_gcn_ep100b_cca.json",
  "full": {
    "entropia_precision": null,
    "entropia_recall": null,
    "fitness": {
      "average_trace_fitness": 0.8040425642061858,
      "log_fitness": 0.7877923734317627,
      "perc_fit_traces": 18.6,
      "percentage_of_fitting_traces": 18.6
    },
    "fitness_alignments": {
      "averageFitness": 0.186,
      "average_trace_fitness": 0.186,
      "log_fitness": 0.10555587083593443,
      "percFitTraces": 18.6,
      "percentage_of_fitting_traces": 18.6
    },
    "fscore": 0.6117386542152139,
    "generalization": 0.840170688490847,
    "metricsAverageWeight": 0.6510383845282715,
    "precision": 0.5,
    "precision_alignments": 0.5,
    "simplicity": 0.47619047619047616
  },
  "sound": false,
  "top 14": {
    "fitness": {
      "average_trace_fitness": 0.8040425642061858,
      "log_fitness": 0.7877923734317627,
      "perc_fit_traces": 18.6,
      "percentage_of_fitting_traces": 18.6
    },
    "fitness_alignments": {
      "averageFitness": 0.186,
      "average_trace_fitness": 0.186,
      "log_fitness": 0.10555587083593443,
      "percFitTraces": 18.6,
      "percentage_of_fitting_traces": 18.6
    },
    "fscore": 0.6117386542152139,
    "generalization": 0.840170688490847,
    "metricsAverageWeight": 0.6510383845282715,
    "precision": 0.5,
    "precision_alignments": 0.5,
    "simplicity": 0.47619047619047616
  }
}