{
  "easy_soundness": false,
  "filename": "/mnt/c/Users/s140511/tue/thesis/thesis_data/process_trees_complex_ws/predictions/1657_gcn_ep100b_cc.json",
  "full": {
    "entropia_precision": "nan",
    "entropia_recall": "nan",
    "fitness": {
      "average_trace_fitness": 0.8297881494874124,
      "log_fitness": 0.8697799054587059,
      "perc_fit_traces": 0.0,
      "percentage_of_fitting_traces": 0.0
    },
    "fscore": 0.9303553888021127,
    "generalization": 0.7098733995972712,
    "metricsAverageWeight": 0.7433981747488428,
    "precision": 1.0,
    "simplicity": 0.393939393939394
  },
  "sound": false,
  "top 33": {
    "fitness": {
      "average_trace_fitness": 0.8174407629600692,
      "log_fitness": 0.8431617698131555,
      "perc_fit_traces": 0.0,
      "percentage_of_fitting_traces": 0.0
    },
    "fscore": 0.9149080494422671,
    "generalization": 0.677341608923881,
    "metricsAverageWeight": 0.7286106931691076,
    "precision": 1.0,
    "simplicity": 0.393939393939394
  }
}