{
  "FULL": {
    "entropia_precision": "nan",
    "entropia_recall": "nan",
    "fitness": {
      "average_trace_fitness": 1.0,
      "log_fitness": 1.0,
      "perc_fit_traces": 100.0,
      "percentage_of_fitting_traces": 100.0
    },
    "fitness_alignments": {
      "averageFitness": 1.0,
      "average_trace_fitness": 1.0,
      "percFitTraces": 100.0,
      "percentage_of_fitting_traces": 100.0
    },
    "fscore": 0.9602449083719545,
    "generalization": 0.9696263834996209,
    "metricsAverageWeight": 0.9316224024232544,
    "precision": 0.9235298928600638,
    "precision_alignments": 0.9235298928600638,
    "simplicity": 0.8333333333333333
  },
  "easy_soundness": true,
  "sound": true
}