{
  "FULL": {
    "entropia_precision": 0.95784320921401,
    "entropia_recall": 1.0250407396856,
    "fitness": {
      "average_trace_fitness": 1.0,
      "log_fitness": 1.0,
      "perc_fit_traces": 100.0,
      "percentage_of_fitting_traces": 100.0
    },
    "fitness_alignments": {
      "averageFitness": 1.0,
      "average_trace_fitness": 1.0,
      "percFitTraces": 100.0,
      "percentage_of_fitting_traces": 100.0
    },
    "fscore": 0.9906973390062739,
    "generalization": 0.966761946367084,
    "metricsAverageWeight": 0.9344504480845284,
    "precision": 0.981566161760503,
    "precision_alignments": 0.981566161760503,
    "simplicity": 0.7894736842105263
  },
  "easy_soundness": true,
  "sound": true
}