{
  "easy_soundness": false,
  "filename": "/mnt/c/Users/s140511/tue/thesis/thesis_data/process_trees_complex_ws/predictions/1660_gcn_ep100b_cca.json",
  "full": {
    "entropia_precision": "nan",
    "entropia_recall": "nan",
    "fitness": {
      "average_trace_fitness": 0.8740630981860139,
      "log_fitness": 0.856378141360916,
      "perc_fit_traces": 0.0,
      "percentage_of_fitting_traces": 0.0
    },
    "fscore": 0.9226332957498656,
    "generalization": 0.9613005336790656,
    "metricsAverageWeight": 0.83856601022341,
    "precision": 1.0,
    "simplicity": 0.5365853658536585
  },
  "sound": false,
  "top 46": {
    "fitness": {
      "average_trace_fitness": 0.8865994425548077,
      "log_fitness": 0.8797054568963717,
      "perc_fit_traces": 0.0,
      "percentage_of_fitting_traces": 0.0
    },
    "fscore": 0.9360035144536689,
    "generalization": 0.9522168298960839,
    "metricsAverageWeight": 0.8421269131615285,
    "precision": 1.0,
    "simplicity": 0.5365853658536585
  }
}