{
  "easy_soundness": false,
  "filename": "/mnt/c/Users/s140511/tue/thesis/thesis_data/process_trees_complex_ws/predictions/1661_gcn_ep100b_cc.json",
  "full": {
    "fitness": {
      "average_trace_fitness": 0.9059252076916168,
      "log_fitness": 0.8942477782437527,
      "perc_fit_traces": 0.0,
      "percentage_of_fitting_traces": 0.0
    },
    "fscore": 0.9440824395993744,
    "generalization": 0.9704306464758246,
    "metricsAverageWeight": 0.9185003779105054,
    "precision": 0.9997992773986351,
    "simplicity": 0.8095238095238095
  },
  "sound": false,
  "top 30": {
    "fitness": {
      "average_trace_fitness": 0.9071768175192216,
      "log_fitness": 0.8967435685253946,
      "perc_fit_traces": 0.0,
      "percentage_of_fitting_traces": 0.0
    },
    "fscore": 0.9447955223264628,
    "generalization": 0.9695396541757247,
    "metricsAverageWeight": 0.9185239505696012,
    "precision": 0.9982887700534759,
    "simplicity": 0.8095238095238095
  }
}