{
  "FULL": {
    "fitness": {
      "average_trace_fitness": 1.0,
      "log_fitness": 1.0,
      "perc_fit_traces": 100.0,
      "percentage_of_fitting_traces": 100.0
    },
    "fitness_alignments": {
      "averageFitness": 1.0,
      "average_trace_fitness": 1.0,
      "percFitTraces": 100.0,
      "percentage_of_fitting_traces": 100.0
    },
    "fscore": 0.9985902857875176,
    "generalization": 0.9707239926297543,
    "metricsAverageWeight": 0.958643799966158,
    "precision": 0.9971845405682109,
    "precision_alignments": 0.9971845405682109,
    "simplicity": 0.8666666666666667
  }
}