{
  "FULL": {
    "entropia_precision": 0.9484636091714698,
    "entropia_recall": 0.997438490898952,
    "fitness": {
      "average_trace_fitness": 1.0,
      "log_fitness": 1.0,
      "perc_fit_traces": 100.0,
      "percentage_of_fitting_traces": 100.0
    },
    "fitness_alignments": {
      "averageFitness": 1.0,
      "average_trace_fitness": 1.0,
      "percFitTraces": 100.0,
      "percentage_of_fitting_traces": 100.0
    },
    "fscore": 0.9507619203670327,
    "generalization": 0.970270047808448,
    "metricsAverageWeight": 0.9191037811798781,
    "precision": 0.9061450769110643,
    "precision_alignments": 0.9061450769110643,
    "simplicity": 0.8
  },
  "easy_soundness": true,
  "sound": true
}