{
  "FULL": {
    "fitness": {
      "average_trace_fitness": 0.4181060606060631,
      "log_fitness": 0.7557279224964926,
      "perc_fit_traces": 0.0,
      "percentage_of_fitting_traces": 0.0
    },
    "fitness_alignments": {
      "averageFitness": -0.010666666666667296,
      "average_trace_fitness": -0.010666666666667296,
      "percFitTraces": 0.0,
      "percentage_of_fitting_traces": 0.0
    },
    "fscore": 0.7910225648667698,
    "generalization": 0.7866487738125313,
    "metricsAverageWeight": 0.7894666046685664,
    "precision": 0.8297754366509564,
    "precision_alignments": 0.8297754366509564,
    "simplicity": 0.7857142857142856
  }
}