{
  "easy_soundness": false,
  "filename": "/mnt/c/Users/s140511/tue/thesis/thesis_data/process_trees_complex_ws/predictions/1667_gcn_ep100b_cca.json",
  "full": {
    "entropia_precision": "nan",
    "entropia_recall": "nan",
    "fitness": {
      "average_trace_fitness": 0.8721060433721232,
      "log_fitness": 0.8572825764471221,
      "perc_fit_traces": 0.0,
      "percentage_of_fitting_traces": 0.0
    },
    "fscore": 0.7903280861128481,
    "generalization": 0.87945437151877,
    "metricsAverageWeight": 0.7960242560179516,
    "precision": 0.7330743618201998,
    "simplicity": 0.7142857142857143
  },
  "sound": false,
  "top 75": {
    "fitness": {
      "average_trace_fitness": 0.8784948126763295,
      "log_fitness": 0.8562654049612984,
      "perc_fit_traces": 0.0,
      "percentage_of_fitting_traces": 0.0
    },
    "fscore": 0.8145815253223482,
    "generalization": 0.8123145866298432,
    "metricsAverageWeight": 0.7899083456611332,
    "precision": 0.7767676767676768,
    "simplicity": 0.7142857142857143
  }
}