{
  "FULL": {
    "entropia_precision": 0.9747204711288913,
    "entropia_recall": 1.000190356799575,
    "fitness": {
      "average_trace_fitness": 1.0,
      "log_fitness": 1.0,
      "perc_fit_traces": 100.0,
      "percentage_of_fitting_traces": 100.0
    },
    "fitness_alignments": {
      "averageFitness": 1.0,
      "average_trace_fitness": 1.0,
      "percFitTraces": 100.0,
      "percentage_of_fitting_traces": 100.0
    },
    "fscore": 0.9985526987910778,
    "generalization": 0.9529976471288263,
    "metricsAverageWeight": 0.9208601403378471,
    "precision": 0.997109580889229,
    "precision_alignments": 0.997109580889229,
    "simplicity": 0.7333333333333333
  },
  "easy_soundness": true,
  "sound": true
}