{
  "FULL": {
    "entropia_precision": null,
    "entropia_recall": null,
    "fitness": {
      "average_trace_fitness": 0.9781433190729797,
      "log_fitness": 0.9620678743770271,
      "perc_fit_traces": 50.3,
      "percentage_of_fitting_traces": 50.3
    },
    "fscore": 0.7717069263596332,
    "generalization": 0.969998050244489,
    "metricsAverageWeight": 0.8464560663684817,
    "precision": 0.644234531328601,
    "simplicity": 0.8095238095238095
  },
  "easy_soundness": true,
  "sound": false
}