{
  "FULL": {
    "entropia_precision": "nan",
    "entropia_recall": "nan",
    "fitness": {
      "average_trace_fitness": 0.7843779942279844,
      "log_fitness": 0.6849315068493151,
      "perc_fit_traces": 51.2,
      "percentage_of_fitting_traces": 51.2
    },
    "fitness_alignments": {
      "averageFitness": 0.08,
      "average_trace_fitness": 0.08,
      "percFitTraces": 51.2,
      "percentage_of_fitting_traces": 51.2
    },
    "fscore": 0.5780346820809249,
    "generalization": 0.9721046015504143,
    "metricsAverageWeight": 0.7892590270999323,
    "precision": 0.5,
    "precision_alignments": 0.5,
    "simplicity": 1.0
  },
  "easy_soundness": true,
  "sound": false
}