{
  "FULL": {
    "entropia_precision": 0.9999999885551342,
    "entropia_recall": 0.672137147118547,
    "fitness": {
      "average_trace_fitness": 0.239,
      "log_fitness": 0.7584893684544589,
      "perc_fit_traces": 23.9,
      "percentage_of_fitting_traces": 23.9
    },
    "fitness_alignments": {
      "averageFitness": 0.13028571428571495,
      "average_trace_fitness": 0.13028571428571495,
      "percFitTraces": 23.9,
      "percentage_of_fitting_traces": 23.9
    },
    "fscore": 0.8626601696444686,
    "generalization": 0.9353153772646849,
    "metricsAverageWeight": 0.8971353969561018,
    "precision": 1.0,
    "precision_alignments": 1.0,
    "simplicity": 0.8947368421052632
  },
  "easy_soundness": true,
  "sound": true
}