{
  "FULL": {
    "entropia_precision": 0.9984816628086297,
    "entropia_recall": 1.001623738457132,
    "fitness": {
      "average_trace_fitness": 1.0,
      "log_fitness": 1.0,
      "perc_fit_traces": 100.0,
      "percentage_of_fitting_traces": 100.0
    },
    "fitness_alignments": {
      "averageFitness": 1.0,
      "average_trace_fitness": 1.0,
      "percFitTraces": 100.0,
      "percentage_of_fitting_traces": 100.0
    },
    "fscore": 0.9975515914655474,
    "generalization": 0.959016114418652,
    "metricsAverageWeight": 0.9329772588132386,
    "precision": 0.9951151430565248,
    "precision_alignments": 0.9951151430565248,
    "simplicity": 0.7777777777777779
  },
  "easy_soundness": true,
  "sound": true
}