{
  "FULL": {
    "fitness": {
      "average_trace_fitness": 1.0,
      "log_fitness": 1.0,
      "perc_fit_traces": 100.0,
      "percentage_of_fitting_traces": 100.0
    },
    "fitness_alignments": {
      "averageFitness": 1.0,
      "average_trace_fitness": 1.0,
      "percFitTraces": 100.0,
      "percentage_of_fitting_traces": 100.0
    },
    "fscore": 0.9830258302583026,
    "generalization": 0.9635016768160967,
    "metricsAverageWeight": 0.9269744354917198,
    "precision": 0.9666182873730044,
    "precision_alignments": 0.9666182873730044,
    "simplicity": 0.7777777777777779
  }
}