{
  "FULL": {
    "entropia_precision": 1.0000000000000009,
    "entropia_recall": 0.92336278803586,
    "fitness": {
      "average_trace_fitness": 0.726,
      "log_fitness": 0.9461054287962234,
      "perc_fit_traces": 72.6,
      "percentage_of_fitting_traces": 72.6
    },
    "fitness_alignments": {
      "averageFitness": 0.589,
      "average_trace_fitness": 0.589,
      "percFitTraces": 72.6,
      "percentage_of_fitting_traces": 72.6
    },
    "fscore": 0.9723064483525369,
    "generalization": 0.8685901998193535,
    "metricsAverageWeight": 0.8822453357253228,
    "precision": 1.0,
    "precision_alignments": 1.0,
    "simplicity": 0.7142857142857143
  },
  "easy_soundness": true,
  "sound": false
}