{
  "FULL": {
    "fitness": {
      "average_trace_fitness": 0.9353847115185708,
      "log_fitness": 0.8855811561905877,
      "perc_fit_traces": 50.8,
      "percentage_of_fitting_traces": 50.8
    },
    "fitness_alignments": {
      "averageFitness": -5.114,
      "average_trace_fitness": -5.114,
      "percFitTraces": 50.8,
      "percentage_of_fitting_traces": 50.8
    },
    "fscore": 0.8073781880323233,
    "generalization": 0.9636292040254879,
    "metricsAverageWeight": 0.844197722711691,
    "precision": 0.7418662449164031,
    "precision_alignments": 0.7418662449164031,
    "simplicity": 0.7857142857142856
  }
}