{
  "FULL": {
    "entropia_precision": 0.9909837677712953,
    "entropia_recall": 1.00091061716622,
    "fitness": {
      "average_trace_fitness": 1.0,
      "log_fitness": 1.0,
      "perc_fit_traces": 100.0,
      "percentage_of_fitting_traces": 100.0
    },
    "fitness_alignments": {
      "averageFitness": 1.0,
      "average_trace_fitness": 1.0,
      "percFitTraces": 100.0,
      "percentage_of_fitting_traces": 100.0
    },
    "fscore": 0.9879721460223676,
    "generalization": 0.9635140599659637,
    "metricsAverageWeight": 0.939481517493576,
    "precision": 0.9762301918265222,
    "precision_alignments": 0.9762301918265222,
    "simplicity": 0.8181818181818181
  },
  "easy_soundness": true,
  "sound": true
}