{
  "FULL": {
    "entropia_precision": NaN,
    "entropia_recall": 0.0,
    "fitness": {
      "average_trace_fitness": 1.0,
      "log_fitness": 1.0,
      "perc_fit_traces": 100.0,
      "percentage_of_fitting_traces": 100.0
    },
    "fitness_alignments": {
      "averageFitness": 1.0,
      "average_trace_fitness": 1.0,
      "percFitTraces": 100.0,
      "percentage_of_fitting_traces": 100.0
    },
    "fscore": 0.9962238242361827,
    "generalization": 0.9691306584416746,
    "metricsAverageWeight": 0.9449471342037528,
    "precision": 0.9924760601915185,
    "precision_alignments": 0.9924760601915185,
    "simplicity": 0.8181818181818181
  },
  "easy_soundness": true,
  "sound": false
}