{
  "FULL": {
    "entropia_precision": 0.9641760236312572,
    "entropia_recall": 1.02743758684361,
    "fitness": {
      "average_trace_fitness": 1.0,
      "log_fitness": 1.0,
      "perc_fit_traces": 100.0,
      "percentage_of_fitting_traces": 100.0
    },
    "fitness_alignments": {
      "averageFitness": 1.0,
      "average_trace_fitness": 1.0,
      "percFitTraces": 100.0,
      "percentage_of_fitting_traces": 100.0
    },
    "fscore": 0.9775925590384732,
    "generalization": 0.9729629751488891,
    "metricsAverageWeight": 0.9406159013171529,
    "precision": 0.9561672967863895,
    "precision_alignments": 0.9561672967863895,
    "simplicity": 0.8333333333333333
  },
  "easy_soundness": true,
  "sound": true
}