{
  "easy_soundness": false,
  "filename": "/mnt/c/Users/s140511/tue/thesis/thesis_data/process_trees_complex_ws/predictions/1690_gcn_ep100b_cca.json",
  "full": {
    "entropia_precision": "nan",
    "entropia_recall": "nan",
    "fitness": {
      "average_trace_fitness": 0.7678986662832323,
      "log_fitness": 0.7506297229219143,
      "perc_fit_traces": 0.0,
      "percentage_of_fitting_traces": 0.0
    },
    "fscore": 0.8575539568345324,
    "generalization": 0.6470562149663102,
    "metricsAverageWeight": 0.7869214844720561,
    "precision": 1.0,
    "simplicity": 0.7499999999999999
  },
  "sound": false,
  "top 11": {
    "fitness": {
      "average_trace_fitness": 0.7678986662832323,
      "log_fitness": 0.7506297229219143,
      "perc_fit_traces": 0.0,
      "percentage_of_fitting_traces": 0.0
    },
    "fscore": 0.8575539568345324,
    "generalization": 0.6470562149663102,
    "metricsAverageWeight": 0.7869214844720561,
    "precision": 1.0,
    "simplicity": 0.7499999999999999
  }
}