{
  "FULL": {
    "entropia_precision": 0.9566680471653287,
    "entropia_recall": 1.005131907962663,
    "fitness": {
      "average_trace_fitness": 1.0,
      "log_fitness": 1.0,
      "perc_fit_traces": 100.0,
      "percentage_of_fitting_traces": 100.0
    },
    "fitness_alignments": {
      "averageFitness": 1.0,
      "average_trace_fitness": 1.0,
      "percFitTraces": 100.0,
      "percentage_of_fitting_traces": 100.0
    },
    "fscore": 0.9413460383552869,
    "generalization": 0.9566977619692301,
    "metricsAverageWeight": 0.8900437285297371,
    "precision": 0.8891914378640042,
    "precision_alignments": 0.8891914378640042,
    "simplicity": 0.7142857142857143
  },
  "easy_soundness": true,
  "sound": true
}