{
  "FULL": {
    "fitness": {
      "average_trace_fitness": 1.0,
      "log_fitness": 1.0,
      "perc_fit_traces": 100.0,
      "percentage_of_fitting_traces": 100.0
    },
    "fitness_alignments": {
      "averageFitness": 1.0,
      "average_trace_fitness": 1.0,
      "percFitTraces": 100.0,
      "percentage_of_fitting_traces": 100.0
    },
    "fscore": 0.9749132427349069,
    "generalization": 0.9742624997575415,
    "metricsAverageWeight": 0.9313292180756267,
    "precision": 0.9510543725449658,
    "precision_alignments": 0.9510543725449658,
    "simplicity": 0.8
  }
}