{
  "FULL": {
    "fitness": {
      "average_trace_fitness": 0.9644690772923789,
      "log_fitness": 0.9449953803510933,
      "perc_fit_traces": 61.6,
      "percentage_of_fitting_traces": 61.6
    },
    "fitness_alignments": {
      "averageFitness": 0.7759999999999988,
      "average_trace_fitness": 0.7759999999999988,
      "percFitTraces": 61.6,
      "percentage_of_fitting_traces": 61.6
    },
    "fscore": 0.9689139830380461,
    "generalization": 0.9646842995017446,
    "metricsAverageWeight": 0.9233070476351064,
    "precision": 0.9940748264770611,
    "precision_alignments": 0.9940748264770611,
    "simplicity": 0.7894736842105263
  }
}