{
  "FULL": {
    "entropia_precision": 0.9128137032762004,
    "entropia_recall": 0.780752284752182,
    "fitness": {
      "average_trace_fitness": 0.32791327913279134,
      "log_fitness": 0.8892115255751619,
      "perc_fit_traces": 32.79132791327913,
      "percentage_of_fitting_traces": 32.79132791327913
    },
    "fitness_alignments": {
      "averageFitness": 0.10388437217705467,
      "average_trace_fitness": 0.10388437217705467,
      "percFitTraces": 32.79132791327913,
      "percentage_of_fitting_traces": 32.79132791327913
    },
    "fscore": 0.8835408192456343,
    "generalization": 0.9367303360703203,
    "metricsAverageWeight": 0.8742468228279003,
    "precision": 0.8779419813902573,
    "precision_alignments": 0.8779419813902573,
    "simplicity": 0.7931034482758622
  },
  "easy_soundness": true,
  "sound": true
}