{
  "FULL": {
    "entropia_precision": 0.8041947372622131,
    "entropia_recall": 0.835909283539834,
    "fitness": {
      "average_trace_fitness": 0.8948643036701889,
      "log_fitness": 0.8990586287404759,
      "perc_fit_traces": 28.0,
      "percentage_of_fitting_traces": 28.0
    },
    "fitness_alignments": {
      "averageFitness": 0.765,
      "average_trace_fitness": 0.765,
      "percFitTraces": 45.8,
      "percentage_of_fitting_traces": 45.8
    },
    "fscore": 0.8810918256033059,
    "generalization": 0.9026379979010869,
    "metricsAverageWeight": 0.810131419399382,
    "precision": 0.8638290509559651,
    "precision_alignments": 0.8638290509559651,
    "simplicity": 0.575
  },
  "easy_soundness": true,
  "sound": false
}