{
  "easy_soundness": false,
  "filename": "/mnt/c/Users/s140511/tue/thesis/thesis_data/process_trees_complex_ws/predictions/1703_gcn_ep100b_cca.json",
  "full": {
    "entropia_precision": "nan",
    "entropia_recall": "nan",
    "fitness": {
      "average_trace_fitness": 0.7580568341463486,
      "log_fitness": 0.7806389157792837,
      "perc_fit_traces": 0.0,
      "percentage_of_fitting_traces": 0.0
    },
    "fscore": 0.8768076546700011,
    "generalization": 0.7763483416761118,
    "metricsAverageWeight": 0.7892468143638489,
    "precision": 1.0,
    "simplicity": 0.6000000000000001
  },
  "sound": false,
  "top 30": {
    "fitness": {
      "average_trace_fitness": 0.7539166077776878,
      "log_fitness": 0.7724572042680586,
      "perc_fit_traces": 0.0,
      "percentage_of_fitting_traces": 0.0
    },
    "fscore": 0.871622967717347,
    "generalization": 0.7698693915101095,
    "metricsAverageWeight": 0.7855816489445421,
    "precision": 1.0,
    "simplicity": 0.6000000000000001
  }
}