{
  "FULL": {
    "entropia_precision": "nan",
    "entropia_recall": "nan",
    "fitness": {
      "average_trace_fitness": 1.0,
      "log_fitness": 1.0,
      "perc_fit_traces": 100.0,
      "percentage_of_fitting_traces": 100.0
    },
    "fitness_alignments": {
      "averageFitness": 1.0,
      "average_trace_fitness": 1.0,
      "percFitTraces": 100.0,
      "percentage_of_fitting_traces": 100.0
    },
    "fscore": 0.9994480801072302,
    "generalization": 0.9468250878011664,
    "metricsAverageWeight": 0.9264304642276753,
    "precision": 0.9988967691095351,
    "precision_alignments": 0.9988967691095351,
    "simplicity": 0.7599999999999999
  },
  "easy_soundness": true,
  "sound": true
}