{
  "FULL": {
    "entropia_precision": "nan",
    "entropia_recall": "nan",
    "fitness": {
      "average_trace_fitness": 1.0,
      "log_fitness": 1.0,
      "perc_fit_traces": 100.0,
      "percentage_of_fitting_traces": 100.0
    },
    "fitness_alignments": {
      "averageFitness": 1.0,
      "average_trace_fitness": 1.0,
      "percFitTraces": 100.0,
      "percentage_of_fitting_traces": 100.0
    },
    "fscore": 0.9960587897200098,
    "generalization": 0.9578494015995892,
    "metricsAverageWeight": 0.9265238715835232,
    "precision": 0.9921485237588943,
    "precision_alignments": 0.9921485237588943,
    "simplicity": 0.7560975609756097
  },
  "easy_soundness": true,
  "sound": true
}