{
  "FULL": {
    "fitness": {
      "average_trace_fitness": 0.9543742016168724,
      "log_fitness": 0.9492391188677237,
      "perc_fit_traces": 52.3,
      "percentage_of_fitting_traces": 52.3
    },
    "fitness_alignments": {
      "averageFitness": -0.2333999999999991,
      "average_trace_fitness": -0.2333999999999991,
      "percFitTraces": 52.3,
      "percentage_of_fitting_traces": 52.3
    },
    "fscore": 0.914832243777408,
    "generalization": 0.8825490135075089,
    "metricsAverageWeight": 0.8628656592567704,
    "precision": 0.8828323993886907,
    "precision_alignments": 0.8828323993886907,
    "simplicity": 0.7368421052631579
  }
}