{
  "FULL": {
    "fitness": {
      "average_trace_fitness": 0.9607757575757686,
      "log_fitness": 0.961703431372549,
      "perc_fit_traces": 0.0,
      "percentage_of_fitting_traces": 0.0
    },
    "fscore": 0.8571706883441382,
    "generalization": 0.963478802266722,
    "metricsAverageWeight": 0.8923211237413784,
    "precision": 0.7731345193907591,
    "simplicity": 0.8709677419354838
  }
}