{
  "FULL": {
    "entropia_precision": 0.47821117875224145,
    "entropia_recall": 0.987664951393553,
    "fitness": {
      "average_trace_fitness": 0.9974228722467356,
      "log_fitness": 0.995840078585267,
      "perc_fit_traces": 88.1,
      "percentage_of_fitting_traces": 88.1
    },
    "fitness_alignments": {
      "averageFitness": 0.9595999999999987,
      "average_trace_fitness": 0.9595999999999987,
      "percFitTraces": 88.1,
      "percentage_of_fitting_traces": 88.1
    },
    "fscore": 0.4905126607625295,
    "generalization": 0.924420213996507,
    "metricsAverageWeight": 0.721670194956301,
    "precision": 0.3253948462177889,
    "precision_alignments": 0.3253948462177889,
    "simplicity": 0.641025641025641
  },
  "easy_soundness": true,
  "sound": true
}