{
  "FULL": {
    "fitness": {
      "average_trace_fitness": 0.9233498203093725,
      "log_fitness": 0.9511692296549854,
      "perc_fit_traces": 12.6,
      "percentage_of_fitting_traces": 12.6
    },
    "fitness_alignments": {
      "averageFitness": -0.4999999999999985,
      "average_trace_fitness": -0.4999999999999985,
      "percFitTraces": 12.6,
      "percentage_of_fitting_traces": 12.6
    },
    "fscore": 0.9634053827392184,
    "generalization": 0.9316801873167233,
    "metricsAverageWeight": 0.8824239878112621,
    "precision": 0.9759604583239722,
    "precision_alignments": 0.9695721077654517,
    "simplicity": 0.6708860759493671
  }
}