{
  "FULL": {
    "fitness": {
      "average_trace_fitness": 1.0,
      "log_fitness": 1.0,
      "perc_fit_traces": 100.0,
      "percentage_of_fitting_traces": 100.0
    },
    "fitness_alignments": {
      "averageFitness": 1.0,
      "average_trace_fitness": 1.0,
      "percFitTraces": 100.0,
      "percentage_of_fitting_traces": 100.0
    },
    "fscore": 0.9939627029202629,
    "generalization": 0.9686380781530383,
    "metricsAverageWeight": 0.9558256527767612,
    "precision": 0.98799786628734,
    "precision_alignments": 0.98799786628734,
    "simplicity": 0.8666666666666667
  }
}