{
  "FULL": {
    "entropia_precision": 0.9336940502704953,
    "entropia_recall": 0.925937579056678,
    "fitness": {
      "average_trace_fitness": 0.9502476190476186,
      "log_fitness": 0.9431654395997391,
      "perc_fit_traces": 84.3,
      "percentage_of_fitting_traces": 84.3
    },
    "fitness_alignments": {
      "averageFitness": 0.774,
      "average_trace_fitness": 0.774,
      "percFitTraces": 84.3,
      "percentage_of_fitting_traces": 84.3
    },
    "fscore": 0.9557767114259543,
    "generalization": 0.9251883162349364,
    "metricsAverageWeight": 0.8848028063655304,
    "precision": 0.9687298100529784,
    "precision_alignments": 0.9687298100529784,
    "simplicity": 0.7021276595744681
  },
  "easy_soundness": true,
  "sound": true
}