{
  "FULL": {
    "entropia_precision": 0.9630992249212162,
    "entropia_recall": 0.999640641263338,
    "fitness": {
      "average_trace_fitness": 1.0,
      "log_fitness": 1.0,
      "perc_fit_traces": 100.0,
      "percentage_of_fitting_traces": 100.0
    },
    "fitness_alignments": {
      "averageFitness": 1.0,
      "average_trace_fitness": 1.0,
      "percFitTraces": 100.0,
      "percentage_of_fitting_traces": 100.0
    },
    "fscore": 0.9961643547709121,
    "generalization": 0.9706968892243174,
    "metricsAverageWeight": 0.9523021892096286,
    "precision": 0.9923580214603507,
    "precision_alignments": 0.9923580214603507,
    "simplicity": 0.8461538461538463
  },
  "easy_soundness": true,
  "sound": true
}