{
  "easy_soundness": true,
  "filename": "/mnt/c/Users/s140511/tue/thesis/thesis_data/process_trees_complex_ws/predictions/1718_gcn_ep100b_cca.json",
  "full": {
    "entropia_precision": 0.9760944530406881,
    "entropia_recall": 0.843405956606784,
    "fitness": {
      "average_trace_fitness": 0.8881575977021096,
      "log_fitness": 0.8805914512922465,
      "perc_fit_traces": 25.5,
      "percentage_of_fitting_traces": 25.5
    },
    "fitness_alignments": {
      "averageFitness": 0.9175978026351126,
      "average_trace_fitness": 0.9175978026351126,
      "log_fitness": 0.9130076664765887,
      "percFitTraces": 25.5,
      "percentage_of_fitting_traces": 25.5
    },
    "fscore": 0.9362428255093903,
    "generalization": 0.9708027792757773,
    "metricsAverageWeight": 0.9626992593440066,
    "precision": 0.9994028068080024,
    "precision_alignments": 0.9994028068080024,
    "simplicity": 1.0
  },
  "sound": true,
  "top 38": {
    "fitness": {
      "average_trace_fitness": 0.9113735643548908,
      "log_fitness": 0.9084181313598519,
      "perc_fit_traces": 31.125,
      "percentage_of_fitting_traces": 31.125
    },
    "fitness_alignments": {
      "averageFitness": 0.936394787497018,
      "average_trace_fitness": 0.936394787497018,
      "log_fitness": 0.9347462968421607,
      "percFitTraces": 31.125,
      "percentage_of_fitting_traces": 31.125
    },
    "fscore": 0.9516191064809604,
    "generalization": 0.9662587538971233,
    "metricsAverageWeight": 0.9684527710977936,
    "precision": 0.9991341991341991,
    "precision_alignments": 0.9991341991341991,
    "simplicity": 1.0
  }
}