{
  "FULL": {
    "fitness": {
      "average_trace_fitness": 1.0,
      "log_fitness": 1.0,
      "perc_fit_traces": 100.0,
      "percentage_of_fitting_traces": 100.0
    },
    "fitness_alignments": {
      "averageFitness": 1.0,
      "average_trace_fitness": 1.0,
      "percFitTraces": 100.0,
      "percentage_of_fitting_traces": 100.0
    },
    "fscore": 0.9778673654505139,
    "generalization": 0.962024025189725,
    "metricsAverageWeight": 0.9279551743536177,
    "precision": 0.9566932239488838,
    "precision_alignments": 0.9566932239488838,
    "simplicity": 0.7931034482758622
  }
}