{
  "FULL": {
    "fitness": {
      "average_trace_fitness": 1.0,
      "log_fitness": 1.0,
      "perc_fit_traces": 100.0,
      "percentage_of_fitting_traces": 100.0
    },
    "fitness_alignments": {
      "averageFitness": 1.0,
      "average_trace_fitness": 1.0,
      "percFitTraces": 100.0,
      "percentage_of_fitting_traces": 100.0
    },
    "fscore": 0.9856280386814127,
    "generalization": 0.9715840646571764,
    "metricsAverageWeight": 0.9524785155498062,
    "precision": 0.9716633308753818,
    "precision_alignments": 0.9716633308753818,
    "simplicity": 0.8666666666666667
  }
}