{
  "FULL": {
    "fitness": {
      "average_trace_fitness": 1.0,
      "log_fitness": 1.0,
      "perc_fit_traces": 100.0,
      "percentage_of_fitting_traces": 100.0
    },
    "fitness_alignments": {
      "averageFitness": 1.0,
      "average_trace_fitness": 1.0,
      "percFitTraces": 100.0,
      "percentage_of_fitting_traces": 100.0
    },
    "fscore": 0.9839195979899497,
    "generalization": 0.9698057642364131,
    "metricsAverageWeight": 0.9428718169245829,
    "precision": 0.9683481701285855,
    "precision_alignments": 0.9683481701285855,
    "simplicity": 0.8333333333333333
  }
}