{
  "FULL": {
    "entropia_precision": 0.9456973186452933,
    "entropia_recall": 1.00025621152325,
    "fitness": {
      "average_trace_fitness": 1.0,
      "log_fitness": 1.0,
      "perc_fit_traces": 100.0,
      "percentage_of_fitting_traces": 100.0
    },
    "fitness_alignments": {
      "averageFitness": 1.0,
      "average_trace_fitness": 1.0,
      "percFitTraces": 100.0,
      "percentage_of_fitting_traces": 100.0
    },
    "fscore": 0.9640649783952305,
    "generalization": 0.9490930834944286,
    "metricsAverageWeight": 0.8865956925561133,
    "precision": 0.930623020063358,
    "precision_alignments": 0.930623020063358,
    "simplicity": 0.6666666666666666
  },
  "easy_soundness": true,
  "sound": true
}