{
  "FULL": {
    "entropia_precision": 1.0,
    "entropia_recall": 0.531880512416869,
    "fitness": {
      "average_trace_fitness": 0.9258937847751142,
      "log_fitness": 0.9142175688624576,
      "perc_fit_traces": 49.1,
      "percentage_of_fitting_traces": 49.1
    },
    "fitness_alignments": {
      "averageFitness": -0.8815,
      "average_trace_fitness": -0.8815,
      "percFitTraces": 49.1,
      "percentage_of_fitting_traces": 49.1
    },
    "fscore": 0.9466214304888173,
    "generalization": 0.9145609286164411,
    "metricsAverageWeight": 0.859523061241265,
    "precision": 0.9814067707419751,
    "precision_alignments": 0.9814067707419751,
    "simplicity": 0.627906976744186
  },
  "easy_soundness": true,
  "sound": false
}