{
  "FULL": {
    "fitness": {
      "average_trace_fitness": 1.0,
      "log_fitness": 1.0,
      "perc_fit_traces": 100.0,
      "percentage_of_fitting_traces": 100.0
    },
    "fitness_alignments": {
      "averageFitness": 1.0,
      "average_trace_fitness": 1.0,
      "percFitTraces": 100.0,
      "percentage_of_fitting_traces": 100.0
    },
    "fscore": 0.9897483136718866,
    "generalization": 0.9624242905088379,
    "metricsAverageWeight": 0.9449917042144411,
    "precision": 0.9797046885110889,
    "precision_alignments": 0.9797046885110889,
    "simplicity": 0.8378378378378379
  }
}