{
  "FULL": {
    "fitness": {
      "average_trace_fitness": 0.9111525025578985,
      "log_fitness": 0.9135122373494924,
      "perc_fit_traces": 24.8,
      "percentage_of_fitting_traces": 24.8
    },
    "fitness_alignments": {
      "averageFitness": 0.701800000000007,
      "average_trace_fitness": 0.701800000000007,
      "percFitTraces": 24.8,
      "percentage_of_fitting_traces": 24.8
    },
    "fscore": 0.9530564492298623,
    "generalization": 0.9604016309935348,
    "metricsAverageWeight": 0.9381114911720629,
    "precision": 0.996179155168754,
    "precision_alignments": 0.996179155168754,
    "simplicity": 0.8823529411764706
  }
}