{
  "easy_soundness": true,
  "filename": "/mnt/c/Users/s140511/tue/thesis/thesis_data/process_trees_complex_ws/predictions/1729_gcn_ep100b_cca.json",
  "full": {
    "entropia_precision": 0.9996841275378985,
    "entropia_recall": 0.999695669181391,
    "fitness": {
      "average_trace_fitness": 1.0,
      "log_fitness": 1.0,
      "perc_fit_traces": 100.0,
      "percentage_of_fitting_traces": 100.0
    },
    "fitness_alignments": {
      "averageFitness": 1.0,
      "average_trace_fitness": 1.0,
      "log_fitness": 0.9999662173575217,
      "percFitTraces": 100.0,
      "percentage_of_fitting_traces": 100.0
    },
    "fscore": 0.9998887405429461,
    "generalization": 0.9489149477026667,
    "metricsAverageWeight": 0.931617557830229,
    "precision": 0.9997775058404716,
    "precision_alignments": 0.9997775058404716,
    "simplicity": 0.7777777777777779
  },
  "sound": true,
  "top 13": {
    "fitness": {
      "average_trace_fitness": 1.0,
      "log_fitness": 1.0,
      "perc_fit_traces": 100.0,
      "percentage_of_fitting_traces": 100.0
    },
    "fitness_alignments": {
      "averageFitness": 1.0,
      "average_trace_fitness": 1.0,
      "log_fitness": 0.9999662173575217,
      "percFitTraces": 100.0,
      "percentage_of_fitting_traces": 100.0
    },
    "fscore": 0.9998887405429461,
    "generalization": 0.9489149477026667,
    "metricsAverageWeight": 0.931617557830229,
    "precision": 0.9997775058404716,
    "precision_alignments": 0.9997775058404716,
    "simplicity": 0.7777777777777779
  }
}