{
  "FULL": {
    "entropia_precision": 0.9993451861894356,
    "entropia_recall": 1.00008705840127,
    "fitness": {
      "average_trace_fitness": 1.0,
      "log_fitness": 1.0,
      "perc_fit_traces": 100.0,
      "percentage_of_fitting_traces": 100.0
    },
    "fitness_alignments": {
      "averageFitness": 1.0,
      "average_trace_fitness": 1.0,
      "percFitTraces": 100.0,
      "percentage_of_fitting_traces": 100.0
    },
    "fscore": 0.9998887405429461,
    "generalization": 0.9459207514417975,
    "metricsAverageWeight": 0.9239245643205674,
    "precision": 0.9997775058404716,
    "precision_alignments": 0.9997775058404716,
    "simplicity": 0.7499999999999999
  },
  "easy_soundness": true,
  "sound": true
}