{
  "FULL": {
    "entropia_precision": "nan",
    "entropia_recall": "nan",
    "fitness": {
      "average_trace_fitness": 0.9558825482160909,
      "log_fitness": 0.9357268207078093,
      "perc_fit_traces": 60.3,
      "percentage_of_fitting_traces": 60.3
    },
    "fitness_alignments": {
      "averageFitness": -1.049,
      "average_trace_fitness": -1.049,
      "percFitTraces": 60.3,
      "percentage_of_fitting_traces": 60.3
    },
    "fscore": 0.9474969460190162,
    "generalization": 0.9665862005123345,
    "metricsAverageWeight": 0.9099144363822687,
    "precision": 0.9595669465311534,
    "precision_alignments": 0.9595669465311534,
    "simplicity": 0.7777777777777779
  },
  "easy_soundness": true,
  "sound": true
}