{
  "FULL": {
    "fitness": {
      "average_trace_fitness": 1.0,
      "log_fitness": 1.0,
      "perc_fit_traces": 100.0,
      "percentage_of_fitting_traces": 100.0
    },
    "fitness_alignments": {
      "averageFitness": 1.0,
      "average_trace_fitness": 1.0,
      "percFitTraces": 100.0,
      "percentage_of_fitting_traces": 100.0
    },
    "fscore": 0.9979083787885001,
    "generalization": 0.9748258400749763,
    "metricsAverageWeight": 0.9593294989535617,
    "precision": 0.9958254890726037,
    "precision_alignments": 0.9958254890726037,
    "simplicity": 0.8666666666666667
  }
}