{
  "easy_soundness": true,
  "filename": "/mnt/c/Users/s140511/tue/thesis/thesis_data/process_trees_complex_ws/predictions/1732_gcn_ep100b_cc.json",
  "full": {
    "entropia_precision": 0.0,
    "entropia_recall": 0.0,
    "fitness": {
      "average_trace_fitness": 0.904481818181812,
      "log_fitness": 0.9046983703421329,
      "perc_fit_traces": 0.0,
      "percentage_of_fitting_traces": 0.0
    },
    "fitness_alignments": {
      "averageFitness": 0.811625,
      "average_trace_fitness": 0.811625,
      "percFitTraces": 0.0,
      "percentage_of_fitting_traces": 0.0
    },
    "fscore": 0.8204672250775984,
    "generalization": 0.9623938531628053,
    "metricsAverageWeight": 0.8844192302831841,
    "precision": 0.7505846976277982,
    "precision_alignments": 0.7505846976277982,
    "simplicity": 0.92
  },
  "sound": true,
  "top 4": {
    "fitness": {
      "average_trace_fitness": 0.904481818181812,
      "log_fitness": 0.9046983703421329,
      "perc_fit_traces": 0.0,
      "percentage_of_fitting_traces": 0.0
    },
    "fitness_alignments": {
      "averageFitness": 0.811625,
      "average_trace_fitness": 0.811625,
      "percFitTraces": 0.0,
      "percentage_of_fitting_traces": 0.0
    },
    "fscore": 0.8204672250775984,
    "generalization": 0.9623938531628053,
    "metricsAverageWeight": 0.8844192302831841,
    "precision": 0.7505846976277982,
    "precision_alignments": 0.7505846976277982,
    "simplicity": 0.92
  }
}