{
  "easy_soundness": true,
  "filename": "/mnt/c/Users/s140511/tue/thesis/thesis_data/process_trees_complex_ws/predictions/1733_gcn_ep100b_cc.json",
  "full": {
    "fitness": {
      "average_trace_fitness": 1.0,
      "log_fitness": 1.0,
      "perc_fit_traces": 100.0,
      "percentage_of_fitting_traces": 100.0
    },
    "fitness_alignments": {
      "averageFitness": 1.0,
      "average_trace_fitness": 1.0,
      "percFitTraces": 100.0,
      "percentage_of_fitting_traces": 100.0
    },
    "fscore": 0.9854939585448115,
    "generalization": 0.9608197646954567,
    "metricsAverageWeight": 0.9304240497224612,
    "precision": 0.9714027499838616,
    "precision_alignments": 0.9714027499838616,
    "simplicity": 0.7894736842105263
  },
  "sound": true,
  "top 30": {
    "fitness": {
      "average_trace_fitness": 1.0,
      "log_fitness": 1.0,
      "perc_fit_traces": 100.0,
      "percentage_of_fitting_traces": 100.0
    },
    "fitness_alignments": {
      "averageFitness": 1.0,
      "average_trace_fitness": 1.0,
      "percFitTraces": 100.0,
      "percentage_of_fitting_traces": 100.0
    },
    "fscore": 0.9922708149887487,
    "generalization": 0.9523875823938397,
    "metricsAverageWeight": 0.9316303651947808,
    "precision": 0.9846601941747573,
    "precision_alignments": 0.9846601941747573,
    "simplicity": 0.7894736842105263
  }
}