{
  "FULL": {
    "fitness": {
      "average_trace_fitness": 1.0,
      "log_fitness": 1.0,
      "perc_fit_traces": 100.0,
      "percentage_of_fitting_traces": 100.0
    },
    "fitness_alignments": {
      "averageFitness": 1.0,
      "average_trace_fitness": 1.0,
      "percFitTraces": 100.0,
      "percentage_of_fitting_traces": 100.0
    },
    "fscore": 0.9854939585448115,
    "generalization": 0.9597401277379054,
    "metricsAverageWeight": 0.923962190018677,
    "precision": 0.9714027499838616,
    "precision_alignments": 0.9714027499838616,
    "simplicity": 0.7647058823529413
  }
}