{
  "easy_soundness": false,
  "filename": "/mnt/c/Users/s140511/tue/thesis/thesis_data/process_trees_complex_ws/predictions/1735_gcn_ep100b_cca.json",
  "full": {
    "entropia_precision": "nan",
    "entropia_recall": "nan",
    "fitness": {
      "average_trace_fitness": 0.8798644320026324,
      "log_fitness": 0.8746777955075488,
      "perc_fit_traces": 0.0,
      "percentage_of_fitting_traces": 0.0
    },
    "fscore": 0.933150003273751,
    "generalization": 0.7776795200897866,
    "metricsAverageWeight": 0.8416607574707624,
    "precision": 1.0,
    "simplicity": 0.7142857142857143
  },
  "sound": false,
  "top 39": {
    "fitness": {
      "average_trace_fitness": 0.8831386208392079,
      "log_fitness": 0.8804890473764646,
      "perc_fit_traces": 0.0,
      "percentage_of_fitting_traces": 0.0
    },
    "fscore": 0.9364468765238121,
    "generalization": 0.7707274416571037,
    "metricsAverageWeight": 0.8413755508298206,
    "precision": 1.0,
    "simplicity": 0.7142857142857143
  }
}