{
  "FULL": {
    "entropia_precision": 0.8546388529881812,
    "entropia_recall": 0.99461953600362,
    "fitness": {
      "average_trace_fitness": 1.0,
      "log_fitness": 1.0,
      "perc_fit_traces": 100.0,
      "percentage_of_fitting_traces": 100.0
    },
    "fitness_alignments": {
      "averageFitness": 1.0,
      "average_trace_fitness": 1.0,
      "percFitTraces": 100.0,
      "percentage_of_fitting_traces": 100.0
    },
    "fscore": 0.967752680337254,
    "generalization": 0.9045371581894074,
    "metricsAverageWeight": 0.9049587759408122,
    "precision": 0.9375201677960633,
    "precision_alignments": 0.9375201677960633,
    "simplicity": 0.7777777777777779
  },
  "easy_soundness": true,
  "sound": true
}