{
  "FULL": {
    "entropia_precision": NaN,
    "entropia_recall": 0.0,
    "fitness": {
      "average_trace_fitness": 0.9999876710472836,
      "log_fitness": 0.9999370003779731,
      "perc_fit_traces": 99.9,
      "percentage_of_fitting_traces": 99.9
    },
    "fitness_alignments": {
      "averageFitness": 0.99925,
      "average_trace_fitness": 0.99925,
      "percFitTraces": 99.9,
      "percentage_of_fitting_traces": 99.9
    },
    "fscore": 0.9677231783795904,
    "generalization": 0.9745094029665091,
    "metricsAverageWeight": 0.9224360872295807,
    "precision": 0.9375201677960633,
    "precision_alignments": 0.9375201677960633,
    "simplicity": 0.7777777777777779
  },
  "easy_soundness": true,
  "sound": false
}