{
  "easy_soundness": true,
  "filename": "/mnt/c/Users/s140511/tue/thesis/thesis_data/process_trees_complex_ws/predictions/1737_gcn_ep100b_cc.json",
  "full": {
    "fitness": {
      "average_trace_fitness": 0.7378123148631658,
      "log_fitness": 0.7433459588906395,
      "perc_fit_traces": 0.0,
      "percentage_of_fitting_traces": 0.0
    },
    "fitness_alignments": {
      "averageFitness": -3.567999999999997,
      "average_trace_fitness": -3.567999999999997,
      "percFitTraces": 0.0,
      "percentage_of_fitting_traces": 0.0
    },
    "fscore": 0.8112469085627073,
    "generalization": 0.7398560809715293,
    "metricsAverageWeight": 0.7085837718320184,
    "precision": 0.892799714132571,
    "precision_alignments": 0.892799714132571,
    "simplicity": 0.45833333333333337
  },
  "sound": false,
  "top 30": {
    "fitness": {
      "average_trace_fitness": 0.7403080507499828,
      "log_fitness": 0.7074343482896762,
      "perc_fit_traces": 0.0,
      "percentage_of_fitting_traces": 0.0
    },
    "fitness_alignments": {
      "averageFitness": -0.47686496694995284,
      "average_trace_fitness": -0.47686496694995284,
      "percFitTraces": 0.0,
      "percentage_of_fitting_traces": 0.0
    },
    "fscore": 0.7762387628348543,
    "generalization": 0.6747725887570262,
    "metricsAverageWeight": 0.6751022709343053,
    "precision": 0.8598688133571855,
    "precision_alignments": 0.8598688133571855,
    "simplicity": 0.45833333333333337
  }
}