{
  "FULL": {
    "fitness": {
      "average_trace_fitness": 1.0,
      "log_fitness": 1.0,
      "perc_fit_traces": 100.0,
      "percentage_of_fitting_traces": 100.0
    },
    "fitness_alignments": {
      "averageFitness": 1.0,
      "average_trace_fitness": 1.0,
      "percFitTraces": 100.0,
      "percentage_of_fitting_traces": 100.0
    },
    "fscore": 0.9987623234176946,
    "generalization": 0.9714835986092645,
    "metricsAverageWeight": 0.9659370368623489,
    "precision": 0.9975277067348679,
    "precision_alignments": 0.9975277067348679,
    "simplicity": 0.8947368421052632
  }
}