{
  "easy_soundness": false,
  "filename": "/mnt/c/Users/s140511/tue/thesis/thesis_data/process_trees_complex_ws/predictions/1742_gcn_ep100b_cc.json",
  "full": {
    "fitness": {
      "average_trace_fitness": 0.7782571105968686,
      "log_fitness": 0.8145941802495108,
      "perc_fit_traces": 0.0,
      "percentage_of_fitting_traces": 0.0
    },
    "fscore": 0.897825187709466,
    "generalization": 0.7550627660579066,
    "metricsAverageWeight": 0.8154911596537774,
    "precision": 1.0,
    "simplicity": 0.6923076923076922
  },
  "sound": false,
  "top 30": {
    "fitness": {
      "average_trace_fitness": 0.7683626585199056,
      "log_fitness": 0.7939695618062165,
      "perc_fit_traces": 0.0,
      "percentage_of_fitting_traces": 0.0
    },
    "fscore": 0.8851538829976878,
    "generalization": 0.7492216996449785,
    "metricsAverageWeight": 0.8088747384397218,
    "precision": 1.0,
    "simplicity": 0.6923076923076922
  }
}