{
  "FULL": {
    "entropia_precision": 0.9673360998543286,
    "entropia_recall": 0.995019624492959,
    "fitness": {
      "average_trace_fitness": 1.0,
      "log_fitness": 1.0,
      "perc_fit_traces": 100.0,
      "percentage_of_fitting_traces": 100.0
    },
    "fitness_alignments": {
      "averageFitness": 1.0,
      "average_trace_fitness": 1.0,
      "percFitTraces": 100.0,
      "percentage_of_fitting_traces": 100.0
    },
    "fscore": 0.9734087996582658,
    "generalization": 0.9535709243754527,
    "metricsAverageWeight": 0.9166179897815472,
    "precision": 0.9481951523977946,
    "precision_alignments": 0.9481951523977946,
    "simplicity": 0.7647058823529413
  },
  "easy_soundness": true,
  "sound": true
}