{
  "FULL": {
    "entropia_precision": 0.9744610048326173,
    "entropia_recall": 1.002852587232371,
    "fitness": {
      "average_trace_fitness": 1.0,
      "log_fitness": 1.0,
      "perc_fit_traces": 100.0,
      "percentage_of_fitting_traces": 100.0
    },
    "fitness_alignments": {
      "averageFitness": 1.0,
      "average_trace_fitness": 1.0,
      "percFitTraces": 100.0,
      "percentage_of_fitting_traces": 100.0
    },
    "fscore": 0.9734087996582658,
    "generalization": 0.951103207871642,
    "metricsAverageWeight": 0.9081579234006925,
    "precision": 0.9481951523977946,
    "precision_alignments": 0.9481951523977946,
    "simplicity": 0.7333333333333333
  },
  "easy_soundness": true,
  "sound": true
}