{
  "FULL": {
    "entropia_precision": 0.9837381781386794,
    "entropia_recall": 1.00500321410557,
    "fitness": {
      "average_trace_fitness": 1.0,
      "log_fitness": 1.0,
      "perc_fit_traces": 100.0,
      "percentage_of_fitting_traces": 100.0
    },
    "fitness_alignments": {
      "averageFitness": 1.0,
      "average_trace_fitness": 1.0,
      "percFitTraces": 100.0,
      "percentage_of_fitting_traces": 100.0
    },
    "fscore": 0.9806157354618017,
    "generalization": 0.9610347306965278,
    "metricsAverageWeight": 0.9207508526965033,
    "precision": 0.9619686800894854,
    "precision_alignments": 0.9619686800894854,
    "simplicity": 0.7599999999999999
  },
  "easy_soundness": true,
  "sound": true
}