{
  "FULL": {
    "fitness": {
      "average_trace_fitness": 0.514,
      "log_fitness": 0.9459639759839893,
      "perc_fit_traces": 51.4,
      "percentage_of_fitting_traces": 51.4
    },
    "fitness_alignments": {
      "averageFitness": 0.41679999999999917,
      "average_trace_fitness": 0.41679999999999917,
      "percFitTraces": 51.4,
      "percentage_of_fitting_traces": 51.4
    },
    "fscore": 0.952333608064206,
    "generalization": 0.9616742958824457,
    "metricsAverageWeight": 0.9211524228297094,
    "precision": 0.9587896012705843,
    "precision_alignments": 0.9587896012705843,
    "simplicity": 0.8181818181818181
  }
}