{
  "FULL": {
    "fitness": {
      "average_trace_fitness": 0.9920505868314204,
      "log_fitness": 0.9886801756492689,
      "perc_fit_traces": 68.2,
      "percentage_of_fitting_traces": 68.2
    },
    "fitness_alignments": {
      "averageFitness": 0.75875,
      "average_trace_fitness": 0.75875,
      "percFitTraces": 68.2,
      "percentage_of_fitting_traces": 68.2
    },
    "fscore": 0.9842458828012421,
    "generalization": 0.9735754713411581,
    "metricsAverageWeight": 0.9542767088767303,
    "precision": 0.9798511885164943,
    "precision_alignments": 0.9798511885164943,
    "simplicity": 0.875
  }
}