{
  "FULL": {
    "entropia_precision": 0.9562888862617902,
    "entropia_recall": 0.996098202651236,
    "fitness": {
      "average_trace_fitness": 0.9954352450454381,
      "log_fitness": 0.9872539668776554,
      "perc_fit_traces": 85.3,
      "percentage_of_fitting_traces": 85.3
    },
    "fitness_alignments": {
      "averageFitness": 0.584,
      "average_trace_fitness": 0.584,
      "percFitTraces": 85.3,
      "percentage_of_fitting_traces": 85.3
    },
    "fscore": 0.9859262059637828,
    "generalization": 0.9590786924865408,
    "metricsAverageWeight": 0.9398765249020734,
    "precision": 0.9846020116726686,
    "precision_alignments": 0.9846020116726686,
    "simplicity": 0.8285714285714286
  },
  "easy_soundness": true,
  "sound": true
}