{
  "FULL": {
    "fitness": {
      "average_trace_fitness": 1.0,
      "log_fitness": 1.0,
      "perc_fit_traces": 100.0,
      "percentage_of_fitting_traces": 100.0
    },
    "fitness_alignments": {
      "averageFitness": 1.0,
      "average_trace_fitness": 1.0,
      "percFitTraces": 100.0,
      "percentage_of_fitting_traces": 100.0
    },
    "fscore": 0.4591363196906219,
    "generalization": 0.9637902800291259,
    "metricsAverageWeight": 0.732107575305701,
    "precision": 0.29797335452701146,
    "precision_alignments": 0.29797335452701146,
    "simplicity": 0.6666666666666666
  }
}