{
  "FULL": {
    "entropia_precision": NaN,
    "entropia_recall": 0.0,
    "fitness": {
      "average_trace_fitness": 0.9999816513761468,
      "log_fitness": 0.9998486568293605,
      "perc_fit_traces": 99.8,
      "percentage_of_fitting_traces": 99.8
    },
    "fitness_alignments": {
      "averageFitness": 0.996,
      "average_trace_fitness": 0.996,
      "percFitTraces": 99.8,
      "percentage_of_fitting_traces": 99.8
    },
    "fscore": 0.9158313852536922,
    "generalization": 0.9704749318575048,
    "metricsAverageWeight": 0.8885733881116538,
    "precision": 0.8448395289771415,
    "precision_alignments": 0.8448395289771415,
    "simplicity": 0.7391304347826086
  },
  "easy_soundness": true,
  "sound": false
}