{
  "FULL": {
    "fitness": {
      "average_trace_fitness": 1.0,
      "log_fitness": 1.0,
      "perc_fit_traces": 100.0,
      "percentage_of_fitting_traces": 100.0
    },
    "fitness_alignments": {
      "averageFitness": 1.0,
      "average_trace_fitness": 1.0,
      "percFitTraces": 100.0,
      "percentage_of_fitting_traces": 100.0
    },
    "fscore": 0.9997347480106101,
    "generalization": 0.9557633827152802,
    "metricsAverageWeight": 0.9263082548541051,
    "precision": 0.9994696367011403,
    "precision_alignments": 0.9994696367011403,
    "simplicity": 0.7499999999999999
  }
}