{
  "FULL": {
    "fitness": {
      "average_trace_fitness": 1.0,
      "log_fitness": 1.0,
      "perc_fit_traces": 100.0,
      "percentage_of_fitting_traces": 100.0
    },
    "fitness_alignments": {
      "averageFitness": 1.0,
      "average_trace_fitness": 1.0,
      "percFitTraces": 100.0,
      "percentage_of_fitting_traces": 100.0
    },
    "fscore": 0.9994361712712679,
    "generalization": 0.9642513446981551,
    "metricsAverageWeight": 0.9453265352174742,
    "precision": 0.9988729779899231,
    "precision_alignments": 0.9988729779899231,
    "simplicity": 0.8181818181818181
  }
}