{
  "FULL": {
    "fitness": {
      "average_trace_fitness": 0.51,
      "log_fitness": 0.912718204488778,
      "perc_fit_traces": 51.0,
      "percentage_of_fitting_traces": 51.0
    },
    "fitness_alignments": {
      "averageFitness": 0.3466666666666664,
      "average_trace_fitness": 0.3466666666666664,
      "percFitTraces": 51.0,
      "percentage_of_fitting_traces": 51.0
    },
    "fscore": 0.9516128722843029,
    "generalization": 0.9595227134492692,
    "metricsAverageWeight": 0.9332193994106309,
    "precision": 0.9939700130378096,
    "precision_alignments": 0.9939700130378096,
    "simplicity": 0.8666666666666667
  }
}