{
  "FULL": {
    "entropia_precision": 0.9981194069194211,
    "entropia_recall": 1.000504734383435,
    "fitness": {
      "average_trace_fitness": 1.0,
      "log_fitness": 1.0,
      "perc_fit_traces": 100.0,
      "percentage_of_fitting_traces": 100.0
    },
    "fitness_alignments": {
      "averageFitness": 1.0,
      "average_trace_fitness": 1.0,
      "percFitTraces": 100.0,
      "percentage_of_fitting_traces": 100.0
    },
    "fscore": 0.9974007727432385,
    "generalization": 0.9589354498749527,
    "metricsAverageWeight": 0.9328820625185639,
    "precision": 0.9948150224215246,
    "precision_alignments": 0.9948150224215246,
    "simplicity": 0.7777777777777779
  },
  "easy_soundness": true,
  "sound": true
}