{
  "easy_soundness": true,
  "filename": "/mnt/c/Users/s140511/tue/thesis/thesis_data/process_trees_complex_ws/predictions/1754_gcn_ep100b_cc.json",
  "full": {
    "fitness": {
      "average_trace_fitness": 0.8918999351681474,
      "log_fitness": 0.8420616849513558,
      "perc_fit_traces": 49.0,
      "percentage_of_fitting_traces": 49.0
    },
    "fitness_alignments": {
      "averageFitness": -3.104,
      "average_trace_fitness": -3.104,
      "percFitTraces": 49.0,
      "percentage_of_fitting_traces": 49.0
    },
    "fscore": 0.914260029216766,
    "generalization": 0.9598851301699645,
    "metricsAverageWeight": 0.8790581323517587,
    "precision": 1.0,
    "precision_alignments": 1.0,
    "simplicity": 0.7142857142857143
  },
  "sound": false,
  "top 30": {
    "fitness": {
      "average_trace_fitness": 0.8927856849269451,
      "log_fitness": 0.8437533512064344,
      "perc_fit_traces": 49.44500504540868,
      "percentage_of_fitting_traces": 49.44500504540868
    },
    "fitness_alignments": {
      "averageFitness": -2.945509586276488,
      "average_trace_fitness": -2.945509586276488,
      "percFitTraces": 49.44500504540868,
      "percentage_of_fitting_traces": 49.44500504540868
    },
    "fscore": 0.9152562089222358,
    "generalization": 0.9592063385192762,
    "metricsAverageWeight": 0.8793113510028563,
    "precision": 1.0,
    "precision_alignments": 1.0,
    "simplicity": 0.7142857142857143
  }
}