{
  "easy_soundness": false,
  "filename": "/mnt/c/Users/s140511/tue/thesis/thesis_data/process_trees_complex_ws/predictions/1761_gcn_ep100b_cc.json",
  "full": {
    "fitness": {
      "average_trace_fitness": 0.7670761511891886,
      "log_fitness": 0.750788643533123,
      "perc_fit_traces": 0.0,
      "percentage_of_fitting_traces": 0.0
    },
    "fscore": 0.8576576576576577,
    "generalization": 0.9682167866965916,
    "metricsAverageWeight": 0.8415160634397816,
    "precision": 1.0,
    "simplicity": 0.6470588235294118
  },
  "sound": false,
  "top 30": {
    "fitness": {
      "average_trace_fitness": 0.7703067471384273,
      "log_fitness": 0.7577800086046178,
      "perc_fit_traces": 0.0,
      "percentage_of_fitting_traces": 0.0
    },
    "fscore": 0.8622011911560741,
    "generalization": 0.9659048206730716,
    "metricsAverageWeight": 0.8426859132017753,
    "precision": 1.0,
    "simplicity": 0.6470588235294118
  }
}