{
  "FULL": {
    "entropia_precision": null,
    "entropia_recall": null,
    "fitness": {
      "average_trace_fitness": 0.9824831981895793,
      "log_fitness": 0.9701105736005529,
      "perc_fit_traces": 49.0,
      "percentage_of_fitting_traces": 49.0
    },
    "fscore": 0.8008163970662596,
    "generalization": 0.963462304843695,
    "metricsAverageWeight": 0.8443269349954853,
    "precision": 0.6818300996329313,
    "simplicity": 0.7619047619047619
  },
  "easy_soundness": true,
  "sound": false
}