{
  "FULL": {
    "entropia_precision": 0.9365202743855998,
    "entropia_recall": 0.999325329565523,
    "fitness": {
      "average_trace_fitness": 1.0,
      "log_fitness": 1.0,
      "perc_fit_traces": 100.0,
      "percentage_of_fitting_traces": 100.0
    },
    "fitness_alignments": {
      "averageFitness": 1.0,
      "average_trace_fitness": 1.0,
      "percFitTraces": 100.0,
      "percentage_of_fitting_traces": 100.0
    },
    "fscore": 0.9384502656164132,
    "generalization": 0.9494086480666775,
    "metricsAverageWeight": 0.8869330815285639,
    "precision": 0.8840379637618637,
    "precision_alignments": 0.8840379637618637,
    "simplicity": 0.7142857142857143
  },
  "easy_soundness": true,
  "sound": true
}