{
  "FULL": {
    "fitness": {
      "average_trace_fitness": 0.9755869879775033,
      "log_fitness": 0.9766793644894546,
      "perc_fit_traces": 49.8,
      "percentage_of_fitting_traces": 49.8
    },
    "fitness_alignments": {
      "averageFitness": 0.9497999999999913,
      "average_trace_fitness": 0.9497999999999913,
      "percFitTraces": 49.8,
      "percentage_of_fitting_traces": 49.8
    },
    "fscore": 0.9639699370923419,
    "generalization": 0.9674663626986821,
    "metricsAverageWeight": 0.9263141425774464,
    "precision": 0.9515870335978389,
    "precision_alignments": 0.9515870335978389,
    "simplicity": 0.8095238095238095
  }
}