{
  "FULL": {
    "fitness": {
      "average_trace_fitness": 0.9999886933242197,
      "log_fitness": 0.9999397799962314,
      "perc_fit_traces": 99.9,
      "percentage_of_fitting_traces": 99.9
    },
    "fitness_alignments": {
      "averageFitness": 0.9996,
      "average_trace_fitness": 0.9996,
      "percFitTraces": 99.9,
      "percentage_of_fitting_traces": 99.9
    },
    "fscore": 0.7004403784449006,
    "generalization": 0.9699084697951235,
    "metricsAverageWeight": 0.8147121546161644,
    "precision": 0.5390003686733028,
    "precision_alignments": 0.5390003686733028,
    "simplicity": 0.7499999999999999
  }
}