{
  "easy_soundness": false,
  "filename": "/mnt/c/Users/s140511/tue/thesis/thesis_data/process_trees_complex_ws/predictions/1771_gcn_ep100b_cc.json",
  "full": {
    "entropia_precision": "nan",
    "entropia_recall": "nan",
    "fitness": {
      "average_trace_fitness": 0.9617600451993308,
      "log_fitness": 0.9746141348497157,
      "perc_fit_traces": 0.0,
      "percentage_of_fitting_traces": 0.0
    },
    "fscore": 0.9529943964073098,
    "generalization": 0.905545508003962,
    "metricsAverageWeight": 0.9114514985789564,
    "precision": 0.9323130181288148,
    "simplicity": 0.8333333333333333
  },
  "sound": false,
  "top 52": {
    "fitness": {
      "average_trace_fitness": 0.9552695555259404,
      "log_fitness": 0.9614866814116743,
      "perc_fit_traces": 0.0,
      "percentage_of_fitting_traces": 0.0
    },
    "fscore": 0.9687477893421904,
    "generalization": 0.8911793010742178,
    "metricsAverageWeight": 0.915529679701075,
    "precision": 0.9761194029850746,
    "simplicity": 0.8333333333333333
  }
}