{
  "easy_soundness": false,
  "filename": "/mnt/c/Users/s140511/tue/thesis/thesis_data/process_trees_complex_ws/predictions/1772_gcn_ep100b_cc.json",
  "full": {
    "entropia_precision": "nan",
    "entropia_recall": "nan",
    "fitness": {
      "average_trace_fitness": 0.8391339828007902,
      "log_fitness": 0.8714114029475275,
      "perc_fit_traces": 0.0,
      "percentage_of_fitting_traces": 0.0
    },
    "fscore": 0.9312879055615768,
    "generalization": 0.7925674148746863,
    "metricsAverageWeight": 0.7703636364943884,
    "precision": 1.0,
    "simplicity": 0.41747572815533984
  },
  "sound": false,
  "top 75": {
    "fitness": {
      "average_trace_fitness": 0.8129088821382114,
      "log_fitness": 0.8265886320191647,
      "perc_fit_traces": 0.0,
      "percentage_of_fitting_traces": 0.0
    },
    "fscore": 0.9050627136613999,
    "generalization": 0.7619863861322661,
    "metricsAverageWeight": 0.7515126865766926,
    "precision": 1.0,
    "simplicity": 0.41747572815533984
  }
}