{
  "FULL": {
    "entropia_precision": NaN,
    "entropia_recall": 0.0,
    "fitness": {
      "average_trace_fitness": 1.0,
      "log_fitness": 1.0,
      "perc_fit_traces": 100.0,
      "percentage_of_fitting_traces": 100.0
    },
    "fitness_alignments": {
      "averageFitness": 1.0,
      "average_trace_fitness": 1.0,
      "percFitTraces": 100.0,
      "percentage_of_fitting_traces": 100.0
    },
    "fscore": 0.951163428474991,
    "generalization": 0.9738566658515343,
    "metricsAverageWeight": 0.9184587219627997,
    "precision": 0.9068747737238022,
    "precision_alignments": 0.9068747737238022,
    "simplicity": 0.7931034482758622
  },
  "easy_soundness": true,
  "sound": false
}