{
  "FULL": {
    "fitness": {
      "average_trace_fitness": 1.0,
      "log_fitness": 1.0,
      "perc_fit_traces": 100.0,
      "percentage_of_fitting_traces": 100.0
    },
    "fitness_alignments": {
      "averageFitness": 1.0,
      "average_trace_fitness": 1.0,
      "percFitTraces": 100.0,
      "percentage_of_fitting_traces": 100.0
    },
    "fscore": 0.9996850393700788,
    "generalization": 0.9493968208758322,
    "metricsAverageWeight": 0.9271917744884794,
    "precision": 0.9993702770780857,
    "precision_alignments": 0.9993702770780857,
    "simplicity": 0.7599999999999999
  }
}