{
  "FULL": {
    "fitness": {
      "average_trace_fitness": 0.8892387841540481,
      "log_fitness": 0.8981419182842909,
      "perc_fit_traces": 0.0,
      "percentage_of_fitting_traces": 0.0
    },
    "fitness_alignments": {
      "averageFitness": 0.6558000000000052,
      "average_trace_fitness": 0.6558000000000052,
      "percFitTraces": 0.0,
      "percentage_of_fitting_traces": 0.0
    },
    "fscore": 0.9128332320598472,
    "generalization": 0.8554257386958473,
    "metricsAverageWeight": 0.838577023253673,
    "precision": 0.928013163307281,
    "precision_alignments": 0.928013163307281,
    "simplicity": 0.6727272727272727
  }
}