{
  "FULL": {
    "entropia_precision": null,
    "entropia_recall": null,
    "fitness": {
      "average_trace_fitness": 0.6457716617354162,
      "log_fitness": 0.9049296378133067,
      "perc_fit_traces": 33.8,
      "percentage_of_fitting_traces": 33.8
    },
    "fitness_alignments": {
      "averageFitness": -1.013,
      "average_trace_fitness": -1.013,
      "percFitTraces": 33.8,
      "percentage_of_fitting_traces": 33.8
    },
    "fscore": 0.878198909561194,
    "generalization": 0.9485449338251819,
    "metricsAverageWeight": 0.8641191605079659,
    "precision": 0.8530020703933747,
    "precision_alignments": 0.8530020703933747,
    "simplicity": 0.7499999999999999
  },
  "easy_soundness": true,
  "sound": false
}