{
  "FULL": {
    "fitness": {
      "average_trace_fitness": 0.9802916314866268,
      "log_fitness": 0.9699927693420102,
      "perc_fit_traces": 83.4,
      "percentage_of_fitting_traces": 83.4
    },
    "fitness_alignments": {
      "averageFitness": 0.834,
      "average_trace_fitness": 0.834,
      "percFitTraces": 83.4,
      "percentage_of_fitting_traces": 83.4
    },
    "fscore": 0.9821560941021956,
    "generalization": 0.9460998707675308,
    "metricsAverageWeight": 0.9062516733839474,
    "precision": 0.9946283391405343,
    "precision_alignments": 0.9946283391405343,
    "simplicity": 0.7142857142857143
  }
}