{
  "FULL": {
    "entropia_precision": 1.0002738798373625,
    "entropia_recall": 1.002895787718893,
    "fitness": {
      "average_trace_fitness": 1.0,
      "log_fitness": 1.0,
      "perc_fit_traces": 100.0,
      "percentage_of_fitting_traces": 100.0
    },
    "fitness_alignments": {
      "averageFitness": 1.0,
      "average_trace_fitness": 1.0,
      "percFitTraces": 100.0,
      "percentage_of_fitting_traces": 100.0
    },
    "fscore": 0.9997486489883122,
    "generalization": 0.948500757993559,
    "metricsAverageWeight": 0.935275407642239,
    "precision": 0.9994974242995351,
    "precision_alignments": 0.9994974242995351,
    "simplicity": 0.7931034482758622
  },
  "easy_soundness": true,
  "sound": true
}