{
  "FULL": {
    "entropia_precision": 0.9999971956520485,
    "entropia_recall": 0.999999999999997,
    "fitness": {
      "average_trace_fitness": 1.0,
      "log_fitness": 1.0,
      "perc_fit_traces": 100.0,
      "percentage_of_fitting_traces": 100.0
    },
    "fitness_alignments": {
      "averageFitness": 1.0,
      "average_trace_fitness": 1.0,
      "percFitTraces": 100.0,
      "percentage_of_fitting_traces": 100.0
    },
    "fscore": 0.9998198198198198,
    "generalization": 0.9397213225167739,
    "metricsAverageWeight": 0.9058928883475751,
    "precision": 0.9996397045577373,
    "precision_alignments": 0.9996397045577373,
    "simplicity": 0.6842105263157894
  },
  "easy_soundness": true,
  "sound": true
}