{
  "FULL": {
    "fitness": {
      "average_trace_fitness": 1.0,
      "log_fitness": 1.0,
      "perc_fit_traces": 100.0,
      "percentage_of_fitting_traces": 100.0
    },
    "fitness_alignments": {
      "averageFitness": 1.0,
      "average_trace_fitness": 1.0,
      "percFitTraces": 100.0,
      "percentage_of_fitting_traces": 100.0
    },
    "fscore": 0.9752543485395472,
    "generalization": 0.9703892732561155,
    "metricsAverageWeight": 0.9420617342465463,
    "precision": 0.9517038175762235,
    "precision_alignments": 0.9517038175762235,
    "simplicity": 0.8461538461538463
  }
}