{
  "FULL": {
    "fitness": {
      "average_trace_fitness": 0.8966934981684982,
      "log_fitness": 0.8795218631664491,
      "perc_fit_traces": 51.0,
      "percentage_of_fitting_traces": 51.0
    },
    "fitness_alignments": {
      "averageFitness": 0.7657999999999978,
      "average_trace_fitness": 0.7657999999999978,
      "percFitTraces": 51.0,
      "percentage_of_fitting_traces": 51.0
    },
    "fscore": 0.8581925489942217,
    "generalization": 0.8912291851610948,
    "metricsAverageWeight": 0.8495244972784846,
    "precision": 0.8378732565758682,
    "precision_alignments": 0.8378732565758682,
    "simplicity": 0.7894736842105263
  }
}