{
  "easy_soundness": true,
  "filename": "/mnt/c/Users/s140511/tue/thesis/thesis_data/process_trees_complex_ws/predictions/1782_gcn_ep100b_cca.json",
  "full": {
    "entropia_precision": 0.9471100285408733,
    "entropia_recall": 1.0,
    "fitness": {
      "average_trace_fitness": 1.0,
      "log_fitness": 1.0,
      "perc_fit_traces": 100.0,
      "percentage_of_fitting_traces": 100.0
    },
    "fitness_alignments": {
      "averageFitness": 1.0,
      "average_trace_fitness": 1.0,
      "log_fitness": 0.9999832778716075,
      "percFitTraces": 100.0,
      "percentage_of_fitting_traces": 100.0
    },
    "fscore": 0.9954641669186575,
    "generalization": 0.9616754683655483,
    "metricsAverageWeight": 0.9326056354370957,
    "precision": 0.9909692956050572,
    "precision_alignments": 0.9909692956050572,
    "simplicity": 0.7777777777777779
  },
  "sound": true,
  "top 34": {
    "fitness": {
      "average_trace_fitness": 1.0,
      "log_fitness": 1.0,
      "perc_fit_traces": 100.0,
      "percentage_of_fitting_traces": 100.0
    },
    "fitness_alignments": {
      "averageFitness": 1.0,
      "average_trace_fitness": 1.0,
      "log_fitness": 0.9999825475769245,
      "percFitTraces": 100.0,
      "percentage_of_fitting_traces": 100.0
    },
    "fscore": 0.9835083883845825,
    "generalization": 0.9543233945693606,
    "metricsAverageWeight": 0.9249132676519614,
    "precision": 0.967551898260707,
    "precision_alignments": 0.967551898260707,
    "simplicity": 0.7777777777777779
  }
}