{
  "FULL": {
    "entropia_precision": 0.9607315148101285,
    "entropia_recall": 0.980938700612849,
    "fitness": {
      "average_trace_fitness": 1.0,
      "log_fitness": 1.0,
      "perc_fit_traces": 100.0,
      "percentage_of_fitting_traces": 100.0
    },
    "fitness_alignments": {
      "averageFitness": 1.0,
      "average_trace_fitness": 1.0,
      "percFitTraces": 100.0,
      "percentage_of_fitting_traces": 100.0
    },
    "fscore": 0.9943097141308765,
    "generalization": 0.9691495533592701,
    "metricsAverageWeight": 0.9509968050177106,
    "precision": 0.988683820557726,
    "precision_alignments": 0.988683820557726,
    "simplicity": 0.8461538461538463
  },
  "easy_soundness": true,
  "sound": true
}