{
  "FULL": {
    "fitness": {
      "average_trace_fitness": 1.0,
      "log_fitness": 1.0,
      "perc_fit_traces": 100.0,
      "percentage_of_fitting_traces": 100.0
    },
    "fitness_alignments": {
      "averageFitness": 1.0,
      "average_trace_fitness": 1.0,
      "percFitTraces": 100.0,
      "percentage_of_fitting_traces": 100.0
    },
    "fscore": 0.999902238733014,
    "generalization": 0.9406071335647429,
    "metricsAverageWeight": 0.9061555391148056,
    "precision": 0.9998044965786901,
    "precision_alignments": 0.9998044965786901,
    "simplicity": 0.6842105263157894
  }
}