{
  "FULL": {
    "fitness": {
      "average_trace_fitness": 0.666,
      "log_fitness": 0.8945041061276058,
      "perc_fit_traces": 66.6,
      "percentage_of_fitting_traces": 66.6
    },
    "fitness_alignments": {
      "averageFitness": 0.499,
      "average_trace_fitness": 0.499,
      "percFitTraces": 66.6,
      "percentage_of_fitting_traces": 66.6
    },
    "fscore": 0.9442064064887948,
    "generalization": 0.939939233433486,
    "metricsAverageWeight": 0.8960500815488393,
    "precision": 0.9997569866342649,
    "precision_alignments": 0.9997569866342649,
    "simplicity": 0.7499999999999999
  }
}