{
  "FULL": {
    "fitness": {
      "average_trace_fitness": 1.0,
      "log_fitness": 1.0,
      "perc_fit_traces": 100.0,
      "percentage_of_fitting_traces": 100.0
    },
    "fitness_alignments": {
      "averageFitness": 1.0,
      "average_trace_fitness": 1.0,
      "percFitTraces": 100.0,
      "percentage_of_fitting_traces": 100.0
    },
    "fscore": 0.9586748730748503,
    "generalization": 0.9632897094250343,
    "metricsAverageWeight": 0.9068772963854699,
    "precision": 0.9206297325271013,
    "precision_alignments": 0.9206297325271013,
    "simplicity": 0.7435897435897437
  }
}