{
  "easy_soundness": false,
  "filename": "/mnt/c/Users/s140511/tue/thesis/thesis_data/process_trees_complex_ws/predictions/1791_gcn_ep100b_cca.json",
  "full": {
    "entropia_precision": "nan",
    "entropia_recall": "nan",
    "fitness": {
      "average_trace_fitness": 0.874745619894668,
      "log_fitness": 0.8763110898740927,
      "perc_fit_traces": 0.0,
      "percentage_of_fitting_traces": 0.0
    },
    "fscore": 0.7042674891391194,
    "generalization": 0.8442710215681962,
    "metricsAverageWeight": 0.7119337673548338,
    "precision": 0.5886914195155082,
    "simplicity": 0.5384615384615384
  },
  "sound": false,
  "top 34": {
    "fitness": {
      "average_trace_fitness": 0.8733903851902731,
      "log_fitness": 0.8741506238374019,
      "perc_fit_traces": 0.0,
      "percentage_of_fitting_traces": 0.0
    },
    "fscore": 0.7013747131125417,
    "generalization": 0.8355956917261246,
    "metricsAverageWeight": 0.7084584024421792,
    "precision": 0.5856257557436517,
    "simplicity": 0.5384615384615384
  }
}