{
  "easy_soundness": true,
  "filename": "/mnt/c/Users/s140511/tue/thesis/thesis_data/process_trees_complex_ws/predictions/1793_gcn_ep100b_cc.json",
  "full": {
    "fitness": {
      "average_trace_fitness": 0.9822140609191995,
      "log_fitness": 0.9682392273402675,
      "perc_fit_traces": 75.0,
      "percentage_of_fitting_traces": 75.0
    },
    "fitness_alignments": {
      "averageFitness": 0.253,
      "average_trace_fitness": 0.253,
      "percFitTraces": 75.0,
      "percentage_of_fitting_traces": 75.0
    },
    "fscore": 0.9626672127637058,
    "generalization": 0.8926490894187303,
    "metricsAverageWeight": 0.8711784865554014,
    "precision": 0.9571589627959414,
    "precision_alignments": 0.9571589627959414,
    "simplicity": 0.6666666666666666
  },
  "sound": true,
  "top 75": {
    "fitness": {
      "average_trace_fitness": 0.9942279411764688,
      "log_fitness": 0.9896139525769155,
      "perc_fit_traces": 92.20588235294117,
      "percentage_of_fitting_traces": 92.20588235294117
    },
    "fitness_alignments": {
      "averageFitness": 0.850735294117647,
      "average_trace_fitness": 0.850735294117647,
      "percFitTraces": 92.20588235294117,
      "percentage_of_fitting_traces": 92.20588235294117
    },
    "fscore": 0.9846112097182763,
    "generalization": 0.8746452525793503,
    "metricsAverageWeight": 0.8776461661184628,
    "precision": 0.9796587926509186,
    "precision_alignments": 0.9796587926509186,
    "simplicity": 0.6666666666666666
  }
}