{
  "FULL": {
    "entropia_precision": NaN,
    "entropia_recall": 0.0,
    "fitness": {
      "average_trace_fitness": 0.9893494552276277,
      "log_fitness": 0.9941039865812915,
      "perc_fit_traces": 84.9,
      "percentage_of_fitting_traces": 84.9
    },
    "fitness_alignments": {
      "averageFitness": 0.91675,
      "average_trace_fitness": 0.91675,
      "percFitTraces": 84.9,
      "percentage_of_fitting_traces": 84.9
    },
    "fscore": 0.9508470089122505,
    "generalization": 0.9713132900981061,
    "metricsAverageWeight": 0.9110141797626251,
    "precision": 0.9111975819059862,
    "precision_alignments": 0.9111975819059862,
    "simplicity": 0.7674418604651162
  },
  "easy_soundness": true,
  "sound": false
}