{
  "FULL": {
    "entropia_precision": 0.9967418259560683,
    "entropia_recall": 0.999788053236056,
    "fitness": {
      "average_trace_fitness": 1.0,
      "log_fitness": 1.0,
      "perc_fit_traces": 100.0,
      "percentage_of_fitting_traces": 100.0
    },
    "fitness_alignments": {
      "averageFitness": 1.0,
      "average_trace_fitness": 1.0,
      "percFitTraces": 100.0,
      "percentage_of_fitting_traces": 100.0
    },
    "fscore": 0.9958889168554409,
    "generalization": 0.9595947885218767,
    "metricsAverageWeight": 0.9322960159064644,
    "precision": 0.9918114973262032,
    "precision_alignments": 0.9918114973262032,
    "simplicity": 0.7777777777777779
  },
  "easy_soundness": true,
  "sound": true
}