{
  "FULL": {
    "entropia_precision": 0.8054820606260539,
    "entropia_recall": 1.00000532014911,
    "fitness": {
      "average_trace_fitness": 1.0,
      "log_fitness": 1.0,
      "perc_fit_traces": 100.0,
      "percentage_of_fitting_traces": 100.0
    },
    "fitness_alignments": {
      "averageFitness": 0.0,
      "average_trace_fitness": 0.0,
      "percFitTraces": 0.0,
      "percentage_of_fitting_traces": 0.0
    },
    "fscore": 0.9985000749962502,
    "generalization": 0.8647130452137496,
    "metricsAverageWeight": 0.8756858322607612,
    "precision": 0.9970046428036543,
    "precision_alignments": 0.9970046428036543,
    "simplicity": 0.641025641025641
  },
  "easy_soundness": true,
  "sound": true
}