{
  "FULL": {
    "entropia_precision": 0.9999999999511612,
    "entropia_recall": 1.00000000060228,
    "fitness": {
      "average_trace_fitness": 1.0,
      "log_fitness": 1.0,
      "perc_fit_traces": 100.0,
      "percentage_of_fitting_traces": 100.0
    },
    "fitness_alignments": {
      "averageFitness": 1.0,
      "average_trace_fitness": 1.0,
      "percFitTraces": 100.0,
      "percentage_of_fitting_traces": 100.0
    },
    "fscore": 1.0,
    "generalization": 0.9646298608886792,
    "metricsAverageWeight": 0.9617457005162874,
    "precision": 1.0,
    "precision_alignments": 1.0,
    "simplicity": 0.8823529411764706
  },
  "easy_soundness": true,
  "sound": true
}