{
  "FULL": {
    "entropia_precision": 0.9431916510407385,
    "entropia_recall": 0.977225473569333,
    "fitness": {
      "average_trace_fitness": 0.9999313725490196,
      "log_fitness": 0.9996439108759793,
      "perc_fit_traces": 99.3,
      "percentage_of_fitting_traces": 99.3
    },
    "fitness_alignments": {
      "averageFitness": 0.98,
      "average_trace_fitness": 0.98,
      "percFitTraces": 99.3,
      "percentage_of_fitting_traces": 99.3
    },
    "fscore": 0.9218793731776147,
    "generalization": 0.971615184413273,
    "metricsAverageWeight": 0.9049257657295932,
    "precision": 0.8553405193532582,
    "precision_alignments": 0.8553405193532582,
    "simplicity": 0.7931034482758622
  },
  "easy_soundness": true,
  "sound": true
}