{
  "easy_soundness": true,
  "filename": "/mnt/c/Users/s140511/tue/thesis/thesis_data/process_trees_complex_ws/predictions/1803_gcn_ep100b_cca.json",
  "full": {
    "entropia_precision": 0.9999999999999988,
    "entropia_recall": 0.999999999999999,
    "fitness": {
      "average_trace_fitness": 1.0,
      "log_fitness": 1.0,
      "perc_fit_traces": 100.0,
      "percentage_of_fitting_traces": 100.0
    },
    "fitness_alignments": {
      "averageFitness": 1.0,
      "average_trace_fitness": 1.0,
      "log_fitness": 0.9999432817196983,
      "percFitTraces": 100.0,
      "percentage_of_fitting_traces": 100.0
    },
    "fscore": 1.0,
    "generalization": 0.9485583429549748,
    "metricsAverageWeight": 0.9315840301831881,
    "precision": 1.0,
    "precision_alignments": 1.0,
    "simplicity": 0.7777777777777779
  },
  "sound": true,
  "top 8": {
    "fitness": {
      "average_trace_fitness": 1.0,
      "log_fitness": 1.0,
      "perc_fit_traces": 100.0,
      "percentage_of_fitting_traces": 100.0
    },
    "fitness_alignments": {
      "averageFitness": 1.0,
      "average_trace_fitness": 1.0,
      "log_fitness": 0.9999432817196983,
      "percFitTraces": 100.0,
      "percentage_of_fitting_traces": 100.0
    },
    "fscore": 1.0,
    "generalization": 0.9485583429549748,
    "metricsAverageWeight": 0.9315840301831881,
    "precision": 1.0,
    "precision_alignments": 1.0,
    "simplicity": 0.7777777777777779
  }
}