{
  "FULL": {
    "entropia_precision": 0.9703281711919366,
    "entropia_recall": 0.97318405108733,
    "fitness": {
      "average_trace_fitness": 1.0,
      "log_fitness": 1.0,
      "perc_fit_traces": 100.0,
      "percentage_of_fitting_traces": 100.0
    },
    "fitness_alignments": {
      "averageFitness": 1.0,
      "average_trace_fitness": 1.0,
      "percFitTraces": 100.0,
      "percentage_of_fitting_traces": 100.0
    },
    "fscore": 0.9999503845199702,
    "generalization": 0.9697785503791015,
    "metricsAverageWeight": 0.9924198310855474,
    "precision": 0.999900773963088,
    "precision_alignments": 0.999900773963088,
    "simplicity": 1.0
  },
  "easy_soundness": true,
  "sound": true
}