{
  "FULL": {
    "fitness": {
      "average_trace_fitness": 0.9576666666666763,
      "log_fitness": 0.9628872004675628,
      "perc_fit_traces": 74.6,
      "percentage_of_fitting_traces": 74.6
    },
    "fitness_alignments": {
      "averageFitness": 0.873,
      "average_trace_fitness": 0.873,
      "percFitTraces": 74.6,
      "percentage_of_fitting_traces": 74.6
    },
    "fscore": 0.9808868573594776,
    "generalization": 0.9575523306841018,
    "metricsAverageWeight": 0.9561934299792478,
    "precision": 0.9995722840034217,
    "precision_alignments": 0.9995722840034217,
    "simplicity": 0.9047619047619049
  }
}