{
  "FULL": {
    "fitness": {
      "average_trace_fitness": 1.0,
      "log_fitness": 1.0,
      "perc_fit_traces": 100.0,
      "percentage_of_fitting_traces": 100.0
    },
    "fitness_alignments": {
      "averageFitness": 1.0,
      "average_trace_fitness": 1.0,
      "percFitTraces": 100.0,
      "percentage_of_fitting_traces": 100.0
    },
    "fscore": 0.9715231507023724,
    "generalization": 0.9678160411699214,
    "metricsAverageWeight": 0.9326552789833504,
    "precision": 0.9446232565816621,
    "precision_alignments": 0.9446232565816621,
    "simplicity": 0.8181818181818181
  }
}