{
  "FULL": {
    "entropia_precision": "nan",
    "entropia_recall": "nan",
    "fitness": {
      "average_trace_fitness": 0.9585782917419196,
      "log_fitness": 0.9616711383671905,
      "perc_fit_traces": 0.0,
      "percentage_of_fitting_traces": 0.0
    },
    "fscore": 0.9325975949483244,
    "generalization": 0.9704800563806409,
    "metricsAverageWeight": 0.9343453952000338,
    "precision": 0.9052303860523039,
    "simplicity": 0.8999999999999999
  },
  "easy_soundness": false,
  "sound": false
}