{
  "FULL": {
    "fitness": {
      "average_trace_fitness": 1.0,
      "log_fitness": 1.0,
      "perc_fit_traces": 100.0,
      "percentage_of_fitting_traces": 100.0
    },
    "fitness_alignments": {
      "averageFitness": 1.0,
      "average_trace_fitness": 1.0,
      "percFitTraces": 100.0,
      "percentage_of_fitting_traces": 100.0
    },
    "fscore": 0.9996218241826246,
    "generalization": 0.9704800563806409,
    "metricsAverageWeight": 0.9686214738583905,
    "precision": 0.9992439342910165,
    "precision_alignments": 0.9992439342910165,
    "simplicity": 0.9047619047619049
  }
}