{
  "FULL": {
    "entropia_precision": "nan",
    "entropia_recall": "nan",
    "fitness": {
      "average_trace_fitness": 1.0,
      "log_fitness": 1.0,
      "perc_fit_traces": 100.0,
      "percentage_of_fitting_traces": 100.0
    },
    "fitness_alignments": {
      "averageFitness": 1.0,
      "average_trace_fitness": 1.0,
      "percFitTraces": 100.0,
      "percentage_of_fitting_traces": 100.0
    },
    "fscore": 0.9549081065678872,
    "generalization": 0.9637880059880224,
    "metricsAverageWeight": 0.9209867331598647,
    "precision": 0.9137073137482108,
    "precision_alignments": 0.9137073137482108,
    "simplicity": 0.8064516129032256
  },
  "easy_soundness": true,
  "sound": true
}