{
  "FULL": {
    "entropia_precision": 0.880222327581848,
    "entropia_recall": 0.896752484818432,
    "fitness": {
      "average_trace_fitness": 0.9805004220400994,
      "log_fitness": 0.9679084170029089,
      "perc_fit_traces": 65.8,
      "percentage_of_fitting_traces": 65.8
    },
    "fitness_alignments": {
      "averageFitness": 0.508,
      "average_trace_fitness": 0.508,
      "percFitTraces": 65.8,
      "percentage_of_fitting_traces": 65.8
    },
    "fscore": 0.9689833572639207,
    "generalization": 0.9615346520003393,
    "metricsAverageWeight": 0.9193203836440091,
    "precision": 0.9700606877950101,
    "precision_alignments": 0.9700606877950101,
    "simplicity": 0.7777777777777779
  },
  "easy_soundness": true,
  "sound": true
}