{
  "FULL": {
    "fitness": {
      "average_trace_fitness": 1.0,
      "log_fitness": 1.0,
      "perc_fit_traces": 100.0,
      "percentage_of_fitting_traces": 100.0
    },
    "fitness_alignments": {
      "averageFitness": 1.0,
      "average_trace_fitness": 1.0,
      "percFitTraces": 100.0,
      "percentage_of_fitting_traces": 100.0
    },
    "fscore": 0.9863610235328956,
    "generalization": 0.9689000128798809,
    "metricsAverageWeight": 0.9319258457510987,
    "precision": 0.9730890844102282,
    "precision_alignments": 0.9730890844102282,
    "simplicity": 0.7857142857142856
  }
}