{
  "FULL": {
    "entropia_precision": "nan",
    "entropia_recall": "nan",
    "fitness": {
      "average_trace_fitness": 0.9999891039881519,
      "log_fitness": 0.9999417355050689,
      "perc_fit_traces": 99.9,
      "percentage_of_fitting_traces": 99.9
    },
    "fitness_alignments": {
      "averageFitness": 0.999,
      "average_trace_fitness": 0.999,
      "percFitTraces": 99.9,
      "percentage_of_fitting_traces": 99.9
    },
    "fscore": 0.6702843669437182,
    "generalization": 0.972632059758863,
    "metricsAverageWeight": 0.7941673967702485,
    "precision": 0.5040957918170619,
    "precision_alignments": 0.5040957918170619,
    "simplicity": 0.7000000000000001
  },
  "easy_soundness": true,
  "sound": true
}