{
  "easy_soundness": false,
  "filename": "/mnt/c/Users/s140511/tue/thesis/thesis_data/process_trees_complex_ws/predictions/1815_gcn_ep100b_cc.json",
  "full": {
    "fitness": {
      "average_trace_fitness": 0.8579272077955404,
      "log_fitness": 0.9013099066079031,
      "perc_fit_traces": 0.0,
      "percentage_of_fitting_traces": 0.0
    },
    "fscore": 0.9480936311071095,
    "generalization": 0.7815766331068539,
    "metricsAverageWeight": 0.7795451643404541,
    "precision": 1.0,
    "simplicity": 0.43529411764705883
  },
  "sound": false,
  "top 75": {
    "fitness": {
      "average_trace_fitness": 0.8118689153497772,
      "log_fitness": 0.8398155077091687,
      "perc_fit_traces": 0.0,
      "percentage_of_fitting_traces": 0.0
    },
    "fscore": 0.9129344808652669,
    "generalization": 0.7425431490776936,
    "metricsAverageWeight": 0.7544131936084804,
    "precision": 1.0,
    "simplicity": 0.43529411764705883
  }
}