{
  "easy_soundness": true,
  "filename": "/mnt/c/Users/s140511/tue/thesis/thesis_data/process_trees_complex_ws/predictions/1816_gcn_ep100b_cca.json",
  "full": {
    "entropia_precision": 0.9724635361764268,
    "entropia_recall": 0.905936278579582,
    "fitness": {
      "average_trace_fitness": 0.9749199537425144,
      "log_fitness": 0.958193135935397,
      "perc_fit_traces": 65.6,
      "percentage_of_fitting_traces": 65.6
    },
    "fitness_alignments": {
      "averageFitness": 0.9324188123967537,
      "average_trace_fitness": 0.9324188123967537,
      "log_fitness": 0.8886449676306535,
      "percFitTraces": 65.6,
      "percentage_of_fitting_traces": 65.6
    },
    "fscore": 0.9763537835658342,
    "generalization": 0.9577013392642741,
    "metricsAverageWeight": 0.8908211291810675,
    "precision": 0.9952161284811208,
    "precision_alignments": 0.9952161284811208,
    "simplicity": 0.6521739130434783
  },
  "sound": false,
  "top 30": {
    "fitness": {
      "average_trace_fitness": 0.98220649123347,
      "log_fitness": 0.9699257742513437,
      "perc_fit_traces": 75.11904761904762,
      "percentage_of_fitting_traces": 75.11904761904762
    },
    "fitness_alignments": {
      "averageFitness": 0.9531363378684815,
      "average_trace_fitness": 0.9531363378684815,
      "log_fitness": 0.9211414371416572,
      "percFitTraces": 75.11904761904762,
      "percentage_of_fitting_traces": 75.11904761904762
    },
    "fscore": 0.9819585061181743,
    "generalization": 0.9448020481905389,
    "metricsAverageWeight": 0.8902988189432417,
    "precision": 0.9942935402876055,
    "precision_alignments": 0.9942935402876055,
    "simplicity": 0.6521739130434783
  }
}