{
  "easy_soundness": true,
  "filename": "/mnt/c/Users/s140511/tue/thesis/thesis_data/process_trees_complex_ws/predictions/1818_gcn_ep100b_cc.json",
  "full": {
    "fitness": {
      "average_trace_fitness": 1.0,
      "log_fitness": 1.0,
      "perc_fit_traces": 100.0,
      "percentage_of_fitting_traces": 100.0
    },
    "fitness_alignments": {
      "averageFitness": 1.0,
      "average_trace_fitness": 1.0,
      "percFitTraces": 100.0,
      "percentage_of_fitting_traces": 100.0
    },
    "fscore": 0.9997867045858514,
    "generalization": 0.9701025389077401,
    "metricsAverageWeight": 0.9724190097624766,
    "precision": 0.9995735001421666,
    "precision_alignments": 0.9995735001421666,
    "simplicity": 0.92
  },
  "sound": true,
  "top 16": {
    "fitness": {
      "average_trace_fitness": 1.0,
      "log_fitness": 1.0,
      "perc_fit_traces": 100.0,
      "percentage_of_fitting_traces": 100.0
    },
    "fitness_alignments": {
      "averageFitness": 1.0,
      "average_trace_fitness": 1.0,
      "percFitTraces": 100.0,
      "percentage_of_fitting_traces": 100.0
    },
    "fscore": 0.9997867045858514,
    "generalization": 0.9701025389077401,
    "metricsAverageWeight": 0.9724190097624766,
    "precision": 0.9995735001421666,
    "precision_alignments": 0.9995735001421666,
    "simplicity": 0.92
  }
}