{
  "FULL": {
    "entropia_precision": NaN,
    "entropia_recall": 0.0,
    "fitness": {
      "average_trace_fitness": 1.0,
      "log_fitness": 1.0,
      "perc_fit_traces": 100.0,
      "percentage_of_fitting_traces": 100.0
    },
    "fitness_alignments": {
      "averageFitness": 1.0,
      "average_trace_fitness": 1.0,
      "percFitTraces": 100.0,
      "percentage_of_fitting_traces": 100.0
    },
    "fscore": 0.9820792647903503,
    "generalization": 0.9718686213474097,
    "metricsAverageWeight": 0.9387099916676584,
    "precision": 0.9647895271414062,
    "precision_alignments": 0.9647895271414062,
    "simplicity": 0.8181818181818181
  },
  "easy_soundness": true,
  "sound": false
}