{
  "FULL": {
    "entropia_precision": NaN,
    "entropia_recall": 0.0,
    "fitness": {
      "average_trace_fitness": 1.0,
      "log_fitness": 1.0,
      "perc_fit_traces": 100.0,
      "percentage_of_fitting_traces": 100.0
    },
    "fitness_alignments": {
      "averageFitness": 1.0,
      "average_trace_fitness": 1.0,
      "percFitTraces": 100.0,
      "percentage_of_fitting_traces": 100.0
    },
    "fscore": 0.9977732417888292,
    "generalization": 0.9755304574913632,
    "metricsAverageWeight": 0.9543101705234113,
    "precision": 0.9955563784484355,
    "precision_alignments": 0.9955563784484355,
    "simplicity": 0.8461538461538463
  },
  "easy_soundness": true,
  "sound": false
}