{
  "easy_soundness": false,
  "filename": "/mnt/c/Users/s140511/tue/thesis/thesis_data/process_trees_complex_ws/predictions/1825_gcn_ep100b_cca.json",
  "full": {
    "entropia_precision": "nan",
    "entropia_recall": "nan",
    "fitness": {
      "average_trace_fitness": 0.766701763843799,
      "log_fitness": 0.7502822024332121,
      "perc_fit_traces": 0.0,
      "percentage_of_fitting_traces": 0.0
    },
    "fscore": 0.8573271228950197,
    "generalization": 0.6470962063586609,
    "metricsAverageWeight": 0.7868446021979683,
    "precision": 1.0,
    "simplicity": 0.7499999999999999
  },
  "sound": false,
  "top 10": {
    "fitness": {
      "average_trace_fitness": 0.766701763843799,
      "log_fitness": 0.7502822024332121,
      "perc_fit_traces": 0.0,
      "percentage_of_fitting_traces": 0.0
    },
    "fscore": 0.8573271228950197,
    "generalization": 0.6470962063586609,
    "metricsAverageWeight": 0.7868446021979683,
    "precision": 1.0,
    "simplicity": 0.7499999999999999
  }
}