{
  "FULL": {
    "entropia_precision": 0.9818247031839702,
    "entropia_recall": 1.0060020558748,
    "fitness": {
      "average_trace_fitness": 1.0,
      "log_fitness": 1.0,
      "perc_fit_traces": 100.0,
      "percentage_of_fitting_traces": 100.0
    },
    "fitness_alignments": {
      "averageFitness": 1.0,
      "average_trace_fitness": 1.0,
      "percFitTraces": 100.0,
      "percentage_of_fitting_traces": 100.0
    },
    "fscore": 0.9724448078495503,
    "generalization": 0.9618605693568835,
    "metricsAverageWeight": 0.9215014543733844,
    "precision": 0.9463674703588765,
    "precision_alignments": 0.9463674703588765,
    "simplicity": 0.7777777777777779
  },
  "easy_soundness": true,
  "sound": true
}