{
  "FULL": {
    "entropia_precision": "nan",
    "entropia_recall": "nan",
    "fitness": {
      "average_trace_fitness": 1.0,
      "log_fitness": 1.0,
      "perc_fit_traces": 100.0,
      "percentage_of_fitting_traces": 100.0
    },
    "fitness_alignments": {
      "averageFitness": 1.0,
      "average_trace_fitness": 1.0,
      "percFitTraces": 100.0,
      "percentage_of_fitting_traces": 100.0
    },
    "fscore": 0.9944238538849377,
    "generalization": 0.9693606985051364,
    "metricsAverageWeight": 0.9657580382520108,
    "precision": 0.9889095497410014,
    "precision_alignments": 0.9889095497410014,
    "simplicity": 0.9047619047619049
  },
  "easy_soundness": true,
  "sound": true
}