{
  "FULL": {
    "entropia_precision": "nan",
    "entropia_recall": "nan",
    "fitness": {
      "average_trace_fitness": 0.9702289153715742,
      "log_fitness": 0.960016155088853,
      "perc_fit_traces": 67.4,
      "percentage_of_fitting_traces": 67.4
    },
    "fitness_alignments": {
      "averageFitness": 0.7878571428571364,
      "average_trace_fitness": 0.7878571428571364,
      "percFitTraces": 67.4,
      "percentage_of_fitting_traces": 67.4
    },
    "fscore": 0.9793775663426667,
    "generalization": 0.9672012868844838,
    "metricsAverageWeight": 0.9599492315433326,
    "precision": 0.999536005939124,
    "precision_alignments": 0.999536005939124,
    "simplicity": 0.9130434782608695
  },
  "easy_soundness": true,
  "sound": true
}