{
  "easy_soundness": false,
  "filename": "/mnt/c/Users/s140511/tue/thesis/thesis_data/process_trees_complex_ws/predictions/1828_gcn_ep100b_cc.json",
  "full": {
    "entropia_precision": "nan",
    "entropia_recall": "nan",
    "fitness": {
      "average_trace_fitness": 0.8992186052876442,
      "log_fitness": 0.8903169014084507,
      "perc_fit_traces": 0.0,
      "percentage_of_fitting_traces": 0.0
    },
    "fscore": 0.9418815336835744,
    "generalization": 0.969196785987333,
    "metricsAverageWeight": 0.9179500030455271,
    "precision": 0.9997863247863248,
    "simplicity": 0.8125
  },
  "sound": false,
  "top 30": {
    "fitness": {
      "average_trace_fitness": 0.902877031396902,
      "log_fitness": 0.897822558831485,
      "perc_fit_traces": 0.0,
      "percentage_of_fitting_traces": 0.0
    },
    "fscore": 0.9459001377828159,
    "generalization": 0.9670524631878772,
    "metricsAverageWeight": 0.9191982713335184,
    "precision": 0.9994180633147114,
    "simplicity": 0.8125
  }
}