{
  "FULL": {
    "fitness": {
      "average_trace_fitness": 1.0,
      "log_fitness": 1.0,
      "perc_fit_traces": 100.0,
      "percentage_of_fitting_traces": 100.0
    },
    "fitness_alignments": {
      "averageFitness": 1.0,
      "average_trace_fitness": 1.0,
      "percFitTraces": 100.0,
      "percentage_of_fitting_traces": 100.0
    },
    "fscore": 0.9855234267425849,
    "generalization": 0.9711716636076039,
    "metricsAverageWeight": 0.9356579195702797,
    "precision": 0.9714600146735143,
    "precision_alignments": 0.9714600146735143,
    "simplicity": 0.8
  }
}