{
  "FULL": {
    "entropia_precision": 0.9824555422349649,
    "entropia_recall": 1.000582165051075,
    "fitness": {
      "average_trace_fitness": 1.0,
      "log_fitness": 1.0,
      "perc_fit_traces": 100.0,
      "percentage_of_fitting_traces": 100.0
    },
    "fitness_alignments": {
      "averageFitness": 1.0,
      "average_trace_fitness": 1.0,
      "percFitTraces": 100.0,
      "percentage_of_fitting_traces": 100.0
    },
    "fscore": 0.9992433795712484,
    "generalization": 0.9516972777278504,
    "metricsAverageWeight": 0.9250462952384142,
    "precision": 0.9984879032258065,
    "precision_alignments": 0.9984879032258065,
    "simplicity": 0.7499999999999999
  },
  "easy_soundness": true,
  "sound": true
}