{
  "FULL": {
    "entropia_precision": 0.9999999999999978,
    "entropia_recall": 0.99999999999999,
    "fitness": {
      "average_trace_fitness": 1.0,
      "log_fitness": 1.0,
      "perc_fit_traces": 100.0,
      "percentage_of_fitting_traces": 100.0
    },
    "fitness_alignments": {
      "averageFitness": 1.0,
      "average_trace_fitness": 1.0,
      "percFitTraces": 100.0,
      "percentage_of_fitting_traces": 100.0
    },
    "fscore": 1.0,
    "generalization": 0.921996153764598,
    "metricsAverageWeight": 0.8971657051078161,
    "precision": 1.0,
    "precision_alignments": 1.0,
    "simplicity": 0.6666666666666666
  },
  "easy_soundness": true,
  "sound": true
}