{
  "FULL": {
    "fitness": {
      "average_trace_fitness": 1.0,
      "log_fitness": 1.0,
      "perc_fit_traces": 100.0,
      "percentage_of_fitting_traces": 100.0
    },
    "fitness_alignments": {
      "averageFitness": 1.0,
      "average_trace_fitness": 1.0,
      "percFitTraces": 100.0,
      "percentage_of_fitting_traces": 100.0
    },
    "fscore": 0.975995521030163,
    "generalization": 0.9653862881284461,
    "metricsAverageWeight": 0.9081971148736331,
    "precision": 0.9531164570803717,
    "precision_alignments": 0.9531164570803717,
    "simplicity": 0.7142857142857143
  }
}