{
  "FULL": {
    "fitness": {
      "average_trace_fitness": 1.0,
      "log_fitness": 1.0,
      "perc_fit_traces": 100.0,
      "percentage_of_fitting_traces": 100.0
    },
    "fitness_alignments": {
      "averageFitness": 1.0,
      "average_trace_fitness": 1.0,
      "percFitTraces": 100.0,
      "percentage_of_fitting_traces": 100.0
    },
    "fscore": 0.975995521030163,
    "generalization": 0.9638908204935109,
    "metricsAverageWeight": 0.8792518193934707,
    "precision": 0.9531164570803717,
    "precision_alignments": 0.9531164570803717,
    "simplicity": 0.6000000000000001
  }
}