{
  "FULL": {
    "entropia_precision": 0.9976617937442426,
    "entropia_recall": 0.999087356084447,
    "fitness": {
      "average_trace_fitness": 1.0,
      "log_fitness": 1.0,
      "perc_fit_traces": 100.0,
      "percentage_of_fitting_traces": 100.0
    },
    "fitness_alignments": {
      "averageFitness": 1.0,
      "average_trace_fitness": 1.0,
      "percFitTraces": 100.0,
      "percentage_of_fitting_traces": 100.0
    },
    "fscore": 0.9997781885397412,
    "generalization": 0.957718814959919,
    "metricsAverageWeight": 0.9438642771500114,
    "precision": 0.9995564754583087,
    "precision_alignments": 0.9995564754583087,
    "simplicity": 0.8181818181818181
  },
  "easy_soundness": true,
  "sound": true
}