{
  "FULL": {
    "entropia_precision": 0.992499937132318,
    "entropia_recall": 0.914672659115866,
    "fitness": {
      "average_trace_fitness": 0.535,
      "log_fitness": 0.9195640892579139,
      "perc_fit_traces": 53.5,
      "percentage_of_fitting_traces": 53.5
    },
    "fitness_alignments": {
      "averageFitness": 0.4419999999999992,
      "average_trace_fitness": 0.4419999999999992,
      "percFitTraces": 53.5,
      "percentage_of_fitting_traces": 53.5
    },
    "fscore": 0.9578578346822499,
    "generalization": 0.958439570618857,
    "metricsAverageWeight": 0.9399590322896809,
    "precision": 0.9994795281054824,
    "precision_alignments": 0.9994795281054824,
    "simplicity": 0.8823529411764706
  },
  "easy_soundness": true,
  "sound": true
}