{
  "FULL": {
    "fitness": {
      "average_trace_fitness": 1.0,
      "log_fitness": 1.0,
      "perc_fit_traces": 100.0,
      "percentage_of_fitting_traces": 100.0
    },
    "fitness_alignments": {
      "averageFitness": 1.0,
      "average_trace_fitness": 1.0,
      "percFitTraces": 100.0,
      "percentage_of_fitting_traces": 100.0
    },
    "fscore": 0.993513906185139,
    "generalization": 0.9641722113986354,
    "metricsAverageWeight": 0.9544875717615181,
    "precision": 0.9871114089807702,
    "precision_alignments": 0.9871114089807702,
    "simplicity": 0.8666666666666667
  }
}