{
  "easy_soundness": true,
  "filename": "/mnt/c/Users/s140511/tue/thesis/thesis_data/process_trees_complex_ws/predictions/1841_gcn_ep100b_cc.json",
  "full": {
    "entropia_precision": 0.9999999999999984,
    "entropia_recall": 1.02694993341389,
    "fitness": {
      "average_trace_fitness": 0.9756083427286664,
      "log_fitness": 0.9422550729972108,
      "perc_fit_traces": 76.4,
      "percentage_of_fitting_traces": 76.4
    },
    "fitness_alignments": {
      "averageFitness": -1.2,
      "average_trace_fitness": -1.2,
      "percFitTraces": 76.4,
      "percentage_of_fitting_traces": 76.4
    },
    "fscore": 0.9583207532896293,
    "generalization": 0.9553700429022497,
    "metricsAverageWeight": 0.893142225007631,
    "precision": 0.9749437841310633,
    "precision_alignments": 0.9749437841310633,
    "simplicity": 0.7000000000000001
  },
  "sound": false,
  "top 30": {
    "fitness": {
      "average_trace_fitness": 0.9952575168358143,
      "log_fitness": 0.9875867054004253,
      "perc_fit_traces": 94.20468557336622,
      "percentage_of_fitting_traces": 94.20468557336622
    },
    "fitness_alignments": {
      "averageFitness": 0.7102342786683107,
      "average_trace_fitness": 0.7102342786683107,
      "percFitTraces": 94.20468557336622,
      "percentage_of_fitting_traces": 94.20468557336622
    },
    "fscore": 0.987029753759019,
    "generalization": 0.9252528744578655,
    "metricsAverageWeight": 0.8998282524524954,
    "precision": 0.9864734299516909,
    "precision_alignments": 0.9864734299516909,
    "simplicity": 0.7000000000000001
  }
}