{
  "easy_soundness": false,
  "filename": "/mnt/c/Users/s140511/tue/thesis/thesis_data/process_trees_complex_ws/predictions/1846_gcn_ep100b_cca.json",
  "full": {
    "entropia_precision": "nan",
    "entropia_recall": "nan",
    "fitness": {
      "average_trace_fitness": 0.7648558598117692,
      "log_fitness": 0.7483159828536436,
      "perc_fit_traces": 0.0,
      "percentage_of_fitting_traces": 0.0
    },
    "fscore": 0.8560420315236428,
    "generalization": 0.6473179288898889,
    "metricsAverageWeight": 0.7864084779358831,
    "precision": 1.0,
    "simplicity": 0.7499999999999999
  },
  "sound": false,
  "top 10": {
    "fitness": {
      "average_trace_fitness": 0.7648558598117692,
      "log_fitness": 0.7483159828536436,
      "perc_fit_traces": 0.0,
      "percentage_of_fitting_traces": 0.0
    },
    "fscore": 0.8560420315236428,
    "generalization": 0.6473179288898889,
    "metricsAverageWeight": 0.7864084779358831,
    "precision": 1.0,
    "simplicity": 0.7499999999999999
  }
}