{
  "FULL": {
    "entropia_precision": null,
    "entropia_recall": null,
    "fitness": {
      "average_trace_fitness": 0.9679816733176205,
      "log_fitness": 0.9453169454876522,
      "perc_fit_traces": 49.0,
      "percentage_of_fitting_traces": 49.0
    },
    "fscore": 0.660232805301391,
    "generalization": 0.9698658897465022,
    "metricsAverageWeight": 0.8038857589673186,
    "precision": 0.507256752359258,
    "simplicity": 0.7931034482758622
  },
  "easy_soundness": true,
  "sound": false
}