{
  "FULL": {
    "fitness": {
      "average_trace_fitness": 1.0,
      "log_fitness": 1.0,
      "perc_fit_traces": 100.0,
      "percentage_of_fitting_traces": 100.0
    },
    "fitness_alignments": {
      "averageFitness": 1.0,
      "average_trace_fitness": 1.0,
      "percFitTraces": 100.0,
      "percentage_of_fitting_traces": 100.0
    },
    "fscore": 0.9907075908121806,
    "generalization": 0.9739291222086447,
    "metricsAverageWeight": 0.9555455195584054,
    "precision": 0.98158628935831,
    "precision_alignments": 0.98158628935831,
    "simplicity": 0.8666666666666667
  }
}