{
  "FULL": {
    "fitness": {
      "average_trace_fitness": 0.97225,
      "log_fitness": 0.9667415730337079,
      "perc_fit_traces": 77.8,
      "percentage_of_fitting_traces": 77.8
    },
    "fitness_alignments": {
      "averageFitness": 0.889,
      "average_trace_fitness": 0.889,
      "percFitTraces": 77.8,
      "percentage_of_fitting_traces": 77.8
    },
    "fscore": 0.9830895795246801,
    "generalization": 0.9535073839686462,
    "metricsAverageWeight": 0.9416007007890501,
    "precision": 1.0,
    "precision_alignments": 1.0,
    "simplicity": 0.8461538461538463
  }
}