{
  "easy_soundness": false,
  "filename": "/mnt/c/Users/s140511/tue/thesis/thesis_data/process_trees_complex_ws/predictions/1853_gcn_ep100b_cc.json",
  "full": {
    "entropia_precision": "nan",
    "entropia_recall": "nan",
    "fitness": {
      "average_trace_fitness": 0.9252434160115202,
      "log_fitness": 0.9155716951149001,
      "perc_fit_traces": 0.0,
      "percentage_of_fitting_traces": 0.0
    },
    "fscore": 0.9559252701945798,
    "generalization": 0.959622340369558,
    "metricsAverageWeight": 0.9021318422044479,
    "precision": 1.0,
    "simplicity": 0.7333333333333333
  },
  "sound": false,
  "top 55": {
    "fitness": {
      "average_trace_fitness": 0.9318370493301612,
      "log_fitness": 0.9259324310211404,
      "perc_fit_traces": 0.0,
      "percentage_of_fitting_traces": 0.0
    },
    "fscore": 0.9615419690816522,
    "generalization": 0.9510711805283454,
    "metricsAverageWeight": 0.9025842362207048,
    "precision": 1.0,
    "simplicity": 0.7333333333333333
  }
}