{
  "FULL": {
    "entropia_precision": "nan",
    "entropia_recall": "nan",
    "fitness": {
      "average_trace_fitness": 1.0,
      "log_fitness": 1.0,
      "perc_fit_traces": 100.0,
      "percentage_of_fitting_traces": 100.0
    },
    "fitness_alignments": {
      "averageFitness": 1.0,
      "average_trace_fitness": 1.0,
      "percFitTraces": 100.0,
      "percentage_of_fitting_traces": 100.0
    },
    "fscore": 0.979422124526603,
    "generalization": 0.9590869130507973,
    "metricsAverageWeight": 0.9155876819097719,
    "precision": 0.9596740709985468,
    "precision_alignments": 0.9596740709985468,
    "simplicity": 0.7435897435897437
  },
  "easy_soundness": true,
  "sound": true
}