{
  "FULL": {
    "fitness": {
      "average_trace_fitness": 0.6877959576440327,
      "log_fitness": 0.8608125087253944,
      "perc_fit_traces": 37.5,
      "percentage_of_fitting_traces": 37.5
    },
    "fitness_alignments": {
      "averageFitness": 0.029,
      "average_trace_fitness": 0.029,
      "percFitTraces": 37.5,
      "percentage_of_fitting_traces": 37.5
    },
    "fscore": 0.9204975760852893,
    "generalization": 0.9622895840963906,
    "metricsAverageWeight": 0.9236327280891712,
    "precision": 0.9890758783584293,
    "precision_alignments": 0.9890758783584293,
    "simplicity": 0.8823529411764706
  }
}