{
  "FULL": {
    "fitness": {
      "average_trace_fitness": 1.0,
      "log_fitness": 1.0,
      "perc_fit_traces": 100.0,
      "percentage_of_fitting_traces": 100.0
    },
    "fitness_alignments": {
      "averageFitness": 1.0,
      "average_trace_fitness": 1.0,
      "percFitTraces": 100.0,
      "percentage_of_fitting_traces": 100.0
    },
    "fscore": 0.9953601953601954,
    "generalization": 0.9688433978239284,
    "metricsAverageWeight": 0.9343461057623614,
    "precision": 0.9907632474477395,
    "precision_alignments": 0.9907632474477395,
    "simplicity": 0.7777777777777779
  }
}