{
  "FULL": {
    "entropia_precision": "nan",
    "entropia_recall": "nan",
    "fitness": {
      "average_trace_fitness": 1.0,
      "log_fitness": 1.0,
      "perc_fit_traces": 100.0,
      "percentage_of_fitting_traces": 100.0
    },
    "fitness_alignments": {
      "averageFitness": 1.0,
      "average_trace_fitness": 1.0,
      "percFitTraces": 100.0,
      "percentage_of_fitting_traces": 100.0
    },
    "fscore": 0.9722081539630286,
    "generalization": 0.9667500759413808,
    "metricsAverageWeight": 0.9327128010639072,
    "precision": 0.9459193101324299,
    "precision_alignments": 0.9459193101324299,
    "simplicity": 0.8181818181818181
  },
  "easy_soundness": true,
  "sound": true
}