{
  "FULL": {
    "fitness": {
      "average_trace_fitness": 1.0,
      "log_fitness": 1.0,
      "perc_fit_traces": 100.0,
      "percentage_of_fitting_traces": 100.0
    },
    "fitness_alignments": {
      "averageFitness": 1.0,
      "average_trace_fitness": 1.0,
      "percFitTraces": 100.0,
      "percentage_of_fitting_traces": 100.0
    },
    "fscore": 0.9992038216560509,
    "generalization": 0.9542050631018623,
    "metricsAverageWeight": 0.9364293553702863,
    "precision": 0.9984089101034208,
    "precision_alignments": 0.9984089101034208,
    "simplicity": 0.7931034482758622
  }
}