{
  "easy_soundness": true,
  "filename": "/mnt/c/Users/s140511/tue/thesis/thesis_data/process_trees_complex_ws/predictions/1858_gcn_ep100b_cca.json",
  "full": {
    "entropia_precision": 0.9797022809079576,
    "entropia_recall": 0.99835051701185,
    "fitness": {
      "average_trace_fitness": 1.0,
      "log_fitness": 1.0,
      "perc_fit_traces": 100.0,
      "percentage_of_fitting_traces": 100.0
    },
    "fitness_alignments": {
      "averageFitness": 1.0,
      "average_trace_fitness": 1.0,
      "log_fitness": 0.9999864187638359,
      "percFitTraces": 100.0,
      "percentage_of_fitting_traces": 100.0
    },
    "fscore": 0.9897437588629093,
    "generalization": 0.9662688578272174,
    "metricsAverageWeight": 0.953157821842933,
    "precision": 0.9796957628778481,
    "precision_alignments": 0.9796957628778481,
    "simplicity": 0.8666666666666667
  },
  "sound": true,
  "top 30": {
    "fitness": {
      "average_trace_fitness": 1.0,
      "log_fitness": 1.0,
      "perc_fit_traces": 100.0,
      "percentage_of_fitting_traces": 100.0
    },
    "fitness_alignments": {
      "averageFitness": 1.0,
      "average_trace_fitness": 1.0,
      "log_fitness": 0.9999838883967102,
      "percFitTraces": 100.0,
      "percentage_of_fitting_traces": 100.0
    },
    "fscore": 0.9951324534306842,
    "generalization": 0.9608114139967994,
    "metricsAverageWeight": 0.9544475360019168,
    "precision": 0.9903120633442012,
    "precision_alignments": 0.9903120633442012,
    "simplicity": 0.8666666666666667
  }
}