{
  "FULL": {
    "fitness": {
      "average_trace_fitness": 1.0,
      "log_fitness": 1.0,
      "perc_fit_traces": 100.0,
      "percentage_of_fitting_traces": 100.0
    },
    "fitness_alignments": {
      "averageFitness": 1.0,
      "average_trace_fitness": 1.0,
      "percFitTraces": 100.0,
      "percentage_of_fitting_traces": 100.0
    },
    "fscore": 0.9121694387938255,
    "generalization": 0.974072254340932,
    "metricsAverageWeight": 0.8921728575250985,
    "precision": 0.8385216147838521,
    "precision_alignments": 0.8385216147838521,
    "simplicity": 0.7560975609756097
  }
}