{
  "easy_soundness": false,
  "filename": "/mnt/c/Users/s140511/tue/thesis/thesis_data/process_trees_complex_ws/predictions/1863_gcn_ep100b_cc.json",
  "full": {
    "fitness": {
      "average_trace_fitness": 0.766530652736456,
      "log_fitness": 0.7493181254649144,
      "perc_fit_traces": 0.0,
      "percentage_of_fitting_traces": 0.0
    },
    "fscore": 0.8566973777462792,
    "generalization": 0.6472058638336773,
    "metricsAverageWeight": 0.7866309973246479,
    "precision": 1.0,
    "simplicity": 0.7499999999999999
  },
  "sound": false,
  "top 10": {
    "fitness": {
      "average_trace_fitness": 0.766530652736456,
      "log_fitness": 0.7493181254649144,
      "perc_fit_traces": 0.0,
      "percentage_of_fitting_traces": 0.0
    },
    "fscore": 0.8566973777462792,
    "generalization": 0.6472058638336773,
    "metricsAverageWeight": 0.7866309973246479,
    "precision": 1.0,
    "simplicity": 0.7499999999999999
  }
}