{
  "FULL": {
    "entropia_precision": 0.9752339425352093,
    "entropia_recall": 1.000220120502785,
    "fitness": {
      "average_trace_fitness": 1.0,
      "log_fitness": 1.0,
      "perc_fit_traces": 100.0,
      "percentage_of_fitting_traces": 100.0
    },
    "fitness_alignments": {
      "averageFitness": 1.0,
      "average_trace_fitness": 1.0,
      "percFitTraces": 100.0,
      "percentage_of_fitting_traces": 100.0
    },
    "fscore": 0.9719227487784069,
    "generalization": 0.9486478548118632,
    "metricsAverageWeight": 0.909870375622996,
    "precision": 0.9453791022255753,
    "precision_alignments": 0.9453791022255753,
    "simplicity": 0.7454545454545455
  },
  "easy_soundness": true,
  "sound": true
}