{
  "easy_soundness": true,
  "filename": "/mnt/c/Users/s140511/tue/thesis/thesis_data/process_trees_complex_ws/predictions/1866_gcn_ep100b_cca.json",
  "full": {
    "entropia_precision": 0.955188262783305,
    "entropia_recall": 0.998643468054706,
    "fitness": {
      "average_trace_fitness": 1.0,
      "log_fitness": 1.0,
      "perc_fit_traces": 100.0,
      "percentage_of_fitting_traces": 100.0
    },
    "fitness_alignments": {
      "averageFitness": 1.0,
      "average_trace_fitness": 1.0,
      "log_fitness": 0.9999899599401613,
      "percFitTraces": 100.0,
      "percentage_of_fitting_traces": 100.0
    },
    "fscore": 0.9786626194089814,
    "generalization": 0.9724542541477713,
    "metricsAverageWeight": 0.9410010926744719,
    "precision": 0.9582167832167832,
    "precision_alignments": 0.9582167832167832,
    "simplicity": 0.8333333333333333
  },
  "sound": true,
  "top 60": {
    "fitness": {
      "average_trace_fitness": 1.0,
      "log_fitness": 1.0,
      "perc_fit_traces": 100.0,
      "percentage_of_fitting_traces": 100.0
    },
    "fitness_alignments": {
      "averageFitness": 1.0,
      "average_trace_fitness": 1.0,
      "log_fitness": 0.9999875099018333,
      "percFitTraces": 100.0,
      "percentage_of_fitting_traces": 100.0
    },
    "fscore": 0.9868073878627968,
    "generalization": 0.9650092354946959,
    "metricsAverageWeight": 0.9430752255403407,
    "precision": 0.9739583333333334,
    "precision_alignments": 0.9739583333333334,
    "simplicity": 0.8333333333333333
  }
}