{
  "FULL": {
    "entropia_precision": 0.5344220670790434,
    "entropia_recall": 1.00068338448156,
    "fitness": {
      "average_trace_fitness": 0.9999337731533445,
      "log_fitness": 0.9997700990872934,
      "perc_fit_traces": 99.0,
      "percentage_of_fitting_traces": 99.0
    },
    "fitness_alignments": {
      "averageFitness": 0.9966666666666664,
      "average_trace_fitness": 0.9966666666666664,
      "percFitTraces": 99.0,
      "percentage_of_fitting_traces": 99.0
    },
    "fscore": 0.5609921818271089,
    "generalization": 0.9709924226088801,
    "metricsAverageWeight": 0.7519257027520948,
    "precision": 0.38988146578279403,
    "precision_alignments": 0.38988146578279403,
    "simplicity": 0.6470588235294118
  },
  "easy_soundness": true,
  "sound": true
}