{
  "FULL": {
    "entropia_precision": 0.7333475032255231,
    "entropia_recall": 1.001701022079556,
    "fitness": {
      "average_trace_fitness": 1.0,
      "log_fitness": 1.0,
      "perc_fit_traces": 100.0,
      "percentage_of_fitting_traces": 100.0
    },
    "fitness_alignments": {
      "averageFitness": 1.0,
      "average_trace_fitness": 1.0,
      "percFitTraces": 100.0,
      "percentage_of_fitting_traces": 100.0
    },
    "fscore": 0.9017255382510936,
    "generalization": 0.7896824585482932,
    "metricsAverageWeight": 0.8123187760051382,
    "precision": 0.8210384286047899,
    "precision_alignments": 0.8210384286047899,
    "simplicity": 0.6385542168674699
  },
  "easy_soundness": true,
  "sound": true
}