{
  "FULL": {
    "entropia_precision": 0.90962223431692,
    "entropia_recall": 0.862929558464756,
    "fitness": {
      "average_trace_fitness": 0.9553580198411808,
      "log_fitness": 0.9653179190751445,
      "perc_fit_traces": 49.6,
      "percentage_of_fitting_traces": 49.6
    },
    "fitness_alignments": {
      "averageFitness": 0.8991999999999907,
      "average_trace_fitness": 0.8991999999999907,
      "percFitTraces": 49.6,
      "percentage_of_fitting_traces": 49.6
    },
    "fscore": 0.9758446414128179,
    "generalization": 0.9661048458390661,
    "metricsAverageWeight": 0.9311194647724125,
    "precision": 0.9866034812722136,
    "precision_alignments": 0.9866034812722136,
    "simplicity": 0.8064516129032256
  },
  "easy_soundness": true,
  "sound": true
}