{
  "FULL": {
    "fitness": {
      "average_trace_fitness": 0.9995091590551317,
      "log_fitness": 0.9987635405893103,
      "perc_fit_traces": 95.5,
      "percentage_of_fitting_traces": 95.5
    },
    "fitness_alignments": {
      "averageFitness": 0.9832000000000006,
      "average_trace_fitness": 0.9832000000000006,
      "percFitTraces": 95.5,
      "percentage_of_fitting_traces": 95.5
    },
    "fscore": 0.4700431872595528,
    "generalization": 0.9748765061259118,
    "metricsAverageWeight": 0.7340389495025157,
    "precision": 0.3073433375017368,
    "precision_alignments": 0.3073433375017368,
    "simplicity": 0.6551724137931035
  }
}