{
  "easy_soundness": true,
  "filename": "/mnt/c/Users/s140511/tue/thesis/thesis_data/process_trees_complex_ws/predictions/1874_gcn_ep100b_cca.json",
  "full": {
    "entropia_precision": 1.0000000000000016,
    "entropia_recall": 1.000000000000001,
    "fitness": {
      "average_trace_fitness": 1.0,
      "log_fitness": 1.0,
      "perc_fit_traces": 100.0,
      "percentage_of_fitting_traces": 100.0
    },
    "fitness_alignments": {
      "averageFitness": 1.0,
      "average_trace_fitness": 1.0,
      "log_fitness": 0.9999377954715103,
      "percFitTraces": 100.0,
      "percentage_of_fitting_traces": 100.0
    },
    "fscore": 1.0,
    "generalization": 0.9420875336855756,
    "metricsAverageWeight": 0.9188552167547273,
    "precision": 1.0,
    "precision_alignments": 1.0,
    "simplicity": 0.7333333333333333
  },
  "sound": true,
  "top 11": {
    "fitness": {
      "average_trace_fitness": 1.0,
      "log_fitness": 1.0,
      "perc_fit_traces": 100.0,
      "percentage_of_fitting_traces": 100.0
    },
    "fitness_alignments": {
      "averageFitness": 1.0,
      "average_trace_fitness": 1.0,
      "log_fitness": 0.9999377954715103,
      "percFitTraces": 100.0,
      "percentage_of_fitting_traces": 100.0
    },
    "fscore": 1.0,
    "generalization": 0.9420875336855756,
    "metricsAverageWeight": 0.9188552167547273,
    "precision": 1.0,
    "precision_alignments": 1.0,
    "simplicity": 0.7333333333333333
  }
}