{
  "FULL": {
    "entropia_precision": "nan",
    "entropia_recall": "nan",
    "fitness": {
      "average_trace_fitness": 0.9999606318269674,
      "log_fitness": 0.9998521499853065,
      "perc_fit_traces": 99.6,
      "percentage_of_fitting_traces": 99.6
    },
    "fitness_alignments": {
      "averageFitness": 0.9985555555555555,
      "average_trace_fitness": 0.9985555555555555,
      "percFitTraces": 99.6,
      "percentage_of_fitting_traces": 99.6
    },
    "fscore": 0.8530896836194786,
    "generalization": 0.9284735025615087,
    "metricsAverageWeight": 0.8603634385231951,
    "precision": 0.7438973323151957,
    "precision_alignments": 0.7438973323151957,
    "simplicity": 0.7692307692307694
  },
  "easy_soundness": true,
  "sound": true
}