{
  "easy_soundness": false,
  "filename": "/mnt/c/Users/s140511/tue/thesis/thesis_data/process_trees_complex_ws/predictions/1876_gcn_ep100b_cca.json",
  "full": {
    "entropia_precision": "nan",
    "entropia_recall": "nan",
    "fitness": {
      "average_trace_fitness": 0.9186597210636845,
      "log_fitness": 0.890086614155494,
      "perc_fit_traces": 0.0,
      "percentage_of_fitting_traces": 0.0
    },
    "fscore": 0.9418474343866954,
    "generalization": 0.9698865626114248,
    "metricsAverageWeight": 0.8899932941917297,
    "precision": 1.0,
    "simplicity": 0.7000000000000001
  },
  "sound": false,
  "top 30": {
    "fitness": {
      "average_trace_fitness": 0.9342483982097219,
      "log_fitness": 0.9213475423189557,
      "perc_fit_traces": 0.0,
      "percentage_of_fitting_traces": 0.0
    },
    "fscore": 0.9590639090801265,
    "generalization": 0.9634507247133837,
    "metricsAverageWeight": 0.8961995667580849,
    "precision": 1.0,
    "simplicity": 0.7000000000000001
  }
}