{
  "FULL": {
    "entropia_precision": "nan",
    "entropia_recall": "nan",
    "fitness": {
      "average_trace_fitness": 1.0,
      "log_fitness": 1.0,
      "perc_fit_traces": 100.0,
      "percentage_of_fitting_traces": 100.0
    },
    "fitness_alignments": {
      "averageFitness": 1.0,
      "average_trace_fitness": 1.0,
      "percFitTraces": 100.0,
      "percentage_of_fitting_traces": 100.0
    },
    "fscore": 0.9830254318618042,
    "generalization": 0.969898341703146,
    "metricsAverageWeight": 0.9484146789506633,
    "precision": 0.96661751695665,
    "precision_alignments": 0.96661751695665,
    "simplicity": 0.8571428571428572
  },
  "easy_soundness": true,
  "sound": true
}