{
  "FULL": {
    "entropia_precision": 0.9997812446128623,
    "entropia_recall": 1.01816944391095,
    "fitness": {
      "average_trace_fitness": 1.0,
      "log_fitness": 1.0,
      "perc_fit_traces": 100.0,
      "percentage_of_fitting_traces": 100.0
    },
    "fitness_alignments": {
      "averageFitness": 1.0,
      "average_trace_fitness": 1.0,
      "percFitTraces": 100.0,
      "percentage_of_fitting_traces": 100.0
    },
    "fscore": 0.9996904982977407,
    "generalization": 0.9693309765098354,
    "metricsAverageWeight": 0.968368517347638,
    "precision": 0.9993811881188119,
    "precision_alignments": 0.9993811881188119,
    "simplicity": 0.9047619047619049
  },
  "easy_soundness": true,
  "sound": true
}