{
  "easy_soundness": true,
  "filename": "/mnt/c/Users/s140511/tue/thesis/thesis_data/process_trees_complex_ws/predictions/1877_gcn_ep100b_cc.json",
  "full": {
    "fitness": {
      "average_trace_fitness": 1.0,
      "log_fitness": 1.0,
      "perc_fit_traces": 100.0,
      "percentage_of_fitting_traces": 100.0
    },
    "fitness_alignments": {
      "averageFitness": 1.0,
      "average_trace_fitness": 1.0,
      "percFitTraces": 100.0,
      "percentage_of_fitting_traces": 100.0
    },
    "fscore": 0.9996904982977407,
    "generalization": 0.9691575668531954,
    "metricsAverageWeight": 0.9721346887430018,
    "precision": 0.9993811881188119,
    "precision_alignments": 0.9993811881188119,
    "simplicity": 0.92
  },
  "sound": true,
  "top 18": {
    "fitness": {
      "average_trace_fitness": 1.0,
      "log_fitness": 1.0,
      "perc_fit_traces": 100.0,
      "percentage_of_fitting_traces": 100.0
    },
    "fitness_alignments": {
      "averageFitness": 1.0,
      "average_trace_fitness": 1.0,
      "percFitTraces": 100.0,
      "percentage_of_fitting_traces": 100.0
    },
    "fscore": 0.9996904982977407,
    "generalization": 0.9691575668531954,
    "metricsAverageWeight": 0.9721346887430018,
    "precision": 0.9993811881188119,
    "precision_alignments": 0.9993811881188119,
    "simplicity": 0.92
  }
}