{
  "FULL": {
    "fitness": {
      "average_trace_fitness": 1.0,
      "log_fitness": 1.0,
      "perc_fit_traces": 100.0,
      "percentage_of_fitting_traces": 100.0
    },
    "fitness_alignments": {
      "averageFitness": 1.0,
      "average_trace_fitness": 1.0,
      "percFitTraces": 100.0,
      "percentage_of_fitting_traces": 100.0
    },
    "fscore": 0.976257049428937,
    "generalization": 0.9711009469408602,
    "metricsAverageWeight": 0.9256235326748914,
    "precision": 0.9536154059809276,
    "precision_alignments": 0.9536154059809276,
    "simplicity": 0.7777777777777779
  }
}