{
  "FULL": {
    "fitness": {
      "average_trace_fitness": 1.0,
      "log_fitness": 1.0,
      "perc_fit_traces": 100.0,
      "percentage_of_fitting_traces": 100.0
    },
    "fitness_alignments": {
      "averageFitness": 1.0,
      "average_trace_fitness": 1.0,
      "percFitTraces": 100.0,
      "percentage_of_fitting_traces": 100.0
    },
    "fscore": 0.9995122902848225,
    "generalization": 0.9502777917346675,
    "metricsAverageWeight": 0.9206590452818194,
    "precision": 0.9990250560592766,
    "precision_alignments": 0.9990250560592766,
    "simplicity": 0.7333333333333333
  }
}