{
  "FULL": {
    "entropia_precision": 0.9487833827597749,
    "entropia_recall": 0.999844946192419,
    "fitness": {
      "average_trace_fitness": 1.0,
      "log_fitness": 1.0,
      "perc_fit_traces": 100.0,
      "percentage_of_fitting_traces": 100.0
    },
    "fitness_alignments": {
      "averageFitness": 1.0,
      "average_trace_fitness": 1.0,
      "percFitTraces": 100.0,
      "percentage_of_fitting_traces": 100.0
    },
    "fscore": 0.9773098855524983,
    "generalization": 0.9700400354422082,
    "metricsAverageWeight": 0.939749994303376,
    "precision": 0.955626608437963,
    "precision_alignments": 0.955626608437963,
    "simplicity": 0.8333333333333333
  },
  "easy_soundness": true,
  "sound": true
}