{
  "easy_soundness": false,
  "filename": "/mnt/c/Users/s140511/tue/thesis/thesis_data/process_trees_complex_ws/predictions/1884_gcn_ep100b_cca.json",
  "full": {
    "entropia_precision": "nan",
    "entropia_recall": "nan",
    "fitness": {
      "average_trace_fitness": 0.7653246306626706,
      "log_fitness": 0.7487381509294595,
      "perc_fit_traces": 0.0,
      "percentage_of_fitting_traces": 0.0
    },
    "fscore": 0.8563181978176698,
    "generalization": 0.6472709521428328,
    "metricsAverageWeight": 0.7865022757680731,
    "precision": 1.0,
    "simplicity": 0.7499999999999999
  },
  "sound": false,
  "top 10": {
    "fitness": {
      "average_trace_fitness": 0.7653246306626706,
      "log_fitness": 0.7487381509294595,
      "perc_fit_traces": 0.0,
      "percentage_of_fitting_traces": 0.0
    },
    "fscore": 0.8563181978176698,
    "generalization": 0.6472709521428328,
    "metricsAverageWeight": 0.7865022757680731,
    "precision": 1.0,
    "simplicity": 0.7499999999999999
  }
}