{
  "easy_soundness": false,
  "filename": "/mnt/c/Users/s140511/tue/thesis/thesis_data/process_trees_complex_ws/predictions/1885_gcn_ep100b_cc.json",
  "full": {
    "entropia_precision": "nan",
    "entropia_recall": "nan",
    "fitness": {
      "average_trace_fitness": 0.7963778769856494,
      "log_fitness": 0.7912370976236558,
      "perc_fit_traces": 0.0,
      "percentage_of_fitting_traces": 0.0
    },
    "fscore": 0.8834532275747865,
    "generalization": 0.967837650472888,
    "metricsAverageWeight": 0.8548630266467775,
    "precision": 1.0,
    "simplicity": 0.6603773584905661
  },
  "sound": false,
  "top 75": {
    "fitness": {
      "average_trace_fitness": 0.8112462900513652,
      "log_fitness": 0.8107473021767503,
      "perc_fit_traces": 0.0,
      "percentage_of_fitting_traces": 0.0
    },
    "fscore": 0.8954836505371325,
    "generalization": 0.9573327523328112,
    "metricsAverageWeight": 0.8571143532500319,
    "precision": 1.0,
    "simplicity": 0.6603773584905661
  }
}