{
  "easy_soundness": true,
  "filename": "/mnt/c/Users/s140511/tue/thesis/thesis_data/process_trees_complex_ws/predictions/1888_gcn_ep100b_cca.json",
  "full": {
    "entropia_precision": 0.9625654104482371,
    "entropia_recall": 0.902296632566402,
    "fitness": {
      "average_trace_fitness": 0.9722013108020336,
      "log_fitness": 0.960548801664441,
      "perc_fit_traces": 62.1,
      "percentage_of_fitting_traces": 62.1
    },
    "fitness_alignments": {
      "averageFitness": 0.9505618108813576,
      "average_trace_fitness": 0.9505618108813576,
      "log_fitness": 0.9396471387278672,
      "percFitTraces": 62.1,
      "percentage_of_fitting_traces": 62.1
    },
    "fscore": 0.9752471923684222,
    "generalization": 0.955086003282325,
    "metricsAverageWeight": 0.883916709939196,
    "precision": 0.9904024051803886,
    "precision_alignments": 0.9904024051803886,
    "simplicity": 0.6296296296296295
  },
  "sound": false,
  "top 34": {
    "fitness": {
      "average_trace_fitness": 0.9808347929482807,
      "log_fitness": 0.971098948542354,
      "perc_fit_traces": 73.625,
      "percentage_of_fitting_traces": 73.625
    },
    "fitness_alignments": {
      "averageFitness": 0.9643728991596648,
      "average_trace_fitness": 0.9643728991596648,
      "log_fitness": 0.9557804392636292,
      "percFitTraces": 73.625,
      "percentage_of_fitting_traces": 73.625
    },
    "fscore": 0.9798292501173664,
    "generalization": 0.9411994004825596,
    "metricsAverageWeight": 0.8826614818431229,
    "precision": 0.9887179487179487,
    "precision_alignments": 0.9887179487179487,
    "simplicity": 0.6296296296296295
  }
}