{
  "FULL": {
    "fitness": {
      "average_trace_fitness": 1.0,
      "log_fitness": 1.0,
      "perc_fit_traces": 100.0,
      "percentage_of_fitting_traces": 100.0
    },
    "fitness_alignments": {
      "averageFitness": 1.0,
      "average_trace_fitness": 1.0,
      "percFitTraces": 100.0,
      "percentage_of_fitting_traces": 100.0
    },
    "fscore": 0.9244059108312502,
    "generalization": 0.9593554533238238,
    "metricsAverageWeight": 0.8796982420082918,
    "precision": 0.8594375147093434,
    "precision_alignments": 0.8594375147093434,
    "simplicity": 0.7000000000000001
  }
}