{
  "easy_soundness": false,
  "filename": "/mnt/c/Users/s140511/tue/thesis/thesis_data/process_trees_complex_ws/predictions/1894_gcn_ep100b_cc.json",
  "full": {
    "entropia_precision": "nan",
    "entropia_recall": "nan",
    "fitness": {
      "average_trace_fitness": 0.7129226987991532,
      "log_fitness": 0.6883058771233749,
      "perc_fit_traces": 0.0,
      "percentage_of_fitting_traces": 0.0
    },
    "fscore": 0.7757145753183254,
    "generalization": 0.9701569998139309,
    "metricsAverageWeight": 0.7850590165916119,
    "precision": 0.888552850446091,
    "simplicity": 0.5932203389830509
  },
  "sound": false,
  "top 75": {
    "fitness": {
      "average_trace_fitness": 0.7748954668748875,
      "log_fitness": 0.7642995014358955,
      "perc_fit_traces": 0.0,
      "percentage_of_fitting_traces": 0.0
    },
    "fscore": 0.816159302117946,
    "generalization": 0.9273815863884607,
    "metricsAverageWeight": 0.7901176177033693,
    "precision": 0.8755690440060698,
    "simplicity": 0.5932203389830509
  }
}