{
  "FULL": {
    "fitness": {
      "average_trace_fitness": 0.9050164891132563,
      "log_fitness": 0.9097146984470927,
      "perc_fit_traces": 0.0,
      "percentage_of_fitting_traces": 0.0
    },
    "fscore": 0.8592843417813143,
    "generalization": 0.8485870426225635,
    "metricsAverageWeight": 0.8454942780174426,
    "precision": 0.8141515614763049,
    "simplicity": 0.8095238095238095
  }
}