{
  "FULL": {
    "entropia_precision": 0.9376302503184683,
    "entropia_recall": 1.000157252377725,
    "fitness": {
      "average_trace_fitness": 1.0,
      "log_fitness": 1.0,
      "perc_fit_traces": 100.0,
      "percentage_of_fitting_traces": 100.0
    },
    "fitness_alignments": {
      "averageFitness": 1.0,
      "average_trace_fitness": 1.0,
      "percFitTraces": 100.0,
      "percentage_of_fitting_traces": 100.0
    },
    "fscore": 0.9965249933172948,
    "generalization": 0.9698137629972154,
    "metricsAverageWeight": 0.9407219543348126,
    "precision": 0.9930740543420352,
    "precision_alignments": 0.9930740543420352,
    "simplicity": 0.8
  },
  "easy_soundness": true,
  "sound": true
}