{
  "FULL": {
    "fitness": {
      "average_trace_fitness": 1.0,
      "log_fitness": 1.0,
      "perc_fit_traces": 100.0,
      "percentage_of_fitting_traces": 100.0
    },
    "fitness_alignments": {
      "averageFitness": 1.0,
      "average_trace_fitness": 1.0,
      "percFitTraces": 100.0,
      "percentage_of_fitting_traces": 100.0
    },
    "fscore": 0.9930024933644335,
    "generalization": 0.9739129046972319,
    "metricsAverageWeight": 0.9566704519464059,
    "precision": 0.9861022364217252,
    "precision_alignments": 0.9861022364217252,
    "simplicity": 0.8666666666666667
  }
}