{
  "FULL": {
    "entropia_precision": NaN,
    "entropia_recall": 0.0,
    "fitness": {
      "average_trace_fitness": 1.0,
      "log_fitness": 1.0,
      "perc_fit_traces": 100.0,
      "percentage_of_fitting_traces": 100.0
    },
    "fitness_alignments": {
      "averageFitness": 1.0,
      "average_trace_fitness": 1.0,
      "percFitTraces": 100.0,
      "percentage_of_fitting_traces": 100.0
    },
    "fscore": 0.9930024933644335,
    "generalization": 0.9761271772167983,
    "metricsAverageWeight": 0.9451028079550854,
    "precision": 0.9861022364217252,
    "precision_alignments": 0.9861022364217252,
    "simplicity": 0.8181818181818181
  },
  "easy_soundness": true,
  "sound": false
}