{
  "FULL": {
    "fitness": {
      "average_trace_fitness": 1.0,
      "log_fitness": 1.0,
      "perc_fit_traces": 100.0,
      "percentage_of_fitting_traces": 100.0
    },
    "fitness_alignments": {
      "averageFitness": 1.0,
      "average_trace_fitness": 1.0,
      "percFitTraces": 100.0,
      "percentage_of_fitting_traces": 100.0
    },
    "fscore": 0.9571965478841871,
    "generalization": 0.9693424477305199,
    "metricsAverageWeight": 0.9118123522383097,
    "precision": 0.9179069612227191,
    "precision_alignments": 0.9179069612227191,
    "simplicity": 0.7599999999999999
  }
}