{
  "FULL": {
    "entropia_precision": 0.9597600094728058,
    "entropia_recall": 0.998804526110161,
    "fitness": {
      "average_trace_fitness": 1.0,
      "log_fitness": 1.0,
      "perc_fit_traces": 100.0,
      "percentage_of_fitting_traces": 100.0
    },
    "fitness_alignments": {
      "averageFitness": 1.0,
      "average_trace_fitness": 1.0,
      "percFitTraces": 100.0,
      "percentage_of_fitting_traces": 100.0
    },
    "fscore": 0.9835803184590336,
    "generalization": 0.963644932595887,
    "metricsAverageWeight": 0.9114054462555872,
    "precision": 0.9676911381407471,
    "precision_alignments": 0.9676911381407471,
    "simplicity": 0.7142857142857143
  },
  "easy_soundness": true,
  "sound": true
}