{
  "FULL": {
    "fitness": {
      "average_trace_fitness": 0.9999909090909092,
      "log_fitness": 0.9999574630992386,
      "perc_fit_traces": 99.9,
      "percentage_of_fitting_traces": 99.9
    },
    "fitness_alignments": {
      "averageFitness": 0.9996,
      "average_trace_fitness": 0.9996,
      "percFitTraces": 99.9,
      "percentage_of_fitting_traces": 99.9
    },
    "fscore": 0.9350107883213072,
    "generalization": 0.972295773926935,
    "metricsAverageWeight": 0.903736301316657,
    "precision": 0.8779860858875136,
    "precision_alignments": 0.8779860858875136,
    "simplicity": 0.7647058823529413
  }
}