{
  "FULL": {
    "entropia_precision": 0.9656613919211603,
    "entropia_recall": 0.98591067920077,
    "fitness": {
      "average_trace_fitness": 1.0,
      "log_fitness": 1.0,
      "perc_fit_traces": 100.0,
      "percentage_of_fitting_traces": 100.0
    },
    "fitness_alignments": {
      "averageFitness": 1.0,
      "average_trace_fitness": 1.0,
      "percFitTraces": 100.0,
      "percentage_of_fitting_traces": 100.0
    },
    "fscore": 0.9806320978959416,
    "generalization": 0.956158216672401,
    "metricsAverageWeight": 0.9269080184023537,
    "precision": 0.9620001727264876,
    "precision_alignments": 0.9620001727264876,
    "simplicity": 0.7894736842105263
  },
  "easy_soundness": true,
  "sound": true
}