{
  "FULL": {
    "entropia_precision": 0.9493020926011213,
    "entropia_recall": 1.025166472287687,
    "fitness": {
      "average_trace_fitness": 1.0,
      "log_fitness": 1.0,
      "perc_fit_traces": 100.0,
      "percentage_of_fitting_traces": 100.0
    },
    "fitness_alignments": {
      "averageFitness": 1.0,
      "average_trace_fitness": 1.0,
      "percFitTraces": 100.0,
      "percentage_of_fitting_traces": 100.0
    },
    "fscore": 0.9804102134784428,
    "generalization": 0.9654947888902075,
    "metricsAverageWeight": 0.9341479495460283,
    "precision": 0.961573199770096,
    "precision_alignments": 0.961573199770096,
    "simplicity": 0.8095238095238095
  },
  "easy_soundness": true,
  "sound": true
}