{
  "FULL": {
    "fitness": {
      "average_trace_fitness": 0.951599999999989,
      "log_fitness": 0.9450431194134803,
      "perc_fit_traces": 52.1,
      "percentage_of_fitting_traces": 52.1
    },
    "fitness_alignments": {
      "averageFitness": -0.26333333333333403,
      "average_trace_fitness": -0.26333333333333403,
      "percFitTraces": 52.1,
      "percentage_of_fitting_traces": 52.1
    },
    "fscore": 0.9714621830742272,
    "generalization": 0.9486107984044242,
    "metricsAverageWeight": 0.9065970224942205,
    "precision": 0.9994008388256441,
    "precision_alignments": 0.9994008388256441,
    "simplicity": 0.7333333333333333
  }
}