{
  "FULL": {
    "fitness": {
      "average_trace_fitness": 1.0,
      "log_fitness": 1.0,
      "perc_fit_traces": 100.0,
      "percentage_of_fitting_traces": 100.0
    },
    "fitness_alignments": {
      "averageFitness": 1.0,
      "average_trace_fitness": 1.0,
      "percFitTraces": 100.0,
      "percentage_of_fitting_traces": 100.0
    },
    "fscore": 0.9898770557240938,
    "generalization": 0.9682096656107056,
    "metricsAverageWeight": 0.9270416677936728,
    "precision": 0.9799570055639858,
    "precision_alignments": 0.9799570055639858,
    "simplicity": 0.7599999999999999
  }
}