{
  "FULL": {
    "entropia_precision": null,
    "entropia_recall": null,
    "fitness": {
      "average_trace_fitness": 0.9351641877781104,
      "log_fitness": 0.9348447656390964,
      "perc_fit_traces": 24.9,
      "percentage_of_fitting_traces": 24.9
    },
    "fitness_alignments": {
      "averageFitness": -0.06483333333333127,
      "average_trace_fitness": -0.06483333333333127,
      "percFitTraces": 24.9,
      "percentage_of_fitting_traces": 24.9
    },
    "fscore": 0.9003820452329812,
    "generalization": 0.8955532501476716,
    "metricsAverageWeight": 0.8521113330980925,
    "precision": 0.8683698972507636,
    "precision_alignments": 0.8683698972507636,
    "simplicity": 0.7096774193548386
  },
  "easy_soundness": true,
  "sound": false
}