{
  "FULL": {
    "fitness": {
      "average_trace_fitness": 1.0,
      "log_fitness": 1.0,
      "perc_fit_traces": 100.0,
      "percentage_of_fitting_traces": 100.0
    },
    "fitness_alignments": {
      "averageFitness": 1.0,
      "average_trace_fitness": 1.0,
      "percFitTraces": 100.0,
      "percentage_of_fitting_traces": 100.0
    },
    "fscore": 0.9997110452936503,
    "generalization": 0.9665694477843543,
    "metricsAverageWeight": 0.9498312596615985,
    "precision": 0.9994222575287066,
    "precision_alignments": 0.9994222575287066,
    "simplicity": 0.8333333333333333
  }
}