{
  "FULL": {
    "entropia_precision": "nan",
    "entropia_recall": "nan",
    "fitness": {
      "average_trace_fitness": 0.9615976781813552,
      "log_fitness": 0.964619303707897,
      "perc_fit_traces": 0.0,
      "percentage_of_fitting_traces": 0.0
    },
    "fscore": 0.7967013628611741,
    "generalization": 0.9057555626506879,
    "metricsAverageWeight": 0.8234081325818965,
    "precision": 0.6785768129051711,
    "simplicity": 0.7446808510638298
  },
  "easy_soundness": false,
  "sound": false
}