{
  "FULL": {
    "entropia_precision": 0.9359563202868288,
    "entropia_recall": 0.91851267165189,
    "fitness": {
      "average_trace_fitness": 0.9653044217011872,
      "log_fitness": 0.960752688172043,
      "perc_fit_traces": 48.9,
      "percentage_of_fitting_traces": 48.9
    },
    "fitness_alignments": {
      "averageFitness": 0.7081999999999956,
      "average_trace_fitness": 0.7081999999999956,
      "percFitTraces": 48.9,
      "percentage_of_fitting_traces": 48.9
    },
    "fscore": 0.9748673630287281,
    "generalization": 0.9562408592482626,
    "metricsAverageWeight": 0.9331208626099619,
    "precision": 0.989402946497803,
    "precision_alignments": 0.989402946497803,
    "simplicity": 0.826086956521739
  },
  "easy_soundness": true,
  "sound": true
}