{
  "FULL": {
    "fitness": {
      "average_trace_fitness": 1.0,
      "log_fitness": 1.0,
      "perc_fit_traces": 100.0,
      "percentage_of_fitting_traces": 100.0
    },
    "fitness_alignments": {
      "averageFitness": 1.0,
      "average_trace_fitness": 1.0,
      "percFitTraces": 100.0,
      "percentage_of_fitting_traces": 100.0
    },
    "fscore": 0.9994678020223523,
    "generalization": 0.944589425511914,
    "metricsAverageWeight": 0.9303258433756145,
    "precision": 0.9989361702127659,
    "precision_alignments": 0.9989361702127659,
    "simplicity": 0.7777777777777779
  }
}