{
  "FULL": {
    "entropia_precision": 0.9971705828987283,
    "entropia_recall": 0.805679090204875,
    "fitness": {
      "average_trace_fitness": 0.348,
      "log_fitness": 0.8738390092879257,
      "perc_fit_traces": 34.8,
      "percentage_of_fitting_traces": 34.8
    },
    "fitness_alignments": {
      "averageFitness": 0.21759999999999885,
      "average_trace_fitness": 0.21759999999999885,
      "percFitTraces": 34.8,
      "percentage_of_fitting_traces": 34.8
    },
    "fscore": 0.9320416151948421,
    "generalization": 0.9402688114863975,
    "metricsAverageWeight": 0.9147030978914626,
    "precision": 0.9985507246376811,
    "precision_alignments": 0.9985507246376811,
    "simplicity": 0.8461538461538463
  },
  "easy_soundness": true,
  "sound": true
}