{
  "FULL": {
    "entropia_precision": 0.9259773762193008,
    "entropia_recall": 0.983924802258849,
    "fitness": {
      "average_trace_fitness": 1.0,
      "log_fitness": 1.0,
      "perc_fit_traces": 100.0,
      "percentage_of_fitting_traces": 100.0
    },
    "fitness_alignments": {
      "averageFitness": 1.0,
      "average_trace_fitness": 1.0,
      "percFitTraces": 100.0,
      "percentage_of_fitting_traces": 100.0
    },
    "fscore": 0.9509198507654701,
    "generalization": 0.9607386133907045,
    "metricsAverageWeight": 0.9079691317843388,
    "precision": 0.906432031393709,
    "precision_alignments": 0.906432031393709,
    "simplicity": 0.7647058823529413
  },
  "easy_soundness": true,
  "sound": true
}