{
  "FULL": {
    "entropia_precision": 0.40295834584008977,
    "entropia_recall": 0.996806802380581,
    "fitness": {
      "average_trace_fitness": 1.0,
      "log_fitness": 1.0,
      "perc_fit_traces": 100.0,
      "percentage_of_fitting_traces": 100.0
    },
    "fitness_alignments": {
      "averageFitness": 1.0,
      "average_trace_fitness": 1.0,
      "percFitTraces": 100.0,
      "percentage_of_fitting_traces": 100.0
    },
    "fscore": 0.6077973074046372,
    "generalization": 0.9705038592694382,
    "metricsAverageWeight": 0.7748459944687235,
    "precision": 0.4365724262977637,
    "precision_alignments": 0.4365724262977637,
    "simplicity": 0.6923076923076922
  },
  "easy_soundness": true,
  "sound": true
}