{
  "FULL": {
    "entropia_precision": 0.9868075017302916,
    "entropia_recall": 0.869727263447608,
    "fitness": {
      "average_trace_fitness": 0.9151696531050333,
      "log_fitness": 0.904189963415476,
      "perc_fit_traces": 38.9,
      "percentage_of_fitting_traces": 38.9
    },
    "fitness_alignments": {
      "averageFitness": 0.6148333333333358,
      "average_trace_fitness": 0.6148333333333358,
      "percFitTraces": 38.9,
      "percentage_of_fitting_traces": 38.9
    },
    "fscore": 0.9475367777158766,
    "generalization": 0.9626137429359182,
    "metricsAverageWeight": 0.9099576097248054,
    "precision": 0.9952489547700494,
    "precision_alignments": 0.9952489547700494,
    "simplicity": 0.7777777777777779
  },
  "easy_soundness": true,
  "sound": true
}