{
  "FULL": {
    "fitness": {
      "average_trace_fitness": 0.9406050832753471,
      "log_fitness": 0.9597495527728086,
      "perc_fit_traces": 50.5,
      "percentage_of_fitting_traces": 50.5
    },
    "fitness_alignments": {
      "averageFitness": 0.7525,
      "average_trace_fitness": 0.7525,
      "percFitTraces": 50.5,
      "percentage_of_fitting_traces": 50.5
    },
    "fscore": 0.9766087273087324,
    "generalization": 0.9690403122142905,
    "metricsAverageWeight": 0.9543993758881348,
    "precision": 0.994070796460177,
    "precision_alignments": 0.994070796460177,
    "simplicity": 0.8947368421052632
  }
}