{
  "FULL": {
    "fitness": {
      "average_trace_fitness": 1.0,
      "log_fitness": 1.0,
      "perc_fit_traces": 100.0,
      "percentage_of_fitting_traces": 100.0
    },
    "fitness_alignments": {
      "averageFitness": 1.0,
      "average_trace_fitness": 1.0,
      "percFitTraces": 100.0,
      "percentage_of_fitting_traces": 100.0
    },
    "fscore": 0.9970265832334797,
    "generalization": 0.9721441946022772,
    "metricsAverageWeight": 0.9621419830597312,
    "precision": 0.994070796460177,
    "precision_alignments": 0.994070796460177,
    "simplicity": 0.8823529411764706
  }
}