{
  "easy_soundness": false,
  "filename": "/mnt/c/Users/s140511/tue/thesis/thesis_data/process_trees_complex_ws/predictions/1922_gcn_ep100b_cca.json",
  "full": {
    "entropia_precision": "nan",
    "entropia_recall": "nan",
    "fitness": {
      "average_trace_fitness": 0.6781743461888637,
      "log_fitness": 0.766707852453936,
      "perc_fit_traces": 0.0,
      "percentage_of_fitting_traces": 0.0
    },
    "fscore": 0.8679509194335532,
    "generalization": 0.6904417867385886,
    "metricsAverageWeight": 0.7051965007072222,
    "precision": 1.0,
    "simplicity": 0.36363636363636365
  },
  "sound": false,
  "top 56": {
    "fitness": {
      "average_trace_fitness": 0.6428551625251891,
      "log_fitness": 0.7056091287597998,
      "perc_fit_traces": 0.0,
      "percentage_of_fitting_traces": 0.0
    },
    "fscore": 0.8273983961059937,
    "generalization": 0.6798858897119365,
    "metricsAverageWeight": 0.687282845527025,
    "precision": 1.0,
    "simplicity": 0.36363636363636365
  }
}