{
  "FULL": {
    "entropia_precision": NaN,
    "entropia_recall": 0.0,
    "fitness": {
      "average_trace_fitness": 1.0,
      "log_fitness": 1.0,
      "perc_fit_traces": 100.0,
      "percentage_of_fitting_traces": 100.0
    },
    "fitness_alignments": {
      "averageFitness": 1.0,
      "average_trace_fitness": 1.0,
      "percFitTraces": 100.0,
      "percentage_of_fitting_traces": 100.0
    },
    "fscore": 0.9588096975593935,
    "generalization": 0.9661788209429508,
    "metricsAverageWeight": 0.9003357428718809,
    "precision": 0.9208784362588583,
    "precision_alignments": 0.9208784362588583,
    "simplicity": 0.7142857142857143
  },
  "easy_soundness": true,
  "sound": false
}