{
  "FULL": {
    "entropia_precision": 0.984940934023983,
    "entropia_recall": 1.017271258162817,
    "fitness": {
      "average_trace_fitness": 1.0,
      "log_fitness": 1.0,
      "perc_fit_traces": 100.0,
      "percentage_of_fitting_traces": 100.0
    },
    "fitness_alignments": {
      "averageFitness": 1.0,
      "average_trace_fitness": 1.0,
      "percFitTraces": 100.0,
      "percentage_of_fitting_traces": 100.0
    },
    "fscore": 0.9747977598008711,
    "generalization": 0.9686815473646256,
    "metricsAverageWeight": 0.9198790363100486,
    "precision": 0.950834597875569,
    "precision_alignments": 0.950834597875569,
    "simplicity": 0.7599999999999999
  },
  "easy_soundness": true,
  "sound": true
}