{
  "FULL": {
    "fitness": {
      "average_trace_fitness": 0.9317874958142985,
      "log_fitness": 0.8886395397928797,
      "perc_fit_traces": 50.0,
      "percentage_of_fitting_traces": 50.0
    },
    "fitness_alignments": {
      "averageFitness": -0.058,
      "average_trace_fitness": -0.058,
      "percFitTraces": 50.0,
      "percentage_of_fitting_traces": 50.0
    },
    "fscore": 0.9340266215221136,
    "generalization": 0.8693626509474233,
    "metricsAverageWeight": 0.8800198713565734,
    "precision": 0.9842995169082126,
    "precision_alignments": 0.9842995169082126,
    "simplicity": 0.7777777777777779
  }
}