{
  "FULL": {
    "fitness": {
      "average_trace_fitness": 0.4382450889762224,
      "log_fitness": 0.8198309761237481,
      "perc_fit_traces": 0.0,
      "percentage_of_fitting_traces": 0.0
    },
    "fitness_alignments": {
      "averageFitness": 0.09999999999999981,
      "average_trace_fitness": 0.09999999999999981,
      "percFitTraces": 0.0,
      "percentage_of_fitting_traces": 0.0
    },
    "fscore": 0.8590857517807121,
    "generalization": 0.8735650889337847,
    "metricsAverageWeight": 0.8383151387569142,
    "precision": 0.9022887323943662,
    "precision_alignments": 0.8864226001729605,
    "simplicity": 0.7575757575757577
  }
}