{
  "FULL": {
    "entropia_precision": NaN,
    "entropia_recall": 0.0,
    "fitness": {
      "average_trace_fitness": 1.0,
      "log_fitness": 1.0,
      "perc_fit_traces": 100.0,
      "percentage_of_fitting_traces": 100.0
    },
    "fitness_alignments": {
      "averageFitness": 1.0,
      "average_trace_fitness": 1.0,
      "percFitTraces": 100.0,
      "percentage_of_fitting_traces": 100.0
    },
    "fscore": 0.9972042715064852,
    "generalization": 0.9757101491518739,
    "metricsAverageWeight": 0.9540720317331942,
    "precision": 0.9944241316270567,
    "precision_alignments": 0.9944241316270567,
    "simplicity": 0.8461538461538463
  },
  "easy_soundness": true,
  "sound": false
}