{
  "FULL": {
    "entropia_precision": 0.9905308754471452,
    "entropia_recall": 0.99684070854346,
    "fitness": {
      "average_trace_fitness": 1.0,
      "log_fitness": 1.0,
      "perc_fit_traces": 100.0,
      "percentage_of_fitting_traces": 100.0
    },
    "fitness_alignments": {
      "averageFitness": 1.0,
      "average_trace_fitness": 1.0,
      "percFitTraces": 100.0,
      "percentage_of_fitting_traces": 100.0
    },
    "fscore": 0.999667994687915,
    "generalization": 0.9665450022807965,
    "metricsAverageWeight": 0.9651545135359441,
    "precision": 0.9993362097577165,
    "precision_alignments": 0.9993362097577165,
    "simplicity": 0.8947368421052632
  },
  "easy_soundness": true,
  "sound": true
}