{
  "FULL": {
    "entropia_precision": 0.984225645448886,
    "entropia_recall": 0.975666676030047,
    "fitness": {
      "average_trace_fitness": 0.8814285714285702,
      "log_fitness": 0.9027148074016289,
      "perc_fit_traces": 50.2,
      "percentage_of_fitting_traces": 50.2
    },
    "fitness_alignments": {
      "averageFitness": 0.8755,
      "average_trace_fitness": 0.8755,
      "percFitTraces": 50.2,
      "percentage_of_fitting_traces": 50.2
    },
    "fscore": 0.9453908039385263,
    "generalization": 0.9618540270108809,
    "metricsAverageWeight": 0.92575618333807,
    "precision": 0.9923020527859238,
    "precision_alignments": 0.9923020527859238,
    "simplicity": 0.8461538461538463
  },
  "easy_soundness": true,
  "sound": true
}