{
  "FULL": {
    "entropia_precision": "nan",
    "entropia_recall": "nan",
    "fitness": {
      "average_trace_fitness": 1.0,
      "log_fitness": 1.0,
      "perc_fit_traces": 100.0,
      "percentage_of_fitting_traces": 100.0
    },
    "fitness_alignments": {
      "averageFitness": 1.0,
      "average_trace_fitness": 1.0,
      "percFitTraces": 100.0,
      "percentage_of_fitting_traces": 100.0
    },
    "fscore": 0.937526109908473,
    "generalization": 0.9618870205694787,
    "metricsAverageWeight": 0.886071554970794,
    "precision": 0.8823991993136975,
    "precision_alignments": 0.8823991993136975,
    "simplicity": 0.7000000000000001
  },
  "easy_soundness": true,
  "sound": true
}