{
  "FULL": {
    "fitness": {
      "average_trace_fitness": 1.0,
      "log_fitness": 1.0,
      "perc_fit_traces": 100.0,
      "percentage_of_fitting_traces": 100.0
    },
    "fitness_alignments": {
      "averageFitness": 1.0,
      "average_trace_fitness": 1.0,
      "percFitTraces": 100.0,
      "percentage_of_fitting_traces": 100.0
    },
    "fscore": 0.9999139488856381,
    "generalization": 0.9367572913961474,
    "metricsAverageWeight": 0.900812967660601,
    "precision": 0.9998279125795905,
    "precision_alignments": 0.9998279125795905,
    "simplicity": 0.6666666666666666
  }
}