{
  "FULL": {
    "entropia_precision": "nan",
    "entropia_recall": "nan",
    "fitness": {
      "average_trace_fitness": 0.155,
      "log_fitness": 0.5302946081156198,
      "perc_fit_traces": 15.5,
      "percentage_of_fitting_traces": 15.5
    },
    "fitness_alignments": {
      "averageFitness": -0.2675,
      "average_trace_fitness": -0.2675,
      "percFitTraces": 15.5,
      "percentage_of_fitting_traces": 15.5
    },
    "fscore": 0.6929294502038972,
    "generalization": 0.9265614974271378,
    "metricsAverageWeight": 0.8640759811068379,
    "precision": 0.9994478188845941,
    "precision_alignments": 0.9994478188845941,
    "simplicity": 1.0
  },
  "easy_soundness": true,
  "sound": true
}