{
  "FULL": {
    "entropia_precision": 1.0,
    "entropia_recall": 0.999999999999998,
    "fitness": {
      "average_trace_fitness": 1.0,
      "log_fitness": 1.0,
      "perc_fit_traces": 100.0,
      "percentage_of_fitting_traces": 100.0
    },
    "fitness_alignments": {
      "averageFitness": 1.0,
      "average_trace_fitness": 1.0,
      "percFitTraces": 100.0,
      "percentage_of_fitting_traces": 100.0
    },
    "fscore": 1.0,
    "generalization": 0.9350607631662461,
    "metricsAverageWeight": 0.9023698419543522,
    "precision": 1.0,
    "precision_alignments": 1.0,
    "simplicity": 0.6744186046511628
  },
  "easy_soundness": true,
  "sound": true
}