{
  "easy_soundness": true,
  "filename": "/mnt/c/Users/s140511/tue/thesis/thesis_data/process_trees_complex_ws/predictions/1934_gcn_ep100b_cc.json",
  "full": {
    "fitness": {
      "average_trace_fitness": 0.9820000000000041,
      "log_fitness": 0.9780130293159609,
      "perc_fit_traces": 83.8,
      "percentage_of_fitting_traces": 83.8
    },
    "fitness_alignments": {
      "averageFitness": 0.838,
      "average_trace_fitness": 0.838,
      "percFitTraces": 83.8,
      "percentage_of_fitting_traces": 83.8
    },
    "fscore": 0.9888843145327294,
    "generalization": 0.9350607631662461,
    "metricsAverageWeight": 0.8782684481205518,
    "precision": 1.0,
    "precision_alignments": 1.0,
    "simplicity": 0.6000000000000001
  },
  "sound": true,
  "top 12": {
    "fitness": {
      "average_trace_fitness": 0.9820000000000041,
      "log_fitness": 0.9780130293159609,
      "perc_fit_traces": 83.8,
      "percentage_of_fitting_traces": 83.8
    },
    "fitness_alignments": {
      "averageFitness": 0.838,
      "average_trace_fitness": 0.838,
      "percFitTraces": 83.8,
      "percentage_of_fitting_traces": 83.8
    },
    "fscore": 0.9888843145327294,
    "generalization": 0.9350607631662461,
    "metricsAverageWeight": 0.8782684481205518,
    "precision": 1.0,
    "precision_alignments": 1.0,
    "simplicity": 0.6000000000000001
  }
}