{
  "FULL": {
    "fitness": {
      "average_trace_fitness": 1.0,
      "log_fitness": 1.0,
      "perc_fit_traces": 100.0,
      "percentage_of_fitting_traces": 100.0
    },
    "fitness_alignments": {
      "averageFitness": 1.0,
      "average_trace_fitness": 1.0,
      "percFitTraces": 100.0,
      "percentage_of_fitting_traces": 100.0
    },
    "fscore": 0.99440739944074,
    "generalization": 0.9741715014040134,
    "metricsAverageWeight": 0.9644463372142176,
    "precision": 0.9888770053475936,
    "precision_alignments": 0.9888770053475936,
    "simplicity": 0.8947368421052632
  }
}