{
  "FULL": {
    "entropia_precision": 1.0114507155046968,
    "entropia_recall": 1.003062014262609,
    "fitness": {
      "average_trace_fitness": 1.0,
      "log_fitness": 1.0,
      "perc_fit_traces": 100.0,
      "percentage_of_fitting_traces": 100.0
    },
    "fitness_alignments": {
      "averageFitness": 1.0,
      "average_trace_fitness": 1.0,
      "percFitTraces": 100.0,
      "percentage_of_fitting_traces": 100.0
    },
    "fscore": 0.9906476016293957,
    "generalization": 0.9715922489279777,
    "metricsAverageWeight": 0.9428106460448376,
    "precision": 0.9814685170695548,
    "precision_alignments": 0.9814685170695548,
    "simplicity": 0.8181818181818181
  },
  "easy_soundness": true,
  "sound": true
}