{
  "easy_soundness": false,
  "filename": "/mnt/c/Users/s140511/tue/thesis/thesis_data/process_trees_complex_ws/predictions/1942_gcn_ep100b_cca.json",
  "full": {
    "entropia_precision": "nan",
    "entropia_recall": "nan",
    "fitness": {
      "average_trace_fitness": 0.8266164202505327,
      "log_fitness": 0.8310074880871341,
      "perc_fit_traces": 0.0,
      "percentage_of_fitting_traces": 0.0
    },
    "fscore": 0.9077051770610651,
    "generalization": 0.869432879653182,
    "metricsAverageWeight": 0.8209434252684122,
    "precision": 1.0,
    "simplicity": 0.5833333333333333
  },
  "sound": false,
  "top 13": {
    "fitness": {
      "average_trace_fitness": 0.8266164202505327,
      "log_fitness": 0.8310074880871341,
      "perc_fit_traces": 0.0,
      "percentage_of_fitting_traces": 0.0
    },
    "fscore": 0.9077051770610651,
    "generalization": 0.869432879653182,
    "metricsAverageWeight": 0.8209434252684122,
    "precision": 1.0,
    "simplicity": 0.5833333333333333
  }
}