{
  "FULL": {
    "fitness": {
      "average_trace_fitness": 1.0,
      "log_fitness": 1.0,
      "perc_fit_traces": 100.0,
      "percentage_of_fitting_traces": 100.0
    },
    "fitness_alignments": {
      "averageFitness": 1.0,
      "average_trace_fitness": 1.0,
      "percFitTraces": 100.0,
      "percentage_of_fitting_traces": 100.0
    },
    "fscore": 0.9978785123609126,
    "generalization": 0.9731042769282544,
    "metricsAverageWeight": 0.9684080471939043,
    "precision": 0.9957660070854575,
    "precision_alignments": 0.9957660070854575,
    "simplicity": 0.9047619047619049
  }
}