{
  "FULL": {
    "entropia_precision": 0.9983932513862551,
    "entropia_recall": 0.998781413246671,
    "fitness": {
      "average_trace_fitness": 1.0,
      "log_fitness": 1.0,
      "perc_fit_traces": 100.0,
      "percentage_of_fitting_traces": 100.0
    },
    "fitness_alignments": {
      "averageFitness": 1.0,
      "average_trace_fitness": 1.0,
      "percFitTraces": 100.0,
      "percentage_of_fitting_traces": 100.0
    },
    "fscore": 0.999505963723622,
    "generalization": 0.948626872554555,
    "metricsAverageWeight": 0.931354266420555,
    "precision": 0.9990124153498872,
    "precision_alignments": 0.9990124153498872,
    "simplicity": 0.7777777777777779
  },
  "easy_soundness": true,
  "sound": true
}