{
  "FULL": {
    "fitness": {
      "average_trace_fitness": 1.0,
      "log_fitness": 1.0,
      "perc_fit_traces": 100.0,
      "percentage_of_fitting_traces": 100.0
    },
    "fitness_alignments": {
      "averageFitness": 1.0,
      "average_trace_fitness": 1.0,
      "percFitTraces": 100.0,
      "percentage_of_fitting_traces": 100.0
    },
    "fscore": 0.9934719596723377,
    "generalization": 0.9603405143926635,
    "metricsAverageWeight": 0.9280187484827402,
    "precision": 0.9870285971853558,
    "precision_alignments": 0.9870285971853558,
    "simplicity": 0.7647058823529413
  }
}