{
  "FULL": {
    "entropia_precision": 0.9948160845881017,
    "entropia_recall": 1.041952436573385,
    "fitness": {
      "average_trace_fitness": 1.0,
      "log_fitness": 1.0,
      "perc_fit_traces": 100.0,
      "percentage_of_fitting_traces": 100.0
    },
    "fitness_alignments": {
      "averageFitness": 1.0,
      "average_trace_fitness": 1.0,
      "percFitTraces": 100.0,
      "percentage_of_fitting_traces": 100.0
    },
    "fscore": 0.9934719596723377,
    "generalization": 0.959028187094813,
    "metricsAverageWeight": 0.9240141960700422,
    "precision": 0.9870285971853558,
    "precision_alignments": 0.9870285971853558,
    "simplicity": 0.7499999999999999
  },
  "easy_soundness": true,
  "sound": true
}