{
  "FULL": {
    "fitness": {
      "average_trace_fitness": 0.999990099009901,
      "log_fitness": 0.999935379644588,
      "perc_fit_traces": 99.9,
      "percentage_of_fitting_traces": 99.9
    },
    "fitness_alignments": {
      "averageFitness": 0.9994,
      "average_trace_fitness": 0.9994,
      "percFitTraces": 99.9,
      "percentage_of_fitting_traces": 99.9
    },
    "fscore": 0.972604682605792,
    "generalization": 0.9677972547203273,
    "metricsAverageWeight": 0.9268910874148615,
    "precision": 0.9467282670186686,
    "precision_alignments": 0.9467282670186686,
    "simplicity": 0.7931034482758622
  }
}