{
  "FULL": {
    "entropia_precision": "nan",
    "entropia_recall": "nan",
    "fitness": {
      "average_trace_fitness": 0.9563124109135313,
      "log_fitness": 0.9654260314952576,
      "perc_fit_traces": 0.0,
      "percentage_of_fitting_traces": 0.0
    },
    "fscore": 0.5657210606373448,
    "generalization": 0.8769241093712302,
    "metricsAverageWeight": 0.7255011938241901,
    "precision": 0.4000801663451662,
    "simplicity": 0.6595744680851063
  },
  "easy_soundness": false,
  "sound": false
}