{
  "FULL": {
    "fitness": {
      "average_trace_fitness": 0.9546013505102262,
      "log_fitness": 0.9653183160497218,
      "perc_fit_traces": 49.5,
      "percentage_of_fitting_traces": 49.5
    },
    "fitness_alignments": {
      "averageFitness": 0.8989999999999894,
      "average_trace_fitness": 0.8989999999999894,
      "percFitTraces": 49.5,
      "percentage_of_fitting_traces": 49.5
    },
    "fscore": 0.976228697020962,
    "generalization": 0.9661238346708628,
    "metricsAverageWeight": 0.9313205717950617,
    "precision": 0.9873885235564364,
    "precision_alignments": 0.9873885235564364,
    "simplicity": 0.8064516129032256
  }
}