{
  "FULL": {
    "entropia_precision": 0.9920541237442075,
    "entropia_recall": 1.000050853859523,
    "fitness": {
      "average_trace_fitness": 1.0,
      "log_fitness": 1.0,
      "perc_fit_traces": 100.0,
      "percentage_of_fitting_traces": 100.0
    },
    "fitness_alignments": {
      "averageFitness": 1.0,
      "average_trace_fitness": 1.0,
      "percFitTraces": 100.0,
      "percentage_of_fitting_traces": 100.0
    },
    "fscore": 0.9991215548479193,
    "generalization": 0.9408551770573388,
    "metricsAverageWeight": 0.9161475062022091,
    "precision": 0.9982446516730664,
    "precision_alignments": 0.9982446516730664,
    "simplicity": 0.7254901960784313
  },
  "easy_soundness": true,
  "sound": true
}