{
  "FULL": {
    "fitness": {
      "average_trace_fitness": 0.7199721179061774,
      "log_fitness": 0.9378638550818705,
      "perc_fit_traces": 51.0,
      "percentage_of_fitting_traces": 51.0
    },
    "fitness_alignments": {
      "averageFitness": 0.04,
      "average_trace_fitness": 0.04,
      "percFitTraces": 51.0,
      "percentage_of_fitting_traces": 51.0
    },
    "fscore": 0.9223542743283728,
    "generalization": 0.8822386788264797,
    "metricsAverageWeight": 0.8589462959612163,
    "precision": 0.9073493166031817,
    "precision_alignments": 0.9073493166031817,
    "simplicity": 0.7083333333333334
  }
}