{
  "FULL": {
    "entropia_precision": 0.9999305645522218,
    "entropia_recall": 0.916103652825907,
    "fitness": {
      "average_trace_fitness": 0.9718660714285727,
      "log_fitness": 0.9645275717510481,
      "perc_fit_traces": 78.0,
      "percentage_of_fitting_traces": 78.0
    },
    "fitness_alignments": {
      "averageFitness": 0.56,
      "average_trace_fitness": 0.56,
      "percFitTraces": 78.0,
      "percentage_of_fitting_traces": 78.0
    },
    "fscore": 0.9817414894585726,
    "generalization": 0.9374088039118805,
    "metricsAverageWeight": 0.9198237897568247,
    "precision": 0.9995810055865921,
    "precision_alignments": 0.9995810055865921,
    "simplicity": 0.7777777777777779
  },
  "easy_soundness": true,
  "sound": true
}