{
  "easy_soundness": false,
  "filename": "/mnt/c/Users/s140511/tue/thesis/thesis_data/process_trees_complex_ws/predictions/1970_gcn_ep100b_cc.json",
  "full": {
    "fitness": {
      "average_trace_fitness": 0.7654823164819172,
      "log_fitness": 0.7484361584692751,
      "perc_fit_traces": 0.0,
      "percentage_of_fitting_traces": 0.0
    },
    "fscore": 0.8561206594177482,
    "generalization": 0.6473045902652623,
    "metricsAverageWeight": 0.7864351871836344,
    "precision": 1.0,
    "simplicity": 0.7499999999999999
  },
  "sound": false,
  "top 10": {
    "fitness": {
      "average_trace_fitness": 0.7654823164819172,
      "log_fitness": 0.7484361584692751,
      "perc_fit_traces": 0.0,
      "percentage_of_fitting_traces": 0.0
    },
    "fscore": 0.8561206594177482,
    "generalization": 0.6473045902652623,
    "metricsAverageWeight": 0.7864351871836344,
    "precision": 1.0,
    "simplicity": 0.7499999999999999
  }
}