{
  "FULL": {
    "entropia_precision": "nan",
    "entropia_recall": "nan",
    "fitness": {
      "average_trace_fitness": 0.9526995041052454,
      "log_fitness": 0.954580255809764,
      "perc_fit_traces": 0.0,
      "percentage_of_fitting_traces": 0.0
    },
    "fscore": 0.7512737861010789,
    "generalization": 0.973143958909418,
    "metricsAverageWeight": 0.8522888133745805,
    "precision": 0.6193620732618988,
    "simplicity": 0.8620689655172413
  },
  "easy_soundness": false,
  "sound": false
}