{
  "easy_soundness": true,
  "filename": "/mnt/c/Users/s140511/tue/thesis/thesis_data/process_trees_complex_ws/predictions/1975_gcn_ep100b_cc.json",
  "full": {
    "entropia_precision": 0.9954089711996368,
    "entropia_recall": 0.946807064669371,
    "fitness": {
      "average_trace_fitness": 0.9712279654758592,
      "log_fitness": 0.9497338247338247,
      "perc_fit_traces": 67.8,
      "percentage_of_fitting_traces": 67.8
    },
    "fitness_alignments": {
      "averageFitness": -1.021,
      "average_trace_fitness": -1.021,
      "percFitTraces": 67.8,
      "percentage_of_fitting_traces": 67.8
    },
    "fscore": 0.9733952279204356,
    "generalization": 0.8807078484125881,
    "metricsAverageWeight": 0.876531692428511,
    "precision": 0.9982657417289221,
    "precision_alignments": 0.9982657417289221,
    "simplicity": 0.6774193548387096
  },
  "sound": true,
  "top 57": {
    "fitness": {
      "average_trace_fitness": 0.9856130952380932,
      "log_fitness": 0.9775357385976855,
      "perc_fit_traces": 83.5,
      "percentage_of_fitting_traces": 83.5
    },
    "fitness_alignments": {
      "averageFitness": 0.485,
      "average_trace_fitness": 0.485,
      "percFitTraces": 83.5,
      "percentage_of_fitting_traces": 83.5
    },
    "fscore": 0.987000600833056,
    "generalization": 0.868982156241405,
    "metricsAverageWeight": 0.8801469473282703,
    "precision": 0.9966505396352809,
    "precision_alignments": 0.9966505396352809,
    "simplicity": 0.6774193548387096
  }
}