{
  "FULL": {
    "entropia_precision": 0.9581892554702677,
    "entropia_recall": 1.000136258657864,
    "fitness": {
      "average_trace_fitness": 1.0,
      "log_fitness": 1.0,
      "perc_fit_traces": 100.0,
      "percentage_of_fitting_traces": 100.0
    },
    "fitness_alignments": {
      "averageFitness": 1.0,
      "average_trace_fitness": 1.0,
      "percFitTraces": 100.0,
      "percentage_of_fitting_traces": 100.0
    },
    "fscore": 0.9610296746514122,
    "generalization": 0.9626362607738743,
    "metricsAverageWeight": 0.894981686825106,
    "precision": 0.9249827942188575,
    "precision_alignments": 0.9249827942188575,
    "simplicity": 0.6923076923076922
  },
  "easy_soundness": true,
  "sound": true
}