{
  "FULL": {
    "entropia_precision": 0.968055731155224,
    "entropia_recall": 0.935152521022665,
    "fitness": {
      "average_trace_fitness": 0.728,
      "log_fitness": 0.9518754423213022,
      "perc_fit_traces": 72.8,
      "percentage_of_fitting_traces": 72.8
    },
    "fitness_alignments": {
      "averageFitness": 0.6373333333333335,
      "average_trace_fitness": 0.6373333333333335,
      "percFitTraces": 72.8,
      "percentage_of_fitting_traces": 72.8
    },
    "fscore": 0.9697986151590814,
    "generalization": 0.9271190665797436,
    "metricsAverageWeight": 0.8982236021208801,
    "precision": 0.9884097035040431,
    "precision_alignments": 0.9884097035040431,
    "simplicity": 0.7254901960784313
  },
  "easy_soundness": true,
  "sound": true
}