{
  "easy_soundness": true,
  "filename": "/mnt/c/Users/s140511/tue/thesis/thesis_data/process_trees_complex_ws/predictions/1976_gcn_ep100b_cc.json",
  "full": {
    "entropia_precision": 0.9986894021453523,
    "entropia_recall": 0.913932668218407,
    "fitness": {
      "average_trace_fitness": 0.9822465905221313,
      "log_fitness": 0.9704228794915668,
      "perc_fit_traces": 84.1,
      "percentage_of_fitting_traces": 84.1
    },
    "fitness_alignments": {
      "averageFitness": 0.516,
      "average_trace_fitness": 0.516,
      "percFitTraces": 84.1,
      "percentage_of_fitting_traces": 84.1
    },
    "fscore": 0.9845983993375742,
    "generalization": 0.941374960874314,
    "metricsAverageWeight": 0.863712921928981,
    "precision": 0.9991941982272361,
    "precision_alignments": 0.9991941982272361,
    "simplicity": 0.5438596491228069
  },
  "sound": false,
  "top 30": {
    "fitness": {
      "average_trace_fitness": 0.9834874993287357,
      "log_fitness": 0.9741028000525831,
      "perc_fit_traces": 85.71428571428571,
      "percentage_of_fitting_traces": 85.71428571428571
    },
    "fitness_alignments": {
      "averageFitness": 0.5979591836734693,
      "average_trace_fitness": 0.5979591836734693,
      "percFitTraces": 85.71428571428571,
      "percentage_of_fitting_traces": 85.71428571428571
    },
    "fscore": 0.9860737274379593,
    "generalization": 0.9390207245868403,
    "metricsAverageWeight": 0.8638314287996737,
    "precision": 0.9983425414364641,
    "precision_alignments": 0.9983425414364641,
    "simplicity": 0.5438596491228069
  }
}