{
  "FULL": {
    "entropia_precision": 0.9988333635298399,
    "entropia_recall": 1.00841430592961,
    "fitness": {
      "average_trace_fitness": 1.0,
      "log_fitness": 1.0,
      "perc_fit_traces": 100.0,
      "percentage_of_fitting_traces": 100.0
    },
    "fitness_alignments": {
      "averageFitness": 1.0,
      "average_trace_fitness": 1.0,
      "percFitTraces": 100.0,
      "percentage_of_fitting_traces": 100.0
    },
    "fscore": 0.9997114710852809,
    "generalization": 0.9614838248221007,
    "metricsAverageWeight": 0.9517651948990881,
    "precision": 0.9994231086204055,
    "precision_alignments": 0.9994231086204055,
    "simplicity": 0.8461538461538463
  },
  "easy_soundness": true,
  "sound": true
}