{
  "easy_soundness": true,
  "filename": "/mnt/c/Users/s140511/tue/thesis/thesis_data/process_trees_complex_ws/predictions/1977_gcn_ep100b_cc.json",
  "full": {
    "fitness": {
      "average_trace_fitness": 1.0,
      "log_fitness": 1.0,
      "perc_fit_traces": 100.0,
      "percentage_of_fitting_traces": 100.0
    },
    "fitness_alignments": {
      "averageFitness": 1.0,
      "average_trace_fitness": 1.0,
      "percFitTraces": 100.0,
      "percentage_of_fitting_traces": 100.0
    },
    "fscore": 0.9997114710852809,
    "generalization": 0.9625443476799801,
    "metricsAverageWeight": 0.957158530741763,
    "precision": 0.9994231086204055,
    "precision_alignments": 0.9994231086204055,
    "simplicity": 0.8666666666666667
  },
  "sound": true,
  "top 25": {
    "fitness": {
      "average_trace_fitness": 1.0,
      "log_fitness": 1.0,
      "perc_fit_traces": 100.0,
      "percentage_of_fitting_traces": 100.0
    },
    "fitness_alignments": {
      "averageFitness": 1.0,
      "average_trace_fitness": 1.0,
      "percFitTraces": 100.0,
      "percentage_of_fitting_traces": 100.0
    },
    "fscore": 0.9997114710852809,
    "generalization": 0.9625443476799801,
    "metricsAverageWeight": 0.957158530741763,
    "precision": 0.9994231086204055,
    "precision_alignments": 0.9994231086204055,
    "simplicity": 0.8666666666666667
  }
}