{
  "FULL": {
    "entropia_precision": 0.9326050909147016,
    "entropia_recall": 1.0006002030352,
    "fitness": {
      "average_trace_fitness": 1.0,
      "log_fitness": 1.0,
      "perc_fit_traces": 100.0,
      "percentage_of_fitting_traces": 100.0
    },
    "fitness_alignments": {
      "averageFitness": 1.0,
      "average_trace_fitness": 1.0,
      "percFitTraces": 100.0,
      "percentage_of_fitting_traces": 100.0
    },
    "fscore": 0.9398953691145127,
    "generalization": 0.9607910652053353,
    "metricsAverageWeight": 0.9101251856155106,
    "precision": 0.8866062289808452,
    "precision_alignments": 0.8866062289808452,
    "simplicity": 0.7931034482758622
  },
  "easy_soundness": true,
  "sound": true
}