{
  "FULL": {
    "entropia_precision": 0.941723801079556,
    "entropia_recall": 0.999334653062557,
    "fitness": {
      "average_trace_fitness": 1.0,
      "log_fitness": 1.0,
      "perc_fit_traces": 100.0,
      "percentage_of_fitting_traces": 100.0
    },
    "fitness_alignments": {
      "averageFitness": 1.0,
      "average_trace_fitness": 1.0,
      "percFitTraces": 100.0,
      "percentage_of_fitting_traces": 100.0
    },
    "fscore": 0.9729390987295619,
    "generalization": 0.9570543847795225,
    "metricsAverageWeight": 0.9010896445640841,
    "precision": 0.9473041934768138,
    "precision_alignments": 0.9473041934768138,
    "simplicity": 0.7000000000000001
  },
  "easy_soundness": true,
  "sound": true
}