{
  "FULL": {
    "fitness": {
      "average_trace_fitness": 0.9998968419574576,
      "log_fitness": 0.9995020371208692,
      "perc_fit_traces": 98.9,
      "percentage_of_fitting_traces": 98.9
    },
    "fitness_alignments": {
      "averageFitness": 0.9893333333333331,
      "average_trace_fitness": 0.9893333333333331,
      "percFitTraces": 98.9,
      "percentage_of_fitting_traces": 98.9
    },
    "fscore": 0.9354609656589207,
    "generalization": 0.9700136837226079,
    "metricsAverageWeight": 0.9033384855837536,
    "precision": 0.8791323391385963,
    "precision_alignments": 0.8791323391385963,
    "simplicity": 0.7647058823529413
  }
}