{
  "FULL": {
    "entropia_precision": 0.7558652598133604,
    "entropia_recall": 1.001454012081152,
    "fitness": {
      "average_trace_fitness": 1.0,
      "log_fitness": 1.0,
      "perc_fit_traces": 100.0,
      "percentage_of_fitting_traces": 100.0
    },
    "fitness_alignments": {
      "averageFitness": 1.0,
      "average_trace_fitness": 1.0,
      "percFitTraces": 100.0,
      "percentage_of_fitting_traces": 100.0
    },
    "fscore": 0.9356790054942006,
    "generalization": 0.7761055517928879,
    "metricsAverageWeight": 0.8363446840004767,
    "precision": 0.8791323391385963,
    "precision_alignments": 0.8791323391385963,
    "simplicity": 0.6901408450704225
  },
  "easy_soundness": true,
  "sound": true
}