{
  "easy_soundness": true,
  "filename": "/home/dominique/TUe/thesis/git_data/evaluation_data/BPI_2020_Domestic_declarations/predictions/data_gcn_candidates_frequency_new_8_traces_testtesttest_0_cc.txt",
  "full": {
    "fitness                         ": "0.98253",
    "fitness_alignments              ": "0.95780",
    "fitness_alignments_percFitTraces": "89.20000",
    "fscore                          ": "0.98600",
    "fscore_alignments               ": "0.97844",
    "generalization                  ": "0.97773",
    "metricsAverageWeight            ": "0.92494",
    "precision                       ": "0.98950",
    "precision_alignments            ": "1.00000",
    "simplicity                      ": "0.75000",
    "entropia_precision              ": "0.999999999999999",
    "entropia_recall                 ": "0.699983399076795"
  },
  "s_components": [
    [
      "source",
      "p7",
      "Declaration FINAL_APPROVED by SUPERVISOR",
      "p2",
      "st1",
      "Declaration APPROVED by BUDGET OWNER",
      "Request Payment",
      "Declaration REJECTED by EMPLOYEE",
      "p0",
      "Payment Handled",
      "st0",
      "p6",
      "short_circuited_transition",
      "Declaration SUBMITTED by EMPLOYEE",
      "p4",
      "p3",
      "Declaration REJECTED by ADMINISTRATION",
      "Declaration APPROVED by ADMINISTRATION",
      "p5",
      "sink",
      ">",
      "|",
      "p1",
      "Declaration APPROVED by PRE_APPROVER",
      "Declaration SAVED by EMPLOYEE"
    ]
  ],
  "sound": true,
  "top 30": {
    "fitness                         ": "0.98503",
    "fitness_alignments              ": "0.96287",
    "fitness_alignments_percFitTraces": "90.16173",
    "fscore                          ": "0.98781",
    "fscore_alignments               ": "0.98108",
    "generalization                  ": "0.97739",
    "metricsAverageWeight            ": "0.92576",
    "precision                       ": "0.99061",
    "precision_alignments            ": "1.00000",
    "simplicity                      ": "0.75000"
  },
  "uncovered_places_s_component": []
}