[
  {
    "i": 0,
    "L": {
      "fitness": 0.9825262956384868,
      "precision": 0.9895041116371792,
      "generalization": 0.9777278301998473,
      "simplicity": 0.7499999999999999,
      "metricsAverageWeight": 0.9249395593688783,
      "fscore": 0.986002858514773,
      "fitness_percFitTraces": 89.2,
      "fitness_alignments": 0.9577962554245967,
      "fitness_alignments_percFitTraces": 89.2,
      "precision_alignments": 1.0,
      "fscore_alignments": 0.9784432397097161,
      "fitness_entropy_partial": 0.559618221551902,
      "precision_entropy_partial": 0.7863170327644592,
      "fscore_entropy_partial": 0.6538759394858452,
      "fitness_entropy_exact": 0.0,
      "precision_entropy_exact": 0.0,
      "fscore_entropy_exact": 0
    },
    "L_8": {
      "fitness": 0.9939107287703784,
      "precision": 1.0,
      "generalization": 0.9760191227198605,
      "simplicity": 0.7499999999999999,
      "metricsAverageWeight": 0.9299824628725597,
      "fscore": 0.996946066269789,
      "fitness_percFitTraces": 94.61561773916557,
      "fitness_alignments": 0.9826851197090687,
      "fitness_alignments_percFitTraces": 94.61561773916557,
      "precision_alignments": 1.0,
      "fscore_alignments": 0.9912669540317769,
      "fitness_entropy_partial": 0.894260902813638,
      "precision_entropy_partial": 0.7863170346678041,
      "fscore_entropy_partial": 0.8368223402641665,
      "fitness_entropy_exact": 0.0,
      "precision_entropy_exact": 0.0,
      "fscore_entropy_exact": 0
    },
    "args": {
      "config": "config.json",
      "dataDirectory": "/mnt/c/Users/s140511/tue/thesis/APDGnn_data/evaluation_data/BPI_2020_Domestic_declarations/",
      "logFilename": "data",
      "miner": "gnn",
      "model_filename": "/mnt/c/Users/s140511/tue/thesis/git_clean/project/ml_models/models/model_candidates_frequency_new_036",
      "visualize": false,
      "export": "medium",
      "conformanceChecking": true,
      "beam_width": -50,
      "beam_length": 20,
      "number_of_petrinets": 20,
      "top_x_traces": 8,
      "length_normalization": 0,
      "timeout": null,
      "prom": false,
      "import_petrinet": null
    },
    "easy_soundness": true,
    "log_filename": "/mnt/c/Users/s140511/tue/thesis/APDGnn_data/evaluation_data/BPI_2020_Domestic_declarations/data",
    "petrinet_filename": "/mnt/c/Users/s140511/tue/thesis/APDGnn_data/evaluation_data/BPI_2020_Domestic_declarations/predictions/data_gcn_medium_0",
    "sound": true,
    "soundness_info": {
      "s_components": [
        [
          "Declaration SUBMITTED by EMPLOYEE",
          ">",
          "Declaration APPROVED by BUDGET OWNER",
          "st0",
          "p4",
          "p2",
          "Declaration REJECTED by EMPLOYEE",
          "|",
          "p1",
          "Declaration APPROVED by ADMINISTRATION",
          "sink",
          "Request Payment",
          "Declaration APPROVED by PRE_APPROVER",
          "p0",
          "p7",
          "Declaration SAVED by EMPLOYEE",
          "st1",
          "Declaration FINAL_APPROVED by SUPERVISOR",
          "p6",
          "Declaration REJECTED by ADMINISTRATION",
          "Payment Handled",
          "p5",
          "short_circuited_transition",
          "p3",
          "source"
        ]
      ],
      "uncovered_places_s_component": []
    }
  },
  {
    "i": 5,
    "L": {
      "fitness": 0.9818639178159302,
      "precision": 0.9895041116371792,
      "generalization": 0.9777134136570471,
      "simplicity": 0.6842105263157894,
      "metricsAverageWeight": 0.9083229923564864,
      "fscore": 0.9856692096366999,
      "fitness_percFitTraces": 86.26666666666667,
      "fitness_alignments": 0.9403845773176149,
      "fitness_alignments_percFitTraces": 86.26666666666667,
      "precision_alignments": 1.0,
      "fscore_alignments": 0.9692764911764051,
      "fitness_entropy_partial": 0.512102189075801,
      "precision_entropy_partial": 0.7672519131239711,
      "fscore_entropy_partial": 0.6142339851145112,
      "fitness_entropy_exact": 0.0,
      "precision_entropy_exact": 0.0,
      "fscore_entropy_exact": 0
    },
    "L_8": {
      "fitness": 0.9920962360791317,
      "precision": 1.0,
      "generalization": 0.9760076863625864,
      "simplicity": 0.6842105263157894,
      "metricsAverageWeight": 0.9130786121893768,
      "fscore": 0.9960324387056598,
      "fitness_percFitTraces": 91.50419234266087,
      "fitness_alignments": 0.9608121699494421,
      "fitness_alignments_percFitTraces": 91.50419234266087,
      "precision_alignments": 1.0,
      "fscore_alignments": 0.9800144906018365,
      "fitness_entropy_partial": 0.818331054370273,
      "precision_entropy_partial": 0.7672520201244034,
      "fscore_entropy_partial": 0.7919687901515033,
      "fitness_entropy_exact": 0.0,
      "precision_entropy_exact": 0.0,
      "fscore_entropy_exact": 0
    },
    "args": {
      "config": "config.json",
      "dataDirectory": "/mnt/c/Users/s140511/tue/thesis/APDGnn_data/evaluation_data/BPI_2020_Domestic_declarations/",
      "logFilename": "data",
      "miner": "gnn",
      "model_filename": "/mnt/c/Users/s140511/tue/thesis/git_clean/project/ml_models/models/model_candidates_frequency_new_036",
      "visualize": false,
      "export": "medium",
      "conformanceChecking": true,
      "beam_width": -50,
      "beam_length": 20,
      "number_of_petrinets": 20,
      "top_x_traces": 8,
      "length_normalization": 0,
      "timeout": null,
      "prom": false,
      "import_petrinet": null
    },
    "easy_soundness": true,
    "log_filename": "/mnt/c/Users/s140511/tue/thesis/APDGnn_data/evaluation_data/BPI_2020_Domestic_declarations/data",
    "petrinet_filename": "/mnt/c/Users/s140511/tue/thesis/APDGnn_data/evaluation_data/BPI_2020_Domestic_declarations/predictions/data_gcn_medium_5",
    "sound": false,
    "soundness_info": {
      "s_components": [],
      "uncovered_places_s_component": [
        "p2",
        "p7",
        "p5",
        "p1",
        "p8",
        "p0",
        "p3",
        "p4",
        "p9",
        "p6",
        "source",
        "sink"
      ]
    }
  },
  {
    "i": 2,
    "L": {
      "fitness": 0.8738937889755094,
      "precision": 0.9895041116371792,
      "generalization": 0.9110081036174225,
      "simplicity": 0.7222222222222222,
      "metricsAverageWeight": 0.8741570566130834,
      "fscore": 0.9281125593638783,
      "fitness_percFitTraces": 0.0,
      "fitness_alignments": null,
      "fitness_alignments_percFitTraces": null,
      "precision_alignments": null,
      "fscore_alignments": null,
      "fitness_entropy_partial": null,
      "precision_entropy_partial": null,
      "fscore_entropy_partial": null,
      "fitness_entropy_exact": null,
      "precision_entropy_exact": null,
      "fscore_entropy_exact": null
    },
    "L_8": {
      "fitness": 0.8771959522538078,
      "precision": 1.0,
      "generalization": 0.9087335863787688,
      "simplicity": 0.7222222222222222,
      "metricsAverageWeight": 0.8770379402136997,
      "fscore": 0.9345811247894762,
      "fitness_percFitTraces": 0.0,
      "fitness_alignments": null,
      "fitness_alignments_percFitTraces": null,
      "precision_alignments": null,
      "fscore_alignments": null,
      "fitness_entropy_partial": null,
      "precision_entropy_partial": null,
      "fscore_entropy_partial": null,
      "fitness_entropy_exact": null,
      "precision_entropy_exact": null,
      "fscore_entropy_exact": null
    },
    "args": {
      "config": "config.json",
      "dataDirectory": "/mnt/c/Users/s140511/tue/thesis/APDGnn_data/evaluation_data/BPI_2020_Domestic_declarations/",
      "logFilename": "data",
      "miner": "gnn",
      "model_filename": "/mnt/c/Users/s140511/tue/thesis/git_clean/project/ml_models/models/model_candidates_frequency_new_036",
      "visualize": false,
      "export": "medium",
      "conformanceChecking": true,
      "beam_width": -50,
      "beam_length": 20,
      "number_of_petrinets": 20,
      "top_x_traces": 8,
      "length_normalization": 0,
      "timeout": null,
      "prom": false,
      "import_petrinet": null
    },
    "easy_soundness": false,
    "log_filename": "/mnt/c/Users/s140511/tue/thesis/APDGnn_data/evaluation_data/BPI_2020_Domestic_declarations/data",
    "petrinet_filename": "/mnt/c/Users/s140511/tue/thesis/APDGnn_data/evaluation_data/BPI_2020_Domestic_declarations/predictions/data_gcn_medium_2",
    "sound": false,
    "soundness_info": {
      "s_components": [],
      "uncovered_places_s_component": [
        "p0",
        "p2",
        "p4",
        "sink",
        "p6",
        "p5",
        "p1",
        "p7",
        "p3",
        "p8",
        "source"
      ]
    }
  },
  {
    "i": 3,
    "L": {
      "fitness": 0.8738937889755094,
      "precision": 0.9895041116371792,
      "generalization": 0.976080111018667,
      "simplicity": 0.7575757575757577,
      "metricsAverageWeight": 0.8992634423017783,
      "fscore": 0.9281125593638783,
      "fitness_percFitTraces": 0.0,
      "fitness_alignments": null,
      "fitness_alignments_percFitTraces": null,
      "precision_alignments": null,
      "fscore_alignments": null,
      "fitness_entropy_partial": null,
      "precision_entropy_partial": null,
      "fscore_entropy_partial": null,
      "fitness_entropy_exact": null,
      "precision_entropy_exact": null,
      "fscore_entropy_exact": null
    },
    "L_8": {
      "fitness": 0.8771959522538078,
      "precision": 1.0,
      "generalization": 0.9736431282629665,
      "simplicity": 0.7575757575757577,
      "metricsAverageWeight": 0.902103709523133,
      "fscore": 0.9345811247894762,
      "fitness_percFitTraces": 0.0,
      "fitness_alignments": null,
      "fitness_alignments_percFitTraces": null,
      "precision_alignments": null,
      "fscore_alignments": null,
      "fitness_entropy_partial": null,
      "precision_entropy_partial": null,
      "fscore_entropy_partial": null,
      "fitness_entropy_exact": null,
      "precision_entropy_exact": null,
      "fscore_entropy_exact": null
    },
    "args": {
      "config": "config.json",
      "dataDirectory": "/mnt/c/Users/s140511/tue/thesis/APDGnn_data/evaluation_data/BPI_2020_Domestic_declarations/",
      "logFilename": "data",
      "miner": "gnn",
      "model_filename": "/mnt/c/Users/s140511/tue/thesis/git_clean/project/ml_models/models/model_candidates_frequency_new_036",
      "visualize": false,
      "export": "medium",
      "conformanceChecking": true,
      "beam_width": -50,
      "beam_length": 20,
      "number_of_petrinets": 20,
      "top_x_traces": 8,
      "length_normalization": 0,
      "timeout": null,
      "prom": false,
      "import_petrinet": null
    },
    "easy_soundness": false,
    "log_filename": "/mnt/c/Users/s140511/tue/thesis/APDGnn_data/evaluation_data/BPI_2020_Domestic_declarations/data",
    "petrinet_filename": "/mnt/c/Users/s140511/tue/thesis/APDGnn_data/evaluation_data/BPI_2020_Domestic_declarations/predictions/data_gcn_medium_3",
    "sound": false,
    "soundness_info": {
      "s_components": [],
      "uncovered_places_s_component": [
        "sink",
        "p1",
        "p0",
        "p5",
        "p8",
        "p2",
        "p6",
        "p3",
        "p4",
        "p7",
        "source"
      ]
    }
  },
  {
    "i": 6,
    "L": {
      "fitness": 0.8738937889755094,
      "precision": 0.9895041116371792,
      "generalization": 0.9110081036174225,
      "simplicity": 0.7222222222222222,
      "metricsAverageWeight": 0.8741570566130834,
      "fscore": 0.9281125593638783,
      "fitness_percFitTraces": 0.0,
      "fitness_alignments": null,
      "fitness_alignments_percFitTraces": null,
      "precision_alignments": null,
      "fscore_alignments": null,
      "fitness_entropy_partial": null,
      "precision_entropy_partial": null,
      "fscore_entropy_partial": null,
      "fitness_entropy_exact": null,
      "precision_entropy_exact": null,
      "fscore_entropy_exact": null
    },
    "L_8": {
      "fitness": 0.8771959522538078,
      "precision": 1.0,
      "generalization": 0.9087335863787688,
      "simplicity": 0.7222222222222222,
      "metricsAverageWeight": 0.8770379402136997,
      "fscore": 0.9345811247894762,
      "fitness_percFitTraces": 0.0,
      "fitness_alignments": null,
      "fitness_alignments_percFitTraces": null,
      "precision_alignments": null,
      "fscore_alignments": null,
      "fitness_entropy_partial": null,
      "precision_entropy_partial": null,
      "fscore_entropy_partial": null,
      "fitness_entropy_exact": null,
      "precision_entropy_exact": null,
      "fscore_entropy_exact": null
    },
    "args": {
      "config": "config.json",
      "dataDirectory": "/mnt/c/Users/s140511/tue/thesis/APDGnn_data/evaluation_data/BPI_2020_Domestic_declarations/",
      "logFilename": "data",
      "miner": "gnn",
      "model_filename": "/mnt/c/Users/s140511/tue/thesis/git_clean/project/ml_models/models/model_candidates_frequency_new_036",
      "visualize": false,
      "export": "medium",
      "conformanceChecking": true,
      "beam_width": -50,
      "beam_length": 20,
      "number_of_petrinets": 20,
      "top_x_traces": 8,
      "length_normalization": 0,
      "timeout": null,
      "prom": false,
      "import_petrinet": null
    },
    "easy_soundness": false,
    "log_filename": "/mnt/c/Users/s140511/tue/thesis/APDGnn_data/evaluation_data/BPI_2020_Domestic_declarations/data",
    "petrinet_filename": "/mnt/c/Users/s140511/tue/thesis/APDGnn_data/evaluation_data/BPI_2020_Domestic_declarations/predictions/data_gcn_medium_6",
    "sound": false,
    "soundness_info": {
      "s_components": [],
      "uncovered_places_s_component": [
        "p4",
        "p6",
        "p0",
        "source",
        "p1",
        "p7",
        "p2",
        "p8",
        "sink",
        "p3",
        "p5"
      ]
    }
  },
  {
    "i": 7,
    "L": {
      "fitness": 0.8271633148805103,
      "precision": 0.9895041116371792,
      "generalization": 0.976080111018667,
      "simplicity": 0.6842105263157894,
      "metricsAverageWeight": 0.8692395159630364,
      "fscore": 0.9010801747446139,
      "fitness_percFitTraces": 0.0,
      "fitness_alignments": null,
      "fitness_alignments_percFitTraces": null,
      "precision_alignments": null,
      "fscore_alignments": null,
      "fitness_entropy_partial": null,
      "precision_entropy_partial": null,
      "fscore_entropy_partial": null,
      "fitness_entropy_exact": null,
      "precision_entropy_exact": null,
      "fscore_entropy_exact": null
    },
    "L_8": {
      "fitness": 0.8294008118379363,
      "precision": 1.0,
      "generalization": 0.9736431282629665,
      "simplicity": 0.6842105263157894,
      "metricsAverageWeight": 0.871813616604173,
      "fscore": 0.9067458661556684,
      "fitness_percFitTraces": 0.0,
      "fitness_alignments": null,
      "fitness_alignments_percFitTraces": null,
      "precision_alignments": null,
      "fscore_alignments": null,
      "fitness_entropy_partial": null,
      "precision_entropy_partial": null,
      "fscore_entropy_partial": null,
      "fitness_entropy_exact": null,
      "precision_entropy_exact": null,
      "fscore_entropy_exact": null
    },
    "args": {
      "config": "config.json",
      "dataDirectory": "/mnt/c/Users/s140511/tue/thesis/APDGnn_data/evaluation_data/BPI_2020_Domestic_declarations/",
      "logFilename": "data",
      "miner": "gnn",
      "model_filename": "/mnt/c/Users/s140511/tue/thesis/git_clean/project/ml_models/models/model_candidates_frequency_new_036",
      "visualize": false,
      "export": "medium",
      "conformanceChecking": true,
      "beam_width": -50,
      "beam_length": 20,
      "number_of_petrinets": 20,
      "top_x_traces": 8,
      "length_normalization": 0,
      "timeout": null,
      "prom": false,
      "import_petrinet": null
    },
    "easy_soundness": false,
    "log_filename": "/mnt/c/Users/s140511/tue/thesis/APDGnn_data/evaluation_data/BPI_2020_Domestic_declarations/data",
    "petrinet_filename": "/mnt/c/Users/s140511/tue/thesis/APDGnn_data/evaluation_data/BPI_2020_Domestic_declarations/predictions/data_gcn_medium_7",
    "sound": false,
    "soundness_info": {
      "s_components": [],
      "uncovered_places_s_component": [
        "p4",
        "p6",
        "p5",
        "p7",
        "p8",
        "sink",
        "p2",
        "p3",
        "p9",
        "source",
        "p0",
        "p1"
      ]
    }
  }
]