{
  "easy_soundness": false,
  "filename": "/mnt/c/Users/s140511/tue/thesis/thesis_data/evaluation_data/road_traffic_fine/predictions/data_gcn_simpleep144_9_cc.json",
  "full": {
    "entropia_precision": "nan",
    "entropia_recall": "nan",
    "fitness": {
      "average_trace_fitness": 0.7919566400125716,
      "log_fitness": 0.7887441458296289,
      "perc_fit_traces": 0.0,
      "percentage_of_fitting_traces": 0.0
    },
    "fscore": 0.8791220577312627,
    "generalization": 0.9825332216360239,
    "metricsAverageWeight": 0.88006677856445,
    "precision": 0.9928921858165376,
    "simplicity": 0.7560975609756097
  },
  "sound": false,
  "top 30": {
    "fitness": {
      "average_trace_fitness": 0.7919855672427843,
      "log_fitness": 0.7887831221473197,
      "perc_fit_traces": 0.0,
      "percentage_of_fitting_traces": 0.0
    },
    "fscore": 0.8792098270541652,
    "generalization": 0.9793655133140378,
    "metricsAverageWeight": 0.8793251346100195,
    "precision": 0.9930543420031112,
    "simplicity": 0.7560975609756097
  }
}