{
  "easy_soundness": false,
  "filename": "/mnt/c/Users/s140511/tue/thesis/thesis_data/evaluation_data/road_traffic_fine/predictions/data_gcn_simpleep144_7_cca.json",
  "full": {
    "entropia_precision": "nan",
    "entropia_recall": "nan",
    "fitness": {
      "average_trace_fitness": 0.7918734250067972,
      "log_fitness": 0.7886049928888961,
      "perc_fit_traces": 0.0,
      "percentage_of_fitting_traces": 0.0
    },
    "fscore": 0.8790356162161043,
    "generalization": 0.9825332216360239,
    "metricsAverageWeight": 0.8897255488033131,
    "precision": 0.9928921858165376,
    "simplicity": 0.7948717948717947
  },
  "sound": false,
  "top 30": {
    "fitness": {
      "average_trace_fitness": 0.791898222008377,
      "log_fitness": 0.7886215661292558,
      "perc_fit_traces": 0.0,
      "percentage_of_fitting_traces": 0.0
    },
    "fscore": 0.8791094574129119,
    "generalization": 0.9793655133140378,
    "metricsAverageWeight": 0.8889783040795498,
    "precision": 0.9930543420031112,
    "simplicity": 0.7948717948717947
  }
}