{
  "easy_soundness": true,
  "filename": "/home/dominique/TUe/thesis/git_data/evaluation_data/road_traffic_fine/predictions/data_gcn_beam_new_12_cc.txt",
  "full": {
    "fitness                         ": "0.65898",
    "fitness_alignments              ": "0.44753",
    "fitness_alignments_percFitTraces": "0.00000",
    "fscore                          ": "0.79410",
    "generalization                  ": "0.98585",
    "metricsAverageWeight            ": "0.83647",
    "precision                       ": "0.99891",
    "precision_alignments            ": "0.99891",
    "simplicity                      ": "0.70213"
  },
  "s_components": [
    [
      ">",
      "Send Fine",
      "p0",
      "sink",
      "p11",
      "Insert Fine Notification",
      "st2",
      "p13",
      "p1",
      "p6",
      "|",
      "p4",
      "Create Fine",
      "p8",
      "Insert Date Appeal to Prefecture",
      "Notify Result Appeal to Offender",
      "Receive Result Appeal from Prefecture",
      "short_circuited_transition",
      "Send Appeal to Prefecture",
      "source",
      "p12"
    ],
    [
      ">",
      "Send Fine",
      "p0",
      "p5",
      "sink",
      "Insert Fine Notification",
      "Add penalty",
      "st2",
      "p13",
      "p1",
      "|",
      "p4",
      "Create Fine",
      "p10",
      "Notify Result Appeal to Offender",
      "Receive Result Appeal from Prefecture",
      "short_circuited_transition",
      "source",
      "p12"
    ]
  ],
  "sound": false,
  "top 30": {
    "fitness                         ": "0.65768",
    "fitness_alignments              ": "0.44622",
    "fitness_alignments_percFitTraces": "0.00000",
    "fscore                          ": "0.79272",
    "generalization                  ": "0.98321",
    "metricsAverageWeight            ": "0.83514",
    "precision                       ": "0.99754",
    "precision_alignments            ": "0.99754",
    "simplicity                      ": "0.70213"
  },
  "uncovered_places_s_component": [
    "p14",
    "p2",
    "p3",
    "p7",
    "p9"
  ]
}