{
  "easy_soundness": false,
  "filename": "/mnt/c/Users/s140511/tue/thesis/thesis_data/evaluation_data/road_traffic_fine/predictions/data_gcn_complexep100_2_cc.json",
  "full": {
    "fitness": {
      "average_trace_fitness": 0.6218921823752575,
      "log_fitness": 0.6020024080826518,
      "perc_fit_traces": 0.0,
      "percentage_of_fitting_traces": 0.0
    },
    "fscore": 0.7502498738445843,
    "generalization": 0.924756811498872,
    "metricsAverageWeight": 0.8180312987247266,
    "precision": 0.9953659753173825,
    "simplicity": 0.7499999999999999
  },
  "s_components": [
    [
      "sink",
      "short_circuited_transition",
      "p5",
      "Insert Date Appeal to Prefecture",
      "Send Appeal to Prefecture",
      "source",
      "Create Fine",
      "|",
      ">",
      "p0",
      "p9",
      "st1",
      "p3",
      "Send Fine",
      "p1"
    ]
  ],
  "sound": false,
  "top 30": {
    "fitness": {
      "average_trace_fitness": 0.6214856295885549,
      "log_fitness": 0.601137199479169,
      "perc_fit_traces": 0.0,
      "percentage_of_fitting_traces": 0.0
    },
    "fscore": 0.7495074858626768,
    "generalization": 0.9223537921898248,
    "metricsAverageWeight": 0.8171524279294273,
    "precision": 0.9951187200487156,
    "simplicity": 0.7499999999999999
  },
  "uncovered_places_s_component": [
    "p7",
    "p8",
    "p4",
    "p6",
    "p2",
    "p10",
    "p11"
  ]
}