{
  "easy_soundness": false,
  "filename": "/mnt/c/Users/s140511/tue/thesis/thesis_data/evaluation_data/road_traffic_fine/predictions/data_gcn_simpleep144_19_cc.json",
  "full": {
    "fitness": {
      "average_trace_fitness": 0.7571457833669127,
      "log_fitness": 0.7556807063133723,
      "perc_fit_traces": 0.0,
      "percentage_of_fitting_traces": 0.0
    },
    "fscore": 0.8608407025217836,
    "generalization": 0.9835379254629611,
    "metricsAverageWeight": 0.8531720048828588,
    "precision": 1.0,
    "simplicity": 0.673469387755102
  },
  "sound": false,
  "top 30": {
    "fitness": {
      "average_trace_fitness": 0.7571473843446735,
      "log_fitness": 0.7557512198012092,
      "perc_fit_traces": 0.0,
      "percentage_of_fitting_traces": 0.0
    },
    "fscore": 0.8608864527934399,
    "generalization": 0.980939461167493,
    "metricsAverageWeight": 0.8525400171809511,
    "precision": 1.0,
    "simplicity": 0.673469387755102
  }
}