{
  "easy_soundness": true,
  "filename": "/mnt/c/Users/s140511/tue/thesis/thesis_data/evaluation_data/road_traffic_fine/predictions/data_gcn_simpleep144_1_cc.json",
  "full": {
    "entropia_precision": 0.0,
    "entropia_recall": 0.0,
    "fitness": {
      "average_trace_fitness": 0.7336611337330147,
      "log_fitness": 0.7209153634507361,
      "perc_fit_traces": 0.0,
      "percentage_of_fitting_traces": 0.0
    },
    "fitness_alignments": {
      "averageFitness": 0.19562412715302255,
      "average_trace_fitness": 0.19562412715302255,
      "percFitTraces": 0.0,
      "percentage_of_fitting_traces": 0.0
    },
    "fscore": 0.8361969656763558,
    "generalization": 0.9865587199813801,
    "metricsAverageWeight": 0.8828528718302319,
    "precision": 0.9953659753173825,
    "precision_alignments": 0.9953659753173825,
    "simplicity": 0.8285714285714286
  },
  "sound": false,
  "top 30": {
    "fitness": {
      "average_trace_fitness": 0.7336509478134171,
      "log_fitness": 0.7208209919835203,
      "perc_fit_traces": 0.0,
      "percentage_of_fitting_traces": 0.0
    },
    "fitness_alignments": {
      "averageFitness": 0.19505951704640392,
      "average_trace_fitness": 0.19505951704640392,
      "percFitTraces": 0.0,
      "percentage_of_fitting_traces": 0.0
    },
    "fscore": 0.8360462292435259,
    "generalization": 0.9839290195774719,
    "metricsAverageWeight": 0.8821100400452841,
    "precision": 0.9951187200487156,
    "precision_alignments": 0.9951187200487156,
    "simplicity": 0.8285714285714286
  }
}