{
  "easy_soundness": true,
  "filename": "/mnt/c/Users/s140511/tue/thesis/thesis_data/evaluation_data/road_traffic_fine/predictions/data_gcn_simpleep144_2_cc.json",
  "full": {
    "fitness": {
      "average_trace_fitness": 0.7711279081769868,
      "log_fitness": 0.7513373986550056,
      "perc_fit_traces": 0.0,
      "percentage_of_fitting_traces": 0.0
    },
    "fitness_alignments": {
      "averageFitness": 0.2515484028285051,
      "average_trace_fitness": 0.2515484028285051,
      "percFitTraces": 0.0,
      "percentage_of_fitting_traces": 0.0
    },
    "fscore": 0.8563053048943006,
    "generalization": 0.987312633003813,
    "metricsAverageWeight": 0.8725283919879526,
    "precision": 0.9953659753173825,
    "precision_alignments": 0.9953659753173825,
    "simplicity": 0.7560975609756097
  },
  "sound": false,
  "top 30": {
    "fitness": {
      "average_trace_fitness": 0.7712565996809474,
      "log_fitness": 0.7514210207416381,
      "perc_fit_traces": 0.0,
      "percentage_of_fitting_traces": 0.0
    },
    "fitness_alignments": {
      "averageFitness": 0.25190314193828245,
      "average_trace_fitness": 0.25190314193828245,
      "percFitTraces": 0.0,
      "percentage_of_fitting_traces": 0.0
    },
    "fscore": 0.8562680904583836,
    "generalization": 0.9850236015015115,
    "metricsAverageWeight": 0.8719152258168688,
    "precision": 0.9951187200487156,
    "precision_alignments": 0.9951187200487156,
    "simplicity": 0.7560975609756097
  }
}