{
  "easy_soundness": false,
  "filename": "/mnt/c/Users/s140511/tue/thesis/thesis_data/evaluation_data/road_traffic_fine/predictions/data_gcn_simpleep144_12_cc.json",
  "full": {
    "fitness": {
      "average_trace_fitness": 0.7986231211713102,
      "log_fitness": 0.7824166687425296,
      "perc_fit_traces": 0.0,
      "percentage_of_fitting_traces": 0.0
    },
    "fscore": 0.8751777409908895,
    "generalization": 0.9841286650648873,
    "metricsAverageWeight": 0.866942713239322,
    "precision": 0.9928921858165376,
    "simplicity": 0.7083333333333334
  },
  "sound": false,
  "top 30": {
    "fitness": {
      "average_trace_fitness": 0.7986810432808951,
      "log_fitness": 0.7823709354946267,
      "perc_fit_traces": 0.0,
      "percentage_of_fitting_traces": 0.0
    },
    "fscore": 0.8752121132858715,
    "generalization": 0.9816781948829579,
    "metricsAverageWeight": 0.8663592014285073,
    "precision": 0.9930543420031112,
    "simplicity": 0.7083333333333334
  }
}