{
  "easy_soundness": true,
  "filename": "/mnt/c/Users/s140511/tue/thesis/thesis_data/evaluation_data/road_traffic_fine/predictions/data_gcn_simpleep144_10_cc.json",
  "full": {
    "fitness": {
      "average_trace_fitness": 0.7780031478222929,
      "log_fitness": 0.7841305308433405,
      "perc_fit_traces": 2.082197246791248,
      "percentage_of_fitting_traces": 2.082197246791248
    },
    "fitness_alignments": {
      "averageFitness": 0.49812462592247825,
      "average_trace_fitness": 0.49812462592247825,
      "percFitTraces": 2.082197246791248,
      "percentage_of_fitting_traces": 2.082197246791248
    },
    "fscore": 0.8761955713792261,
    "generalization": 0.9880115496677344,
    "metricsAverageWeight": 0.8714569087069449,
    "precision": 0.9927553217585653,
    "precision_alignments": 0.9927553217585653,
    "simplicity": 0.7209302325581395
  },
  "s_components": [
    [
      "p0",
      ">",
      "p11",
      "Create Fine",
      "Insert Date Appeal to Prefecture",
      "Appeal to Judge",
      "p4",
      "Payment",
      "Send for Credit Collection",
      "p2",
      "p9",
      "|",
      "Add penalty",
      "st1",
      "p7",
      "source",
      "short_circuited_transition",
      "sink"
    ],
    [
      "p6",
      "st2",
      "|",
      "Notify Result Appeal to Offender",
      "p7",
      "p0",
      "Send for Credit Collection",
      "p1",
      "sink",
      "p10",
      "Insert Date Appeal to Prefecture",
      "Create Fine",
      "p4",
      "Payment",
      "p3",
      "st0",
      "st1",
      "Insert Fine Notification",
      "short_circuited_transition",
      "p8",
      ">",
      "Send Appeal to Prefecture",
      "p12",
      "Appeal to Judge",
      "Send Fine",
      "source",
      "p5",
      "Receive Result Appeal from Prefecture"
    ]
  ],
  "sound": false,
  "top 30": {
    "fitness": {
      "average_trace_fitness": 0.7779583972397789,
      "log_fitness": 0.784175063454273,
      "perc_fit_traces": 2.092620688272368,
      "percentage_of_fitting_traces": 2.092620688272368
    },
    "fitness_alignments": {
      "averageFitness": 0.5032359539535248,
      "average_trace_fitness": 0.5032359539535248,
      "percFitTraces": 2.092620688272368,
      "percentage_of_fitting_traces": 2.092620688272368
    },
    "fscore": 0.8762575401717038,
    "generalization": 0.9859884845882633,
    "metricsAverageWeight": 0.8709842067356363,
    "precision": 0.9928430463418694,
    "precision_alignments": 0.9928430463418694,
    "simplicity": 0.7209302325581395
  },
  "uncovered_places_s_component": []
}