{
  "easy_soundness": false,
  "filename": "/mnt/c/Users/s140511/tue/thesis/thesis_data/evaluation_data/road_traffic_fine/predictions/data_gcn_simpleep144_0_cca.json",
  "full": {
    "entropia_precision": "nan",
    "entropia_recall": "nan",
    "fitness": {
      "average_trace_fitness": 0.8491590463260541,
      "log_fitness": 0.8559994928363317,
      "perc_fit_traces": 0.0,
      "percentage_of_fitting_traces": 0.0
    },
    "fscore": 0.873768041183528,
    "generalization": 0.9879863830908904,
    "metricsAverageWeight": 0.9168275630235196,
    "precision": 0.8922898934082354,
    "simplicity": 0.9310344827586208
  },
  "sound": false,
  "top 30": {
    "fitness": {
      "average_trace_fitness": 0.8492502169996823,
      "log_fitness": 0.8562436202630429,
      "perc_fit_traces": 0.0,
      "percentage_of_fitting_traces": 0.0
    },
    "fscore": 0.7885840537190999,
    "generalization": 0.9856885872333196,
    "metricsAverageWeight": 0.8759502276050246,
    "precision": 0.7308342201651148,
    "simplicity": 0.9310344827586208
  }
}