{
  "easy_soundness": false,
  "filename": "/mnt/c/Users/s140511/tue/thesis/thesis_data/evaluation_data/road_traffic_fine/predictions/data_gcn_simpleep144_9_cc.json",
  "full": {
    "fitness": {
      "average_trace_fitness": 0.6476878726451477,
      "log_fitness": 0.6407635367818518,
      "perc_fit_traces": 0.0,
      "percentage_of_fitting_traces": 0.0
    },
    "fscore": 0.7788778257575033,
    "generalization": 0.9814690956147835,
    "metricsAverageWeight": 0.8412812045532932,
    "precision": 0.9928921858165376,
    "simplicity": 0.7499999999999999
  },
  "s_components": [
    [
      "p8",
      "p5",
      "st0",
      "sink",
      "short_circuited_transition",
      "Notify Result Appeal to Offender",
      "p3",
      "p10",
      "Create Fine",
      ">",
      "Insert Fine Notification",
      "Send Fine",
      "|",
      "Insert Date Appeal to Prefecture",
      "p6",
      "p12",
      "source",
      "Send Appeal to Prefecture",
      "Receive Result Appeal from Prefecture",
      "p0",
      "p1"
    ]
  ],
  "sound": false,
  "top 30": {
    "fitness": {
      "average_trace_fitness": 0.6471519771983989,
      "log_fitness": 0.6396445904333907,
      "perc_fit_traces": 0.0,
      "percentage_of_fitting_traces": 0.0
    },
    "fscore": 0.7781003897892661,
    "generalization": 0.9781220110006996,
    "metricsAverageWeight": 0.8402052358593004,
    "precision": 0.9930543420031112,
    "simplicity": 0.7499999999999999
  },
  "uncovered_places_s_component": [
    "p11",
    "p7",
    "p2",
    "p9",
    "p4"
  ]
}