{
  "L": {
    "fitness": 0.6557260318307576,
    "fitness_alignments": null,
    "fitness_alignments_percFitTraces": null,
    "fitness_entropy_exact": null,
    "fitness_entropy_partial": null,
    "fitness_percFitTraces": 0.0,
    "fscore": 0.791727578263965,
    "fscore_alignments": null,
    "fscore_entropy_exact": null,
    "fscore_entropy_partial": null,
    "generalization": 0.9852345174195928,
    "metricsAverageWeight": 0.8518273315769506,
    "precision": 0.9989069165923358,
    "precision_alignments": null,
    "precision_entropy_exact": null,
    "precision_entropy_partial": null,
    "simplicity": 0.7674418604651162
  },
  "L_30": {
    "fitness": 0.6542248390789134,
    "fitness_alignments": null,
    "fitness_alignments_percFitTraces": null,
    "fitness_entropy_exact": null,
    "fitness_entropy_partial": null,
    "fitness_percFitTraces": 0.0,
    "fscore": 0.7902033172852042,
    "fscore_alignments": null,
    "fscore_entropy_exact": null,
    "fscore_entropy_partial": null,
    "generalization": 0.9824932250589479,
    "metricsAverageWeight": 0.8504245775133997,
    "precision": 0.9975383854506216,
    "precision_alignments": null,
    "precision_entropy_exact": null,
    "precision_entropy_partial": null,
    "simplicity": 0.7674418604651162
  },
  "args": {
    "beam_length": 20,
    "beam_width": -50,
    "config": "config.json",
    "conformanceChecking": true,
    "dataDirectory": "/mnt/c/Users/s140511/tue/thesis/APDGnn_data/evaluation_data/road_traffic_fine/",
    "export": "medium",
    "import_petrinet": null,
    "length_normalization": 0,
    "logFilename": "data",
    "miner": "gnn",
    "model_filename": "/mnt/c/Users/s140511/tue/thesis/git_clean/project/ml_models/models/model_candidates_frequency_new_036",
    "number_of_petrinets": 20,
    "prom": false,
    "timeout": null,
    "top_x_traces": 30,
    "visualize": false
  },
  "easy_soundness": false,
  "log_filename": "/mnt/c/Users/s140511/tue/thesis/APDGnn_data/evaluation_data/road_traffic_fine/data",
  "petrinet_filename": "/mnt/c/Users/s140511/tue/thesis/APDGnn_data/evaluation_data/road_traffic_fine/predictions/data_gcn_medium_5",
  "sound": false,
  "soundness_info": {
    "s_components": [
      [
        "p0",
        "Create Fine",
        "p3",
        "st1",
        "source",
        "sink",
        ">",
        "Payment",
        "Insert Fine Notification",
        "st0",
        "short_circuited_transition",
        "p2",
        "p7",
        "Appeal to Judge",
        "p8",
        "|"
      ],
      [
        "p0",
        ">",
        "Notify Result Appeal to Offender",
        "st2",
        "p1",
        "Send Fine",
        "Create Fine",
        "Add penalty",
        "Receive Result Appeal from Prefecture",
        "short_circuited_transition",
        "p4",
        "p5",
        "p13",
        "Send for Credit Collection",
        "p14",
        "sink",
        "source",
        "Insert Fine Notification",
        "p9",
        "p12",
        "|"
      ],
      [
        "p0",
        ">",
        "Notify Result Appeal to Offender",
        "st2",
        "p1",
        "Send Fine",
        "Create Fine",
        "Send Appeal to Prefecture",
        "Receive Result Appeal from Prefecture",
        "short_circuited_transition",
        "p4",
        "p10",
        "p11",
        "p13",
        "Send for Credit Collection",
        "Insert Date Appeal to Prefecture",
        "p14",
        "sink",
        "p6",
        "source",
        "Insert Fine Notification",
        "p12",
        "|"
      ]
    ],
    "uncovered_places_s_component": []
  }
}