{
  "easy_soundness": true,
  "filename": "/home/dominique/TUe/thesis/git_data/evaluation_data/road_traffic_fine/predictions/data_gcn_beam_new_0_cc.txt",
  "full": {
    "fitness                         ": "0.68492",
    "fitness_alignments              ": "0.72899",
    "fitness_alignments_percFitTraces": "2.38478",
    "fscore                          ": "0.81208",
    "generalization                  ": "0.97824",
    "metricsAverageWeight            ": "0.84367",
    "precision                       ": "0.99724",
    "precision_alignments            ": "0.99724",
    "simplicity                      ": "0.71429"
  },
  "s_components": [
    [
      "source",
      "p8",
      "p1",
      ">",
      "short_circuited_transition",
      "Appeal to Judge",
      "Send Fine",
      "sink",
      "Insert Fine Notification",
      "Create Fine",
      "st1",
      "p7",
      "p4",
      "p0",
      "|"
    ],
    [
      "p9",
      "Add penalty",
      "p14",
      "sink",
      "st4",
      "st3",
      "source",
      "p13",
      ">",
      "Insert Fine Notification",
      "Send for Credit Collection",
      "p5",
      "Receive Result Appeal from Prefecture",
      "short_circuited_transition",
      "Create Fine",
      "Notify Result Appeal to Offender",
      "p12",
      "p3",
      "st2",
      "p2",
      "Payment",
      "st0",
      "p0",
      "|"
    ],
    [
      "p14",
      "p11",
      "sink",
      "st4",
      "st3",
      "source",
      "p13",
      ">",
      "Insert Fine Notification",
      "Send for Credit Collection",
      "p10",
      "p6",
      "Receive Result Appeal from Prefecture",
      "Insert Date Appeal to Prefecture",
      "short_circuited_transition",
      "Create Fine",
      "Notify Result Appeal to Offender",
      "p12",
      "p3",
      "st2",
      "p2",
      "Payment",
      "st0",
      "p0",
      "Send Appeal to Prefecture",
      "|"
    ]
  ],
  "sound": true,
  "top 30": {
    "fitness                         ": "0.68368",
    "fitness_alignments              ": "0.72897",
    "fitness_alignments_percFitTraces": "2.39605",
    "fscore                          ": "0.81080",
    "generalization                  ": "0.93136",
    "metricsAverageWeight            ": "0.83133",
    "precision                       ": "0.99598",
    "precision_alignments            ": "0.99598",
    "simplicity                      ": "0.71429"
  },
  "uncovered_places_s_component": []
}