[
  {
    "i": 6,
    "L": {
      "fitness": 0.9825262956384868,
      "precision": 0.9895041116371792,
      "generalization": 0.9777278301998473,
      "simplicity": 0.7499999999999999,
      "metricsAverageWeight": 0.9249395593688783,
      "fscore": 0.986002858514773,
      "fitness_percFitTraces": 89.2,
      "fitness_alignments": 0.9577962554245967,
      "fitness_alignments_percFitTraces": 89.2,
      "precision_alignments": 1.0,
      "fscore_alignments": 0.9784432397097161,
      "fitness_entropy_partial": 0.559618220109871,
      "precision_entropy_partial": 0.7863170316051697,
      "fscore_entropy_partial": 0.6538759381006632,
      "fitness_entropy_exact": 0.0,
      "precision_entropy_exact": 0.0,
      "fscore_entropy_exact": 0
    },
    "L_8": {
      "fitness": 0.9939107287703784,
      "precision": 1.0,
      "generalization": 0.9760191227198605,
      "simplicity": 0.7499999999999999,
      "metricsAverageWeight": 0.9299824628725597,
      "fscore": 0.996946066269789,
      "fitness_percFitTraces": 94.61561773916557,
      "fitness_alignments": 0.9826851197090687,
      "fitness_alignments_percFitTraces": 94.61561773916557,
      "precision_alignments": 1.0,
      "fscore_alignments": 0.9912669540317769,
      "fitness_entropy_partial": 0.894260902817035,
      "precision_entropy_partial": 0.786317034832188,
      "fscore_entropy_partial": 0.8368223403587431,
      "fitness_entropy_exact": 0.0,
      "precision_entropy_exact": 0.0,
      "fscore_entropy_exact": 0
    },
    "args": {
      "config": "config.json",
      "dataDirectory": "/mnt/c/Users/s140511/tue/thesis/APDGnn_data/evaluation_data/BPI_2020_Domestic_declarations/",
      "logFilename": "data",
      "miner": "gnn",
      "model_filename": "/mnt/c/Users/s140511/tue/thesis/git_clean/project/ml_models/models/complex_ws_frequency_100_",
      "visualize": false,
      "export": "complex",
      "conformanceChecking": true,
      "beam_width": -50,
      "beam_length": 20,
      "number_of_petrinets": 20,
      "top_x_traces": 8,
      "length_normalization": 0,
      "timeout": null,
      "prom": false,
      "import_petrinet": null
    },
    "easy_soundness": true,
    "log_filename": "/mnt/c/Users/s140511/tue/thesis/APDGnn_data/evaluation_data/BPI_2020_Domestic_declarations/data",
    "petrinet_filename": "/mnt/c/Users/s140511/tue/thesis/APDGnn_data/evaluation_data/BPI_2020_Domestic_declarations/predictions/data_gcn_complex_6",
    "sound": true,
    "soundness_info": {
      "s_components": [
        [
          "Request Payment",
          "Declaration APPROVED by BUDGET OWNER",
          "Declaration SUBMITTED by EMPLOYEE",
          "st1",
          "p2",
          "Payment Handled",
          "short_circuited_transition",
          "st0",
          "p0",
          ">",
          "p5",
          "p3",
          "p6",
          "Declaration APPROVED by ADMINISTRATION",
          "Declaration FINAL_APPROVED by SUPERVISOR",
          "|",
          "p7",
          "source",
          "p1",
          "Declaration REJECTED by ADMINISTRATION",
          "Declaration REJECTED by EMPLOYEE",
          "sink",
          "Declaration APPROVED by PRE_APPROVER",
          "Declaration SAVED by EMPLOYEE",
          "p4"
        ]
      ],
      "uncovered_places_s_component": []
    }
  },
  {
    "i": 0,
    "L": {
      "fitness": 0.9239680575863233,
      "precision": 0.9899322431584744,
      "generalization": 0.9770899341400113,
      "simplicity": 0.7931034482758622,
      "metricsAverageWeight": 0.9210234207901677,
      "fscore": 0.9558133947701075,
      "fitness_percFitTraces": 45.21904761904762,
      "fitness_alignments": 0.8793840852138249,
      "fitness_alignments_percFitTraces": 45.21904761904762,
      "precision_alignments": 1.0,
      "fscore_alignments": 0.9358215727508132,
      "fitness_entropy_partial": 0.559618220258733,
      "precision_entropy_partial": 0.8183858738459461,
      "fscore_entropy_partial": 0.6647057844978593,
      "fitness_entropy_exact": 0.0,
      "precision_entropy_exact": 0.0,
      "fscore_entropy_exact": 0
    },
    "L_8": {
      "fitness": 0.9334366824920066,
      "precision": 1.0,
      "generalization": 0.9752663439857591,
      "simplicity": 0.7931034482758622,
      "metricsAverageWeight": 0.925451618688407,
      "fscore": 0.9655725382109747,
      "fitness_percFitTraces": 47.964440852611375,
      "fitness_alignments": 0.9010607132033225,
      "fitness_alignments_percFitTraces": 47.964440852611375,
      "precision_alignments": 1.0,
      "fscore_alignments": 0.9479557459109431,
      "fitness_entropy_partial": 0.89426090285676,
      "precision_entropy_partial": 0.8183858738449785,
      "fscore_entropy_partial": 0.8546426506453906,
      "fitness_entropy_exact": 0.0,
      "precision_entropy_exact": 0.0,
      "fscore_entropy_exact": 0
    },
    "args": {
      "config": "config.json",
      "dataDirectory": "/mnt/c/Users/s140511/tue/thesis/APDGnn_data/evaluation_data/BPI_2020_Domestic_declarations/",
      "logFilename": "data",
      "miner": "gnn",
      "model_filename": "/mnt/c/Users/s140511/tue/thesis/git_clean/project/ml_models/models/complex_ws_frequency_100_",
      "visualize": false,
      "export": "complex",
      "conformanceChecking": true,
      "beam_width": -50,
      "beam_length": 20,
      "number_of_petrinets": 20,
      "top_x_traces": 8,
      "length_normalization": 0,
      "timeout": null,
      "prom": false,
      "import_petrinet": null
    },
    "easy_soundness": true,
    "log_filename": "/mnt/c/Users/s140511/tue/thesis/APDGnn_data/evaluation_data/BPI_2020_Domestic_declarations/data",
    "petrinet_filename": "/mnt/c/Users/s140511/tue/thesis/APDGnn_data/evaluation_data/BPI_2020_Domestic_declarations/predictions/data_gcn_complex_0",
    "sound": true,
    "soundness_info": {
      "s_components": [
        [
          "Declaration SAVED by EMPLOYEE",
          "Payment Handled",
          "Declaration APPROVED by PRE_APPROVER",
          "p0",
          "p5",
          "Declaration SUBMITTED by EMPLOYEE",
          "Declaration APPROVED by BUDGET OWNER",
          "Declaration REJECTED by EMPLOYEE",
          "p3",
          "p4",
          "p7",
          "short_circuited_transition",
          "st0",
          "Declaration FINAL_APPROVED by SUPERVISOR",
          "Request Payment",
          "p6",
          "source",
          "sink",
          "Declaration REJECTED by ADMINISTRATION",
          ">",
          "Declaration APPROVED by ADMINISTRATION",
          "p2",
          "|",
          "p1"
        ]
      ],
      "uncovered_places_s_component": []
    }
  },
  {
    "i": 2,
    "L": {
      "fitness": 0.9049766504898819,
      "precision": 0.9905749158729253,
      "generalization": 0.977302914375422,
      "simplicity": 0.8461538461538463,
      "metricsAverageWeight": 0.9297520817230188,
      "fscore": 0.945843083705798,
      "fitness_percFitTraces": 31.961904761904762,
      "fitness_alignments": 0.8514646871515572,
      "fitness_alignments_percFitTraces": 31.961904761904762,
      "precision_alignments": 1.0,
      "fscore_alignments": 0.9197741583303101,
      "fitness_entropy_partial": 0.559618221955055,
      "precision_entropy_partial": 0.850448122137522,
      "fscore_entropy_partial": 0.6750409552990067,
      "fitness_entropy_exact": 0.0,
      "precision_entropy_exact": 0.0,
      "fscore_entropy_exact": 0
    },
    "L_8": {
      "fitness": 0.9151473341874445,
      "precision": 1.0,
      "generalization": 0.9754387737654844,
      "simplicity": 0.8461538461538463,
      "metricsAverageWeight": 0.9341849885266938,
      "fscore": 0.9556939227087943,
      "fitness_percFitTraces": 33.90241438529144,
      "fitness_alignments": 0.8729366602686888,
      "fitness_alignments_percFitTraces": 33.90241438529144,
      "precision_alignments": 1.0,
      "fscore_alignments": 0.9321582291453022,
      "fitness_entropy_partial": 0.894260902854326,
      "precision_entropy_partial": 0.8504481178769682,
      "fscore_entropy_partial": 0.8718044014063125,
      "fitness_entropy_exact": 0.0,
      "precision_entropy_exact": 0.0,
      "fscore_entropy_exact": 0
    },
    "args": {
      "config": "config.json",
      "dataDirectory": "/mnt/c/Users/s140511/tue/thesis/APDGnn_data/evaluation_data/BPI_2020_Domestic_declarations/",
      "logFilename": "data",
      "miner": "gnn",
      "model_filename": "/mnt/c/Users/s140511/tue/thesis/git_clean/project/ml_models/models/complex_ws_frequency_100_",
      "visualize": false,
      "export": "complex",
      "conformanceChecking": true,
      "beam_width": -50,
      "beam_length": 20,
      "number_of_petrinets": 20,
      "top_x_traces": 8,
      "length_normalization": 0,
      "timeout": null,
      "prom": false,
      "import_petrinet": null
    },
    "easy_soundness": true,
    "log_filename": "/mnt/c/Users/s140511/tue/thesis/APDGnn_data/evaluation_data/BPI_2020_Domestic_declarations/data",
    "petrinet_filename": "/mnt/c/Users/s140511/tue/thesis/APDGnn_data/evaluation_data/BPI_2020_Domestic_declarations/predictions/data_gcn_complex_2",
    "sound": true,
    "soundness_info": {
      "s_components": [
        [
          "Declaration REJECTED by ADMINISTRATION",
          "Declaration APPROVED by ADMINISTRATION",
          "source",
          "|",
          "p1",
          "p0",
          "Declaration SUBMITTED by EMPLOYEE",
          "Declaration APPROVED by BUDGET OWNER",
          "p7",
          "Declaration SAVED by EMPLOYEE",
          "p4",
          "p5",
          "short_circuited_transition",
          "Declaration APPROVED by PRE_APPROVER",
          "Payment Handled",
          "p3",
          "p6",
          ">",
          "Declaration FINAL_APPROVED by SUPERVISOR",
          "Declaration REJECTED by EMPLOYEE",
          "Request Payment",
          "p2",
          "sink"
        ]
      ],
      "uncovered_places_s_component": []
    }
  },
  {
    "i": 16,
    "L": {
      "fitness": 0.758707578682815,
      "precision": 0.7681154035501639,
      "generalization": 0.9756944162635566,
      "simplicity": 0.7575757575757577,
      "metricsAverageWeight": 0.8150232890180733,
      "fscore": 0.7633825070201782,
      "fitness_percFitTraces": 1.276190476190476,
      "fitness_alignments": 0.5875926241239185,
      "fitness_alignments_percFitTraces": 1.276190476190476,
      "precision_alignments": 0.7763799044230173,
      "fscore_alignments": 0.6689212514316407,
      "fitness_entropy_partial": 0.649808782556822,
      "precision_entropy_partial": 0.8174373353500966,
      "fscore_entropy_partial": 0.72404752443044,
      "fitness_entropy_exact": 0.0,
      "precision_entropy_exact": 0.0,
      "fscore_entropy_exact": 0
    },
    "L_8": {
      "fitness": 0.7597274554404303,
      "precision": 0.775579088657067,
      "generalization": 0.9732770890754084,
      "simplicity": 0.7575757575757577,
      "metricsAverageWeight": 0.8165398476871659,
      "fscore": 0.7675714400925829,
      "fitness_percFitTraces": 1.353672088089706,
      "fitness_alignments": 0.5969285016763651,
      "fitness_alignments_percFitTraces": 1.353672088089706,
      "precision_alignments": 0.775579088657067,
      "fscore_alignments": 0.6746268896204978,
      "fitness_entropy_partial": 0.971095683895875,
      "precision_entropy_partial": 0.7644666058376514,
      "fscore_entropy_partial": 0.8554809306503818,
      "fitness_entropy_exact": 0.0,
      "precision_entropy_exact": 0.0,
      "fscore_entropy_exact": 0
    },
    "args": {
      "config": "config.json",
      "dataDirectory": "/mnt/c/Users/s140511/tue/thesis/APDGnn_data/evaluation_data/BPI_2020_Domestic_declarations/",
      "logFilename": "data",
      "miner": "gnn",
      "model_filename": "/mnt/c/Users/s140511/tue/thesis/git_clean/project/ml_models/models/complex_ws_frequency_100_",
      "visualize": false,
      "export": "complex",
      "conformanceChecking": true,
      "beam_width": -50,
      "beam_length": 20,
      "number_of_petrinets": 20,
      "top_x_traces": 8,
      "length_normalization": 0,
      "timeout": null,
      "prom": false,
      "import_petrinet": null
    },
    "easy_soundness": true,
    "log_filename": "/mnt/c/Users/s140511/tue/thesis/APDGnn_data/evaluation_data/BPI_2020_Domestic_declarations/data",
    "petrinet_filename": "/mnt/c/Users/s140511/tue/thesis/APDGnn_data/evaluation_data/BPI_2020_Domestic_declarations/predictions/data_gcn_complex_16",
    "sound": true,
    "soundness_info": {
      "s_components": [
        [
          "p0",
          "p1",
          "Declaration SUBMITTED by EMPLOYEE",
          ">",
          "source",
          "short_circuited_transition",
          "sink",
          "Declaration SAVED by EMPLOYEE",
          "Declaration REJECTED by EMPLOYEE",
          "|",
          "p7",
          "Declaration REJECTED by ADMINISTRATION",
          "p9"
        ],
        [
          "Declaration APPROVED by PRE_APPROVER",
          "p5",
          "p8",
          "short_circuited_transition",
          "Declaration APPROVED by BUDGET OWNER",
          "Declaration FINAL_APPROVED by SUPERVISOR",
          "p0",
          "Declaration SUBMITTED by EMPLOYEE",
          "source",
          "p6",
          "p4",
          "p3",
          "st0",
          "Payment Handled",
          "p2",
          ">",
          "Request Payment",
          "sink",
          "Declaration SAVED by EMPLOYEE",
          "Declaration APPROVED by ADMINISTRATION",
          "|"
        ]
      ],
      "uncovered_places_s_component": []
    }
  },
  {
    "i": 19,
    "L": {
      "fitness": 0.6925486224140875,
      "precision": 1.0,
      "generalization": 0.9011317870786805,
      "simplicity": 0.6842105263157894,
      "metricsAverageWeight": 0.8194727339521394,
      "fscore": 0.8183500470743383,
      "fitness_percFitTraces": 0.0,
      "fitness_alignments": null,
      "fitness_alignments_percFitTraces": null,
      "precision_alignments": null,
      "fscore_alignments": null,
      "fitness_entropy_partial": null,
      "precision_entropy_partial": null,
      "fscore_entropy_partial": null,
      "fitness_entropy_exact": null,
      "precision_entropy_exact": null,
      "fscore_entropy_exact": null
    },
    "L_8": {
      "fitness": 0.6986352411247403,
      "precision": 1.0,
      "generalization": 0.8993324855856484,
      "simplicity": 0.6842105263157894,
      "metricsAverageWeight": 0.8205445632565445,
      "fscore": 0.8225841831259117,
      "fitness_percFitTraces": 0.0,
      "fitness_alignments": null,
      "fitness_alignments_percFitTraces": null,
      "precision_alignments": null,
      "fscore_alignments": null,
      "fitness_entropy_partial": null,
      "precision_entropy_partial": null,
      "fscore_entropy_partial": null,
      "fitness_entropy_exact": null,
      "precision_entropy_exact": null,
      "fscore_entropy_exact": null
    },
    "args": {
      "config": "config.json",
      "dataDirectory": "/mnt/c/Users/s140511/tue/thesis/APDGnn_data/evaluation_data/BPI_2020_Domestic_declarations/",
      "logFilename": "data",
      "miner": "gnn",
      "model_filename": "/mnt/c/Users/s140511/tue/thesis/git_clean/project/ml_models/models/complex_ws_frequency_100_",
      "visualize": false,
      "export": "complex",
      "conformanceChecking": true,
      "beam_width": -50,
      "beam_length": 20,
      "number_of_petrinets": 20,
      "top_x_traces": 8,
      "length_normalization": 0,
      "timeout": null,
      "prom": false,
      "import_petrinet": null
    },
    "easy_soundness": false,
    "log_filename": "/mnt/c/Users/s140511/tue/thesis/APDGnn_data/evaluation_data/BPI_2020_Domestic_declarations/data",
    "petrinet_filename": "/mnt/c/Users/s140511/tue/thesis/APDGnn_data/evaluation_data/BPI_2020_Domestic_declarations/predictions/data_gcn_complex_19",
    "sound": false,
    "soundness_info": {
      "s_components": [
        [
          "source",
          "sink",
          "short_circuited_transition",
          "|",
          "p1",
          "Declaration SUBMITTED by EMPLOYEE",
          "Declaration REJECTED by ADMINISTRATION",
          ">",
          "Declaration REJECTED by EMPLOYEE",
          "Declaration SAVED by EMPLOYEE",
          "p0",
          "p7",
          "p8"
        ],
        [
          "short_circuited_transition",
          "sink",
          "Declaration SAVED by EMPLOYEE",
          "p0",
          "p3",
          "Declaration APPROVED by BUDGET OWNER",
          "Declaration SUBMITTED by EMPLOYEE",
          "Declaration APPROVED by ADMINISTRATION",
          "Payment Handled",
          "|",
          "source",
          "Declaration APPROVED by PRE_APPROVER",
          "st0",
          "p6",
          "p4",
          "p2",
          "p9",
          "p5",
          "Request Payment",
          "Declaration FINAL_APPROVED by SUPERVISOR",
          ">"
        ]
      ],
      "uncovered_places_s_component": [
        "p10"
      ]
    }
  },
  {
    "i": 13,
    "L": {
      "fitness": 0.7564016778723657,
      "precision": 0.7681154035501639,
      "generalization": 0.9755297402929166,
      "simplicity": 0.8064516129032256,
      "metricsAverageWeight": 0.8266246086546679,
      "fscore": 0.7622135391265247,
      "fitness_percFitTraces": 0.0,
      "fitness_alignments": 0.7595643406402804,
      "fitness_alignments_percFitTraces": 0.0,
      "precision_alignments": 0.7763799044230173,
      "fscore_alignments": 0.7678800738826695,
      "fitness_entropy_partial": 0.640569223745579,
      "precision_entropy_partial": 0.8151719637052215,
      "fscore_entropy_partial": 0.7173995989276232,
      "fitness_entropy_exact": 0.0,
      "precision_entropy_exact": 0.0,
      "fscore_entropy_exact": 0
    },
    "L_8": {
      "fitness": 0.757215178421125,
      "precision": 0.775579088657067,
      "generalization": 0.9729236541870006,
      "simplicity": 0.8064516129032256,
      "metricsAverageWeight": 0.8280423835421046,
      "fscore": 0.7662871275172844,
      "fitness_percFitTraces": 0.0,
      "fitness_alignments": 0.7668061708973982,
      "fitness_alignments_percFitTraces": 0.0,
      "precision_alignments": 0.775579088657067,
      "fscore_alignments": 0.7711676800814476,
      "fitness_entropy_partial": 0.954334007028703,
      "precision_entropy_partial": 0.7599957567589345,
      "fscore_entropy_partial": 0.8461496862425246,
      "fitness_entropy_exact": 0.0,
      "precision_entropy_exact": 0.0,
      "fscore_entropy_exact": 0
    },
    "args": {
      "config": "config.json",
      "dataDirectory": "/mnt/c/Users/s140511/tue/thesis/APDGnn_data/evaluation_data/BPI_2020_Domestic_declarations/",
      "logFilename": "data",
      "miner": "gnn",
      "model_filename": "/mnt/c/Users/s140511/tue/thesis/git_clean/project/ml_models/models/complex_ws_frequency_100_",
      "visualize": false,
      "export": "complex",
      "conformanceChecking": true,
      "beam_width": -50,
      "beam_length": 20,
      "number_of_petrinets": 20,
      "top_x_traces": 8,
      "length_normalization": 0,
      "timeout": null,
      "prom": false,
      "import_petrinet": null
    },
    "easy_soundness": true,
    "log_filename": "/mnt/c/Users/s140511/tue/thesis/APDGnn_data/evaluation_data/BPI_2020_Domestic_declarations/data",
    "petrinet_filename": "/mnt/c/Users/s140511/tue/thesis/APDGnn_data/evaluation_data/BPI_2020_Domestic_declarations/predictions/data_gcn_complex_13",
    "sound": false,
    "soundness_info": {
      "s_components": [
        [
          "p0",
          "Declaration SAVED by EMPLOYEE",
          "p7",
          "Declaration SUBMITTED by EMPLOYEE",
          "Declaration REJECTED by ADMINISTRATION",
          "p8",
          "sink",
          "short_circuited_transition",
          ">",
          "Declaration REJECTED by EMPLOYEE",
          "|",
          "source",
          "p1"
        ]
      ],
      "uncovered_places_s_component": [
        "p9",
        "p3",
        "p4",
        "p5",
        "p6",
        "p2"
      ]
    }
  },
  {
    "i": 18,
    "L": {
      "fitness": 0.7264976959126128,
      "precision": 0.7681154035501639,
      "generalization": 0.9755297402929166,
      "simplicity": 0.7222222222222222,
      "metricsAverageWeight": 0.798091265494479,
      "fscore": 0.7467271243303841,
      "fitness_percFitTraces": 0.0,
      "fitness_alignments": 0.7595643406402804,
      "fitness_alignments_percFitTraces": 0.0,
      "precision_alignments": 0.7763799044230173,
      "fscore_alignments": 0.7678800738826695,
      "fitness_entropy_partial": 0.640569223755694,
      "precision_entropy_partial": 0.8151719637078404,
      "fscore_entropy_partial": 0.7173995989349807,
      "fitness_entropy_exact": 0.0,
      "precision_entropy_exact": 0.0,
      "fscore_entropy_exact": 0
    },
    "L_8": {
      "fitness": 0.7238465918573955,
      "precision": 0.775579088657067,
      "generalization": 0.9729236541870006,
      "simplicity": 0.7222222222222222,
      "metricsAverageWeight": 0.7986428892309214,
      "fscore": 0.7488204148239781,
      "fitness_percFitTraces": 0.0,
      "fitness_alignments": 0.7668061708973982,
      "fitness_alignments_percFitTraces": 0.0,
      "precision_alignments": 0.775579088657067,
      "fscore_alignments": 0.7711676800814476,
      "fitness_entropy_partial": 0.95433401882749,
      "precision_entropy_partial": 0.7599957661560961,
      "fscore_entropy_partial": 0.8461496967044398,
      "fitness_entropy_exact": 0.0,
      "precision_entropy_exact": 0.0,
      "fscore_entropy_exact": 0
    },
    "args": {
      "config": "config.json",
      "dataDirectory": "/mnt/c/Users/s140511/tue/thesis/APDGnn_data/evaluation_data/BPI_2020_Domestic_declarations/",
      "logFilename": "data",
      "miner": "gnn",
      "model_filename": "/mnt/c/Users/s140511/tue/thesis/git_clean/project/ml_models/models/complex_ws_frequency_100_",
      "visualize": false,
      "export": "complex",
      "conformanceChecking": true,
      "beam_width": -50,
      "beam_length": 20,
      "number_of_petrinets": 20,
      "top_x_traces": 8,
      "length_normalization": 0,
      "timeout": null,
      "prom": false,
      "import_petrinet": null
    },
    "easy_soundness": true,
    "log_filename": "/mnt/c/Users/s140511/tue/thesis/APDGnn_data/evaluation_data/BPI_2020_Domestic_declarations/data",
    "petrinet_filename": "/mnt/c/Users/s140511/tue/thesis/APDGnn_data/evaluation_data/BPI_2020_Domestic_declarations/predictions/data_gcn_complex_18",
    "sound": false,
    "soundness_info": {
      "s_components": [
        [
          "p0",
          "p8",
          "Declaration SAVED by EMPLOYEE",
          "Declaration SUBMITTED by EMPLOYEE",
          "Declaration REJECTED by ADMINISTRATION",
          "sink",
          "short_circuited_transition",
          ">",
          "Declaration REJECTED by EMPLOYEE",
          "|",
          "p7",
          "source",
          "p1"
        ],
        [
          "p0",
          "Declaration APPROVED by PRE_APPROVER",
          "Declaration APPROVED by ADMINISTRATION",
          "p9",
          "sink",
          ">",
          "source",
          "p2",
          "Declaration SAVED by EMPLOYEE",
          "Declaration FINAL_APPROVED by SUPERVISOR",
          "|",
          "Declaration SUBMITTED by EMPLOYEE",
          "Payment Handled",
          "st0",
          "p5",
          "p4",
          "p3",
          "p6",
          "short_circuited_transition",
          "Declaration APPROVED by BUDGET OWNER",
          "Request Payment"
        ]
      ],
      "uncovered_places_s_component": [
        "p10"
      ]
    }
  }
]