{
  "L": {
    "fitness": 0.9825262956384868,
    "fitness_alignments": 0.9577962554245967,
    "fitness_alignments_percFitTraces": 89.2,
    "fitness_entropy_exact": 0.0,
    "fitness_entropy_partial": 0.559618220337512,
    "fitness_percFitTraces": 89.2,
    "fscore": 0.986002858514773,
    "fscore_alignments": 0.9784432397097161,
    "fscore_entropy_exact": 0,
    "fscore_entropy_partial": 0.6538759405196722,
    "generalization": 0.9777278301998473,
    "metricsAverageWeight": 0.9249395593688783,
    "precision": 0.9895041116371792,
    "precision_alignments": 1.0,
    "precision_entropy_exact": 0.0,
    "precision_entropy_partial": 0.7863170381520996,
    "simplicity": 0.7499999999999999
  },
  "L_8": {
    "fitness": 0.9939107287703784,
    "fitness_alignments": 0.9826851197090687,
    "fitness_alignments_percFitTraces": 94.61561773916557,
    "fitness_entropy_exact": 0.0,
    "fitness_entropy_partial": 0.894260906083082,
    "fitness_percFitTraces": 94.61561773916557,
    "fscore": 0.996946066269789,
    "fscore_alignments": 0.9912669540317769,
    "fscore_entropy_exact": 0,
    "fscore_entropy_partial": 0.8368223438845721,
    "generalization": 0.9760191227198605,
    "metricsAverageWeight": 0.9299824628725597,
    "precision": 1.0,
    "precision_alignments": 1.0,
    "precision_entropy_exact": 0.0,
    "precision_entropy_partial": 0.7863170385331827,
    "simplicity": 0.7499999999999999
  },
  "args": {
    "beam_length": 20,
    "beam_width": -50,
    "config": "config.json",
    "conformanceChecking": true,
    "dataDirectory": "/mnt/c/Users/s140511/tue/thesis/APDGnn_data/evaluation_data/BPI_2020_Domestic_declarations/",
    "export": "simple",
    "import_petrinet": null,
    "length_normalization": 0,
    "logFilename": "data",
    "miner": "gnn",
    "model_filename": "/mnt/c/Users/s140511/tue/thesis/git_clean/project/ml_models/models/simple_ws2_frequency_144_",
    "number_of_petrinets": 20,
    "prom": false,
    "timeout": null,
    "top_x_traces": 8,
    "visualize": false
  },
  "easy_soundness": true,
  "log_filename": "/mnt/c/Users/s140511/tue/thesis/APDGnn_data/evaluation_data/BPI_2020_Domestic_declarations/data",
  "petrinet_filename": "/mnt/c/Users/s140511/tue/thesis/APDGnn_data/evaluation_data/BPI_2020_Domestic_declarations/predictions/data_gcn_simple_14",
  "sound": true,
  "soundness_info": {
    "s_components": [
      [
        "p5",
        "sink",
        "st1",
        "p3",
        "Declaration REJECTED by ADMINISTRATION",
        "p1",
        "p0",
        "Declaration SAVED by EMPLOYEE",
        "p2",
        "Declaration APPROVED by BUDGET OWNER",
        "Declaration APPROVED by ADMINISTRATION",
        ">",
        "Declaration REJECTED by EMPLOYEE",
        "p6",
        "Declaration SUBMITTED by EMPLOYEE",
        "Payment Handled",
        "|",
        "st0",
        "Declaration FINAL_APPROVED by SUPERVISOR",
        "Request Payment",
        "source",
        "p4",
        "short_circuited_transition",
        "Declaration APPROVED by PRE_APPROVER",
        "p7"
      ]
    ],
    "uncovered_places_s_component": []
  }
}