{
  "easy_soundness": false,
  "filename": "/mnt/c/Users/s140511/tue/thesis/thesis_data/evaluation_data/BPI_2020_Domestic_declarations/predictions/data_gcn_simpleep144_11_cc.json",
  "full": {
    "fitness": {
      "average_trace_fitness": 0.7931246500978821,
      "log_fitness": 0.8017179560727316,
      "perc_fit_traces": 0.0,
      "percentage_of_fitting_traces": 0.0
    },
    "fscore": 0.8859390688830429,
    "generalization": 0.905650076805973,
    "metricsAverageWeight": 0.8637190084032342,
    "precision": 0.9899322431584744,
    "simplicity": 0.7575757575757577
  },
  "s_components": [],
  "sound": false,
  "top 8": {
    "fitness": {
      "average_trace_fitness": 0.7938495983929515,
      "log_fitness": 0.8013471714414875,
      "perc_fit_traces": 0.0,
      "percentage_of_fitting_traces": 0.0
    },
    "fscore": 0.8897198542802024,
    "generalization": 0.9032284678155966,
    "metricsAverageWeight": 0.8655378492082104,
    "precision": 1.0,
    "simplicity": 0.7575757575757577
  },
  "uncovered_places_s_component": [
    "p0",
    "p4",
    "source",
    "p3",
    "p2",
    "p5",
    "p6",
    "p8",
    "sink",
    "p1",
    "p7"
  ]
}