{
  "L": {
    "fitness": 0.762771020957934,
    "fitness_alignments": null,
    "fitness_alignments_percFitTraces": null,
    "fitness_entropy_exact": null,
    "fitness_entropy_partial": null,
    "fitness_percFitTraces": 0.0,
    "fscore": 0.861630879855561,
    "fscore_alignments": null,
    "fscore_entropy_exact": null,
    "fscore_entropy_partial": null,
    "generalization": 0.9753154673295094,
    "metricsAverageWeight": 0.8713986222554189,
    "precision": 0.9899322431584744,
    "precision_alignments": null,
    "precision_entropy_exact": null,
    "precision_entropy_partial": null,
    "simplicity": 0.7575757575757577
  },
  "L_8": {
    "fitness": 0.7587056622498496,
    "fitness_alignments": null,
    "fitness_alignments_percFitTraces": null,
    "fitness_entropy_exact": null,
    "fitness_entropy_partial": null,
    "fitness_percFitTraces": 0.0,
    "fscore": 0.8628000449822449,
    "fscore_alignments": null,
    "fscore_entropy_exact": null,
    "fscore_entropy_partial": null,
    "generalization": 0.9727075807244887,
    "metricsAverageWeight": 0.872247250137524,
    "precision": 1.0,
    "precision_alignments": null,
    "precision_entropy_exact": null,
    "precision_entropy_partial": null,
    "simplicity": 0.7575757575757577
  },
  "args": {
    "beam_length": 20,
    "beam_width": -50,
    "config": "config.json",
    "conformanceChecking": true,
    "dataDirectory": "/mnt/c/Users/s140511/tue/thesis/APDGnn_data/evaluation_data/BPI_2020_Domestic_declarations/",
    "export": "simple",
    "import_petrinet": null,
    "length_normalization": 0,
    "logFilename": "data",
    "miner": "gnn",
    "model_filename": "/mnt/c/Users/s140511/tue/thesis/git_clean/project/ml_models/models/simple_ws2_frequency_144_",
    "number_of_petrinets": 20,
    "prom": false,
    "timeout": null,
    "top_x_traces": 8,
    "visualize": false
  },
  "easy_soundness": false,
  "log_filename": "/mnt/c/Users/s140511/tue/thesis/APDGnn_data/evaluation_data/BPI_2020_Domestic_declarations/data",
  "petrinet_filename": "/mnt/c/Users/s140511/tue/thesis/APDGnn_data/evaluation_data/BPI_2020_Domestic_declarations/predictions/data_gcn_simple_17",
  "sound": false,
  "soundness_info": {
    "s_components": [],
    "uncovered_places_s_component": [
      "p4",
      "p2",
      "source",
      "p3",
      "p1",
      "p0",
      "p5",
      "p6",
      "p7",
      "p8",
      "p9",
      "sink"
    ]
  }
}