{
  "easy_soundness": true,
  "filename": "/mnt/c/Users/s140511/tue/thesis/thesis_data/evaluation_data/BPI_2020_Domestic_declarations/predictions/data_gcn_blahblah_repro_5_cc.json",
  "full": {
    "fitness": {
      "average_trace_fitness": 0.9775280165566436,
      "log_fitness": 0.9818639178159302,
      "perc_fit_traces": 86.26666666666667,
      "percentage_of_fitting_traces": 86.26666666666667
    },
    "fitness_alignments": {
      "averageFitness": 0.9403845773176149,
      "average_trace_fitness": 0.9403845773176149,
      "log_fitness": 0.9395896613322917,
      "percFitTraces": 86.26666666666667,
      "percentage_of_fitting_traces": 86.26666666666667
    },
    "fscore": 0.9856692096366999,
    "generalization": 0.9777134136570471,
    "metricsAverageWeight": 0.9083229923564864,
    "precision": 0.9895041116371792,
    "precision_alignments": 1.0,
    "simplicity": 0.6842105263157894
  },
  "s_components": [],
  "sound": false,
  "top 8": {
    "fitness": {
      "average_trace_fitness": 0.9881262657603651,
      "log_fitness": 0.9920962360791317,
      "perc_fit_traces": 91.50419234266087,
      "percentage_of_fitting_traces": 91.50419234266087
    },
    "fitness_alignments": {
      "averageFitness": 0.9608121699494421,
      "average_trace_fitness": 0.9608121699494421,
      "log_fitness": 0.9655059713084492,
      "percFitTraces": 91.50419234266087,
      "percentage_of_fitting_traces": 91.50419234266087
    },
    "fscore": 0.9960324387056598,
    "generalization": 0.9760076863625864,
    "metricsAverageWeight": 0.9130786121893768,
    "precision": 1.0,
    "precision_alignments": 1.0,
    "simplicity": 0.6842105263157894
  },
  "uncovered_places_s_component": [
    "p6",
    "p2",
    "p5",
    "p0",
    "p4",
    "p1",
    "p8",
    "source",
    "p3",
    "p7",
    "p9",
    "sink"
  ]
}