{
  "easy_soundness": false,
  "filename": "/mnt/c/Users/s140511/tue/thesis/thesis_data/evaluation_data/BPI_2020_Domestic_declarations/predictions/data_gcn_blahblah_repro_7_cc.json",
  "full": {
    "fitness": {
      "average_trace_fitness": 0.8206205790392196,
      "log_fitness": 0.8271633148805103,
      "perc_fit_traces": 0.0,
      "percentage_of_fitting_traces": 0.0
    },
    "fscore": 0.9010801747446139,
    "generalization": 0.976080111018667,
    "metricsAverageWeight": 0.8692395159630364,
    "precision": 0.9895041116371792,
    "simplicity": 0.6842105263157894
  },
  "s_components": [],
  "sound": false,
  "top 8": {
    "fitness": {
      "average_trace_fitness": 0.823558997461537,
      "log_fitness": 0.8294008118379363,
      "perc_fit_traces": 0.0,
      "percentage_of_fitting_traces": 0.0
    },
    "fscore": 0.9067458661556684,
    "generalization": 0.9736431282629665,
    "metricsAverageWeight": 0.871813616604173,
    "precision": 1.0,
    "simplicity": 0.6842105263157894
  },
  "uncovered_places_s_component": [
    "p5",
    "p9",
    "p3",
    "p2",
    "sink",
    "p0",
    "p6",
    "p1",
    "p7",
    "p4",
    "p8",
    "source"
  ]
}