{
  "easy_soundness": true,
  "filename": "/mnt/c/Users/s140511/tue/thesis/thesis_data/evaluation_data/BPI_2020_Domestic_declarations/predictions/data_gcn_simpleep144_2_cc.json",
  "full": {
    "fitness": {
      "average_trace_fitness": 0.9647832712725001,
      "log_fitness": 0.9656290882356121,
      "perc_fit_traces": 75.94285714285714,
      "percentage_of_fitting_traces": 75.94285714285714
    },
    "fitness_alignments": {
      "averageFitness": 0.47123809523809523,
      "average_trace_fitness": 0.47123809523809523,
      "percFitTraces": 75.94285714285714,
      "percentage_of_fitting_traces": 75.94285714285714
    },
    "fscore": 0.9776415406246214,
    "generalization": 0.9779741261700031,
    "metricsAverageWeight": 0.9316658227404199,
    "precision": 0.989956628280202,
    "precision_alignments": 1.0,
    "simplicity": 0.7931034482758622
  },
  "sound": true,
  "top 8": {
    "fitness": {
      "average_trace_fitness": 0.9754244055436279,
      "log_fitness": 0.9776523990294756,
      "perc_fit_traces": 80.55359127184565,
      "percentage_of_fitting_traces": 80.55359127184565
    },
    "fitness_alignments": {
      "averageFitness": 0.6978482675017679,
      "average_trace_fitness": 0.6978482675017679,
      "percFitTraces": 80.55359127184565,
      "percentage_of_fitting_traces": 80.55359127184565
    },
    "fscore": 0.9886999348411828,
    "generalization": 0.9762361947268455,
    "metricsAverageWeight": 0.9367480105080458,
    "precision": 1.0,
    "precision_alignments": 1.0,
    "simplicity": 0.7931034482758622
  }
}