{
  "easy_soundness": true,
  "filename": "/home/dominique/TUe/thesis/git_data/evaluation_data/BPI_2020_Domestic_declarations/predictions/data_split_reduced_cc.txt",
  "full": {
    "fitness                         ": "0.99815",
    "fitness_alignments              ": "0.99590",
    "fitness_alignments_percFitTraces": "98.48571",
    "fscore                          ": "0.92618",
    "fscore_alignments               ": "0.92520",
    "generalization                  ": "0.83705",
    "metricsAverageWeight            ": "0.82477",
    "precision                       ": "0.86388",
    "precision_alignments            ": "0.86388",
    "simplicity                      ": "0.60000"
  },
  "s_components": [
    [
      "Declaration SAVED by EMPLOYEE",
      "n31",
      "Declaration SUBMITTED by EMPLOYEE",
      "Declaration REJECTED by ADMINISTRATION",
      "n34",
      "Declaration REJECTED by MISSING",
      "n8",
      "n4",
      "Declaration REJECTED by SUPERVISOR",
      "n11",
      "Declaration FOR_APPROVAL by ADMINISTRATION",
      "n30",
      "Declaration FOR_APPROVAL by PRE_APPROVER",
      "n3",
      "Declaration APPROVED by ADMINISTRATION",
      "Declaration APPROVED by BUDGET OWNER",
      "n9",
      "n5",
      "Request Payment",
      "n7",
      "Payment Handled",
      "Declaration FOR_APPROVAL by SUPERVISOR",
      "n2",
      "n29",
      "Declaration FINAL_APPROVED by SUPERVISOR",
      "source",
      "Declaration REJECTED by PRE_APPROVER",
      "Declaration APPROVED by PRE_APPROVER",
      "n32",
      "n1",
      "n6",
      "n33",
      "short_circuited_transition",
      "start",
      "Declaration REJECTED by BUDGET OWNER",
      "n10",
      "Declaration REJECTED by EMPLOYEE"
    ]
  ],
  "sound": true,
  "uncovered_places_s_component": []
}