{
  "L": {
    "fitness": 0.8738937889755094,
    "fitness_alignments": null,
    "fitness_alignments_percFitTraces": null,
    "fitness_entropy_exact": null,
    "fitness_entropy_partial": null,
    "fitness_percFitTraces": 0.0,
    "fscore": 0.9281125593638783,
    "fscore_alignments": null,
    "fscore_entropy_exact": null,
    "fscore_entropy_partial": null,
    "generalization": 0.9110081036174225,
    "metricsAverageWeight": 0.8741570566130834,
    "precision": 0.9895041116371792,
    "precision_alignments": null,
    "precision_entropy_exact": null,
    "precision_entropy_partial": null,
    "simplicity": 0.7222222222222222
  },
  "L_8": {
    "fitness": 0.8771959522538078,
    "fitness_alignments": null,
    "fitness_alignments_percFitTraces": null,
    "fitness_entropy_exact": null,
    "fitness_entropy_partial": null,
    "fitness_percFitTraces": 0.0,
    "fscore": 0.9345811247894762,
    "fscore_alignments": null,
    "fscore_entropy_exact": null,
    "fscore_entropy_partial": null,
    "generalization": 0.9087335863787688,
    "metricsAverageWeight": 0.8770379402136997,
    "precision": 1.0,
    "precision_alignments": null,
    "precision_entropy_exact": null,
    "precision_entropy_partial": null,
    "simplicity": 0.7222222222222222
  },
  "args": {
    "beam_length": 20,
    "beam_width": -50,
    "config": "config.json",
    "conformanceChecking": true,
    "dataDirectory": "/mnt/c/Users/s140511/tue/thesis/APDGnn_data/evaluation_data/BPI_2020_Domestic_declarations/",
    "export": "medium",
    "import_petrinet": null,
    "length_normalization": 0,
    "logFilename": "data",
    "miner": "gnn",
    "model_filename": "/mnt/c/Users/s140511/tue/thesis/git_clean/project/ml_models/models/model_candidates_frequency_new_036",
    "number_of_petrinets": 20,
    "prom": false,
    "timeout": null,
    "top_x_traces": 8,
    "visualize": false
  },
  "easy_soundness": false,
  "log_filename": "/mnt/c/Users/s140511/tue/thesis/APDGnn_data/evaluation_data/BPI_2020_Domestic_declarations/data",
  "petrinet_filename": "/mnt/c/Users/s140511/tue/thesis/APDGnn_data/evaluation_data/BPI_2020_Domestic_declarations/predictions/data_gcn_medium_2",
  "sound": false,
  "soundness_info": {
    "s_components": [],
    "uncovered_places_s_component": [
      "p0",
      "p2",
      "p4",
      "sink",
      "p6",
      "p5",
      "p1",
      "p7",
      "p3",
      "p8",
      "source"
    ]
  }
}