{
  "easy_soundness": false,
  "filename": "/mnt/c/Users/s140511/tue/thesis/thesis_data/evaluation_data/BPI_2020_Domestic_declarations/predictions/data_gcn_blahblah_repro_2_cc.json",
  "full": {
    "fitness": {
      "average_trace_fitness": 0.8681391887730786,
      "log_fitness": 0.8738937889755094,
      "perc_fit_traces": 0.0,
      "percentage_of_fitting_traces": 0.0
    },
    "fscore": 0.9281125593638783,
    "generalization": 0.9110081036174225,
    "metricsAverageWeight": 0.8741570566130834,
    "precision": 0.9895041116371792,
    "simplicity": 0.7222222222222222
  },
  "s_components": [],
  "sound": false,
  "top 8": {
    "fitness": {
      "average_trace_fitness": 0.8719727581910361,
      "log_fitness": 0.8771959522538078,
      "perc_fit_traces": 0.0,
      "percentage_of_fitting_traces": 0.0
    },
    "fscore": 0.9345811247894762,
    "generalization": 0.9087335863787688,
    "metricsAverageWeight": 0.8770379402136997,
    "precision": 1.0,
    "simplicity": 0.7222222222222222
  },
  "uncovered_places_s_component": [
    "p2",
    "p4",
    "sink",
    "p5",
    "p8",
    "source",
    "p0",
    "p3",
    "p1",
    "p6",
    "p7"
  ]
}