{
  "easy_soundness": true,
  "filename": "/mnt/c/Users/s140511/tue/thesis/thesis_data/evaluation_data/BPI_2020_Domestic_declarations/predictions/data_gcn_complexep100_16_cc.json",
  "full": {
    "fitness": {
      "average_trace_fitness": 0.7510874578698767,
      "log_fitness": 0.758707578682815,
      "perc_fit_traces": 1.276190476190476,
      "percentage_of_fitting_traces": 1.276190476190476
    },
    "fitness_alignments": {
      "averageFitness": -1.5667619047619048,
      "average_trace_fitness": -1.5667619047619048,
      "percFitTraces": 1.276190476190476,
      "percentage_of_fitting_traces": 1.276190476190476
    },
    "fscore": 0.7633825070201782,
    "generalization": 0.9756944162635566,
    "metricsAverageWeight": 0.8150232890180733,
    "precision": 0.7681154035501639,
    "precision_alignments": 0.7763799044230173,
    "simplicity": 0.7575757575757577
  },
  "s_components": [
    [
      "p4",
      "p6",
      "Declaration SAVED by EMPLOYEE",
      "Declaration SUBMITTED by EMPLOYEE",
      "Declaration APPROVED by BUDGET OWNER",
      "p0",
      "|",
      "p5",
      "st0",
      "Declaration FINAL_APPROVED by SUPERVISOR",
      "short_circuited_transition",
      "Declaration APPROVED by ADMINISTRATION",
      "Payment Handled",
      "p3",
      "source",
      "p2",
      "Declaration APPROVED by PRE_APPROVER",
      "Request Payment",
      ">",
      "p8",
      "sink"
    ],
    [
      "p7",
      "p1",
      "Declaration SAVED by EMPLOYEE",
      "|",
      "short_circuited_transition",
      "Declaration REJECTED by ADMINISTRATION",
      "Declaration SUBMITTED by EMPLOYEE",
      "Declaration REJECTED by EMPLOYEE",
      "p0",
      ">",
      "source",
      "sink",
      "p9"
    ]
  ],
  "sound": true,
  "top 8": {
    "fitness": {
      "average_trace_fitness": 0.7528764529685398,
      "log_fitness": 0.7597274554404303,
      "perc_fit_traces": 1.353672088089706,
      "percentage_of_fitting_traces": 1.353672088089706
    },
    "fitness_alignments": {
      "averageFitness": -1.4380240428326094,
      "average_trace_fitness": -1.4380240428326094,
      "percFitTraces": 1.353672088089706,
      "percentage_of_fitting_traces": 1.353672088089706
    },
    "fscore": 0.7675714400925829,
    "generalization": 0.9732770890754084,
    "metricsAverageWeight": 0.8165398476871659,
    "precision": 0.775579088657067,
    "precision_alignments": 0.775579088657067,
    "simplicity": 0.7575757575757577
  },
  "uncovered_places_s_component": []
}