{
  "easy_soundness": false,
  "filename": "/mnt/c/Users/s140511/tue/thesis/thesis_data/evaluation_data/BPI_2020_Domestic_declarations/predictions/data_gcn_simpleep144_18_cc.json",
  "full": {
    "fitness": {
      "average_trace_fitness": 0.7348064865428728,
      "log_fitness": 0.7361879954609185,
      "perc_fit_traces": 0.0,
      "percentage_of_fitting_traces": 0.0
    },
    "fscore": 0.8444095810102623,
    "generalization": 0.9009188757350589,
    "metricsAverageWeight": 0.8461537179825525,
    "precision": 0.9899322431584744,
    "simplicity": 0.7575757575757577
  },
  "s_components": [],
  "sound": false,
  "top 8": {
    "fitness": {
      "average_trace_fitness": 0.7397879167615053,
      "log_fitness": 0.7422023893818519,
      "perc_fit_traces": 0.0,
      "percentage_of_fitting_traces": 0.0
    },
    "fscore": 0.8520277482172339,
    "generalization": 0.8991164121231364,
    "metricsAverageWeight": 0.8497236397701865,
    "precision": 1.0,
    "simplicity": 0.7575757575757577
  },
  "uncovered_places_s_component": [
    "sink",
    "p5",
    "p6",
    "p8",
    "p9",
    "source",
    "p0",
    "p7",
    "p4",
    "p3",
    "p1",
    "p2"
  ]
}