{
  "easy_soundness": true,
  "filename": "/mnt/c/Users/s140511/tue/thesis/thesis_data/evaluation_data/BPI_2020_Domestic_declarations/predictions/data_gcn_simpleep144_15_cca.json",
  "full": {
    "entropia_precision": 1.0000000000000002,
    "entropia_recall": 0.682529107248831,
    "fitness": {
      "average_trace_fitness": 0.9261434438626454,
      "log_fitness": 0.9239680575863233,
      "perc_fit_traces": 45.21904761904762,
      "percentage_of_fitting_traces": 45.21904761904762
    },
    "fitness_alignments": {
      "averageFitness": 0.8793840852138249,
      "average_trace_fitness": 0.8793840852138249,
      "log_fitness": 0.8627222535110272,
      "percFitTraces": 45.21904761904762,
      "percentage_of_fitting_traces": 45.21904761904762
    },
    "fscore": 0.9558133947701075,
    "generalization": 0.9744855947131364,
    "metricsAverageWeight": 0.9237093770902899,
    "precision": 0.9899322431584744,
    "precision_alignments": 1.0,
    "simplicity": 0.8064516129032256
  },
  "sound": true,
  "top 8": {
    "fitness": {
      "average_trace_fitness": 0.9337666492177163,
      "log_fitness": 0.9334366824920066,
      "perc_fit_traces": 47.964440852611375,
      "percentage_of_fitting_traces": 47.964440852611375
    },
    "fitness_alignments": {
      "averageFitness": 0.9010607132033225,
      "average_trace_fitness": 0.9010607132033225,
      "log_fitness": 0.8930576546067877,
      "percFitTraces": 47.964440852611375,
      "percentage_of_fitting_traces": 47.964440852611375
    },
    "fscore": 0.9655725382109747,
    "generalization": 0.9716116536222582,
    "metricsAverageWeight": 0.9278749872543726,
    "precision": 1.0,
    "precision_alignments": 1.0,
    "simplicity": 0.8064516129032256
  }
}