{
  "easy_soundness": false,
  "filename": "/mnt/c/Users/s140511/tue/thesis/thesis_data/evaluation_data/BPI_2020_Domestic_declarations/predictions/data_gcn_complexep100_18_cc.json",
  "full": {
    "entropia_precision": "nan",
    "entropia_recall": "nan",
    "fitness": {
      "average_trace_fitness": 0.8393541736536568,
      "log_fitness": 0.8379633819415839,
      "perc_fit_traces": 0.0,
      "percentage_of_fitting_traces": 0.0
    },
    "fscore": 0.8015205568925399,
    "generalization": 0.9117995162270319,
    "metricsAverageWeight": 0.8136801017454844,
    "precision": 0.7681154035501639,
    "simplicity": 0.7368421052631579
  },
  "sound": false,
  "top 8": {
    "fitness": {
      "average_trace_fitness": 0.8462524746695295,
      "log_fitness": 0.8466574566253006,
      "perc_fit_traces": 0.0,
      "percentage_of_fitting_traces": 0.0
    },
    "fscore": 0.8095611216795314,
    "generalization": 0.9097554953583248,
    "metricsAverageWeight": 0.8172085364759626,
    "precision": 0.775579088657067,
    "simplicity": 0.7368421052631579
  }
}