{
  "easy_soundness": true,
  "filename": "/mnt/c/Users/s140511/tue/thesis/thesis_data/evaluation_data/BPI_2020_Domestic_declarations/predictions/data_gcn_complexep100_2_cca.json",
  "full": {
    "entropia_precision": 0.9999999999999996,
    "entropia_recall": 0.651645217809872,
    "fitness": {
      "average_trace_fitness": 0.9050642275607435,
      "log_fitness": 0.9049766504898819,
      "perc_fit_traces": 31.961904761904762,
      "percentage_of_fitting_traces": 31.961904761904762
    },
    "fitness_alignments": {
      "averageFitness": 0.8514646871515572,
      "average_trace_fitness": 0.8514646871515572,
      "log_fitness": 0.840495315891609,
      "percFitTraces": 31.961904761904762,
      "percentage_of_fitting_traces": 31.961904761904762
    },
    "fscore": 0.945843083705798,
    "generalization": 0.977302914375422,
    "metricsAverageWeight": 0.9297520817230188,
    "precision": 0.9905749158729253,
    "precision_alignments": 1.0,
    "simplicity": 0.8461538461538463
  },
  "sound": true,
  "top 8": {
    "fitness": {
      "average_trace_fitness": 0.9136780399786899,
      "log_fitness": 0.9151473341874445,
      "perc_fit_traces": 33.90241438529144,
      "percentage_of_fitting_traces": 33.90241438529144
    },
    "fitness_alignments": {
      "averageFitness": 0.8729366602686888,
      "average_trace_fitness": 0.8729366602686888,
      "log_fitness": 0.8703815181118714,
      "percFitTraces": 33.90241438529144,
      "percentage_of_fitting_traces": 33.90241438529144
    },
    "fscore": 0.9556939227087943,
    "generalization": 0.9754387737654844,
    "metricsAverageWeight": 0.9341849885266938,
    "precision": 1.0,
    "precision_alignments": 1.0,
    "simplicity": 0.8461538461538463
  }
}