{
  "easy_soundness": true,
  "filename": "/mnt/c/Users/s140511/tue/thesis/thesis_data/evaluation_data/BPI_2020_Domestic_declarations/predictions/data_gcn_simpleep144_14_cca.json",
  "full": {
    "entropia_precision": 1.0000000000000016,
    "entropia_recall": 0.69998906498075,
    "fitness": {
      "average_trace_fitness": 0.9857975762952051,
      "log_fitness": 0.9825262956384868,
      "perc_fit_traces": 89.2,
      "percentage_of_fitting_traces": 89.2
    },
    "fitness_alignments": {
      "averageFitness": 0.9577962554245967,
      "average_trace_fitness": 0.9577962554245967,
      "log_fitness": 0.9392468512423979,
      "percFitTraces": 89.2,
      "percentage_of_fitting_traces": 89.2
    },
    "fscore": 0.986002858514773,
    "generalization": 0.9777278301998473,
    "metricsAverageWeight": 0.9249395593688783,
    "precision": 0.9895041116371792,
    "precision_alignments": 1.0,
    "simplicity": 0.7499999999999999
  },
  "sound": true,
  "top 8": {
    "fitness": {
      "average_trace_fitness": 0.9955130147826544,
      "log_fitness": 0.9939107287703784,
      "perc_fit_traces": 94.61561773916557,
      "percentage_of_fitting_traces": 94.61561773916557
    },
    "fitness_alignments": {
      "averageFitness": 0.9826851197090687,
      "average_trace_fitness": 0.9826851197090687,
      "log_fitness": 0.9739065521816936,
      "percFitTraces": 94.61561773916557,
      "percentage_of_fitting_traces": 94.61561773916557
    },
    "fscore": 0.996946066269789,
    "generalization": 0.9760191227198605,
    "metricsAverageWeight": 0.9299824628725597,
    "precision": 1.0,
    "precision_alignments": 1.0,
    "simplicity": 0.7499999999999999
  }
}