,fscore,fitness,precision,generalization,metricsAverageWeight,simplicity,#p,#st
inductive/2000,1.000,1.000,0.999,0.957,0.941,0.806,11, 6
inductive/2001,0.965,1.000,0.932,0.944,0.916,0.789,15, 3
inductive/2002,1.000,1.000,1.000,0.964,0.969,0.913,11, 1
inductive/2003,0.929,0.990,0.874,0.938,0.875,0.697,22, 7
inductive/2004,1.000,1.000,1.000,0.951,0.929,0.765,13, 2
inductive/2005,0.802,0.954,0.692,0.947,0.827,0.714,22, 9
inductive/2006,0.725,0.912,0.601,0.963,0.796,0.706,22,10
inductive/2007,0.947,0.982,0.914,0.958,0.902,0.754,22, 6
inductive/2008,0.774,0.945,0.655,0.962,0.815,0.699,24, 9
inductive/2009,0.950,0.904,1.000,0.970,0.942,0.895,10, 0
inductive/2010,0.964,0.932,1.000,0.952,0.935,0.857,12, 1
inductive/2011,1.000,1.000,1.000,0.968,0.970,0.913,12, 0
inductive/2012,0.710,0.950,0.567,0.952,0.792,0.699,25,11
inductive/2013,0.970,0.943,1.000,0.966,0.949,0.889,17, 1
inductive/2014,0.981,0.987,0.975,0.938,0.923,0.789,14, 4
inductive/2015,0.996,1.000,0.992,0.953,0.925,0.756,15, 3
inductive/2016,0.785,0.935,0.677,0.954,0.820,0.714,18, 8
inductive/2017,0.980,0.989,0.971,0.944,0.907,0.724,20, 4
inductive/2018,0.970,0.970,0.969,0.961,0.915,0.760,20, 3
inductive/2019,0.315,0.933,0.189,0.965,0.685,0.652,31,11
inductive/2020,0.993,1.000,0.986,0.961,0.939,0.810,17, 3
inductive/2021,1.000,1.000,0.999,0.962,0.948,0.829,16, 1
inductive/2022,0.510,0.982,0.345,0.954,0.728,0.632,23,12
inductive/2023,0.999,1.000,0.998,0.960,0.937,0.789,15, 3
inductive/2024,0.963,0.930,1.000,0.963,0.944,0.882,16, 1
inductive/2025,0.993,1.000,0.987,0.951,0.923,0.756,16, 5
inductive/2026,0.797,0.955,0.683,0.964,0.849,0.793,12, 5
inductive/2027,1.000,1.000,0.999,0.968,0.968,0.905,11, 0
inductive/2028,0.407,0.952,0.259,0.976,0.701,0.617,15, 5
inductive/2029,0.843,1.000,0.728,0.965,0.858,0.739,19, 2
inductive/2030,1.000,1.000,1.000,0.955,0.937,0.793,13, 0
inductive/2031,0.993,0.993,0.994,0.963,0.949,0.846,17, 3
inductive/2032,0.841,0.984,0.735,0.916,0.843,0.737,28,11
inductive/2033,0.909,0.938,0.882,0.965,0.894,0.789,16, 2
inductive/2034,0.823,0.968,0.716,0.918,0.829,0.714,21, 8
inductive/2035,0.996,1.000,0.992,0.968,0.961,0.882,17, 0
inductive/2036,0.530,0.995,0.361,0.970,0.747,0.662,21, 8
inductive/2037,0.948,0.936,0.960,0.944,0.899,0.756,17, 1
inductive/2038,0.871,0.863,0.880,0.966,0.880,0.810,19, 1
inductive/2039,0.560,0.880,0.411,0.972,0.757,0.767,18, 4
inductive/2040,0.759,0.905,0.654,0.951,0.814,0.744,14, 5
inductive/2041,0.907,0.927,0.888,0.940,0.876,0.750,24, 7
inductive/2042,1.000,1.000,1.000,0.947,0.929,0.767,17, 3
inductive/2043,0.805,1.000,0.674,0.960,0.866,0.829,15, 3
inductive/2044,1.000,1.000,1.000,0.943,0.937,0.806,13, 2
inductive/2045,0.771,0.921,0.664,0.960,0.815,0.714,28,11
inductive/2046,0.958,0.942,0.974,0.956,0.930,0.846,18, 1
inductive/2047,0.906,1.000,0.828,0.949,0.883,0.756,16, 2
inductive/2048,0.806,0.983,0.683,0.936,0.826,0.704,17, 9
inductive/2049,0.573,0.921,0.416,0.962,0.730,0.622,25, 6
inductive/2050,1.000,1.000,1.000,0.960,0.947,0.829,16, 1
inductive/2051,0.799,0.898,0.720,0.972,0.852,0.818,20, 2
inductive/2052,1.000,1.000,1.000,0.968,0.954,0.846,13, 0
inductive/2053,0.983,0.966,1.000,0.942,0.929,0.806,11, 3
inductive/2054,0.999,1.000,0.997,0.956,0.945,0.829,16, 0
inductive/2055,0.842,0.825,0.861,0.967,0.865,0.810,18, 2
inductive/2056,0.971,1.000,0.944,0.957,0.937,0.846,18, 2
inductive/2057,1.000,1.000,0.999,0.957,0.951,0.846,18, 2
inductive/2058,0.838,0.953,0.747,0.942,0.844,0.736,19, 7
inductive/2059,0.971,0.943,1.000,0.957,0.929,0.818,15, 0
inductive/2060,1.000,1.000,1.000,0.959,0.953,0.854,18, 2
inductive/2061,0.844,0.982,0.740,0.973,0.852,0.714,14, 1
inductive/2062,0.821,0.969,0.712,0.963,0.855,0.778,18, 6
inductive/2063,1.000,1.000,1.000,0.954,0.950,0.846,10, 2
inductive/2064,0.860,1.000,0.755,0.973,0.887,0.818,14, 4
inductive/2065,0.898,0.953,0.849,0.923,0.863,0.728,30,11
inductive/2066,0.869,0.900,0.839,0.966,0.883,0.829,15, 4
inductive/2067,0.954,0.925,0.984,0.971,0.946,0.905,10, 1
inductive/2068,1.000,1.000,1.000,0.949,0.944,0.829,14, 2
inductive/2069,0.963,1.000,0.929,0.974,0.937,0.846,12, 1
inductive/2070,0.954,0.937,0.971,0.955,0.914,0.793,23, 5
inductive/2071,1.000,1.000,1.000,0.959,0.956,0.867,13, 2
inductive/2072,1.000,1.000,1.000,0.951,0.940,0.810,17, 3
inductive/2073,0.883,0.940,0.832,0.952,0.873,0.770,23, 8
inductive/2074,0.979,1.000,0.958,0.950,0.914,0.745,20, 4
inductive/2075,1.000,1.000,1.000,0.949,0.937,0.800, 8, 1
inductive/2076,1.000,1.000,0.999,0.942,0.921,0.744,15, 2
inductive/2077,1.000,1.000,1.000,0.949,0.949,0.846,11, 2
inductive/2078,0.899,0.993,0.822,0.958,0.889,0.785,26, 7
inductive/2079,0.931,1.000,0.870,0.959,0.899,0.767,18, 4
inductive/2080,1.000,1.000,1.000,0.940,0.923,0.750,11, 3
inductive/2081,0.724,0.965,0.579,0.953,0.805,0.722,27,13
inductive/2082,0.682,0.963,0.528,0.959,0.789,0.705,21, 8
inductive/2083,1.000,1.000,1.000,0.968,0.970,0.913,12, 0
inductive/2084,1.000,1.000,1.000,0.948,0.963,0.905, 9, 1
inductive/2085,1.000,1.000,1.000,0.945,0.935,0.793,11, 2
inductive/2086,0.919,0.850,1.000,0.965,0.935,0.926,13, 1
inductive/2087,0.897,0.967,0.837,0.937,0.871,0.742,22, 8
inductive/2088,0.953,0.911,1.000,0.970,0.970,1.000,10, 0
inductive/2089,1.000,1.000,1.000,0.955,0.940,0.806,13, 2
inductive/2090,0.988,0.979,0.998,0.954,0.930,0.787,19, 3
inductive/2091,0.999,1.000,0.998,0.964,0.938,0.789,15, 3
inductive/2092,1.000,1.000,1.000,0.949,0.921,0.733,12, 1
inductive/2093,1.000,1.000,1.000,0.963,0.971,0.920,12, 1
inductive/2094,0.814,0.981,0.696,0.950,0.840,0.733,22, 7
inductive/2095,0.811,0.964,0.700,0.953,0.836,0.727,16, 5
inductive/2096,0.940,0.887,1.000,0.955,0.931,0.882,15, 2
inductive/2097,1.000,1.000,1.000,0.949,0.947,0.838,16, 1
inductive/2098,0.795,0.952,0.683,0.962,0.834,0.742,23, 8
inductive/2099,0.464,0.946,0.308,0.960,0.732,0.714,19, 5
inductive/2100,1.000,1.000,1.000,0.968,0.970,0.913,12, 0
inductive/2101,0.977,0.957,0.999,0.942,0.910,0.744,15, 3
inductive/2102,1.000,1.000,1.000,0.956,0.956,0.867,14, 0
inductive/2103,0.999,1.000,0.999,0.946,0.928,0.767,15, 4
inductive/2104,1.000,1.000,1.000,0.958,0.941,0.806,13, 2
inductive/2105,0.821,0.976,0.708,0.943,0.831,0.697,22, 8
inductive/2106,1.000,1.000,1.000,0.968,0.968,0.905,11, 0
inductive/2107,0.943,0.958,0.929,0.963,0.909,0.787,20, 4
inductive/2108,1.000,1.000,1.000,0.948,0.938,0.806,13, 1
inductive/2109,0.965,0.961,0.970,0.955,0.914,0.769,23, 1
inductive/2110,0.994,1.000,0.988,0.955,0.930,0.778,12, 0
inductive/2111,0.960,0.925,0.999,0.966,0.952,0.920,12, 1
inductive/2112,0.627,0.912,0.477,0.954,0.764,0.714,18, 7
inductive/2113,0.919,0.998,0.851,0.955,0.890,0.756,15, 6
inductive/2114,1.000,1.000,1.000,0.941,0.926,0.765,13, 2
inductive/2115,0.999,1.000,0.998,0.949,0.941,0.818,14, 1
inductive/2116,1.000,1.000,1.000,0.952,0.952,0.857,12, 2
inductive/2117,0.967,1.000,0.936,0.963,0.909,0.739,20, 1
inductive/2118,0.703,0.926,0.567,0.954,0.797,0.739,27, 8
inductive/2119,1.000,1.000,1.000,0.950,0.952,0.857,12, 1
inductive/2120,0.860,1.000,0.754,0.952,0.849,0.689,18, 1
inductive/2121,0.873,0.973,0.791,0.961,0.876,0.778,23, 2
inductive/2122,1.000,1.000,1.000,0.953,0.945,0.829,15, 1
inductive/2123,0.861,1.000,0.756,0.974,0.879,0.787,21, 1
inductive/2124,0.985,0.971,1.000,0.955,0.950,0.875,15, 1
inductive/2125,1.000,1.000,1.000,0.965,0.991,1.000,10, 1
inductive/2126,0.948,0.967,0.931,0.969,0.916,0.796,20, 3
inductive/2127,0.896,0.812,1.000,0.971,0.946,1.000, 9, 0
inductive/2128,0.999,1.000,0.998,0.968,0.948,0.826,22, 0
inductive/2129,1.000,1.000,1.000,0.953,0.943,0.818,14, 2
inductive/2130,0.860,1.000,0.755,0.963,0.862,0.730,15, 1
inductive/2131,0.794,0.953,0.680,0.962,0.838,0.756,15, 5
inductive/2132,0.987,1.000,0.974,0.960,0.933,0.800,16, 2
inductive/2133,0.826,0.890,0.771,0.960,0.843,0.750,22, 9
inductive/2134,0.999,1.000,0.997,0.959,0.934,0.778,18, 3
inductive/2135,0.992,1.000,0.985,0.968,0.950,0.846,13, 0
inductive/2136,1.000,1.000,1.000,0.953,0.933,0.778,15, 2
inductive/2137,1.000,1.000,1.000,0.934,0.935,0.806,12, 2
inductive/2138,0.813,0.976,0.697,0.964,0.864,0.818,14, 5
inductive/2139,0.926,0.943,0.910,0.953,0.887,0.744,16, 1
inductive/2140,0.782,0.970,0.655,0.962,0.841,0.778,18, 5
inductive/2141,0.998,0.996,1.000,0.950,0.951,0.857,12, 2
inductive/2142,0.922,0.985,0.866,0.960,0.887,0.736,21, 5
inductive/2143,0.822,0.901,0.755,0.972,0.865,0.833,22, 2
inductive/2144,1.000,1.000,1.000,0.960,0.954,0.857,12, 2
inductive/2145,0.998,1.000,0.996,0.964,0.934,0.778,15, 4
inductive/2146,0.847,0.986,0.743,0.941,0.840,0.692,18, 6
inductive/2147,1.000,1.000,1.000,0.955,0.926,0.750,14, 0
inductive/2148,0.938,0.950,0.926,0.950,0.899,0.767,15, 3
inductive/2149,0.877,0.989,0.787,0.935,0.856,0.714,22, 8
inductive/2150,0.929,0.871,0.996,0.970,0.930,0.882,17, 0
inductive/2151,0.959,0.921,1.000,0.969,0.972,1.000,12, 0
inductive/2152,1.000,1.000,1.000,0.959,0.937,0.789,16, 2
inductive/2153,1.000,1.000,1.000,0.957,0.965,0.905,10, 1
inductive/2154,0.942,1.000,0.890,0.964,0.898,0.739,17, 4
inductive/2155,0.654,0.942,0.500,0.973,0.788,0.736,23, 2
inductive/2156,0.849,0.991,0.743,0.959,0.852,0.714,17, 7
inductive/2157,0.930,0.926,0.934,0.949,0.897,0.778,22, 5
inductive/2158,0.910,0.951,0.872,0.961,0.888,0.769,19, 6
inductive/2159,0.964,0.931,1.000,0.958,0.951,0.913,11, 1
inductive/2160,0.983,0.967,1.000,0.941,0.927,0.800,14, 4
inductive/2161,0.968,0.938,1.000,0.966,0.933,0.829,16, 1
inductive/2162,1.000,1.000,0.999,0.968,0.964,0.889,18, 1
inductive/2163,0.946,0.923,0.970,0.958,0.949,0.946,18, 1
inductive/2164,0.906,0.976,0.845,0.913,0.872,0.754,23, 6
inductive/2165,0.990,0.984,0.995,0.947,0.918,0.744,13, 5
inductive/2166,1.000,1.000,1.000,0.950,0.928,0.760, 9, 2
inductive/2167,1.000,1.000,1.000,0.968,0.972,0.920,13, 0
inductive/2168,0.296,0.925,0.176,0.955,0.668,0.615,32,19
inductive/2169,1.000,1.000,1.000,0.959,0.968,0.913,11, 1
inductive/2170,0.760,0.935,0.641,0.965,0.821,0.744,15, 5
inductive/2171,0.959,1.000,0.921,0.959,0.920,0.800,17, 2
inductive/2172,1.000,1.000,1.000,0.959,0.942,0.810,18, 2
inductive/2173,0.963,0.958,0.967,0.952,0.914,0.778,23, 1
inductive/2174,0.823,0.923,0.742,0.967,0.848,0.760,20, 2
inductive/2175,0.949,0.962,0.937,0.952,0.907,0.778,18, 2
inductive/2176,0.865,0.987,0.769,0.949,0.860,0.733,24, 4
inductive/2177,0.466,0.978,0.306,0.954,0.721,0.647,15, 8
inductive/2178,0.990,1.000,0.980,0.947,0.936,0.818,14, 1
inductive/2179,0.828,0.961,0.727,0.972,0.867,0.810,19, 3
inductive/2180,1.000,1.000,1.000,0.968,0.975,0.931,15, 0
inductive/2181,0.876,0.975,0.795,0.948,0.866,0.745,21, 5
inductive/2182,0.956,1.000,0.916,0.948,0.905,0.754,21, 5
inductive/2183,0.997,0.996,0.999,0.956,0.958,0.882,16, 2
inductive/2184,0.967,0.936,1.000,0.953,0.934,0.846,17, 2
inductive/2185,0.971,0.948,0.995,0.969,0.925,0.789,18, 0
inductive/2186,0.976,0.966,0.987,0.962,0.923,0.778,15, 2
inductive/2187,0.955,1.000,0.914,0.973,0.916,0.778,15, 2
inductive/2188,0.960,0.935,0.986,0.956,0.918,0.793,13, 0
inductive/2189,0.948,1.000,0.901,0.953,0.904,0.763,24, 3
inductive/2190,0.944,0.925,0.963,0.951,0.904,0.778,15, 1
inductive/2191,1.000,1.000,1.000,0.965,0.955,0.857,13, 1
inductive/2192,1.000,1.000,1.000,0.965,0.971,0.920,12, 1
inductive/2193,1.000,1.000,1.000,0.955,0.955,0.867,14, 0
inductive/2194,1.000,1.000,1.000,0.959,0.951,0.846,11, 2
inductive/2195,0.974,1.000,0.949,0.955,0.913,0.750,14, 0
inductive/2196,0.975,0.951,1.000,0.954,0.941,0.860,19, 2
inductive/2197,0.785,0.955,0.667,0.956,0.827,0.731,25, 7
inductive/2198,0.966,0.943,0.990,0.953,0.913,0.765,13, 2
inductive/2199,0.747,0.965,0.610,0.963,0.822,0.750,11, 6
inductive/2200,1.000,1.000,1.000,0.956,0.941,0.806,14, 0
inductive/2201,0.463,0.975,0.303,0.959,0.716,0.625,19, 8
inductive/2202,0.760,0.886,0.666,0.947,0.803,0.714,13, 4
inductive/2203,0.998,1.000,0.995,0.940,0.939,0.818,14, 1
inductive/2204,1.000,1.000,1.000,0.968,0.968,0.905,11, 0
inductive/2205,0.999,1.000,0.999,0.962,0.950,0.838,15, 5
inductive/2206,0.834,0.924,0.761,0.959,0.855,0.778,19, 1
inductive/2207,0.983,0.974,0.993,0.962,0.931,0.796,19, 4
inductive/2208,0.501,0.882,0.350,0.973,0.717,0.660,19, 4
inductive/2209,0.823,0.974,0.712,0.952,0.842,0.731,25, 7
inductive/2210,0.969,0.941,1.000,0.966,0.947,0.882,16, 1
inductive/2211,0.949,1.000,0.903,0.955,0.901,0.745,22, 1
inductive/2212,0.875,0.859,0.891,0.912,0.844,0.714,23, 7
inductive/2213,0.341,0.855,0.213,0.967,0.671,0.647,24, 8
inductive/2214,0.942,0.955,0.929,0.963,0.914,0.811,22, 5
inductive/2215,0.763,0.940,0.642,0.965,0.815,0.714,26,10
inductive/2216,0.981,0.962,1.000,0.961,0.925,0.778,15, 2
inductive/2217,0.805,0.958,0.694,0.961,0.842,0.754,23, 5
inductive/2218,0.612,0.878,0.470,0.960,0.732,0.622,23, 9
inductive/2219,0.964,0.948,0.980,0.961,0.923,0.804,21, 5
inductive/2220,0.952,0.908,1.000,0.970,0.969,1.000, 9, 0
inductive/2221,0.963,0.951,0.976,0.948,0.910,0.765,11, 4
inductive/2222,0.879,0.975,0.800,0.964,0.873,0.754,22, 6
inductive/2223,0.947,1.000,0.900,0.955,0.908,0.778,16, 0
inductive/2224,0.774,0.930,0.662,0.967,0.834,0.778,18, 6
inductive/2225,0.921,0.999,0.854,0.962,0.894,0.763,23, 7
inductive/2226,0.924,0.994,0.864,0.927,0.881,0.739,15, 7
inductive/2227,0.970,0.941,1.000,0.951,0.925,0.806,13, 1
inductive/2228,0.998,1.000,0.996,0.939,0.930,0.787,19, 2
inductive/2229,0.995,1.000,0.990,0.957,0.934,0.787,20, 1
inductive/2230,1.000,1.000,1.000,0.954,0.933,0.778,14, 3
inductive/2231,0.498,0.870,0.349,0.965,0.728,0.727,18, 5
inductive/2232,1.000,1.000,1.000,0.965,0.960,0.875,14, 4
inductive/2233,1.000,1.000,1.000,0.968,0.992,1.000,11, 0
inductive/2234,0.957,0.918,0.998,0.960,0.921,0.806,13, 2
inductive/2235,0.891,0.986,0.812,0.963,0.887,0.786,23, 6
inductive/2236,0.989,0.978,1.000,0.951,0.937,0.818,14, 2
inductive/2237,0.765,0.948,0.641,0.952,0.826,0.763,25, 3
inductive/2238,0.967,1.000,0.937,0.959,0.923,0.796,19, 4
inductive/2239,0.850,0.933,0.781,0.972,0.881,0.840,23, 2
inductive/2240,0.695,0.954,0.546,0.944,0.778,0.667,27,12
inductive/2241,0.944,0.929,0.960,0.962,0.917,0.818,14, 2
inductive/2242,0.999,1.000,0.998,0.954,0.952,0.857,13, 1
inductive/2243,0.975,1.000,0.952,0.962,0.929,0.800,16, 2
inductive/2244,0.981,0.971,0.991,0.963,0.923,0.767,18, 3
inductive/2245,0.952,0.978,0.927,0.949,0.914,0.804,20, 3
inductive/2246,0.963,0.978,0.949,0.961,0.910,0.750,24, 6
inductive/2247,0.999,1.000,0.999,0.954,0.945,0.829,14, 2
inductive/2248,1.000,1.000,1.000,0.949,0.949,0.846,11, 2
inductive/2249,0.647,0.975,0.484,0.958,0.780,0.704,19, 9
inductive/2250,0.912,0.861,0.968,0.963,0.905,0.829,16, 1
inductive/2251,0.971,1.000,0.944,0.956,0.925,0.800,16, 3
inductive/2252,0.975,0.968,0.981,0.950,0.924,0.796,18, 6
inductive/2253,0.957,0.919,0.998,0.970,0.948,0.905,11, 0
inductive/2254,0.700,0.912,0.568,0.959,0.788,0.714,27,11
inductive/2255,0.899,0.996,0.818,0.957,0.878,0.739,27, 6
inductive/2256,0.346,0.932,0.212,0.956,0.677,0.609,23,17
inductive/2257,0.972,0.945,1.000,0.956,0.942,0.867,14, 0
inductive/2258,0.939,0.957,0.922,0.956,0.903,0.778,18, 1
inductive/2259,0.619,0.948,0.459,0.955,0.767,0.707,29,11
inductive/2260,0.986,1.000,0.972,0.953,0.930,0.796,21, 1
inductive/2261,0.960,0.996,0.927,0.946,0.915,0.789,15, 3
inductive/2262,0.365,0.966,0.225,0.972,0.696,0.623,21,11
inductive/2263,0.621,0.948,0.461,0.947,0.767,0.714,27, 5
inductive/2264,0.985,1.000,0.971,0.948,0.915,0.739,17, 5
inductive/2265,0.872,0.982,0.784,0.944,0.854,0.705,23, 5
inductive/2266,1.000,1.000,1.000,0.962,0.945,0.818,15, 1
inductive/2267,0.985,1.000,0.970,0.973,0.952,0.867,13, 2
inductive/2268,1.000,1.000,1.000,0.961,0.990,1.000, 7, 1
inductive/2269,0.949,0.935,0.964,0.957,0.897,0.733,13, 0
inductive/2270,0.942,0.929,0.955,0.959,0.898,0.750,20, 3
inductive/2271,0.978,1.000,0.956,0.966,0.933,0.810,19, 1
inductive/2272,0.944,1.000,0.894,0.958,0.908,0.778,18, 5
inductive/2273,0.961,0.930,0.995,0.963,0.931,0.838,16, 2
inductive/2274,0.873,0.967,0.796,0.942,0.859,0.731,25, 7
inductive/2275,0.971,0.943,0.999,0.969,0.953,0.900,20, 0
inductive/2276,0.596,0.954,0.433,0.964,0.758,0.682,30,12
inductive/2277,0.966,0.934,1.000,0.959,0.930,0.826,19, 3
inductive/2278,0.963,0.984,0.943,0.941,0.904,0.750,18, 5
inductive/2279,0.989,0.980,0.999,0.959,0.939,0.818, 8, 3
inductive/2280,1.000,1.000,1.000,0.960,0.964,0.895, 8, 2
inductive/2281,0.994,1.000,0.987,0.938,0.916,0.739,15, 5
inductive/2282,0.506,0.824,0.365,0.956,0.703,0.667,16, 5
inductive/2283,0.962,0.946,0.979,0.965,0.929,0.826,21, 1
inductive/2284,0.766,0.971,0.633,0.967,0.827,0.739,19, 5
inductive/2285,0.911,0.942,0.881,0.944,0.876,0.736,19, 5
inductive/2286,1.000,1.000,1.000,0.968,0.961,0.875,16, 0
inductive/2287,0.956,0.916,0.999,0.962,0.924,0.818,14, 2
inductive/2288,0.999,1.000,0.998,0.959,0.958,0.875,15, 1
inductive/2289,0.999,1.000,0.998,0.956,0.933,0.778,15, 2
inductive/2290,0.977,1.000,0.954,0.942,0.911,0.750,19, 2
inductive/2291,0.962,0.961,0.964,0.940,0.899,0.733,19, 7
inductive/2292,0.354,0.794,0.228,0.964,0.667,0.680,20, 4
inductive/2293,0.655,0.973,0.493,0.925,0.768,0.681,21,11
inductive/2294,0.916,0.938,0.895,0.955,0.876,0.714,20, 4
inductive/2295,0.445,0.782,0.311,0.965,0.685,0.680,18, 7
inductive/2296,0.997,1.000,0.994,0.960,0.928,0.756,18, 1
inductive/2297,0.974,0.973,0.975,0.947,0.916,0.769,20, 3
inductive/2298,0.938,0.965,0.912,0.948,0.897,0.765,12, 6
inductive/2299,0.867,0.905,0.831,0.971,0.879,0.810,18, 3
inductive/2300,1.000,1.000,0.999,0.963,0.949,0.833,11, 1
inductive/2301,0.969,0.941,0.999,0.958,0.932,0.829,14, 1
inductive/2302,0.966,1.000,0.934,0.957,0.937,0.857,12, 1
inductive/2303,0.999,1.000,0.998,0.970,0.964,0.889,17, 2
inductive/2304,0.997,1.000,0.995,0.956,0.949,0.846,18, 0
inductive/2305,1.000,1.000,1.000,0.968,0.992,1.000,10, 0
inductive/2306,0.833,0.947,0.744,0.962,0.853,0.760,19, 6
inductive/2307,0.993,1.000,0.987,0.952,0.927,0.769,20, 3
inductive/2308,1.000,1.000,1.000,0.958,0.947,0.829,14, 3
inductive/2309,1.000,1.000,1.000,0.955,0.938,0.796,20, 3
inductive/2310,0.794,0.976,0.670,0.946,0.835,0.750,25, 6
inductive/2311,0.882,1.000,0.789,0.958,0.877,0.760,21, 2
inductive/2312,0.486,0.813,0.347,0.961,0.680,0.600,16, 6
inductive/2313,0.973,0.949,0.999,0.966,0.952,0.895,17, 4
inductive/2314,0.935,0.948,0.922,0.957,0.908,0.806,14, 0
inductive/2315,0.661,0.967,0.502,0.976,0.794,0.730,15, 4
inductive/2316,0.925,0.945,0.906,0.943,0.891,0.769,20, 4
inductive/2317,0.965,0.932,1.000,0.963,0.959,0.939,16, 1
inductive/2318,0.999,1.000,0.998,0.935,0.919,0.745,20, 4
inductive/2319,0.951,0.911,0.995,0.951,0.909,0.778,17, 5
inductive/2320,0.986,0.972,1.000,0.951,0.939,0.833,10, 2
inductive/2321,0.286,0.929,0.169,0.955,0.661,0.593,31,16
inductive/2322,0.934,0.938,0.929,0.941,0.892,0.760,18, 5
inductive/2323,0.799,0.864,0.744,0.947,0.823,0.736,20, 4
inductive/2324,0.947,0.899,1.000,0.970,0.967,1.000,10, 0
inductive/2325,1.000,1.000,1.000,0.958,0.944,0.818,14, 2
inductive/2326,0.852,0.956,0.769,0.960,0.860,0.754,22, 8
inductive/2327,0.857,0.925,0.798,0.963,0.863,0.767,17, 5
inductive/2328,0.995,1.000,0.991,0.971,0.957,0.867,14, 1
inductive/2329,0.834,0.960,0.737,0.960,0.856,0.765,14, 2
inductive/2330,0.986,0.983,0.990,0.962,0.922,0.754,22, 4
inductive/2331,0.999,1.000,0.999,0.959,0.934,0.778,19, 2
inductive/2332,0.952,1.000,0.908,0.968,0.938,0.875,16, 0
inductive/2333,0.999,1.000,0.998,0.955,0.933,0.778,16, 0
inductive/2334,0.820,1.000,0.695,0.970,0.854,0.750,21, 1
inductive/2335,0.965,0.933,1.000,0.962,0.931,0.829,15, 2
inductive/2336,0.992,1.000,0.984,0.956,0.932,0.787,19, 3
inductive/2337,0.984,0.968,1.000,0.945,0.938,0.838,15, 2
inductive/2338,0.920,0.861,0.987,0.947,0.891,0.767,16, 3
inductive/2339,1.000,1.000,0.999,0.968,0.972,0.920,13, 0
inductive/2340,1.000,1.000,1.000,0.940,0.944,0.838,14, 3
inductive/2341,0.856,0.911,0.807,0.980,0.882,0.829,15, 3
inductive/2342,0.478,0.902,0.326,0.972,0.721,0.684,23, 1
inductive/2343,0.999,1.000,0.998,0.968,0.950,0.833,12, 0
inductive/2344,0.998,1.000,0.997,0.949,0.951,0.857,12, 1
inductive/2345,0.997,1.000,0.995,0.948,0.917,0.727,16, 6
inductive/2346,0.946,1.000,0.897,0.945,0.905,0.778,14, 4
inductive/2347,0.988,1.000,0.976,0.957,0.935,0.806,14, 1
inductive/2348,0.912,1.000,0.839,0.952,0.902,0.818,18, 4
inductive/2349,0.883,0.936,0.836,0.953,0.878,0.789,15, 5
inductive/2350,0.998,1.000,0.995,0.955,0.946,0.833,11, 0
inductive/2351,0.801,0.983,0.676,0.968,0.840,0.736,19, 5
inductive/2352,0.685,0.990,0.523,0.921,0.766,0.630,24,11
inductive/2353,0.992,1.000,0.984,0.950,0.928,0.778,19, 1
inductive/2354,0.997,1.000,0.994,0.964,0.934,0.778,12, 1
inductive/2355,0.994,1.000,0.988,0.947,0.941,0.829,15, 1
inductive/2356,1.000,1.000,1.000,0.961,0.942,0.806,13, 2
inductive/2357,0.389,0.795,0.258,0.948,0.641,0.563,26, 9
inductive/2358,0.971,0.943,1.000,0.957,0.944,0.875,15, 0
inductive/2359,0.991,1.000,0.983,0.962,0.927,0.765,14, 2
inductive/2360,0.993,1.000,0.986,0.944,0.921,0.754,22, 3
inductive/2361,0.955,0.920,0.992,0.944,0.903,0.756,16, 3
inductive/2362,0.969,0.948,0.990,0.960,0.929,0.818,23, 4
inductive/2363,1.000,1.000,0.999,0.959,0.944,0.818,13, 2
inductive/2364,0.853,0.973,0.760,0.964,0.871,0.787,19, 6
inductive/2365,0.977,0.959,0.996,0.947,0.920,0.778,18, 2
inductive/2366,0.967,0.950,0.984,0.944,0.912,0.769,18, 5
inductive/2367,0.938,0.996,0.886,0.979,0.927,0.846,17, 3
inductive/2368,0.991,1.000,0.982,0.944,0.926,0.778,18, 2
inductive/2369,0.971,0.944,1.000,0.969,0.949,0.882,17, 0
inductive/2370,1.000,1.000,1.000,0.955,0.939,0.800, 9, 0
inductive/2371,1.000,1.000,1.000,0.944,0.943,0.829,14, 2
inductive/2372,0.978,0.965,0.991,0.956,0.926,0.793,11, 3
inductive/2373,0.753,0.888,0.653,0.960,0.811,0.742,23, 7
inductive/2374,0.951,1.000,0.906,0.960,0.913,0.787,20, 2
inductive/2375,0.973,0.947,1.000,0.969,0.951,0.889,18, 0
inductive/2376,1.000,1.000,1.000,0.957,0.951,0.846,17, 1
inductive/2377,1.000,1.000,1.000,0.968,0.992,1.000, 9, 0
inductive/2378,0.998,1.000,0.995,0.968,0.952,0.846,13, 0
inductive/2379,0.607,0.962,0.443,0.958,0.775,0.737,29, 9
inductive/2380,0.966,0.936,0.999,0.965,0.944,0.875,14, 4
inductive/2381,0.852,0.984,0.751,0.951,0.858,0.745,22, 4
inductive/2382,0.999,1.000,0.998,0.948,0.941,0.818,14, 1
inductive/2383,0.883,0.980,0.803,0.957,0.874,0.754,21, 7
inductive/2384,1.000,1.000,0.999,0.946,0.931,0.778,15, 1
inductive/2385,1.000,1.000,1.000,0.963,0.991,1.000,10, 1
inductive/2386,1.000,1.000,1.000,0.955,0.937,0.793,11, 3
inductive/2387,0.968,0.938,1.000,0.965,0.948,0.889,17, 1
inductive/2388,1.000,1.000,0.999,0.970,0.957,0.857,13, 1
inductive/2389,0.811,0.953,0.706,0.964,0.840,0.736,20, 6
inductive/2390,0.959,0.929,0.991,0.963,0.928,0.829,14, 2
inductive/2391,0.999,1.000,0.998,0.935,0.928,0.778,17, 2
inductive/2392,0.816,0.932,0.725,0.972,0.854,0.787,21, 2
inductive/2393,0.966,0.935,1.000,0.957,0.937,0.857,13, 0
inductive/2394,0.949,1.000,0.903,0.964,0.924,0.829,15, 3
inductive/2395,0.973,1.000,0.948,0.964,0.937,0.838,17, 1
inductive/2396,1.000,1.000,1.000,0.968,0.972,0.920,13, 0
inductive/2397,0.844,1.000,0.731,0.968,0.860,0.742,23, 5
inductive/2398,0.578,0.952,0.415,0.961,0.765,0.731,23,12
inductive/2399,0.912,1.000,0.838,0.964,0.892,0.767,19, 1
inductive/2400,0.984,1.000,0.968,0.962,0.939,0.826,20, 2
inductive/2401,0.998,1.000,0.995,0.961,0.956,0.867,13, 2
inductive/2402,0.999,1.000,0.998,0.961,0.963,0.895,18, 1
inductive/2403,0.998,1.000,0.996,0.957,0.933,0.778,20, 5
inductive/2404,1.000,1.000,1.000,0.944,0.928,0.767,16, 3
inductive/2405,1.000,1.000,0.999,0.946,0.934,0.789,15, 1
inductive/2406,0.838,0.960,0.743,0.963,0.865,0.793,12, 4
inductive/2407,0.946,1.000,0.898,0.941,0.902,0.767,17, 4
inductive/2408,0.999,1.000,0.997,0.963,0.952,0.846,12, 1
inductive/2409,0.888,0.957,0.829,0.960,0.881,0.778,14, 4
inductive/2410,0.862,0.976,0.771,0.962,0.858,0.724,21, 5
inductive/2411,1.000,1.000,1.000,0.937,0.922,0.750,11, 3
inductive/2412,0.999,1.000,0.998,0.959,0.942,0.810,17, 2
inductive/2413,0.913,1.000,0.840,0.961,0.892,0.767,18, 3
inductive/2414,1.000,1.000,1.000,0.968,0.992,1.000, 9, 0
inductive/2415,0.839,1.000,0.722,0.964,0.853,0.725,22, 1
inductive/2416,0.993,1.000,0.986,0.938,0.912,0.725,18, 3
inductive/2417,1.000,1.000,1.000,0.964,0.965,0.895, 9, 1
inductive/2418,0.942,1.000,0.891,0.959,0.898,0.744,16, 2
inductive/2419,0.944,0.903,0.988,0.923,0.885,0.725,16, 7
inductive/2420,0.883,0.959,0.818,0.958,0.866,0.730,15, 1
inductive/2421,0.995,1.000,0.990,0.968,0.954,0.857,14, 0
inductive/2422,0.863,0.980,0.772,0.960,0.878,0.800,25, 6
inductive/2423,0.883,0.965,0.814,0.935,0.867,0.754,20, 8
inductive/2424,0.961,0.954,0.967,0.948,0.914,0.787,17, 4
inductive/2425,0.998,1.000,0.995,0.942,0.929,0.778,14, 2
inductive/2426,0.869,0.968,0.788,0.952,0.867,0.760,18, 5
inductive/2427,0.968,0.938,1.000,0.953,0.920,0.789,15, 2
inductive/2428,0.991,1.000,0.982,0.964,0.955,0.875,14, 1
inductive/2430,0.926,1.000,0.862,0.928,0.879,0.724,22, 3
inductive/2431,0.948,0.902,0.998,0.961,0.912,0.787,20, 2
inductive/2432,1.000,1.000,1.000,0.968,0.956,0.857,14, 0
inductive/2433,0.877,0.947,0.817,0.960,0.862,0.724,21, 8
inductive/2434,0.996,1.000,0.993,0.965,0.960,0.882,16, 1
inductive/2435,0.892,0.944,0.846,0.956,0.879,0.770,24, 6
inductive/2436,0.787,0.887,0.708,0.967,0.819,0.714,25, 8
inductive/2437,0.835,0.934,0.754,0.966,0.870,0.826,20, 5
inductive/2438,1.000,1.000,1.000,0.960,0.945,0.818,14, 2
inductive/2439,0.916,1.000,0.845,0.964,0.889,0.745,24, 1
inductive/2440,0.999,1.000,0.998,0.965,0.958,0.867,13, 2
inductive/2441,1.000,1.000,1.000,0.968,0.961,0.875,16, 0
inductive/2442,0.974,0.954,0.994,0.949,0.931,0.826,19, 2
inductive/2443,0.849,0.954,0.765,0.944,0.845,0.714,19, 7
inductive/2444,0.960,1.000,0.923,0.967,0.915,0.769,21, 3
inductive/2445,0.627,0.899,0.481,0.971,0.764,0.706,25, 8
inductive/2446,1.000,1.000,0.999,0.960,0.949,0.838,17, 1
inductive/2447,0.987,0.980,0.995,0.961,0.941,0.829,15, 2
inductive/2448,0.922,1.000,0.855,0.955,0.900,0.789,17, 0
inductive/2449,0.898,0.992,0.820,0.948,0.877,0.750,17, 4
inductive/2450,0.922,0.964,0.884,0.946,0.883,0.739,17, 3
inductive/2451,0.946,1.000,0.898,0.945,0.892,0.727,14, 7
inductive/2452,0.845,0.963,0.753,0.966,0.867,0.787,18, 4
inductive/2453,0.923,0.974,0.877,0.951,0.887,0.745,21, 4
inductive/2454,0.920,0.989,0.860,0.971,0.909,0.818,18, 5
inductive/2455,0.995,1.000,0.989,0.968,0.934,0.778,13, 0
inductive/2456,0.981,1.000,0.962,0.955,0.928,0.796,22, 0
inductive/2457,1.000,1.000,0.999,0.950,0.932,0.778,18, 3
inductive/2458,0.945,0.898,0.998,0.958,0.912,0.793,12, 1
inductive/2459,1.000,1.000,1.000,0.955,0.943,0.818,10, 0
inductive/2460,0.873,0.984,0.784,0.954,0.873,0.769,20, 6
inductive/2461,0.944,1.000,0.895,0.956,0.903,0.760,19, 6
inductive/2462,0.991,1.000,0.983,0.960,0.933,0.787,19, 3
inductive/2463,0.908,0.941,0.878,0.962,0.898,0.810,18, 2
inductive/2464,0.853,0.953,0.771,0.971,0.875,0.804,22, 3
inductive/2465,1.000,1.000,1.000,0.958,0.948,0.833,10, 2
inductive/2466,0.972,1.000,0.946,0.974,0.941,0.846,12, 1
inductive/2467,0.973,0.948,1.000,0.969,0.950,0.882,17, 0
inductive/2468,0.984,1.000,0.969,0.944,0.917,0.756,15, 3
inductive/2469,0.926,0.984,0.874,0.962,0.908,0.810,16, 5
inductive/2470,0.994,0.990,0.998,0.944,0.927,0.778,18, 2
inductive/2471,0.813,0.967,0.701,0.961,0.856,0.793,24, 5
inductive/2472,0.980,0.961,1.000,0.967,0.942,0.840,23, 1
inductive/2473,0.650,0.957,0.492,0.958,0.778,0.705,23, 4
inductive/2474,1.000,1.000,0.999,0.968,0.972,0.920,13, 1
inductive/2475,0.944,0.972,0.918,0.963,0.912,0.796,21, 4
inductive/2476,0.957,0.918,1.000,0.969,0.950,0.913,12, 0
inductive/2477,0.802,0.934,0.702,0.971,0.853,0.804,23, 2
inductive/2478,1.000,1.000,1.000,0.968,0.992,1.000, 9, 0
inductive/2479,1.000,1.000,1.000,0.943,0.928,0.767,17, 2
inductive/2480,0.969,0.940,1.000,0.953,0.930,0.829,15, 2
inductive/2481,1.000,1.000,1.000,0.965,0.958,0.867,14, 1
inductive/2482,0.801,0.961,0.687,0.949,0.832,0.731,24, 9
inductive/2483,1.000,1.000,1.000,0.946,0.925,0.756,16, 3
inductive/2484,0.998,1.000,0.995,0.970,0.960,0.875,15, 1
inductive/2485,0.991,0.984,0.998,0.955,0.949,0.857,13, 0
inductive/2486,0.946,1.000,0.898,0.950,0.901,0.756,15, 4
inductive/2487,0.967,1.000,0.937,0.971,0.936,0.838,17, 1
inductive/2488,0.999,1.000,0.999,0.951,0.935,0.789,15, 2
inductive/2489,0.994,1.000,0.989,0.945,0.933,0.800,16, 2
inductive/2490,0.914,0.947,0.883,0.958,0.899,0.810,18, 2
inductive/2491,0.933,0.972,0.897,0.946,0.882,0.714,18, 5
inductive/2492,0.870,0.903,0.838,0.956,0.845,0.684,23,13
inductive/2493,0.715,0.960,0.570,0.912,0.787,0.707,28,14
inductive/2494,0.981,0.963,0.999,0.943,0.933,0.829,13, 2
inductive/2495,0.998,1.000,0.995,0.961,0.953,0.857,13, 1
inductive/2496,0.959,0.921,1.000,0.969,0.951,0.913,12, 0
inductive/2497,0.972,0.945,1.000,0.949,0.923,0.800,16, 2
inductive/2498,0.896,0.935,0.860,0.962,0.884,0.778,17, 3
inductive/2499,0.564,0.846,0.423,0.960,0.728,0.684,26, 8
inductive/2500,0.874,0.952,0.808,0.947,0.867,0.760,19, 5
inductive/2501,0.959,0.921,1.000,0.957,0.946,0.905,10, 0
inductive/2502,0.994,1.000,0.988,0.949,0.926,0.769,21, 3
inductive/2503,0.961,0.924,1.000,0.969,0.952,0.913,12, 0
inductive/2504,1.000,1.000,1.000,0.964,0.953,0.846,12, 1
inductive/2505,0.763,0.924,0.650,0.954,0.809,0.708,33,17
inductive/2506,0.960,0.924,0.998,0.969,0.973,1.000,12, 0
inductive/2507,0.995,1.000,0.990,0.972,0.961,0.882,16, 1
inductive/2508,0.598,0.894,0.449,0.975,0.768,0.754,25, 4
inductive/2509,0.989,1.000,0.978,0.959,0.929,0.778,19, 2
inductive/2510,0.972,1.000,0.946,0.958,0.928,0.810,16, 6
inductive/2511,0.877,0.969,0.801,0.925,0.880,0.825,25, 5
inductive/2512,0.826,0.977,0.715,0.951,0.843,0.727,15, 7
inductive/2513,0.888,0.958,0.828,0.960,0.877,0.763,24, 5
inductive/2514,0.997,1.000,0.994,0.962,0.946,0.826,20, 2
inductive/2515,0.857,0.984,0.759,0.963,0.878,0.804,21, 6
inductive/2516,0.917,0.940,0.895,0.915,0.890,0.811,21, 6
inductive/2517,0.954,0.914,0.997,0.963,0.933,0.857,12, 2
inductive/2518,1.000,1.000,0.999,0.970,0.976,0.935,15, 1
inductive/2519,0.998,1.000,0.996,0.955,0.952,0.857,13, 0
inductive/2520,1.000,1.000,1.000,0.968,0.966,0.895,19, 0
inductive/2521,0.637,0.910,0.490,0.967,0.781,0.756,16, 5
inductive/2522,0.948,0.904,0.996,0.969,0.924,0.826,22, 0
inductive/2523,0.968,0.949,0.988,0.965,0.922,0.787,21, 1
inductive/2524,1.000,1.000,1.000,0.964,0.952,0.846,11, 1
inductive/2525,1.000,1.000,1.000,0.946,0.945,0.833,10, 1
inductive/2526,0.864,0.969,0.779,0.961,0.868,0.765,29, 6
inductive/2527,0.998,1.000,0.996,0.948,0.914,0.714,12, 3
inductive/2528,1.000,1.000,1.000,0.954,0.943,0.818,13, 3
inductive/2529,0.908,1.000,0.832,0.944,0.870,0.705,22, 4
inductive/2530,0.981,1.000,0.962,0.949,0.920,0.769,20, 2
inductive/2531,0.902,0.909,0.896,0.952,0.891,0.806,12, 2
inductive/2532,1.000,1.000,1.000,0.948,0.951,0.857,12, 1
inductive/2533,1.000,1.000,1.000,0.959,0.959,0.875,14, 2
inductive/2534,0.916,0.909,0.924,0.970,0.897,0.786,23, 6
inductive/2535,1.000,1.000,1.000,0.968,0.976,0.935,16, 0
inductive/2536,0.970,0.943,1.000,0.948,0.932,0.838,16, 1
inductive/2537,0.933,0.874,1.000,0.947,0.920,0.857,12, 1
inductive/2538,0.917,1.000,0.847,0.961,0.892,0.760,21, 2
inductive/2539,0.994,0.990,0.998,0.961,0.929,0.767,17, 3
inductive/2540,0.774,0.981,0.639,0.970,0.845,0.787,18, 5
inductive/2541,1.000,1.000,1.000,0.968,0.992,1.000, 7, 0
inductive/2542,0.820,1.000,0.695,0.942,0.829,0.677,22, 3
inductive/2543,0.987,1.000,0.974,0.961,0.953,0.875,14, 2
inductive/2544,0.803,0.982,0.679,0.926,0.821,0.699,24,10
inductive/2545,0.820,0.970,0.710,0.939,0.835,0.722,28,11
inductive/2546,0.948,0.968,0.929,0.962,0.909,0.778,23, 4
inductive/2547,1.000,1.000,1.000,0.955,0.937,0.793,13, 0
inductive/2548,0.941,0.959,0.923,0.962,0.901,0.760,21, 2
inductive/2549,0.874,0.917,0.835,0.948,0.857,0.730,14, 4
inductive/2550,0.952,0.930,0.975,0.969,0.930,0.846,13, 0
inductive/2551,0.913,1.000,0.840,0.968,0.897,0.778,17, 0
inductive/2552,0.885,0.965,0.817,0.964,0.881,0.778,15, 4
inductive/2553,1.000,1.000,1.000,0.968,0.992,1.000, 9, 0
inductive/2554,0.980,0.960,1.000,0.961,0.949,0.875,14, 2
inductive/2555,1.000,1.000,1.000,0.960,0.947,0.829,15, 2
inductive/2556,0.968,1.000,0.938,0.919,0.899,0.739,16, 4
inductive/2557,0.972,0.961,0.982,0.956,0.919,0.778,18, 5
inductive/2558,0.955,0.940,0.970,0.966,0.934,0.860,20, 2
inductive/2559,1.000,1.000,1.000,0.968,0.959,0.867,15, 0
inductive/2560,1.000,1.000,1.000,0.968,0.970,0.913,12, 0
inductive/2561,0.902,0.853,0.958,0.976,0.893,0.786,24, 3
inductive/2562,0.983,1.000,0.966,0.969,0.934,0.800,17, 2
inductive/2563,0.821,0.965,0.715,0.939,0.836,0.723,24, 8
inductive/2564,0.998,1.000,0.997,0.962,0.939,0.796,21, 2
inductive/2565,0.817,0.957,0.712,0.966,0.861,0.810,18, 3
inductive/2566,0.971,1.000,0.943,0.964,0.919,0.769,19, 5
inductive/2567,0.823,0.985,0.707,0.953,0.847,0.742,21, 9
inductive/2568,0.971,0.944,1.000,0.960,0.938,0.846,12, 1
inductive/2569,1.000,1.000,1.000,0.959,0.948,0.833,11, 1
inductive/2570,1.000,1.000,0.999,0.956,0.953,0.857,13, 0
inductive/2571,0.994,0.987,1.000,0.961,0.934,0.789,16, 2
inductive/2572,0.932,1.000,0.872,0.965,0.896,0.745,24, 1
inductive/2573,0.850,0.965,0.760,0.972,0.877,0.810,19, 2
inductive/2574,0.940,1.000,0.887,0.967,0.906,0.769,19, 5
inductive/2575,0.706,0.963,0.558,0.911,0.784,0.704,18, 9
inductive/2576,1.000,1.000,1.000,0.964,0.967,0.905,10, 1
inductive/2577,1.000,1.000,1.000,0.956,0.947,0.833,11, 0
inductive/2578,0.999,1.000,0.999,0.964,0.942,0.806,13, 2
inductive/2579,0.977,1.000,0.956,0.958,0.916,0.750,12, 3
inductive/2580,0.991,1.000,0.982,0.957,0.929,0.778,15, 1
inductive/2581,0.994,1.000,0.989,0.968,0.956,0.867,15, 0
inductive/2582,0.964,0.930,1.000,0.964,0.931,0.829,16, 1
inductive/2583,0.864,0.945,0.796,0.966,0.874,0.789,16, 2
inductive/2584,0.961,0.926,0.998,0.966,0.949,0.905,20, 1
inductive/2585,0.956,0.918,0.998,0.948,0.913,0.789,15, 2
inductive/2586,0.843,0.963,0.749,0.973,0.883,0.846,18, 2
inductive/2587,1.000,1.000,1.000,0.964,0.935,0.778,12, 1
inductive/2588,0.863,0.983,0.769,0.961,0.867,0.754,23, 6
inductive/2589,0.845,0.969,0.749,0.968,0.864,0.770,26, 3
inductive/2590,0.555,0.926,0.396,0.958,0.738,0.671,28,10
inductive/2591,0.918,0.849,1.000,0.952,0.917,0.867, 6, 1
inductive/2592,0.914,0.870,0.962,0.969,0.907,0.829,17, 0
inductive/2593,0.958,1.000,0.919,0.964,0.935,0.857,12, 1
inductive/2594,1.000,1.000,1.000,0.948,0.926,0.756,14, 5
inductive/2595,0.999,1.000,0.997,0.963,0.947,0.826,20, 2
inductive/2596,0.975,0.956,0.996,0.944,0.902,0.714,17, 4
inductive/2597,0.873,0.940,0.816,0.965,0.875,0.778,15, 2
inductive/2598,0.999,1.000,0.999,0.970,0.970,0.913,11, 1
inductive/2599,0.975,1.000,0.951,0.957,0.919,0.767,17, 3
inductive/2600,0.965,0.933,1.000,0.956,0.952,0.920,12, 0
inductive/2601,0.846,0.971,0.749,0.963,0.885,0.857,12, 4
inductive/2602,0.855,0.984,0.756,0.958,0.857,0.731,25, 8
inductive/2603,0.951,0.907,1.000,0.969,0.969,1.000, 9, 0
inductive/2604,1.000,1.000,1.000,0.953,0.927,0.756,17, 2
inductive/2605,0.773,0.978,0.639,0.954,0.812,0.679,28, 9
inductive/2606,0.971,0.943,1.000,0.956,0.932,0.829,16, 0
inductive/2607,0.981,1.000,0.962,0.961,0.945,0.857,12, 2
inductive/2608,0.902,0.896,0.908,0.959,0.888,0.789,15, 5
inductive/2609,0.817,0.967,0.708,0.956,0.850,0.769,23, 1
inductive/2610,0.931,0.966,0.899,0.960,0.906,0.800,16, 2
inductive/2611,0.793,0.935,0.689,0.972,0.843,0.778,12, 1
inductive/2612,0.968,0.940,0.998,0.969,0.946,0.875,16, 0
inductive/2613,0.991,1.000,0.983,0.973,0.969,0.920,12, 1
inductive/2614,0.855,0.956,0.774,0.941,0.846,0.714,23,10
inductive/2615,0.932,0.951,0.915,0.944,0.893,0.763,21, 7
inductive/2616,0.962,0.945,0.980,0.953,0.918,0.796,20, 2
inductive/2617,0.948,0.937,0.959,0.953,0.912,0.800,15, 3
inductive/2618,0.954,0.912,1.000,0.959,0.927,0.838,16, 2
inductive/2619,0.968,0.941,0.995,0.966,0.935,0.838,16, 2
inductive/2620,0.870,0.988,0.777,0.964,0.866,0.733,25, 4
inductive/2621,0.980,0.971,0.989,0.950,0.929,0.806,11, 3
inductive/2622,0.970,0.943,0.998,0.949,0.922,0.800,17, 1
inductive/2623,0.896,0.965,0.837,0.961,0.872,0.724,22, 5
inductive/2624,1.000,1.000,1.000,0.947,0.936,0.796,20, 2
inductive/2625,1.000,1.000,1.000,0.963,0.969,0.913,11, 1
inductive/2626,0.999,1.000,0.999,0.929,0.921,0.756,15, 3
inductive/2627,0.998,1.000,0.996,0.963,0.951,0.846,18, 1
inductive/2628,0.843,0.964,0.749,0.970,0.875,0.818,19, 3
inductive/2629,0.974,0.957,0.991,0.969,0.936,0.826,22, 1
inductive/2630,0.955,0.995,0.919,0.947,0.914,0.793,11, 3
inductive/2631,0.834,0.957,0.738,0.962,0.857,0.769,21, 6
inductive/2632,0.950,0.905,1.000,0.968,0.952,0.935,15, 1
inductive/2633,1.000,1.000,1.000,0.956,0.933,0.778,12, 0
inductive/2634,1.000,1.000,1.000,0.945,0.933,0.787,19, 2
inductive/2635,0.999,1.000,0.998,0.956,0.953,0.857,13, 0
inductive/2636,0.975,1.000,0.952,0.964,0.926,0.787,21, 1
inductive/2637,0.757,0.985,0.615,0.935,0.812,0.714,24, 9
inductive/2638,0.846,0.952,0.762,0.972,0.888,0.867,13, 1
inductive/2639,0.957,0.917,1.000,0.969,0.972,1.000,12, 0
inductive/2640,0.785,0.962,0.662,0.958,0.833,0.750,20, 2
inductive/2641,1.000,1.000,1.000,0.954,0.943,0.818, 9, 1
inductive/2642,0.952,0.909,0.999,0.962,0.932,0.857,13, 1
inductive/2643,0.944,1.000,0.893,0.972,0.911,0.778,11, 2
inductive/2644,0.985,0.975,0.996,0.963,0.925,0.765,13, 3
inductive/2645,1.000,1.000,1.000,0.963,0.954,0.854,19, 1
inductive/2646,0.894,0.985,0.819,0.958,0.882,0.767,17, 5
inductive/2647,1.000,1.000,1.000,0.958,0.948,0.833,11, 1
inductive/2648,1.000,1.000,0.999,0.948,0.924,0.750,10, 3
inductive/2649,0.841,0.953,0.752,0.899,0.832,0.723,23, 8
inductive/2650,0.983,0.970,0.996,0.970,0.942,0.833, 9, 2
inductive/2651,1.000,1.000,1.000,0.968,0.972,0.920,13, 0
inductive/2652,0.990,1.000,0.981,0.959,0.942,0.829,14, 2
inductive/2653,1.000,1.000,1.000,0.968,0.950,0.833,12, 0
inductive/2654,0.942,0.908,0.979,0.962,0.921,0.833,20, 3
inductive/2655,0.871,0.938,0.814,0.966,0.879,0.800,18, 1
inductive/2656,0.961,1.000,0.925,0.958,0.918,0.787,18, 6
inductive/2657,0.561,0.860,0.417,0.976,0.748,0.739, 9, 2
inductive/2658,0.995,1.000,0.990,0.968,0.934,0.778,13, 0
inductive/2659,0.895,0.979,0.825,0.963,0.894,0.810,17, 5
inductive/2660,0.998,0.997,1.000,0.968,0.962,0.882,17, 1
inductive/2661,0.808,0.876,0.750,0.964,0.833,0.742,23, 8
inductive/2662,0.926,0.991,0.870,0.959,0.912,0.829,15, 4
