{
  "alpha": 1.7366320472423395,
  "alpha_err": 0.26043875792219373,
  "deviation_distributions": {
    "all": {
      "number_of_samples": 5,
      "scale": 0.3572413793103448,
      "sse": 1.6269307973485214
    },
    "in_valid_trace": {
      "number_of_samples": 3,
      "scale": 0.5954022988505748,
      "sse": 1.4747147070640123
    },
    "in_valid_trace_index": {
      "number_of_samples": 22,
      "scale": 0.08119122257053292,
      "sse": 0.6116613234681854
    }
  },
  "deviation_distributions_geom": {
    "all": {
      "number_of_samples": 5,
      "shape": 0.6211031175059952,
      "sse": 0.13563500848264123
    },
    "in_valid_trace": {
      "number_of_samples": 3,
      "shape": 3.3856209150326797,
      "sse": NaN
    },
    "in_valid_trace_index": {
      "number_of_samples": 7,
      "shape": 0.7640117994100295,
      "sse": 0.10532476289638791
    }
  },
  "frequencies_max": 255,
  "frequencies_mean": 125.0,
  "frequencies_median": 106.5,
  "frequencies_min": 22,
  "number_of_main_traces_80.0": 3,
  "number_of_trace_variants": 8
}