{
  "alpha": 2.860671434474792,
  "alpha_err": 0.49728535836870513,
  "deviation_distributions": {
    "all": {
      "number_of_samples": 8,
      "scale": 0.18313953488372092,
      "sse": 1.407115350311939
    },
    "in_valid_trace": {
      "number_of_samples": 9,
      "scale": 0.16279069767441856,
      "sse": 0.9310740150089971
    },
    "in_valid_trace_index": {
      "number_of_samples": 93,
      "scale": 0.015753938484621154,
      "sse": 0.057844240772530836
    }
  },
  "deviation_distributions_geom": {
    "all": {
      "number_of_samples": 8,
      "shape": 0.39598997493734334,
      "sse": 0.037152260898709585
    },
    "in_valid_trace": {
      "number_of_samples": 9,
      "shape": 0.44695898161244696,
      "sse": 0.05412206342201514
    },
    "in_valid_trace_index": {
      "number_of_samples": 19,
      "shape": 0.16273100616016428,
      "sse": 0.028949282753403076
    }
  },
  "frequencies_max": 127,
  "frequencies_mean": 41.666666666666664,
  "frequencies_median": 35.5,
  "frequencies_min": 4,
  "number_of_main_traces_80.0": 11,
  "number_of_trace_variants": 24
}