{
  "alpha": 1.6853243705078753,
  "alpha_err": 0.0807662516164201,
  "deviation_distributions": {
    "all": {
      "number_of_samples": 77,
      "scale": 0.05737308424720018,
      "sse": 0.4000243790027696
    },
    "in_valid_trace": {
      "number_of_samples": 20,
      "scale": 0.22088637435172123,
      "sse": 1.1612176642292074
    },
    "in_valid_trace_index": {
      "number_of_samples": 302,
      "scale": 0.014628236712034498,
      "sse": 0.0028582016883601288
    }
  },
  "deviation_distributions_geom": {
    "all": {
      "number_of_samples": 77,
      "shape": 0.11885875127942681,
      "sse": 0.0018208598553867248
    },
    "in_valid_trace": {
      "number_of_samples": 20,
      "shape": 0.12222523010286952,
      "sse": 0.009202136962922757
    },
    "in_valid_trace_index": {
      "number_of_samples": 163,
      "shape": 0.01369334894479824,
      "sse": 0.0026509432601926203
    }
  },
  "frequencies_max": 133,
  "frequencies_mean": 6.289308176100629,
  "frequencies_median": 1.0,
  "frequencies_min": 1,
  "number_of_main_traces_80.0": 34,
  "number_of_trace_variants": 159
}