{
  "alpha": 1.6032355558304856,
  "alpha_err": 0.13163679030866476,
  "deviation_distributions": {
    "all": {
      "number_of_samples": 36,
      "scale": 0.056707629288274455,
      "sse": 0.06290663953653564
    },
    "in_valid_trace": {
      "number_of_samples": 4,
      "scale": 0.51036866359447,
      "sse": 1.5146986210045186
    },
    "in_valid_trace_index": {
      "number_of_samples": 35,
      "scale": 0.05832784726793944,
      "sse": 0.45407505695111483
    }
  },
  "deviation_distributions_geom": {
    "all": {
      "number_of_samples": 36,
      "shape": 0.11590790162218732,
      "sse": 0.0027080727308838046
    },
    "in_valid_trace": {
      "number_of_samples": 4,
      "shape": 1.6591760299625467,
      "sse": NaN
    },
    "in_valid_trace_index": {
      "number_of_samples": 12,
      "shape": 0.1857262103505843,
      "sse": 0.07028787634174012
    }
  },
  "frequencies_max": 186,
  "frequencies_mean": 10.989010989010989,
  "frequencies_median": 2.0,
  "frequencies_min": 1,
  "number_of_main_traces_80.0": 8,
  "number_of_trace_variants": 91
}