{
  "alpha": 2.2960948486376562,
  "alpha_err": 0.22562115314709819,
  "deviation_distributions": {
    "all": {
      "number_of_samples": 99,
      "scale": 0.0258024127370861,
      "sse": 0.024665612154559625
    },
    "in_valid_trace": {
      "number_of_samples": 121,
      "scale": 0.02111106496670681,
      "sse": 0.004161658318638932
    },
    "in_valid_trace_index": {
      "number_of_samples": 1846,
      "scale": 0.0013837696971676732,
      "sse": 9.704869655734652e-05
    }
  },
  "deviation_distributions_geom": {
    "all": {
      "number_of_samples": 100,
      "shape": 0.04255764003725457,
      "sse": 0.0021266089997595355
    },
    "in_valid_trace": {
      "number_of_samples": 46,
      "shape": 0.16077962285392627,
      "sse": 0.0009871785900571908
    },
    "in_valid_trace_index": {
      "number_of_samples": 264,
      "shape": 0.013659015359089555,
      "sse": 0.0033468834088844547
    }
  },
  "frequencies_max": 107,
  "frequencies_mean": 1.6260162601626016,
  "frequencies_median": 1.0,
  "frequencies_min": 1,
  "number_of_main_traces_80.0": 415,
  "number_of_trace_variants": 615
}