{
  "alpha": 8.225697862711499,
  "alpha_err": 4.171758606119388,
  "deviation_distributions": {
    "all": {
      "number_of_samples": 66,
      "scale": 0.023143918244420754,
      "sse": 0.016922413897464676
    },
    "in_valid_trace": {
      "number_of_samples": 213,
      "scale": 0.007171354948975445,
      "sse": 0.0
    },
    "in_valid_trace_index": {
      "number_of_samples": 2368,
      "scale": 0.0006450585321502407,
      "sse": 0.0
    }
  },
  "deviation_distributions_geom": {
    "all": {
      "number_of_samples": 84,
      "shape": 0.04635717010343977,
      "sse": 0.0009523836408693683
    },
    "in_valid_trace": {
      "number_of_samples": 50,
      "shape": 0.06851005636903372,
      "sse": 0.0009769262762623187
    },
    "in_valid_trace_index": {
      "number_of_samples": 411,
      "shape": 0.0072128225042683795,
      "sse": 0.001031336805273395
    }
  },
  "frequencies_max": 7,
  "frequencies_mean": 1.287001287001287,
  "frequencies_median": 1.0,
  "frequencies_min": 1,
  "number_of_main_traces_80.0": 577,
  "number_of_trace_variants": 777
}