{
  "alpha": 1.961093240276429,
  "alpha_err": 0.16482613089743683,
  "deviation_distributions": {
    "all": {
      "number_of_samples": 42,
      "scale": 0.043837301587301584,
      "sse": 0.06222839512646697
    },
    "in_valid_trace": {
      "number_of_samples": 18,
      "scale": 0.10228703703703704,
      "sse": 0.7735557617958649
    },
    "in_valid_trace_index": {
      "number_of_samples": 158,
      "scale": 0.01165295358649789,
      "sse": 0.028908167421348583
    }
  },
  "deviation_distributions_geom": {
    "all": {
      "number_of_samples": 42,
      "shape": 0.12732712765957446,
      "sse": 0.012044134559695415
    },
    "in_valid_trace": {
      "number_of_samples": 18,
      "shape": 0.14871794871794872,
      "sse": 0.01006435124488243
    },
    "in_valid_trace_index": {
      "number_of_samples": 114,
      "shape": 0.02151617678156058,
      "sse": 0.004248532256058263
    }
  },
  "frequencies_max": 517,
  "frequencies_mean": 6.451612903225806,
  "frequencies_median": 1.0,
  "frequencies_min": 1,
  "number_of_main_traces_80.0": 19,
  "number_of_trace_variants": 155
}