{
  "alpha": 2.1595465166629877,
  "alpha_err": 0.15225591683793374,
  "deviation_distributions": {
    "all": {
      "number_of_samples": 45,
      "scale": 0.059121533593895395,
      "sse": 0.1473859603017753
    },
    "in_valid_trace": {
      "number_of_samples": 71,
      "scale": 0.03747139453134215,
      "sse": 0.03105316882095301
    },
    "in_valid_trace_index": {
      "number_of_samples": 1010,
      "scale": 0.0026341277343814784,
      "sse": 0.0014507932891316658
    }
  },
  "deviation_distributions_geom": {
    "all": {
      "number_of_samples": 44,
      "shape": 0.13896384241770102,
      "sse": 0.000798083847703409
    },
    "in_valid_trace": {
      "number_of_samples": 34,
      "shape": 0.12232452469209612,
      "sse": 0.0019520005575174024
    },
    "in_valid_trace_index": {
      "number_of_samples": 107,
      "shape": 0.02514214427944246,
      "sse": 0.006686386198001763
    }
  },
  "frequencies_max": 70,
  "frequencies_mean": 3.4129692832764507,
  "frequencies_median": 1.0,
  "frequencies_min": 1,
  "number_of_main_traces_80.0": 111,
  "number_of_trace_variants": 293
}