{
  "alpha": 1.868135232846351,
  "alpha_err": 0.1390128920888356,
  "deviation_distributions": {
    "all": {
      "number_of_samples": 40,
      "scale": 0.1282998324958124,
      "sse": 0.7887725442934931
    },
    "in_valid_trace": {
      "number_of_samples": 165,
      "scale": 0.03110298969595452,
      "sse": 0.0019118977174473824
    },
    "in_valid_trace_index": {
      "number_of_samples": 4510,
      "scale": 0.0011379142571690678,
      "sse": 0.0
    }
  },
  "deviation_distributions_geom": {
    "all": {
      "number_of_samples": 100,
      "shape": 0.09710734360005484,
      "sse": 0.0024744558331798875
    },
    "in_valid_trace": {
      "number_of_samples": 36,
      "shape": 0.33817263689442956,
      "sse": 0.010771145511542223
    },
    "in_valid_trace_index": {
      "number_of_samples": 266,
      "shape": 0.019179331045574562,
      "sse": 0.007941602791835948
    }
  },
  "frequencies_max": 114,
  "frequencies_mean": 2.3255813953488373,
  "frequencies_median": 1.0,
  "frequencies_min": 1,
  "number_of_main_traces_80.0": 230,
  "number_of_trace_variants": 430
}