{
  "alpha": 1.9424127728834204,
  "alpha_err": 0.1616224571697351,
  "deviation_distributions": {
    "all": {
      "number_of_samples": 23,
      "scale": 0.08527620247847092,
      "sse": 0.2357294934342703
    },
    "in_valid_trace": {
      "number_of_samples": 10,
      "scale": 0.1961352657004831,
      "sse": 0.9386894087944159
    },
    "in_valid_trace_index": {
      "number_of_samples": 127,
      "scale": 0.015443721708699459,
      "sse": 0.0514868340394012
    }
  },
  "deviation_distributions_geom": {
    "all": {
      "number_of_samples": 23,
      "shape": 0.18230803771890436,
      "sse": 0.0049293342418005376
    },
    "in_valid_trace": {
      "number_of_samples": 10,
      "shape": 0.42176165803108806,
      "sse": 0.04789294593392571
    },
    "in_valid_trace_index": {
      "number_of_samples": 34,
      "shape": 0.08526970954356847,
      "sse": 0.0341733333807122
    }
  },
  "frequencies_max": 535,
  "frequencies_mean": 13.157894736842104,
  "frequencies_median": 2.0,
  "frequencies_min": 1,
  "number_of_main_traces_80.0": 11,
  "number_of_trace_variants": 76
}