{
  "alpha": 1.7103026666890364,
  "alpha_err": 0.11838377778150606,
  "deviation_distributions": {
    "all": {
      "number_of_samples": 12,
      "scale": 0.2552083333333333,
      "sse": 0.9755041507133326
    },
    "in_valid_trace": {
      "number_of_samples": 1,
      "scale": 3.0625,
      "sse": NaN
    },
    "in_valid_trace_index": {
      "number_of_samples": 14,
      "scale": 0.21875,
      "sse": 0.9267088640696102
    }
  },
  "deviation_distributions_geom": {
    "all": {
      "number_of_samples": 12,
      "shape": 0.26563803169307754,
      "sse": 0.021863800326175537
    },
    "in_valid_trace": {
      "number_of_samples": 1,
      "shape": Infinity,
      "sse": 0.0
    },
    "in_valid_trace_index": {
      "number_of_samples": 10,
      "shape": 0.31961866532865024,
      "sse": 0.0726816484262192
    }
  },
  "frequencies_max": 526,
  "frequencies_mean": 16.129032258064516,
  "frequencies_median": 2.0,
  "frequencies_min": 1,
  "number_of_main_traces_80.0": 3,
  "number_of_trace_variants": 62
}