{
  "alpha": 2.029011522364656,
  "alpha_err": 0.15692278601638712,
  "deviation_distributions": {
    "all": {
      "number_of_samples": 51,
      "scale": 0.0390359477124183,
      "sse": 0.06753847526698283
    },
    "in_valid_trace": {
      "number_of_samples": 39,
      "scale": 0.051047008547008534,
      "sse": 0.07416229189784479
    },
    "in_valid_trace_index": {
      "number_of_samples": 438,
      "scale": 0.004545281582952816,
      "sse": 0.0012313860223036582
    }
  },
  "deviation_distributions_geom": {
    "all": {
      "number_of_samples": 48,
      "shape": 0.08299595141700405,
      "sse": 0.0012508569001138596
    },
    "in_valid_trace": {
      "number_of_samples": 37,
      "shape": 0.12279735682819383,
      "sse": 0.009635713225673472
    },
    "in_valid_trace_index": {
      "number_of_samples": 140,
      "shape": 0.021145884343142057,
      "sse": 0.004814061496246282
    }
  },
  "frequencies_max": 89,
  "frequencies_mean": 5.2631578947368425,
  "frequencies_median": 2.0,
  "frequencies_min": 1,
  "number_of_main_traces_80.0": 54,
  "number_of_trace_variants": 190
}