{
  "alpha": 1.279692337608691,
  "alpha_err": 0.08074022320432674,
  "deviation_distributions": {
    "all": {
      "number_of_samples": 11,
      "scale": 0.13778409090909088,
      "sse": 0.6114427057099672
    },
    "in_valid_trace": {
      "number_of_samples": 1,
      "scale": 1.515625,
      "sse": NaN
    },
    "in_valid_trace_index": {
      "number_of_samples": 8,
      "scale": 0.189453125,
      "sse": 1.1274532046279813
    }
  },
  "deviation_distributions_geom": {
    "all": {
      "number_of_samples": 11,
      "shape": 0.6998556998556998,
      "sse": 0.15966637019670876
    },
    "in_valid_trace": {
      "number_of_samples": 1,
      "shape": Infinity,
      "sse": 0.0
    },
    "in_valid_trace_index": {
      "number_of_samples": 1,
      "shape": Infinity,
      "sse": 0.0
    }
  },
  "frequencies_max": 514,
  "frequencies_mean": 83.33333333333333,
  "frequencies_median": 13.5,
  "frequencies_min": 1,
  "number_of_main_traces_80.0": 2,
  "number_of_trace_variants": 12
}