{
  "alpha": 1.9325307906773097,
  "alpha_err": 0.14744606433890056,
  "deviation_distributions": {
    "all": {
      "number_of_samples": 35,
      "scale": 0.06744847192608387,
      "sse": 0.21769341786397237
    },
    "in_valid_trace": {
      "number_of_samples": 15,
      "scale": 0.15737976782752908,
      "sse": 0.7452015094478965
    },
    "in_valid_trace_index": {
      "number_of_samples": 160,
      "scale": 0.014754353233830847,
      "sse": 0.0073088426843068415
    }
  },
  "deviation_distributions_geom": {
    "all": {
      "number_of_samples": 35,
      "shape": 0.12629399585921325,
      "sse": 0.0025649628787278583
    },
    "in_valid_trace": {
      "number_of_samples": 15,
      "shape": 0.25834230355220666,
      "sse": 0.013352656839080056
    },
    "in_valid_trace_index": {
      "number_of_samples": 63,
      "shape": 0.04062422591032945,
      "sse": 0.005514241547813522
    }
  },
  "frequencies_max": 485,
  "frequencies_mean": 10.0,
  "frequencies_median": 2.0,
  "frequencies_min": 1,
  "number_of_main_traces_80.0": 19,
  "number_of_trace_variants": 100
}