{
  "alpha": 2.0211215614540134,
  "alpha_err": 0.2283297224701903,
  "deviation_distributions": {
    "all": {
      "number_of_samples": 19,
      "scale": 0.15037593984962405,
      "sse": 0.4976833843184308
    },
    "in_valid_trace": {
      "number_of_samples": 15,
      "scale": 0.19047619047619044,
      "sse": 0.7678316934223647
    },
    "in_valid_trace_index": {
      "number_of_samples": 137,
      "scale": 0.020855057351407715,
      "sse": 0.014847406666521484
    }
  },
  "deviation_distributions_geom": {
    "all": {
      "number_of_samples": 19,
      "shape": 0.28253507498790514,
      "sse": 0.011454068798391254
    },
    "in_valid_trace": {
      "number_of_samples": 15,
      "shape": 0.214760147601476,
      "sse": 0.016172278860300614
    },
    "in_valid_trace_index": {
      "number_of_samples": 86,
      "shape": 0.029081556951382367,
      "sse": 0.0037204955700220563
    }
  },
  "frequencies_max": 330,
  "frequencies_mean": 5.347593582887701,
  "frequencies_median": 1.0,
  "frequencies_min": 1,
  "number_of_main_traces_80.0": 18,
  "number_of_trace_variants": 187
}