{
  "alpha": 14.49382490085823,
  "alpha_err": 7.790663438908175,
  "deviation_distributions": {
    "all": {
      "number_of_samples": 43,
      "scale": 0.025242491527404466,
      "sse": 0.059844787932666905
    },
    "in_valid_trace": {
      "number_of_samples": 273,
      "scale": 0.003975923573913523,
      "sse": 0.0
    },
    "in_valid_trace_index": {
      "number_of_samples": 2730,
      "scale": 0.0003975923573913524,
      "sse": 0.0
    }
  },
  "deviation_distributions_geom": {
    "all": {
      "number_of_samples": 66,
      "shape": 0.05605332167832168,
      "sse": 0.0007314147295721286
    },
    "in_valid_trace": {
      "number_of_samples": 50,
      "shape": 0.06418678605799406,
      "sse": 0.0008443896287320164
    },
    "in_valid_trace_index": {
      "number_of_samples": 353,
      "shape": 0.0077838031050554745,
      "sse": 0.0014044925982812251
    }
  },
  "frequencies_max": 7,
  "frequencies_mean": 1.8248175182481752,
  "frequencies_median": 1.0,
  "frequencies_min": 1,
  "number_of_main_traces_80.0": 348,
  "number_of_trace_variants": 548
}