{
  "alpha": 3.2781799275430954,
  "alpha_err": 1.3153077944294083,
  "deviation_distributions": {
    "all": {
      "number_of_samples": 4,
      "scale": 0.540983606557377,
      "sse": 1.7318933628918318
    },
    "in_valid_trace": {
      "number_of_samples": 1,
      "scale": 2.1639344262295084,
      "sse": NaN
    },
    "in_valid_trace_index": {
      "number_of_samples": 8,
      "scale": 0.2704918032786885,
      "sse": 1.2612103092363014
    }
  },
  "deviation_distributions_geom": {
    "all": {
      "number_of_samples": 4,
      "shape": 0.9295774647887325,
      "sse": 0.20346358241873946
    },
    "in_valid_trace": {
      "number_of_samples": 1,
      "shape": Infinity,
      "sse": 0.0
    },
    "in_valid_trace_index": {
      "number_of_samples": 2,
      "shape": 2.7887323943661975,
      "sse": NaN
    }
  },
  "frequencies_max": 492,
  "frequencies_mean": 250.0,
  "frequencies_median": 218.5,
  "frequencies_min": 71,
  "number_of_main_traces_80.0": 2,
  "number_of_trace_variants": 4
}