{
  "alpha": 1.5639621543285416,
  "alpha_err": 0.13292715455276202,
  "deviation_distributions": {
    "all": {
      "number_of_samples": 19,
      "scale": 0.0891868454405977,
      "sse": 0.34831794429545426
    },
    "in_valid_trace": {
      "number_of_samples": 3,
      "scale": 0.5648500211237852,
      "sse": 1.6632285723148605
    },
    "in_valid_trace_index": {
      "number_of_samples": 24,
      "scale": 0.07060625264047317,
      "sse": 0.3567658230532107
    }
  },
  "deviation_distributions_geom": {
    "all": {
      "number_of_samples": 19,
      "shape": 0.28132832080200504,
      "sse": 0.01099397428740816
    },
    "in_valid_trace": {
      "number_of_samples": 3,
      "shape": 1.2486033519553073,
      "sse": NaN
    },
    "in_valid_trace_index": {
      "number_of_samples": 15,
      "shape": 0.18576748034753826,
      "sse": 0.04405056266017563
    }
  },
  "frequencies_max": 491,
  "frequencies_mean": 47.61904761904762,
  "frequencies_median": 12.0,
  "frequencies_min": 1,
  "number_of_main_traces_80.0": 4,
  "number_of_trace_variants": 21
}