{
  "alpha": 2.5425665628824747,
  "alpha_err": 0.2118878130059276,
  "deviation_distributions": {
    "all": {
      "number_of_samples": 58,
      "scale": 0.02858045977011494,
      "sse": 0.020408721251267747
    },
    "in_valid_trace": {
      "number_of_samples": 99,
      "scale": 0.016744107744107745,
      "sse": 0.0012037380565489244
    },
    "in_valid_trace_index": {
      "number_of_samples": 747,
      "scale": 0.002219098616688978,
      "sse": 0.0
    }
  },
  "deviation_distributions_geom": {
    "all": {
      "number_of_samples": 53,
      "shape": 0.09783513738551207,
      "sse": 0.006657870581040062
    },
    "in_valid_trace": {
      "number_of_samples": 47,
      "shape": 0.08850560241722272,
      "sse": 0.0009727347107018205
    },
    "in_valid_trace_index": {
      "number_of_samples": 208,
      "shape": 0.014269001361692336,
      "sse": 0.0020971770827782747
    }
  },
  "frequencies_max": 57,
  "frequencies_mean": 3.067484662576687,
  "frequencies_median": 1.0,
  "frequencies_min": 1,
  "number_of_main_traces_80.0": 129,
  "number_of_trace_variants": 326
}