{
  "alpha": 1.364391177235834,
  "alpha_err": 0.25766347242800725,
  "deviation_distributions": {
    "all": {
      "number_of_samples": 147,
      "scale": 0.029326906642053802,
      "sse": 0.027904865638602727
    },
    "in_valid_trace": {
      "number_of_samples": 127,
      "scale": 0.03394531713686542,
      "sse": 0.008668633898030386
    },
    "in_valid_trace_index": {
      "number_of_samples": 2405,
      "scale": 0.0017925385764581746,
      "sse": 0.0
    }
  },
  "deviation_distributions_geom": {
    "all": {
      "number_of_samples": 100,
      "shape": 0.03836114991544739,
      "sse": 0.0005845757593631267
    },
    "in_valid_trace": {
      "number_of_samples": 47,
      "shape": 0.10954398205831048,
      "sse": 0.0012398174210429425
    },
    "in_valid_trace_index": {
      "number_of_samples": 494,
      "shape": 0.00680371601067066,
      "sse": 0.0010893079219919844
    }
  },
  "frequencies_max": 504,
  "frequencies_mean": 2.0661157024793386,
  "frequencies_median": 1.0,
  "frequencies_min": 1,
  "number_of_main_traces_80.0": 284,
  "number_of_trace_variants": 484
}