{
  "alpha": 2.394614477539133,
  "alpha_err": 0.12731030139524416,
  "deviation_distributions": {
    "all": {
      "number_of_samples": 35,
      "scale": 0.03899009268136785,
      "sse": 0.09699871909193883
    },
    "in_valid_trace": {
      "number_of_samples": 91,
      "scale": 0.014996189492833788,
      "sse": 0.0025378866006445914
    },
    "in_valid_trace_index": {
      "number_of_samples": 1055,
      "scale": 0.0012935101837420616,
      "sse": 0.0
    }
  },
  "deviation_distributions_geom": {
    "all": {
      "number_of_samples": 46,
      "shape": 0.09115243730628346,
      "sse": 0.000984413503828314
    },
    "in_valid_trace": {
      "number_of_samples": 43,
      "shape": 0.17264453961456103,
      "sse": 0.18139912291016103
    },
    "in_valid_trace_index": {
      "number_of_samples": 156,
      "shape": 0.03120803815344724,
      "sse": 0.020678066332295703
    }
  },
  "frequencies_max": 114,
  "frequencies_mean": 2.85,
  "frequencies_median": 1.0,
  "frequencies_min": 1,
  "number_of_main_traces_80.0": 115,
  "number_of_trace_variants": 260
}