{
  "alpha": 2.537135825515517,
  "alpha_err": 0.20726735242997674,
  "deviation_distributions": {
    "all": {
      "number_of_samples": 49,
      "scale": 0.04677298054900352,
      "sse": 0.07768919869058818
    },
    "in_valid_trace": {
      "number_of_samples": 19,
      "scale": 0.12062505510006172,
      "sse": 0.49741094671378383
    },
    "in_valid_trace_index": {
      "number_of_samples": 209,
      "scale": 0.01096591410000561,
      "sse": 0.01193007073127995
    }
  },
  "deviation_distributions_geom": {
    "all": {
      "number_of_samples": 49,
      "shape": 0.13195020746887967,
      "sse": 0.024367947440184567
    },
    "in_valid_trace": {
      "number_of_samples": 19,
      "shape": 0.25867861142217247,
      "sse": 0.003358749038374483
    },
    "in_valid_trace_index": {
      "number_of_samples": 99,
      "shape": 0.03799907507322337,
      "sse": 0.00837507188791898
    }
  },
  "frequencies_max": 492,
  "frequencies_mean": 5.347593582887701,
  "frequencies_median": 1.0,
  "frequencies_min": 1,
  "number_of_main_traces_80.0": 21,
  "number_of_trace_variants": 187
}