{
  "alpha": 2.0618252729108857,
  "alpha_err": 0.2837847411321623,
  "deviation_distributions": {
    "all": {
      "number_of_samples": 94,
      "scale": 0.07447254000498948,
      "sse": 0.387943287458134
    },
    "in_valid_trace": {
      "number_of_samples": 42,
      "scale": 0.1666766371540241,
      "sse": 0.6535511866911832
    },
    "in_valid_trace_index": {
      "number_of_samples": 1043,
      "scale": 0.006711810892108354,
      "sse": 0.001399961267064889
    }
  },
  "deviation_distributions_geom": {
    "all": {
      "number_of_samples": 100,
      "shape": 0.06026708289975719,
      "sse": 0.003406734261693268
    },
    "in_valid_trace": {
      "number_of_samples": 31,
      "shape": 0.4949389179755672,
      "sse": 0.026112018868640497
    },
    "in_valid_trace_index": {
      "number_of_samples": 198,
      "shape": 0.022961252885755287,
      "sse": 0.004688048520202991
    }
  },
  "frequencies_max": 507,
  "frequencies_mean": 3.802281368821293,
  "frequencies_median": 1.0,
  "frequencies_min": 1,
  "number_of_main_traces_80.0": 63,
  "number_of_trace_variants": 263
}