{
  "alpha": 25.059169195440422,
  "alpha_err": 12.029584597720211,
  "deviation_distributions": {
    "all": {
      "number_of_samples": 8,
      "scale": 0.23072429906542052,
      "sse": 1.3319521058367834
    },
    "in_valid_trace": {
      "number_of_samples": 11,
      "scale": 0.16779949022939675,
      "sse": 1.0811712718258653
    },
    "in_valid_trace_index": {
      "number_of_samples": 99,
      "scale": 0.01864438780326631,
      "sse": 0.037406462995411435
    }
  },
  "deviation_distributions_geom": {
    "all": {
      "number_of_samples": 8,
      "shape": 0.4714285714285715,
      "sse": 0.08986264404566104
    },
    "in_valid_trace": {
      "number_of_samples": 11,
      "shape": 0.2989536621823617,
      "sse": 0.021974431672819032
    },
    "in_valid_trace_index": {
      "number_of_samples": 42,
      "shape": 0.07528703180877093,
      "sse": 0.014018637804490485
    }
  },
  "frequencies_max": 95,
  "frequencies_mean": 28.571428571428573,
  "frequencies_median": 10.0,
  "frequencies_min": 1,
  "number_of_main_traces_80.0": 11,
  "number_of_trace_variants": 35
}