{
  "alpha": 3.5181864920682395,
  "alpha_err": 0.6107499348118212,
  "deviation_distributions": {
    "all": {
      "number_of_samples": 8,
      "scale": 0.1434948979591837,
      "sse": 1.1846104744972097
    },
    "in_valid_trace": {
      "number_of_samples": 6,
      "scale": 0.19132653061224492,
      "sse": 1.2340052030775757
    },
    "in_valid_trace_index": {
      "number_of_samples": 54,
      "scale": 0.021258503401360547,
      "sse": 0.1677240433677567
    }
  },
  "deviation_distributions_geom": {
    "all": {
      "number_of_samples": 8,
      "shape": 0.45617529880478086,
      "sse": 0.034944271648685445
    },
    "in_valid_trace": {
      "number_of_samples": 6,
      "shape": 0.5328638497652582,
      "sse": 0.09010938224407836
    },
    "in_valid_trace_index": {
      "number_of_samples": 12,
      "shape": 0.2087114337568058,
      "sse": 0.02439802600832918
    }
  },
  "frequencies_max": 92,
  "frequencies_mean": 55.55555555555556,
  "frequencies_median": 46.0,
  "frequencies_min": 29,
  "number_of_main_traces_80.0": 12,
  "number_of_trace_variants": 18
}