{
  "alpha": 2.4771211011830645,
  "alpha_err": 0.2496790366828277,
  "deviation_distributions": {
    "all": {
      "number_of_samples": 66,
      "scale": 0.064730216740267,
      "sse": 0.2326184144906048
    },
    "in_valid_trace": {
      "number_of_samples": 194,
      "scale": 0.022021620128132066,
      "sse": 0.003406911697345423
    },
    "in_valid_trace_index": {
      "number_of_samples": 4866,
      "scale": 0.000877968414479577,
      "sse": 0.0
    }
  },
  "deviation_distributions_geom": {
    "all": {
      "number_of_samples": 100,
      "shape": 0.07180563224737714,
      "sse": 0.010505667383907622
    },
    "in_valid_trace": {
      "number_of_samples": 38,
      "shape": 0.3593699428201532,
      "sse": 0.00941842734960396
    },
    "in_valid_trace_index": {
      "number_of_samples": 252,
      "shape": 0.02292903916084863,
      "sse": 0.005417652508527929
    }
  },
  "frequencies_max": 41,
  "frequencies_mean": 1.5797788309636651,
  "frequencies_median": 1.0,
  "frequencies_min": 1,
  "number_of_main_traces_80.0": 433,
  "number_of_trace_variants": 633
}