{
  "alpha": 1.8326042664294444,
  "alpha_err": 0.26329258714907133,
  "deviation_distributions": {
    "all": {
      "number_of_samples": 212,
      "scale": 0.04978903953730919,
      "sse": 0.3402723761705962
    },
    "in_valid_trace": {
      "number_of_samples": 130,
      "scale": 0.08119443370699651,
      "sse": 0.09787728762524756
    },
    "in_valid_trace_index": {
      "number_of_samples": 5454,
      "scale": 0.001935327536103694,
      "sse": 9.945434875751595e-05
    }
  },
  "deviation_distributions_geom": {
    "all": {
      "number_of_samples": 100,
      "shape": 0.05459524055969061,
      "sse": 0.0021548649122299793
    },
    "in_valid_trace": {
      "number_of_samples": 40,
      "shape": 0.26931053455792103,
      "sse": 0.011122980859741428
    },
    "in_valid_trace_index": {
      "number_of_samples": 440,
      "shape": 0.006710938326623443,
      "sse": 0.0024713051649594593
    }
  },
  "frequencies_max": 117,
  "frequencies_mean": 1.5060240963855422,
  "frequencies_median": 1.0,
  "frequencies_min": 1,
  "number_of_main_traces_80.0": 464,
  "number_of_trace_variants": 664
}