{
  "alpha": 1.5148289006343583,
  "alpha_err": 0.18201950339468498,
  "deviation_distributions": {
    "all": {
      "number_of_samples": 79,
      "scale": 0.019353488858667226,
      "sse": 0.08683720326995946
    },
    "in_valid_trace": {
      "number_of_samples": 1,
      "scale": 1.5289256198347108,
      "sse": NaN
    },
    "in_valid_trace_index": {
      "number_of_samples": 3,
      "scale": 0.509641873278237,
      "sse": 1.4656466437738551
    }
  },
  "deviation_distributions_geom": {
    "all": {
      "number_of_samples": 79,
      "shape": 0.0821127385707945,
      "sse": 0.034633333865019066
    },
    "in_valid_trace": {
      "number_of_samples": 1,
      "shape": Infinity,
      "sse": 0.0
    },
    "in_valid_trace_index": {
      "number_of_samples": 2,
      "shape": 1.5352697095435683,
      "sse": NaN
    }
  },
  "frequencies_max": 485,
  "frequencies_mean": 14.084507042253522,
  "frequencies_median": 1.0,
  "frequencies_min": 1,
  "number_of_main_traces_80.0": 2,
  "number_of_trace_variants": 71
}