{
  "alpha": 1.6125167591988196,
  "alpha_err": 0.10069713491984535,
  "deviation_distributions": {
    "all": {
      "number_of_samples": 28,
      "scale": 0.08481170245876127,
      "sse": 0.3193159035164278
    },
    "in_valid_trace": {
      "number_of_samples": 4,
      "scale": 0.5936819172113291,
      "sse": 1.566979549778132
    },
    "in_valid_trace_index": {
      "number_of_samples": 41,
      "scale": 0.05792018704500771,
      "sse": 0.576837338085609
    }
  },
  "deviation_distributions_geom": {
    "all": {
      "number_of_samples": 28,
      "shape": 0.22248803827751198,
      "sse": 0.004919370929288714
    },
    "in_valid_trace": {
      "number_of_samples": 4,
      "shape": 0.9758713136729223,
      "sse": 0.4363339265765577
    },
    "in_valid_trace_index": {
      "number_of_samples": 7,
      "shape": 0.4184720638540479,
      "sse": 0.0545297518182858
    }
  },
  "frequencies_max": 131,
  "frequencies_mean": 14.423076923076923,
  "frequencies_median": 3.0,
  "frequencies_min": 1,
  "number_of_main_traces_80.0": 10,
  "number_of_trace_variants": 52
}