{
  "alpha": 1.3913579926124349,
  "alpha_err": 0.10104819918620836,
  "deviation_distributions": {
    "all": {
      "number_of_samples": 8,
      "scale": 0.25102880658436216,
      "sse": 0.7401497944951969
    },
    "in_valid_trace": {
      "number_of_samples": 2,
      "scale": 1.0041152263374484,
      "sse": 1.8374871734982419
    },
    "in_valid_trace_index": {
      "number_of_samples": 28,
      "scale": 0.0717225161669606,
      "sse": 0.6933293008971875
    }
  },
  "deviation_distributions_geom": {
    "all": {
      "number_of_samples": 8,
      "shape": 1.0360934182590233,
      "sse": NaN
    },
    "in_valid_trace": {
      "number_of_samples": 2,
      "shape": 2.0854700854700856,
      "sse": NaN
    },
    "in_valid_trace_index": {
      "number_of_samples": 2,
      "shape": 2.0854700854700856,
      "sse": NaN
    }
  },
  "frequencies_max": 475,
  "frequencies_mean": 62.5,
  "frequencies_median": 13.5,
  "frequencies_min": 1,
  "number_of_main_traces_80.0": 3,
  "number_of_trace_variants": 16
}