{
  "alpha": 1.890551911255677,
  "alpha_err": 0.24699465996113845,
  "deviation_distributions": {
    "all": {
      "number_of_samples": 10,
      "scale": 0.15155555555555553,
      "sse": 1.1794052105100163
    },
    "in_valid_trace": {
      "number_of_samples": 4,
      "scale": 0.3788888888888889,
      "sse": 1.2314119800360983
    },
    "in_valid_trace_index": {
      "number_of_samples": 32,
      "scale": 0.04736111111111111,
      "sse": 0.4513740780753435
    }
  },
  "deviation_distributions_geom": {
    "all": {
      "number_of_samples": 10,
      "shape": 0.45956873315363883,
      "sse": 0.018436701703947844
    },
    "in_valid_trace": {
      "number_of_samples": 4,
      "shape": 2.0297619047619047,
      "sse": NaN
    },
    "in_valid_trace_index": {
      "number_of_samples": 8,
      "shape": 0.3702497285559175,
      "sse": 0.1375410508558507
    }
  },
  "frequencies_max": 211,
  "frequencies_mean": 66.66666666666667,
  "frequencies_median": 47.0,
  "frequencies_min": 4,
  "number_of_main_traces_80.0": 6,
  "number_of_trace_variants": 15
}