{
  "alpha": 1.6996482523174021,
  "alpha_err": 0.10547594264385117,
  "deviation_distributions": {
    "all": {
      "number_of_samples": 24,
      "scale": 0.06165722761596548,
      "sse": 0.10606427978296834
    },
    "in_valid_trace": {
      "number_of_samples": 13,
      "scale": 0.11382872790639781,
      "sse": 0.4583775761704815
    },
    "in_valid_trace_index": {
      "number_of_samples": 125,
      "scale": 0.011838187702265373,
      "sse": 0.014328916468803613
    }
  },
  "deviation_distributions_geom": {
    "all": {
      "number_of_samples": 24,
      "shape": 0.18386714116251485,
      "sse": 0.003951026774705825
    },
    "in_valid_trace": {
      "number_of_samples": 13,
      "shape": 0.27000879507475817,
      "sse": 0.01573602433522633
    },
    "in_valid_trace_index": {
      "number_of_samples": 51,
      "shape": 0.05369928400954654,
      "sse": 0.010754622333972752
    }
  },
  "frequencies_max": 251,
  "frequencies_mean": 15.384615384615385,
  "frequencies_median": 4.0,
  "frequencies_min": 1,
  "number_of_main_traces_80.0": 15,
  "number_of_trace_variants": 65
}