{
  "alpha": 1.876487382951824,
  "alpha_err": 0.10707997656053644,
  "deviation_distributions": {
    "all": {
      "number_of_samples": 26,
      "scale": 0.07517628205128207,
      "sse": 0.20208761024985122
    },
    "in_valid_trace": {
      "number_of_samples": 18,
      "scale": 0.10858796296296296,
      "sse": 0.5766600603567205
    },
    "in_valid_trace_index": {
      "number_of_samples": 242,
      "scale": 0.008076790633608815,
      "sse": 0.0018522232294403054
    }
  },
  "deviation_distributions_geom": {
    "all": {
      "number_of_samples": 26,
      "shape": 0.18835133865664633,
      "sse": 0.00491159579547498
    },
    "in_valid_trace": {
      "number_of_samples": 18,
      "shape": 0.19751243781094527,
      "sse": 0.009362506539272269
    },
    "in_valid_trace_index": {
      "number_of_samples": 93,
      "shape": 0.02909637319855201,
      "sse": 0.0068265586628056445
    }
  },
  "frequencies_max": 351,
  "frequencies_mean": 7.299270072992701,
  "frequencies_median": 1.0,
  "frequencies_min": 1,
  "number_of_main_traces_80.0": 23,
  "number_of_trace_variants": 137
}