{
  "alpha": 2.24390838502319,
  "alpha_err": 0.16622424990328796,
  "deviation_distributions": {
    "all": {
      "number_of_samples": 60,
      "scale": 0.04956728084868788,
      "sse": 0.10266195388422208
    },
    "in_valid_trace": {
      "number_of_samples": 32,
      "scale": 0.09293865159128978,
      "sse": 0.4007803548683185
    },
    "in_valid_trace_index": {
      "number_of_samples": 483,
      "scale": 0.006157426192383588,
      "sse": 0.001038901111840589
    }
  },
  "deviation_distributions_geom": {
    "all": {
      "number_of_samples": 60,
      "shape": 0.08184764991896272,
      "sse": 0.0035784754493939966
    },
    "in_valid_trace": {
      "number_of_samples": 32,
      "shape": 0.2448979591836735,
      "sse": 0.009421706900769723
    },
    "in_valid_trace_index": {
      "number_of_samples": 105,
      "shape": 0.03530501215418451,
      "sse": 0.011541407265595927
    }
  },
  "frequencies_max": 491,
  "frequencies_mean": 5.2356020942408374,
  "frequencies_median": 1.0,
  "frequencies_min": 1,
  "number_of_main_traces_80.0": 45,
  "number_of_trace_variants": 191
}