{
  "alpha": 2.538466796651109,
  "alpha_err": 0.3440116338438226,
  "deviation_distributions": {
    "all": {
      "number_of_samples": 22,
      "scale": 0.057659932659932654,
      "sse": 0.32710752858067815
    },
    "in_valid_trace": {
      "number_of_samples": 9,
      "scale": 0.14094650205761317,
      "sse": 0.6587696631392456
    },
    "in_valid_trace_index": {
      "number_of_samples": 81,
      "scale": 0.015660722450845908,
      "sse": 0.018925002390365625
    }
  },
  "deviation_distributions_geom": {
    "all": {
      "number_of_samples": 22,
      "shape": 0.14790996784565916,
      "sse": 0.004208703272925532
    },
    "in_valid_trace": {
      "number_of_samples": 9,
      "shape": 0.5287356321839081,
      "sse": 0.042125041940234975
    },
    "in_valid_trace_index": {
      "number_of_samples": 28,
      "shape": 0.09372892784895481,
      "sse": 0.02065269761683391
    }
  },
  "frequencies_max": 497,
  "frequencies_mean": 27.77777777777778,
  "frequencies_median": 13.0,
  "frequencies_min": 1,
  "number_of_main_traces_80.0": 11,
  "number_of_trace_variants": 36
}