{
  "alpha": 1.920821224790819,
  "alpha_err": 0.14208579970141985,
  "deviation_distributions": {
    "all": {
      "number_of_samples": 25,
      "scale": 0.053207547169811326,
      "sse": 0.10867700500510265
    },
    "in_valid_trace": {
      "number_of_samples": 16,
      "scale": 0.08313679245283018,
      "sse": 0.28972773090326265
    },
    "in_valid_trace_index": {
      "number_of_samples": 160,
      "scale": 0.008313679245283019,
      "sse": 0.0021667291518139785
    }
  },
  "deviation_distributions_geom": {
    "all": {
      "number_of_samples": 25,
      "shape": 0.1722488038277512,
      "sse": 0.002176943467105224
    },
    "in_valid_trace": {
      "number_of_samples": 16,
      "shape": 0.3637515842839037,
      "sse": 0.0071675363010115425
    },
    "in_valid_trace_index": {
      "number_of_samples": 37,
      "shape": 0.08502611723737667,
      "sse": 0.01560126300703212
    }
  },
  "frequencies_max": 81,
  "frequencies_mean": 18.867924528301888,
  "frequencies_median": 10.0,
  "frequencies_min": 1,
  "number_of_main_traces_80.0": 21,
  "number_of_trace_variants": 53
}