{
  "alpha": 1.8878596529169744,
  "alpha_err": 0.25630300480711143,
  "deviation_distributions": {
    "all": {
      "number_of_samples": 8,
      "scale": 0.2108695652173913,
      "sse": 1.2956604442677409
    },
    "in_valid_trace": {
      "number_of_samples": 2,
      "scale": 0.8434782608695652,
      "sse": 1.662803552186409
    },
    "in_valid_trace_index": {
      "number_of_samples": 12,
      "scale": 0.14057971014492754,
      "sse": 0.8781761355209841
    }
  },
  "deviation_distributions_geom": {
    "all": {
      "number_of_samples": 8,
      "shape": 0.38415841584158417,
      "sse": 0.05126050999234012
    },
    "in_valid_trace": {
      "number_of_samples": 2,
      "shape": 7.185185185185185,
      "sse": NaN
    },
    "in_valid_trace_index": {
      "number_of_samples": 5,
      "shape": 0.7252336448598131,
      "sse": 0.21054299498243212
    }
  },
  "frequencies_max": 499,
  "frequencies_mean": 76.92307692307692,
  "frequencies_median": 32.0,
  "frequencies_min": 10,
  "number_of_main_traces_80.0": 4,
  "number_of_trace_variants": 13
}