{
  "alpha": 2.113724558055552,
  "alpha_err": 0.08324368183503603,
  "deviation_distributions": {
    "all": {
      "number_of_samples": 65,
      "scale": 0.02101361508396684,
      "sse": 0.008562326870408534
    },
    "in_valid_trace": {
      "number_of_samples": 109,
      "scale": 0.012531054866585732,
      "sse": 0.006592090158831317
    },
    "in_valid_trace_index": {
      "number_of_samples": 1154,
      "scale": 0.0011836091685076644,
      "sse": 0.0
    }
  },
  "deviation_distributions_geom": {
    "all": {
      "number_of_samples": 58,
      "shape": 0.10762554246745194,
      "sse": 0.023489187570073317
    },
    "in_valid_trace": {
      "number_of_samples": 49,
      "shape": 0.08232606833539545,
      "sse": 0.0013152893096195126
    },
    "in_valid_trace_index": {
      "number_of_samples": 215,
      "shape": 0.013532732204383842,
      "sse": 0.0018706847412984684
    }
  },
  "frequencies_max": 25,
  "frequencies_mean": 3.194888178913738,
  "frequencies_median": 2.0,
  "frequencies_min": 1,
  "number_of_main_traces_80.0": 146,
  "number_of_trace_variants": 313
}