{
  "alpha": 2.829115100943734,
  "alpha_err": 0.22346197554602312,
  "deviation_distributions": {
    "all": {
      "number_of_samples": 50,
      "scale": 0.034783333333333326,
      "sse": 0.04728118137843672
    },
    "in_valid_trace": {
      "number_of_samples": 78,
      "scale": 0.022297008547008543,
      "sse": 0.13347172658523512
    },
    "in_valid_trace_index": {
      "number_of_samples": 685,
      "scale": 0.002538929440389294,
      "sse": 0.0005800286117357979
    }
  },
  "deviation_distributions_geom": {
    "all": {
      "number_of_samples": 63,
      "shape": 0.05876629694493092,
      "sse": 0.001209083553436207
    },
    "in_valid_trace": {
      "number_of_samples": 47,
      "shape": 0.14907453726863432,
      "sse": 0.07004680692434091
    },
    "in_valid_trace_index": {
      "number_of_samples": 177,
      "shape": 0.024589844511125832,
      "sse": 0.014409654708538838
    }
  },
  "frequencies_max": 484,
  "frequencies_mean": 3.9682539682539684,
  "frequencies_median": 1.0,
  "frequencies_min": 1,
  "number_of_main_traces_80.0": 84,
  "number_of_trace_variants": 252
}