{
  "alpha": 2.175407497053293,
  "alpha_err": 0.25649494417453805,
  "deviation_distributions": {
    "all": {
      "number_of_samples": 68,
      "scale": 0.03803453542220908,
      "sse": 0.10136084802669543
    },
    "in_valid_trace": {
      "number_of_samples": 129,
      "scale": 0.020049212470621844,
      "sse": 0.013335194334250232
    },
    "in_valid_trace_index": {
      "number_of_samples": 2675,
      "scale": 0.0009668592182094272,
      "sse": 0.0
    }
  },
  "deviation_distributions_geom": {
    "all": {
      "number_of_samples": 91,
      "shape": 0.11262230240788286,
      "sse": 0.0050486265447379835
    },
    "in_valid_trace": {
      "number_of_samples": 48,
      "shape": 0.13189409368635438,
      "sse": 0.013549015220243713
    },
    "in_valid_trace_index": {
      "number_of_samples": 291,
      "shape": 0.012679420325471735,
      "sse": 0.003985754583195617
    }
  },
  "frequencies_max": 66,
  "frequencies_mean": 1.8518518518518519,
  "frequencies_median": 1.0,
  "frequencies_min": 1,
  "number_of_main_traces_80.0": 340,
  "number_of_trace_variants": 540
}