{
  "alpha": 4.044493792295788,
  "alpha_err": 0.5074156320492981,
  "deviation_distributions": {
    "all": {
      "number_of_samples": 89,
      "scale": 0.02855381777802872,
      "sse": 0.03338588893765849
    },
    "in_valid_trace": {
      "number_of_samples": 197,
      "scale": 0.012899948133221095,
      "sse": 0.002958877088517336
    },
    "in_valid_trace_index": {
      "number_of_samples": 3152,
      "scale": 0.0008062467583263186,
      "sse": 0.0
    }
  },
  "deviation_distributions_geom": {
    "all": {
      "number_of_samples": 100,
      "shape": 0.05018609272638475,
      "sse": 0.0009156022084544782
    },
    "in_valid_trace": {
      "number_of_samples": 50,
      "shape": 0.08867038973384031,
      "sse": 0.0016018459923457112
    },
    "in_valid_trace_index": {
      "number_of_samples": 477,
      "shape": 0.007379098887804788,
      "sse": 0.0018545883503462328
    }
  },
  "frequencies_max": 6,
  "frequencies_mean": 1.2391573729863692,
  "frequencies_median": 1.0,
  "frequencies_min": 1,
  "number_of_main_traces_80.0": 607,
  "number_of_trace_variants": 807
}