{
  "alpha": 2.397699129330312,
  "alpha_err": 0.2979904556228355,
  "deviation_distributions": {
    "all": {
      "number_of_samples": 53,
      "scale": 0.045754716981132065,
      "sse": 0.11156521507279185
    },
    "in_valid_trace": {
      "number_of_samples": 16,
      "scale": 0.15156250000000002,
      "sse": 0.63093536683592
    },
    "in_valid_trace_index": {
      "number_of_samples": 172,
      "scale": 0.014098837209302325,
      "sse": 0.002274358806118434
    }
  },
  "deviation_distributions_geom": {
    "all": {
      "number_of_samples": 53,
      "shape": 0.09335560504825538,
      "sse": 0.0005659656021005773
    },
    "in_valid_trace": {
      "number_of_samples": 16,
      "shape": 0.21175453759723423,
      "sse": 0.017396105970469505
    },
    "in_valid_trace_index": {
      "number_of_samples": 78,
      "shape": 0.03205458290422245,
      "sse": 0.006560412362244455
    }
  },
  "frequencies_max": 502,
  "frequencies_mean": 8.547008547008547,
  "frequencies_median": 2.0,
  "frequencies_min": 1,
  "number_of_main_traces_80.0": 22,
  "number_of_trace_variants": 117
}