{
  "alpha": 8.965014664162062,
  "alpha_err": 3.982507332081031,
  "deviation_distributions": {
    "all": {
      "number_of_samples": 61,
      "scale": 0.03347818326605707,
      "sse": 0.11382760565619357
    },
    "in_valid_trace": {
      "number_of_samples": 210,
      "scale": 0.009724615139188002,
      "sse": 1.535591963126789e-05
    },
    "in_valid_trace_index": {
      "number_of_samples": 2736,
      "scale": 0.000746406863753465,
      "sse": 0.0
    }
  },
  "deviation_distributions_geom": {
    "all": {
      "number_of_samples": 100,
      "shape": 0.06713860149268074,
      "sse": 0.029838744781622895
    },
    "in_valid_trace": {
      "number_of_samples": 50,
      "shape": 0.06337963669668753,
      "sse": 0.0021528872540210685
    },
    "in_valid_trace_index": {
      "number_of_samples": 412,
      "shape": 0.006780513075171122,
      "sse": 0.001856896612871843
    }
  },
  "frequencies_max": 7,
  "frequencies_mean": 1.3550135501355014,
  "frequencies_median": 1.0,
  "frequencies_min": 1,
  "number_of_main_traces_80.0": 538,
  "number_of_trace_variants": 738
}