{
  "alpha": 2.630037866128381,
  "alpha_err": 0.4075094665320953,
  "deviation_distributions": {
    "all": {
      "number_of_samples": 89,
      "scale": 0.041579620951197944,
      "sse": 0.1251663640199289
    },
    "in_valid_trace": {
      "number_of_samples": 188,
      "scale": 0.01968396949285434,
      "sse": 0.007079633537755223
    },
    "in_valid_trace_index": {
      "number_of_samples": 4552,
      "scale": 0.0008129583182461812,
      "sse": 0.0
    }
  },
  "deviation_distributions_geom": {
    "all": {
      "number_of_samples": 100,
      "shape": 0.04916564594939876,
      "sse": 0.002133534875682144
    },
    "in_valid_trace": {
      "number_of_samples": 47,
      "shape": 0.15195657267827853,
      "sse": 0.01477647377677597
    },
    "in_valid_trace_index": {
      "number_of_samples": 446,
      "shape": 0.0095794943914926,
      "sse": 0.0038487771973524662
    }
  },
  "frequencies_max": 16,
  "frequencies_mean": 1.2106537530266344,
  "frequencies_median": 1.0,
  "frequencies_min": 1,
  "number_of_main_traces_80.0": 626,
  "number_of_trace_variants": 826
}