{
  "alpha": 10.4912215810299,
  "alpha_err": 6.711307141690346,
  "deviation_distributions": {
    "all": {
      "number_of_samples": 157,
      "scale": 0.031035218555623127,
      "sse": 0.08567379825397552
    },
    "in_valid_trace": {
      "number_of_samples": 211,
      "scale": 0.023092555986885456,
      "sse": 0.0095810987061
    },
    "in_valid_trace_index": {
      "number_of_samples": 2923,
      "scale": 0.0016669617903636092,
      "sse": 0.0
    }
  },
  "deviation_distributions_geom": {
    "all": {
      "number_of_samples": 100,
      "shape": 0.04775235962246041,
      "sse": 0.0031466338182579586
    },
    "in_valid_trace": {
      "number_of_samples": 50,
      "shape": 0.07452018794298002,
      "sse": 0.011150150225061687
    },
    "in_valid_trace_index": {
      "number_of_samples": 396,
      "shape": 0.00848318635064848,
      "sse": 0.0018692403262853506
    }
  },
  "frequencies_max": 5,
  "frequencies_mean": 1.1441647597254005,
  "frequencies_median": 1.0,
  "frequencies_min": 1,
  "number_of_main_traces_80.0": 674,
  "number_of_trace_variants": 874
}