{
  "alpha": 534.4998437987613,
  "alpha_err": 377.2413573120679,
  "deviation_distributions_geom": {
    "all": {
      "number_of_samples": 1,
      "shape": Infinity,
      "sse": 0.0
    },
    "in_valid_trace": {
      "number_of_samples": 1,
      "shape": Infinity,
      "sse": 0.0
    },
    "in_valid_trace_index": {
      "number_of_samples": 1,
      "shape": Infinity,
      "sse": 0.0
    }
  },
  "frequencies_max": 267,
  "frequencies_mean": 250.0,
  "frequencies_median": 250.0,
  "frequencies_min": 233,
  "number_of_main_traces_80.0": 3,
  "number_of_trace_variants": 4
}