{
  "alpha": 1.3570090949294622,
  "alpha_err": 0.14574835268500394,
  "deviation_distributions": {
    "all": {
      "number_of_samples": 166,
      "scale": 0.031013501241145488,
      "sse": 0.016826487787479555
    },
    "in_valid_trace": {
      "number_of_samples": 130,
      "scale": 0.03960185543100116,
      "sse": 0.13124441357352862
    },
    "in_valid_trace_index": {
      "number_of_samples": 2296,
      "scale": 0.0022422653336368254,
      "sse": 0.0
    }
  },
  "deviation_distributions_geom": {
    "all": {
      "number_of_samples": 100,
      "shape": 0.039109074850960476,
      "sse": 0.00034110052016312383
    },
    "in_valid_trace": {
      "number_of_samples": 41,
      "shape": 0.14913541328635668,
      "sse": 0.010801231276383834
    },
    "in_valid_trace_index": {
      "number_of_samples": 490,
      "shape": 0.009313466861155705,
      "sse": 0.002369083810741854
    }
  },
  "frequencies_max": 253,
  "frequencies_mean": 2.0408163265306123,
  "frequencies_median": 1.0,
  "frequencies_min": 1,
  "number_of_main_traces_80.0": 290,
  "number_of_trace_variants": 490
}