{
  "alpha": 7.391579951691469,
  "alpha_err": 2.6093515886411427,
  "deviation_distributions": {
    "all": {
      "number_of_samples": 86,
      "scale": 0.06092477893342682,
      "sse": 0.36812895739415247
    },
    "in_valid_trace": {
      "number_of_samples": 132,
      "scale": 0.039693416577838696,
      "sse": 0.13555369534301062
    },
    "in_valid_trace_index": {
      "number_of_samples": 3184,
      "scale": 0.001645581340538539,
      "sse": 6.773600810351058e-05
    }
  },
  "deviation_distributions_geom": {
    "all": {
      "number_of_samples": 100,
      "shape": 0.048801489411217126,
      "sse": 0.001164601341913954
    },
    "in_valid_trace": {
      "number_of_samples": 30,
      "shape": 0.0959625511995319,
      "sse": 0.0030576944394366252
    },
    "in_valid_trace_index": {
      "number_of_samples": 450,
      "shape": 0.005944645917987513,
      "sse": 0.0008893328721152261
    }
  },
  "frequencies_max": 48,
  "frequencies_mean": 2.277904328018223,
  "frequencies_median": 1.0,
  "frequencies_min": 1,
  "number_of_main_traces_80.0": 239,
  "number_of_trace_variants": 439
}