{
  "alpha": 22.92199151899389,
  "alpha_err": 8.285733971789275,
  "deviation_distributions": {
    "all": {
      "number_of_samples": 5,
      "scale": 0.2971428571428572,
      "sse": 1.5773000849700545
    },
    "in_valid_trace": {
      "number_of_samples": 7,
      "scale": 0.21224489795918372,
      "sse": 1.5879010466988792
    },
    "in_valid_trace_index": {
      "number_of_samples": 48,
      "scale": 0.030952380952380953,
      "sse": 0.30046857180475933
    }
  },
  "deviation_distributions_geom": {
    "all": {
      "number_of_samples": 5,
      "shape": 0.7545126353790614,
      "sse": 0.19830645082259163
    },
    "in_valid_trace": {
      "number_of_samples": 7,
      "shape": 0.37931034482758624,
      "sse": 0.058494348313005984
    },
    "in_valid_trace_index": {
      "number_of_samples": 7,
      "shape": 0.37931034482758624,
      "sse": 0.058494348313005984
    }
  },
  "frequencies_max": 105,
  "frequencies_mean": 83.33333333333333,
  "frequencies_median": 87.5,
  "frequencies_min": 68,
  "number_of_main_traces_80.0": 9,
  "number_of_trace_variants": 12
}