{
  "alpha": 2.154354698286958,
  "alpha_err": 0.27208401168441976,
  "deviation_distributions": {
    "all": {
      "number_of_samples": 124,
      "scale": 0.024406305722159183,
      "sse": 0.07087376417467182
    },
    "in_valid_trace": {
      "number_of_samples": 170,
      "scale": 0.017802246526751404,
      "sse": 0.004117913084660933
    },
    "in_valid_trace_index": {
      "number_of_samples": 2483,
      "scale": 0.0012188408818154407,
      "sse": 0.0
    }
  },
  "deviation_distributions_geom": {
    "all": {
      "number_of_samples": 100,
      "shape": 0.06080395472876284,
      "sse": 0.004692992399767542
    },
    "in_valid_trace": {
      "number_of_samples": 50,
      "shape": 0.07702448210922787,
      "sse": 0.008731846423269544
    },
    "in_valid_trace_index": {
      "number_of_samples": 383,
      "shape": 0.008476572478841744,
      "sse": 0.001726297272551834
    }
  },
  "frequencies_max": 24,
  "frequencies_mean": 1.358695652173913,
  "frequencies_median": 1.0,
  "frequencies_min": 1,
  "number_of_main_traces_80.0": 536,
  "number_of_trace_variants": 736
}