{
  "alpha": 6.363805040270607,
  "alpha_err": 3.792782916937928,
  "deviation_distributions": {
    "all": {
      "number_of_samples": 4,
      "scale": 0.5976676384839651,
      "sse": 1.7597412337030507
    },
    "in_valid_trace": {
      "number_of_samples": 1,
      "scale": 2.39067055393586,
      "sse": NaN
    },
    "in_valid_trace_index": {
      "number_of_samples": 8,
      "scale": 0.2988338192419825,
      "sse": 1.296351957129461
    }
  },
  "deviation_distributions_geom": {
    "all": {
      "number_of_samples": 4,
      "shape": 0.8595387840670861,
      "sse": 0.18037347888030955
    },
    "in_valid_trace": {
      "number_of_samples": 1,
      "shape": Infinity,
      "sse": 0.0
    },
    "in_valid_trace_index": {
      "number_of_samples": 2,
      "shape": 2.5786163522012577,
      "sse": NaN
    }
  },
  "frequencies_max": 498,
  "frequencies_mean": 333.3333333333333,
  "frequencies_median": 343.0,
  "frequencies_min": 159,
  "number_of_main_traces_80.0": 1,
  "number_of_trace_variants": 3
}