{
  "alpha": 2.0138451137566262,
  "alpha_err": 0.20695026724314172,
  "deviation_distributions": {
    "all": {
      "number_of_samples": 53,
      "scale": 0.03263961316014032,
      "sse": 0.045733611644333864
    },
    "in_valid_trace": {
      "number_of_samples": 25,
      "scale": 0.0691959798994975,
      "sse": 0.0852970899659701
    },
    "in_valid_trace_index": {
      "number_of_samples": 227,
      "scale": 0.007620702632103248,
      "sse": 0.00041559771860070544
    }
  },
  "deviation_distributions_geom": {
    "all": {
      "number_of_samples": 53,
      "shape": 0.10553783705421863,
      "sse": 0.007549921932236153
    },
    "in_valid_trace": {
      "number_of_samples": 25,
      "shape": 0.16324626865671643,
      "sse": 0.01571435777910422
    },
    "in_valid_trace_index": {
      "number_of_samples": 104,
      "shape": 0.029275202644211854,
      "sse": 0.010402433868292827
    }
  },
  "frequencies_max": 488,
  "frequencies_mean": 6.451612903225806,
  "frequencies_median": 2.0,
  "frequencies_min": 1,
  "number_of_main_traces_80.0": 30,
  "number_of_trace_variants": 155
}