{
  "alpha": 1.5891903981707736,
  "alpha_err": 0.20831026297827798,
  "deviation_distributions": {
    "all": {
      "number_of_samples": 5,
      "scale": 0.33092105263157895,
      "sse": 1.6164311889750886
    },
    "in_valid_trace": {
      "number_of_samples": 3,
      "scale": 0.5515350877192982,
      "sse": 1.4562923123470766
    },
    "in_valid_trace_index": {
      "number_of_samples": 29,
      "scale": 0.05705535390199637,
      "sse": 0.48517618813646785
    }
  },
  "deviation_distributions_geom": {
    "all": {
      "number_of_samples": 5,
      "shape": 0.6225247524752475,
      "sse": 0.10937497372957912
    },
    "in_valid_trace": {
      "number_of_samples": 3,
      "shape": 3.266233766233766,
      "sse": NaN
    },
    "in_valid_trace_index": {
      "number_of_samples": 7,
      "shape": 0.7786377708978328,
      "sse": 0.11287808041273882
    }
  },
  "frequencies_max": 251,
  "frequencies_mean": 125.0,
  "frequencies_median": 113.5,
  "frequencies_min": 15,
  "number_of_main_traces_80.0": 3,
  "number_of_trace_variants": 8
}