{
  "alpha": 3.756602704743402,
  "alpha_err": 1.378301352371701,
  "deviation_distributions": {
    "all": {
      "number_of_samples": 108,
      "scale": 0.03036401141510019,
      "sse": 0.022080440778928238
    },
    "in_valid_trace": {
      "number_of_samples": 192,
      "scale": 0.017079756420993856,
      "sse": 0.017877937437201938
    },
    "in_valid_trace_index": {
      "number_of_samples": 3866,
      "scale": 0.000848244498921578,
      "sse": 0.0
    }
  },
  "deviation_distributions_geom": {
    "all": {
      "number_of_samples": 100,
      "shape": 0.0441251656389228,
      "sse": 0.007031493020609189
    },
    "in_valid_trace": {
      "number_of_samples": 50,
      "shape": 0.13874272192296916,
      "sse": 0.015515228788157254
    },
    "in_valid_trace_index": {
      "number_of_samples": 549,
      "shape": 0.00851194110022751,
      "sse": 0.003514862740363523
    }
  },
  "frequencies_max": 10,
  "frequencies_mean": 1.152073732718894,
  "frequencies_median": 1.0,
  "frequencies_min": 1,
  "number_of_main_traces_80.0": 668,
  "number_of_trace_variants": 868
}