{
  "alpha": 1.5122428673225534,
  "alpha_err": 0.09352232445122947,
  "deviation_distributions": {
    "all": {
      "number_of_samples": 33,
      "scale": 0.09978858350951372,
      "sse": 0.5463448475814634
    },
    "in_valid_trace": {
      "number_of_samples": 4,
      "scale": 0.8232558139534885,
      "sse": 1.6893395143478371
    },
    "in_valid_trace_index": {
      "number_of_samples": 44,
      "scale": 0.0748414376321353,
      "sse": 0.6393358688924029
    }
  },
  "deviation_distributions_geom": {
    "all": {
      "number_of_samples": 33,
      "shape": 0.1773715415019763,
      "sse": 0.004575689771327485
    },
    "in_valid_trace": {
      "number_of_samples": 4,
      "shape": 0.7227319062181448,
      "sse": 0.20287431776421905
    },
    "in_valid_trace_index": {
      "number_of_samples": 16,
      "shape": 0.13642486049644026,
      "sse": 0.030644392261148058
    }
  },
  "frequencies_max": 167,
  "frequencies_mean": 21.73913043478261,
  "frequencies_median": 3.0,
  "frequencies_min": 1,
  "number_of_main_traces_80.0": 6,
  "number_of_trace_variants": 46
}