{
  "alpha": 1.9728973999409596,
  "alpha_err": 0.16444967539488264,
  "deviation_distributions_geom": {
    "all": {
      "number_of_samples": 100,
      "shape": 0.053641238540044975,
      "sse": 0.0034380587956167386
    },
    "in_valid_trace": {
      "number_of_samples": 50,
      "shape": 0.08606340118744699,
      "sse": 0.029182247043412473
    },
    "in_valid_trace_index": {
      "number_of_samples": 614,
      "shape": 0.006010953918362041,
      "sse": 0.00447063344984752
    }
  },
  "frequencies_max": 63,
  "frequencies_mean": 1.6313213703099512,
  "frequencies_median": 1.0,
  "frequencies_min": 1,
  "number_of_main_traces_80.0": 413,
  "number_of_trace_variants": 613
}