{
  "alpha": 18.05818723922123,
  "alpha_err": 6.963975778824551,
  "deviation_distributions_geom": {
    "all": {
      "number_of_samples": 45,
      "shape": 0.2532714225411566,
      "sse": 0.04168151435854508
    },
    "in_valid_trace": {
      "number_of_samples": 50,
      "shape": 0.05218488857938718,
      "sse": 0.001978777271839788
    },
    "in_valid_trace_index": {
      "number_of_samples": 367,
      "shape": 0.0067242690118560836,
      "sse": 0.0012613616812903474
    }
  },
  "frequencies_max": 16,
  "frequencies_mean": 1.858736059479554,
  "frequencies_median": 1.0,
  "frequencies_min": 1,
  "number_of_main_traces_80.0": 338,
  "number_of_trace_variants": 538
}