{
  "alpha": 1.461078486244694,
  "alpha_err": 0.08713564353468398,
  "deviation_distributions": {
    "all": {
      "number_of_samples": 13,
      "scale": 0.159919028340081,
      "sse": 0.5110707949665486
    },
    "in_valid_trace": {
      "number_of_samples": 3,
      "scale": 0.6929824561403509,
      "sse": 1.5768632964532106
    },
    "in_valid_trace_index": {
      "number_of_samples": 34,
      "scale": 0.06114551083591331,
      "sse": 0.5779903536135134
    }
  },
  "deviation_distributions_geom": {
    "all": {
      "number_of_samples": 13,
      "shape": 0.4122731201382887,
      "sse": 0.0491862458770148
    },
    "in_valid_trace": {
      "number_of_samples": 3,
      "shape": 2.3582089552238807,
      "sse": NaN
    },
    "in_valid_trace_index": {
      "number_of_samples": 5,
      "shape": 0.6236842105263158,
      "sse": 0.3603313685793188
    }
  },
  "frequencies_max": 241,
  "frequencies_mean": 30.303030303030305,
  "frequencies_median": 8.0,
  "frequencies_min": 1,
  "number_of_main_traces_80.0": 7,
  "number_of_trace_variants": 33
}