{
  "alpha": 1.3450941065359188,
  "alpha_err": 0.06901882130718376,
  "deviation_distributions": {
    "all": {
      "number_of_samples": 9,
      "scale": 0.14499252615844546,
      "sse": 0.7946751894831314
    },
    "in_valid_trace": {
      "number_of_samples": 4,
      "scale": 0.3262331838565022,
      "sse": 1.3838728012376829
    },
    "in_valid_trace_index": {
      "number_of_samples": 31,
      "scale": 0.04209460436858094,
      "sse": 0.2933047793576288
    }
  },
  "deviation_distributions_geom": {
    "all": {
      "number_of_samples": 9,
      "shape": 0.4940577249575552,
      "sse": 0.05974816546495958
    },
    "in_valid_trace": {
      "number_of_samples": 4,
      "shape": 1.1102661596958174,
      "sse": NaN
    },
    "in_valid_trace_index": {
      "number_of_samples": 9,
      "shape": 0.3318181818181818,
      "sse": 0.08525458993344774
    }
  },
  "frequencies_max": 330,
  "frequencies_mean": 40.0,
  "frequencies_median": 10.0,
  "frequencies_min": 1,
  "number_of_main_traces_80.0": 5,
  "number_of_trace_variants": 25
}