{
  "alpha": 2.314556034756408,
  "alpha_err": 0.05926476298043394,
  "deviation_distributions_geom": {
    "all": {
      "number_of_samples": 100,
      "shape": 0.036214981363472405,
      "sse": 0.00022802834582607518
    },
    "in_valid_trace": {
      "number_of_samples": 50,
      "shape": 0.07972700480843803,
      "sse": 0.0027388667758380682
    },
    "in_valid_trace_index": {
      "number_of_samples": 465,
      "shape": 0.0066335252392273995,
      "sse": 0.0011582893166080434
    }
  },
  "frequencies_max": 255,
  "frequencies_mean": 2.032520325203252,
  "frequencies_median": 1.0,
  "frequencies_min": 1,
  "number_of_main_traces_80.0": 292,
  "number_of_trace_variants": 492
}