{
  "alpha": 2.5994168487223495,
  "alpha_err": 0.17147548519459957,
  "deviation_distributions_geom": {
    "all": {
      "number_of_samples": 77,
      "shape": 0.07467009977470228,
      "sse": 0.012814800420830833
    },
    "in_valid_trace": {
      "number_of_samples": 46,
      "shape": 0.08220537809059737,
      "sse": 0.0011218671992769245
    },
    "in_valid_trace_index": {
      "number_of_samples": 391,
      "shape": 0.007282024278033369,
      "sse": 0.0012965246095697424
    }
  },
  "frequencies_max": 256,
  "frequencies_mean": 2.6178010471204187,
  "frequencies_median": 1.0,
  "frequencies_min": 1,
  "number_of_main_traces_80.0": 182,
  "number_of_trace_variants": 382
}