{
  "alpha": 2.219063757518234,
  "alpha_err": 0.4310041248199482,
  "deviation_distributions": {
    "all": {
      "number_of_samples": 9,
      "scale": 0.2227227227227227,
      "sse": 1.5312190892759838
    },
    "in_valid_trace": {
      "number_of_samples": 2,
      "scale": 1.0022522522522523,
      "sse": 1.6714099710993258
    },
    "in_valid_trace_index": {
      "number_of_samples": 19,
      "scale": 0.10550023707918446,
      "sse": 0.8190837469090292
    }
  },
  "deviation_distributions_geom": {
    "all": {
      "number_of_samples": 9,
      "shape": 0.318084345961401,
      "sse": 0.021736785984215634
    },
    "in_valid_trace": {
      "number_of_samples": 2,
      "shape": 9.88888888888889,
      "sse": NaN
    },
    "in_valid_trace_index": {
      "number_of_samples": 7,
      "shape": 0.5374396135265701,
      "sse": 0.09103393183802849
    }
  },
  "frequencies_max": 491,
  "frequencies_mean": 55.55555555555556,
  "frequencies_median": 15.0,
  "frequencies_min": 1,
  "number_of_main_traces_80.0": 4,
  "number_of_trace_variants": 18
}