{
  "alpha": 1.636827451867814,
  "alpha_err": 0.1389671429909574,
  "deviation_distributions": {
    "all": {
      "number_of_samples": 58,
      "scale": 0.06068661704390096,
      "sse": 0.5312082432101934
    },
    "in_valid_trace": {
      "number_of_samples": 2,
      "scale": 1.7599118942731278,
      "sse": 1.8765130154572662
    },
    "in_valid_trace_index": {
      "number_of_samples": 16,
      "scale": 0.219988986784141,
      "sse": 1.0780970605816853
    }
  },
  "deviation_distributions_geom": {
    "all": {
      "number_of_samples": 58,
      "shape": 0.175513698630137,
      "sse": 0.0021790722942217305
    },
    "in_valid_trace": {
      "number_of_samples": 2,
      "shape": 2.0779220779220777,
      "sse": NaN
    },
    "in_valid_trace_index": {
      "number_of_samples": 8,
      "shape": 0.2641135688345989,
      "sse": 0.07337162645080754
    }
  },
  "frequencies_max": 514,
  "frequencies_mean": 18.181818181818183,
  "frequencies_median": 1.0,
  "frequencies_min": 1,
  "number_of_main_traces_80.0": 3,
  "number_of_trace_variants": 55
}