{
  "alpha": 1.5903906530221552,
  "alpha_err": 0.11362073414979341,
  "deviation_distributions": {
    "all": {
      "number_of_samples": 16,
      "scale": 0.10627880184331798,
      "sse": 0.7205418087807482
    },
    "in_valid_trace": {
      "number_of_samples": 7,
      "scale": 0.24292297564186963,
      "sse": 0.9700092881335356
    },
    "in_valid_trace_index": {
      "number_of_samples": 39,
      "scale": 0.04360155973059199,
      "sse": 0.3469040952367818
    }
  },
  "deviation_distributions_geom": {
    "all": {
      "number_of_samples": 16,
      "shape": 0.42857142857142855,
      "sse": 0.03203997267325159
    },
    "in_valid_trace": {
      "number_of_samples": 7,
      "shape": 0.7901498929336189,
      "sse": 0.10230973832597326
    },
    "in_valid_trace_index": {
      "number_of_samples": 14,
      "shape": 0.2,
      "sse": 0.03479481825403449
    }
  },
  "frequencies_max": 183,
  "frequencies_mean": 19.23076923076923,
  "frequencies_median": 3.5,
  "frequencies_min": 1,
  "number_of_main_traces_80.0": 7,
  "number_of_trace_variants": 52
}