{
  "alpha": 2.088623322472362,
  "alpha_err": 0.14419168152702966,
  "deviation_distributions": {
    "all": {
      "number_of_samples": 61,
      "scale": 0.04396732186064215,
      "sse": 0.06291837799356685
    },
    "in_valid_trace": {
      "number_of_samples": 11,
      "scale": 0.24381878486356098,
      "sse": 0.8831934092173074
    },
    "in_valid_trace_index": {
      "number_of_samples": 148,
      "scale": 0.01812166644256196,
      "sse": 0.013486472127016076
    }
  },
  "deviation_distributions_geom": {
    "all": {
      "number_of_samples": 61,
      "shape": 0.076668960770819,
      "sse": 0.0013086020956396157
    },
    "in_valid_trace": {
      "number_of_samples": 11,
      "shape": 0.3738831615120275,
      "sse": 0.021600569489280352
    },
    "in_valid_trace_index": {
      "number_of_samples": 92,
      "shape": 0.033060235402723286,
      "sse": 0.004392265433094142
    }
  },
  "frequencies_max": 497,
  "frequencies_mean": 6.451612903225806,
  "frequencies_median": 1.0,
  "frequencies_min": 1,
  "number_of_main_traces_80.0": 15,
  "number_of_trace_variants": 155
}