{
  "alpha": 1.710076626047607,
  "alpha_err": 0.2049814655969236,
  "deviation_distributions_geom": {
    "all": {
      "number_of_samples": 94,
      "shape": 0.06851105544058382,
      "sse": 0.0006861028815723187
    },
    "in_valid_trace": {
      "number_of_samples": 35,
      "shape": 0.2013196009011909,
      "sse": 0.007288312214349401
    },
    "in_valid_trace_index": {
      "number_of_samples": 233,
      "shape": 0.014831238655423568,
      "sse": 0.0036309158812596574
    }
  },
  "frequencies_max": 258,
  "frequencies_mean": 3.236245954692557,
  "frequencies_median": 1.0,
  "frequencies_min": 1,
  "number_of_main_traces_80.0": 109,
  "number_of_trace_variants": 309
}