{
  "alpha": 1.7095398754394788,
  "alpha_err": 0.12168508474006257,
  "deviation_distributions": {
    "all": {
      "number_of_samples": 91,
      "scale": 0.045751457081506366,
      "sse": 0.24150398166767403
    },
    "in_valid_trace": {
      "number_of_samples": 7,
      "scale": 0.5947689420595816,
      "sse": 1.5560226366427181
    },
    "in_valid_trace_index": {
      "number_of_samples": 85,
      "scale": 0.048980971699024434,
      "sse": 0.15011735963362347
    }
  },
  "deviation_distributions_geom": {
    "all": {
      "number_of_samples": 91,
      "shape": 0.07290391052330802,
      "sse": 0.0014105168707991666
    },
    "in_valid_trace": {
      "number_of_samples": 7,
      "shape": 0.3652024117140396,
      "sse": 0.05167711220457089
    },
    "in_valid_trace_index": {
      "number_of_samples": 63,
      "shape": 0.03446365686701223,
      "sse": 0.009837835580748196
    }
  },
  "frequencies_max": 369,
  "frequencies_mean": 8.333333333333334,
  "frequencies_median": 1.0,
  "frequencies_min": 1,
  "number_of_main_traces_80.0": 14,
  "number_of_trace_variants": 120
}