{
  "alpha": 10.4912215810299,
  "alpha_err": 6.711307141690346,
  "deviation_distributions_geom": {
    "all": {
      "number_of_samples": 98,
      "shape": 0.06948611009487574,
      "sse": 0.004669410839574758
    },
    "in_valid_trace": {
      "number_of_samples": 50,
      "shape": 0.1160352242473889,
      "sse": 0.0021357018131661714
    },
    "in_valid_trace_index": {
      "number_of_samples": 366,
      "shape": 0.011607903790915692,
      "sse": 0.003193995578753065
    }
  },
  "frequencies_max": 5,
  "frequencies_mean": 1.2077294685990339,
  "frequencies_median": 1.0,
  "frequencies_min": 1,
  "number_of_main_traces_80.0": 628,
  "number_of_trace_variants": 828
}