{
  "alpha": 1.838489483636962,
  "alpha_err": 0.13257682811956426,
  "deviation_distributions": {
    "all": {
      "number_of_samples": 36,
      "scale": 0.061904107077374405,
      "sse": 0.1869364623292633
    },
    "in_valid_trace": {
      "number_of_samples": 26,
      "scale": 0.08571337903021072,
      "sse": 0.17223849071817848
    },
    "in_valid_trace_index": {
      "number_of_samples": 398,
      "scale": 0.0055993664693102475,
      "sse": 0.00028763745663686166
    }
  },
  "deviation_distributions_geom": {
    "all": {
      "number_of_samples": 36,
      "shape": 0.1608832807570978,
      "sse": 0.0025201146962929855
    },
    "in_valid_trace": {
      "number_of_samples": 26,
      "shape": 0.2403592181722134,
      "sse": 0.05948343010673946
    },
    "in_valid_trace_index": {
      "number_of_samples": 115,
      "shape": 0.031917752990189494,
      "sse": 0.014642479453190438
    }
  },
  "frequencies_max": 245,
  "frequencies_mean": 5.555555555555555,
  "frequencies_median": 1.0,
  "frequencies_min": 1,
  "number_of_main_traces_80.0": 29,
  "number_of_trace_variants": 180
}