{
  "alpha": 1.8499426446868554,
  "alpha_err": 0.1457639610160778,
  "deviation_distributions": {
    "all": {
      "number_of_samples": 18,
      "scale": 0.10846560846560847,
      "sse": 0.5405264806514642
    },
    "in_valid_trace": {
      "number_of_samples": 10,
      "scale": 0.19523809523809524,
      "sse": 0.6343787344923283
    },
    "in_valid_trace_index": {
      "number_of_samples": 116,
      "scale": 0.016830870279146138,
      "sse": 0.053790645551383943
    }
  },
  "deviation_distributions_geom": {
    "all": {
      "number_of_samples": 18,
      "shape": 0.23657142857142857,
      "sse": 0.00975225628264518
    },
    "in_valid_trace": {
      "number_of_samples": 10,
      "shape": 0.4870283018867924,
      "sse": 0.040399853489103986
    },
    "in_valid_trace_index": {
      "number_of_samples": 36,
      "shape": 0.101244205903879,
      "sse": 0.026005965907316526
    }
  },
  "frequencies_max": 489,
  "frequencies_mean": 16.39344262295082,
  "frequencies_median": 4.0,
  "frequencies_min": 1,
  "number_of_main_traces_80.0": 11,
  "number_of_trace_variants": 61
}