{
  "alpha": 1.7880752431351765,
  "alpha_err": 0.1161953554450966,
  "deviation_distributions": {
    "all": {
      "number_of_samples": 84,
      "scale": 0.06291377522533302,
      "sse": 0.17757927430062362
    },
    "in_valid_trace": {
      "number_of_samples": 11,
      "scale": 0.4804324653570886,
      "sse": 0.9688289320643826
    },
    "in_valid_trace_index": {
      "number_of_samples": 172,
      "scale": 0.03072533208679054,
      "sse": 0.21083181452807712
    }
  },
  "deviation_distributions_geom": {
    "all": {
      "number_of_samples": 84,
      "shape": 0.06861173453029817,
      "sse": 0.0007225040029394584
    },
    "in_valid_trace": {
      "number_of_samples": 11,
      "shape": 1.8020477815699658,
      "sse": NaN
    },
    "in_valid_trace_index": {
      "number_of_samples": 64,
      "shape": 0.08968007389369384,
      "sse": 0.013752424486875626
    }
  },
  "frequencies_max": 256,
  "frequencies_mean": 4.9504950495049505,
  "frequencies_median": 1.0,
  "frequencies_min": 1,
  "number_of_main_traces_80.0": 25,
  "number_of_trace_variants": 202
}