{
  "alpha": 4.983107001822717,
  "alpha_err": 1.2595690289924228,
  "deviation_distributions": {
    "all": {
      "number_of_samples": 3,
      "scale": 0.35545023696682465,
      "sse": 1.4038564984445099
    },
    "in_valid_trace": {
      "number_of_samples": 8,
      "scale": 0.13329383886255924,
      "sse": 0.8471214368665171
    },
    "in_valid_trace_index": {
      "number_of_samples": 56,
      "scale": 0.019041976980365607,
      "sse": 0.10929165021301604
    }
  },
  "deviation_distributions_geom": {
    "all": {
      "number_of_samples": 3,
      "shape": 2.1523809523809523,
      "sse": NaN
    },
    "in_valid_trace": {
      "number_of_samples": 8,
      "shape": 0.3923611111111111,
      "sse": 0.047931145894825514
    },
    "in_valid_trace_index": {
      "number_of_samples": 12,
      "shape": 0.19964664310954064,
      "sse": 0.031182385558420563
    }
  },
  "frequencies_max": 86,
  "frequencies_mean": 41.666666666666664,
  "frequencies_median": 28.5,
  "frequencies_min": 14,
  "number_of_main_traces_80.0": 13,
  "number_of_trace_variants": 24
}