{
  "alpha": 44.49808422368983,
  "alpha_err": 25.11363063578034,
  "deviation_distributions_geom": {
    "all": {
      "number_of_samples": 100,
      "shape": 0.05172475424486148,
      "sse": 0.00019901672924330785
    },
    "in_valid_trace": {
      "number_of_samples": 27,
      "shape": 0.9045398009950247,
      "sse": 0.09963396040603105
    },
    "in_valid_trace_index": {
      "number_of_samples": 121,
      "shape": 0.05611582244632897,
      "sse": 0.008289488816724314
    }
  },
  "frequencies_max": 22,
  "frequencies_mean": 1.976284584980237,
  "frequencies_median": 1.0,
  "frequencies_min": 1,
  "number_of_main_traces_80.0": 306,
  "number_of_trace_variants": 506
}