{
  "alpha": 4.825811981655319,
  "alpha_err": 2.208833577477594,
  "deviation_distributions_geom": {
    "all": {
      "number_of_samples": 1,
      "shape": Infinity,
      "sse": 0.0
    },
    "in_valid_trace": {
      "number_of_samples": 1,
      "shape": Infinity,
      "sse": 0.0
    },
    "in_valid_trace_index": {
      "number_of_samples": 1,
      "shape": Infinity,
      "sse": 0.0
    }
  },
  "frequencies_max": 515,
  "frequencies_mean": 333.3333333333333,
  "frequencies_median": 245.0,
  "frequencies_min": 240,
  "number_of_main_traces_80.0": 2,
  "number_of_trace_variants": 3
}