{
  "alpha": 2.5273988747943577,
  "alpha_err": 0.3333057600064534,
  "deviation_distributions_geom": {
    "all": {
      "number_of_samples": 68,
      "shape": 0.10199801302572027,
      "sse": 0.007799806169902669
    },
    "in_valid_trace": {
      "number_of_samples": 41,
      "shape": 0.09879883129531435,
      "sse": 0.0025450745115204966
    },
    "in_valid_trace_index": {
      "number_of_samples": 238,
      "shape": 0.012233725123894035,
      "sse": 0.001970498751312017
    }
  },
  "frequencies_max": 84,
  "frequencies_mean": 2.6525198938992043,
  "frequencies_median": 1.0,
  "frequencies_min": 1,
  "number_of_main_traces_80.0": 177,
  "number_of_trace_variants": 377
}