{
  "alpha": 1.7938499359275069,
  "alpha_err": 0.10514799267899946,
  "deviation_distributions": {
    "all": {
      "number_of_samples": 36,
      "scale": 0.04139163916391639,
      "sse": 0.2184994885774385
    },
    "in_valid_trace": {
      "number_of_samples": 16,
      "scale": 0.09313118811881188,
      "sse": 0.22110834028531903
    },
    "in_valid_trace_index": {
      "number_of_samples": 150,
      "scale": 0.009933993399339935,
      "sse": 0.002234809742045795
    }
  },
  "deviation_distributions_geom": {
    "all": {
      "number_of_samples": 36,
      "shape": 0.19947159841479525,
      "sse": 0.008104929822835508
    },
    "in_valid_trace": {
      "number_of_samples": 16,
      "shape": 0.26514486391571557,
      "sse": 0.011769317635405936
    },
    "in_valid_trace_index": {
      "number_of_samples": 33,
      "shape": 0.09131871432862722,
      "sse": 0.012453469018276295
    }
  },
  "frequencies_max": 517,
  "frequencies_mean": 7.936507936507937,
  "frequencies_median": 1.0,
  "frequencies_min": 1,
  "number_of_main_traces_80.0": 17,
  "number_of_trace_variants": 126
}