{
  "alpha": 6.484814947747077,
  "alpha_err": 3.1666593865370585,
  "deviation_distributions_geom": {
    "all": {
      "number_of_samples": 100,
      "shape": 0.04845592438482911,
      "sse": 0.002901354993471169
    },
    "in_valid_trace": {
      "number_of_samples": 50,
      "shape": 0.09515600758489916,
      "sse": 0.009270352779066487
    },
    "in_valid_trace_index": {
      "number_of_samples": 422,
      "shape": 0.009421367092443022,
      "sse": 0.002217519164902192
    }
  },
  "frequencies_max": 3,
  "frequencies_mean": 1.0395010395010396,
  "frequencies_median": 1.0,
  "frequencies_min": 1,
  "number_of_main_traces_80.0": 762,
  "number_of_trace_variants": 962
}