{
  "alpha": 2.3438321636548825,
  "alpha_err": 0.31674427856565257,
  "deviation_distributions": {
    "all": {
      "number_of_samples": 17,
      "scale": 0.08768035516093228,
      "sse": 0.8371054395916313
    },
    "in_valid_trace": {
      "number_of_samples": 8,
      "scale": 0.18632075471698115,
      "sse": 0.8578847030634977
    },
    "in_valid_trace_index": {
      "number_of_samples": 76,
      "scale": 0.01961271102284012,
      "sse": 0.06923078357515661
    }
  },
  "deviation_distributions_geom": {
    "all": {
      "number_of_samples": 17,
      "shape": 0.21843003412969283,
      "sse": 0.005697384459116517
    },
    "in_valid_trace": {
      "number_of_samples": 8,
      "shape": 0.9244186046511628,
      "sse": 0.40149729041143695
    },
    "in_valid_trace_index": {
      "number_of_samples": 18,
      "shape": 0.1555232558139535,
      "sse": 0.03426822643650346
    }
  },
  "frequencies_max": 254,
  "frequencies_mean": 35.714285714285715,
  "frequencies_median": 22.5,
  "frequencies_min": 5,
  "number_of_main_traces_80.0": 12,
  "number_of_trace_variants": 28
}