{
  "alpha": 2.316933796182398,
  "alpha_err": 0.19853523980342666,
  "deviation_distributions_geom": {
    "all": {
      "number_of_samples": 100,
      "shape": 0.05590294368157551,
      "sse": 0.010538307248241398
    },
    "in_valid_trace": {
      "number_of_samples": 44,
      "shape": 0.27644444444444444,
      "sse": 0.019376469872251337
    },
    "in_valid_trace_index": {
      "number_of_samples": 234,
      "shape": 0.027724248791966458,
      "sse": 0.008593065246476144
    }
  },
  "frequencies_max": 22,
  "frequencies_mean": 1.392757660167131,
  "frequencies_median": 1.0,
  "frequencies_min": 1,
  "number_of_main_traces_80.0": 518,
  "number_of_trace_variants": 718
}