{
  "alpha": 1.7128135699658678,
  "alpha_err": 0.12048748429697526,
  "deviation_distributions": {
    "all": {
      "number_of_samples": 18,
      "scale": 0.10776102735901733,
      "sse": 0.39835066900148564
    },
    "in_valid_trace": {
      "number_of_samples": 3,
      "scale": 0.6465661641541038,
      "sse": 1.3574835879781137
    },
    "in_valid_trace_index": {
      "number_of_samples": 26,
      "scale": 0.07460378817162737,
      "sse": 0.620057575965578
    }
  },
  "deviation_distributions_geom": {
    "all": {
      "number_of_samples": 18,
      "shape": 0.20538542766631465,
      "sse": 0.016079510231398617
    },
    "in_valid_trace": {
      "number_of_samples": 3,
      "shape": 10.18421052631579,
      "sse": NaN
    },
    "in_valid_trace_index": {
      "number_of_samples": 8,
      "shape": 0.34124890061565527,
      "sse": 0.12181157543332807
    }
  },
  "frequencies_max": 277,
  "frequencies_mean": 25.641025641025642,
  "frequencies_median": 5.0,
  "frequencies_min": 1,
  "number_of_main_traces_80.0": 7,
  "number_of_trace_variants": 39
}