{
  "alpha": 3.671399965283507,
  "alpha_err": 0.7409130424694158,
  "deviation_distributions": {
    "all": {
      "number_of_samples": 8,
      "scale": 0.14784263959390864,
      "sse": 1.0485083203629475
    },
    "in_valid_trace": {
      "number_of_samples": 6,
      "scale": 0.19712351945854487,
      "sse": 1.5508580235764287
    },
    "in_valid_trace_index": {
      "number_of_samples": 48,
      "scale": 0.024640439932318108,
      "sse": 0.19212367859445403
    }
  },
  "deviation_distributions_geom": {
    "all": {
      "number_of_samples": 8,
      "shape": 0.4759036144578313,
      "sse": 0.035021235334002594
    },
    "in_valid_trace": {
      "number_of_samples": 6,
      "shape": 0.4536679536679537,
      "sse": 0.06422818317661375
    },
    "in_valid_trace_index": {
      "number_of_samples": 12,
      "shape": 0.18147013782542115,
      "sse": 0.03813958936876012
    }
  },
  "frequencies_max": 482,
  "frequencies_mean": 76.92307692307692,
  "frequencies_median": 44.0,
  "frequencies_min": 36,
  "number_of_main_traces_80.0": 7,
  "number_of_trace_variants": 13
}