{
  "alpha": 50.4983164525091,
  "alpha_err": 35.00059522088684,
  "deviation_distributions_geom": {
    "all": {
      "number_of_samples": 100,
      "shape": 0.043152168171974856,
      "sse": 0.0005309395282095841
    },
    "in_valid_trace": {
      "number_of_samples": 50,
      "shape": 0.13420942261987978,
      "sse": 0.010403808491316464
    },
    "in_valid_trace_index": {
      "number_of_samples": 356,
      "shape": 0.012054027557125225,
      "sse": 0.004245758284189894
    }
  },
  "frequencies_max": 25,
  "frequencies_mean": 2.0202020202020203,
  "frequencies_median": 1.0,
  "frequencies_min": 1,
  "number_of_main_traces_80.0": 295,
  "number_of_trace_variants": 495
}