{
  "alpha": 2.376365507715447,
  "alpha_err": 0.18905834233931748,
  "deviation_distributions_geom": {
    "all": {
      "number_of_samples": 100,
      "shape": 0.04631776688485133,
      "sse": 0.00375950915155936
    },
    "in_valid_trace": {
      "number_of_samples": 49,
      "shape": 0.09450574581213196,
      "sse": 0.0009486291213140494
    },
    "in_valid_trace_index": {
      "number_of_samples": 389,
      "shape": 0.009043497558810475,
      "sse": 0.0009515752768358989
    }
  },
  "frequencies_max": 261,
  "frequencies_mean": 2.178649237472767,
  "frequencies_median": 1.0,
  "frequencies_min": 1,
  "number_of_main_traces_80.0": 259,
  "number_of_trace_variants": 459
}