{
  "alpha": 1.710700228215507,
  "alpha_err": 0.10050819015240238,
  "deviation_distributions": {
    "all": {
      "number_of_samples": 41,
      "scale": 0.03607998242144583,
      "sse": 0.06530282217944985
    },
    "in_valid_trace": {
      "number_of_samples": 11,
      "scale": 0.13447993447993448,
      "sse": 0.828191404896869
    },
    "in_valid_trace_index": {
      "number_of_samples": 88,
      "scale": 0.01680999180999181,
      "sse": 0.08419225148975933
    }
  },
  "deviation_distributions_geom": {
    "all": {
      "number_of_samples": 41,
      "shape": 0.12438698172090949,
      "sse": 0.0008880861279270272
    },
    "in_valid_trace": {
      "number_of_samples": 11,
      "shape": 0.4407051282051282,
      "sse": 0.04069664624372855
    },
    "in_valid_trace_index": {
      "number_of_samples": 31,
      "shape": 0.11801763964720706,
      "sse": 0.04126829524747469
    }
  },
  "frequencies_max": 336,
  "frequencies_mean": 9.9438202247191,
  "frequencies_median": 2.0,
  "frequencies_min": 1,
  "number_of_main_traces_80.0": 13,
  "number_of_trace_variants": 89
}