{
  "alpha": 1.8862618867576226,
  "alpha_err": 0.16457470077488878,
  "deviation_distributions": {
    "all": {
      "number_of_samples": 82,
      "scale": 0.058708175021448705,
      "sse": 0.24852453952676107
    },
    "in_valid_trace": {
      "number_of_samples": 28,
      "scale": 0.17193108399138549,
      "sse": 0.6006797245680406
    },
    "in_valid_trace_index": {
      "number_of_samples": 485,
      "scale": 0.009925918251049059,
      "sse": 0.013264351231907862
    }
  },
  "deviation_distributions_geom": {
    "all": {
      "number_of_samples": 82,
      "shape": 0.06829164297896533,
      "sse": 0.0002513740027738358
    },
    "in_valid_trace": {
      "number_of_samples": 28,
      "shape": 0.581479254359591,
      "sse": 0.031940768116343804
    },
    "in_valid_trace_index": {
      "number_of_samples": 106,
      "shape": 0.05057803468208092,
      "sse": 0.0060271481427698346
    }
  },
  "frequencies_max": 509,
  "frequencies_mean": 4.3478260869565215,
  "frequencies_median": 1.0,
  "frequencies_min": 1,
  "number_of_main_traces_80.0": 46,
  "number_of_trace_variants": 230
}