{
  "alpha": 1.9488586406674373,
  "alpha_err": 0.10956475832244945,
  "deviation_distributions": {
    "all": {
      "number_of_samples": 35,
      "scale": 0.04425699928212492,
      "sse": 0.18123132218267482
    },
    "in_valid_trace": {
      "number_of_samples": 32,
      "scale": 0.048406092964824114,
      "sse": 0.09537460420494116
    },
    "in_valid_trace_index": {
      "number_of_samples": 512,
      "scale": 0.0030253808103015076,
      "sse": 0.002725384375226214
    }
  },
  "deviation_distributions_geom": {
    "all": {
      "number_of_samples": 35,
      "shape": 0.11519078473722101,
      "sse": 0.003537585842542651
    },
    "in_valid_trace": {
      "number_of_samples": 32,
      "shape": 0.11153314917127072,
      "sse": 0.003011334556941698
    },
    "in_valid_trace_index": {
      "number_of_samples": 154,
      "shape": 0.016710206287721827,
      "sse": 0.0035152458673025824
    }
  },
  "frequencies_max": 102,
  "frequencies_mean": 7.352941176470588,
  "frequencies_median": 3.0,
  "frequencies_min": 1,
  "number_of_main_traces_80.0": 42,
  "number_of_trace_variants": 136
}