{
  "alpha": 2.3121444595315004,
  "alpha_err": 0.18556524904621624,
  "deviation_distributions_geom": {
    "all": {
      "number_of_samples": 100,
      "shape": 0.04950518378887842,
      "sse": 0.00018501489012223975
    },
    "in_valid_trace": {
      "number_of_samples": 41,
      "shape": 0.8157303370786516,
      "sse": 0.013737042016769665
    },
    "in_valid_trace_index": {
      "number_of_samples": 185,
      "shape": 0.04690957368343414,
      "sse": 0.015447615505465811
    }
  },
  "frequencies_max": 511,
  "frequencies_mean": 2.6178010471204187,
  "frequencies_median": 1.0,
  "frequencies_min": 1,
  "number_of_main_traces_80.0": 182,
  "number_of_trace_variants": 382
}