{
  "alpha": 2.4170393728344006,
  "alpha_err": 0.06362694613543855,
  "deviation_distributions_geom": {
    "all": {
      "number_of_samples": 100,
      "shape": 0.038714244904549576,
      "sse": 0.002910495136357193
    },
    "in_valid_trace": {
      "number_of_samples": 46,
      "shape": 0.08261364714814463,
      "sse": 0.0016428639991630978
    },
    "in_valid_trace_index": {
      "number_of_samples": 648,
      "shape": 0.0048822320148857986,
      "sse": 0.0006365738745189809
    }
  },
  "frequencies_max": 505,
  "frequencies_mean": 2.0161290322580645,
  "frequencies_median": 1.0,
  "frequencies_min": 1,
  "number_of_main_traces_80.0": 296,
  "number_of_trace_variants": 496
}