{
  "alpha": 1.8743437638085567,
  "alpha_err": 0.17847467342629147,
  "deviation_distributions": {
    "all": {
      "number_of_samples": 47,
      "scale": 0.06838905775075985,
      "sse": 0.18028202710546412
    },
    "in_valid_trace": {
      "number_of_samples": 29,
      "scale": 0.11083743842364532,
      "sse": 0.2474586058025484
    },
    "in_valid_trace_index": {
      "number_of_samples": 484,
      "scale": 0.0066410861865407326,
      "sse": 0.0004887558016668332
    }
  },
  "deviation_distributions_geom": {
    "all": {
      "number_of_samples": 47,
      "shape": 0.09783337056064328,
      "sse": 0.0007278603493319118
    },
    "in_valid_trace": {
      "number_of_samples": 29,
      "shape": 0.2749529190207156,
      "sse": 0.03193189788958242
    },
    "in_valid_trace_index": {
      "number_of_samples": 116,
      "shape": 0.029315543011097567,
      "sse": 0.005186773299268886
    }
  },
  "frequencies_max": 120,
  "frequencies_mean": 3.7556818181818183,
  "frequencies_median": 1.0,
  "frequencies_min": 1,
  "number_of_main_traces_80.0": 45,
  "number_of_trace_variants": 176
}