{
  "alpha": 1.888281576589634,
  "alpha_err": 0.15462997468135514,
  "deviation_distributions": {
    "all": {
      "number_of_samples": 123,
      "scale": 0.022787705599828276,
      "sse": 0.10608823703220387
    },
    "in_valid_trace": {
      "number_of_samples": 15,
      "scale": 0.18685918591859188,
      "sse": 0.8807958801601782
    },
    "in_valid_trace_index": {
      "number_of_samples": 109,
      "scale": 0.025714566869530987,
      "sse": 0.020239791395523194
    }
  },
  "deviation_distributions_geom": {
    "all": {
      "number_of_samples": 100,
      "shape": 0.05793426314249488,
      "sse": 0.006809197016579757
    },
    "in_valid_trace": {
      "number_of_samples": 15,
      "shape": 0.22485207100591714,
      "sse": 0.014067101599771186
    },
    "in_valid_trace_index": {
      "number_of_samples": 70,
      "shape": 0.03173922367574523,
      "sse": 0.013246420393737144
    }
  },
  "frequencies_max": 510,
  "frequencies_mean": 6.289308176100629,
  "frequencies_median": 1.0,
  "frequencies_min": 1,
  "number_of_main_traces_80.0": 17,
  "number_of_trace_variants": 159
}