{
  "alpha": 1.5247230844479158,
  "alpha_err": 0.10710865109639343,
  "deviation_distributions": {
    "all": {
      "number_of_samples": 16,
      "scale": 0.10500000000000001,
      "sse": 0.227055060207016
    },
    "in_valid_trace": {
      "number_of_samples": 5,
      "scale": 0.33599999999999997,
      "sse": 1.1726913125668237
    },
    "in_valid_trace_index": {
      "number_of_samples": 43,
      "scale": 0.03906976744186046,
      "sse": 0.3581434537779317
    }
  },
  "deviation_distributions_geom": {
    "all": {
      "number_of_samples": 16,
      "shape": 0.3642671292281006,
      "sse": 0.018585331152808887
    },
    "in_valid_trace": {
      "number_of_samples": 5,
      "shape": 2.3076923076923075,
      "sse": NaN
    },
    "in_valid_trace_index": {
      "number_of_samples": 13,
      "shape": 0.3192452830188679,
      "sse": 0.17160253626266558
    }
  },
  "frequencies_max": 245,
  "frequencies_mean": 31.25,
  "frequencies_median": 7.0,
  "frequencies_min": 1,
  "number_of_main_traces_80.0": 6,
  "number_of_trace_variants": 32
}