{
  "alpha": 1.812991211479761,
  "alpha_err": 0.15646023159888,
  "deviation_distributions": {
    "all": {
      "number_of_samples": 110,
      "scale": 0.05648698035632707,
      "sse": 0.3403950535850785
    },
    "in_valid_trace": {
      "number_of_samples": 15,
      "scale": 0.41423785594639867,
      "sse": 0.9626913292942985
    },
    "in_valid_trace_index": {
      "number_of_samples": 291,
      "scale": 0.02135246680136076,
      "sse": 0.11339291261734841
    }
  },
  "deviation_distributions_geom": {
    "all": {
      "number_of_samples": 100,
      "shape": 0.08465216512896491,
      "sse": 0.004141591334636539
    },
    "in_valid_trace": {
      "number_of_samples": 15,
      "shape": 0.9833465503568597,
      "sse": 0.3296021861606852
    },
    "in_valid_trace_index": {
      "number_of_samples": 71,
      "shape": 0.05516812508328522,
      "sse": 0.012865589560420247
    }
  },
  "frequencies_max": 495,
  "frequencies_mean": 4.566210045662101,
  "frequencies_median": 1.0,
  "frequencies_min": 1,
  "number_of_main_traces_80.0": 30,
  "number_of_trace_variants": 219
}