{
  "alpha": 1.6985181480989435,
  "alpha_err": 0.13699067952904648,
  "deviation_distributions": {
    "all": {
      "number_of_samples": 39,
      "scale": 0.06338365684160073,
      "sse": 0.36085852490174963
    },
    "in_valid_trace": {
      "number_of_samples": 4,
      "scale": 0.6179906542056075,
      "sse": 1.3964214538510293
    },
    "in_valid_trace_index": {
      "number_of_samples": 30,
      "scale": 0.082398753894081,
      "sse": 0.6620882040434167
    }
  },
  "deviation_distributions_geom": {
    "all": {
      "number_of_samples": 39,
      "shape": 0.1771600803750837,
      "sse": 0.00192429181332103
    },
    "in_valid_trace": {
      "number_of_samples": 4,
      "shape": 5.943820224719102,
      "sse": NaN
    },
    "in_valid_trace_index": {
      "number_of_samples": 9,
      "shape": 0.29194260485651213,
      "sse": 0.15147411213854198
    }
  },
  "frequencies_max": 460,
  "frequencies_mean": 10.638297872340425,
  "frequencies_median": 1.0,
  "frequencies_min": 1,
  "number_of_main_traces_80.0": 6,
  "number_of_trace_variants": 94
}