{
  "alpha": 3.56430220972825,
  "alpha_err": 1.0468719933542645,
  "deviation_distributions": {
    "all": {
      "number_of_samples": 5,
      "scale": 0.23365384615384616,
      "sse": 1.3072414164685051
    },
    "in_valid_trace": {
      "number_of_samples": 3,
      "scale": 0.3894230769230769,
      "sse": 1.5574619605184274
    },
    "in_valid_trace_index": {
      "number_of_samples": 30,
      "scale": 0.03894230769230769,
      "sse": 0.4003637335178168
    }
  },
  "deviation_distributions_geom": {
    "all": {
      "number_of_samples": 5,
      "shape": 0.8026315789473684,
      "sse": 0.25514966989544063
    },
    "in_valid_trace": {
      "number_of_samples": 3,
      "shape": 1.3863636363636362,
      "sse": NaN
    },
    "in_valid_trace_index": {
      "number_of_samples": 4,
      "shape": 0.7240356083086054,
      "sse": 0.16155432079509785
    }
  },
  "frequencies_max": 307,
  "frequencies_mean": 100.0,
  "frequencies_median": 85.5,
  "frequencies_min": 35,
  "number_of_main_traces_80.0": 5,
  "number_of_trace_variants": 10
}