{
  "alpha": 1.3290984935065344,
  "alpha_err": 0.0755003724034979,
  "deviation_distributions": {
    "all": {
      "number_of_samples": 11,
      "scale": 0.18253968253968253,
      "sse": 0.7891952426938583
    },
    "in_valid_trace": {
      "number_of_samples": 2,
      "scale": 1.003968253968254,
      "sse": 1.837023776153513
    },
    "in_valid_trace_index": {
      "number_of_samples": 18,
      "scale": 0.11155202821869488,
      "sse": 0.9042543983175219
    }
  },
  "deviation_distributions_geom": {
    "all": {
      "number_of_samples": 11,
      "shape": 0.9825242718446603,
      "sse": 0.3050594593527613
    },
    "in_valid_trace": {
      "number_of_samples": 2,
      "shape": 2.0737704918032787,
      "sse": NaN
    },
    "in_valid_trace_index": {
      "number_of_samples": 2,
      "shape": 2.0737704918032787,
      "sse": NaN
    }
  },
  "frequencies_max": 496,
  "frequencies_mean": 52.63157894736842,
  "frequencies_median": 9.0,
  "frequencies_min": 1,
  "number_of_main_traces_80.0": 3,
  "number_of_trace_variants": 19
}