{
  "alpha": 1.6537798538907147,
  "alpha_err": 0.09745974637463456,
  "deviation_distributions": {
    "all": {
      "number_of_samples": 18,
      "scale": 0.1272357723577236,
      "sse": 0.4629394604845058
    },
    "in_valid_trace": {
      "number_of_samples": 6,
      "scale": 0.3817073170731708,
      "sse": 1.3408122378637048
    },
    "in_valid_trace_index": {
      "number_of_samples": 66,
      "scale": 0.03470066518847007,
      "sse": 0.34198921997318205
    }
  },
  "deviation_distributions_geom": {
    "all": {
      "number_of_samples": 18,
      "shape": 0.2409392547217968,
      "sse": 0.009559964457449019
    },
    "in_valid_trace": {
      "number_of_samples": 6,
      "shape": 0.562874251497006,
      "sse": 0.10801927099696344
    },
    "in_valid_trace_index": {
      "number_of_samples": 9,
      "shape": 0.30089628681177977,
      "sse": 0.05637380724075268
    }
  },
  "frequencies_max": 495,
  "frequencies_mean": 16.39344262295082,
  "frequencies_median": 3.0,
  "frequencies_min": 1,
  "number_of_main_traces_80.0": 10,
  "number_of_trace_variants": 61
}