{
  "alpha": 1.7034763665966568,
  "alpha_err": 0.24871645461248482,
  "deviation_distributions_geom": {
    "all": {
      "number_of_samples": 100,
      "shape": 0.036868863955119215,
      "sse": 0.00015867664923795052
    },
    "in_valid_trace": {
      "number_of_samples": 47,
      "shape": 0.11129136924075277,
      "sse": 0.0025834541938052776
    },
    "in_valid_trace_index": {
      "number_of_samples": 451,
      "shape": 0.006871442350799495,
      "sse": 0.001478828798262946
    }
  },
  "frequencies_max": 132,
  "frequencies_mean": 1.976284584980237,
  "frequencies_median": 1.0,
  "frequencies_min": 1,
  "number_of_main_traces_80.0": 306,
  "number_of_trace_variants": 506
}