{
  "alpha": 1.6260302101029955,
  "alpha_err": 0.10024506177000347,
  "deviation_distributions": {
    "all": {
      "number_of_samples": 37,
      "scale": 0.1124839124839125,
      "sse": 0.6167517929208292
    },
    "in_valid_trace": {
      "number_of_samples": 2,
      "scale": 2.0809523809523807,
      "sse": 1.886047638399781
    },
    "in_valid_trace_index": {
      "number_of_samples": 36,
      "scale": 0.11560846560846562,
      "sse": 0.6554761033785519
    }
  },
  "deviation_distributions_geom": {
    "all": {
      "number_of_samples": 37,
      "shape": 0.21035137701804368,
      "sse": 0.0069251338359173934
    },
    "in_valid_trace": {
      "number_of_samples": 2,
      "shape": 2.0933014354066986,
      "sse": NaN
    },
    "in_valid_trace_index": {
      "number_of_samples": 20,
      "shape": 0.10291011499647969,
      "sse": 0.03383980096226894
    }
  },
  "frequencies_max": 254,
  "frequencies_mean": 13.157894736842104,
  "frequencies_median": 2.0,
  "frequencies_min": 1,
  "number_of_main_traces_80.0": 8,
  "number_of_trace_variants": 76
}