{
  "alpha": 2.485133991186223,
  "alpha_err": 0.16204140313720827,
  "deviation_distributions_geom": {
    "all": {
      "number_of_samples": 82,
      "shape": 0.06417756366139023,
      "sse": 0.0009819314178998364
    },
    "in_valid_trace": {
      "number_of_samples": 47,
      "shape": 0.08068783068783068,
      "sse": 0.0012751063662508088
    },
    "in_valid_trace_index": {
      "number_of_samples": 310,
      "shape": 0.008978875079701888,
      "sse": 0.0016568426864070661
    }
  },
  "frequencies_max": 533,
  "frequencies_mean": 3.3003300330033003,
  "frequencies_median": 1.0,
  "frequencies_min": 1,
  "number_of_main_traces_80.0": 103,
  "number_of_trace_variants": 303
}