{
  "alpha": 2.794604414819261,
  "alpha_err": 0.8025714928514196,
  "deviation_distributions": {
    "all": {
      "number_of_samples": 4,
      "scale": 0.369047619047619,
      "sse": 1.6049998608729377
    },
    "in_valid_trace": {
      "number_of_samples": 2,
      "scale": 0.7380952380952381,
      "sse": 1.8138340098429044
    },
    "in_valid_trace_index": {
      "number_of_samples": 12,
      "scale": 0.12301587301587302,
      "sse": 0.9406080868057047
    }
  },
  "deviation_distributions_geom": {
    "all": {
      "number_of_samples": 4,
      "shape": 0.8701754385964913,
      "sse": 0.3152071927906174
    },
    "in_valid_trace": {
      "number_of_samples": 2,
      "shape": 2.049586776859504,
      "sse": NaN
    },
    "in_valid_trace_index": {
      "number_of_samples": 3,
      "shape": 0.8763250883392226,
      "sse": 0.08565564008461665
    }
  },
  "frequencies_max": 465,
  "frequencies_mean": 166.66666666666666,
  "frequencies_median": 91.0,
  "frequencies_min": 80,
  "number_of_main_traces_80.0": 3,
  "number_of_trace_variants": 6
}