{
  "alpha": 2.6093124700718793,
  "alpha_err": 0.5689778803179493,
  "deviation_distributions": {
    "all": {
      "number_of_samples": 2,
      "scale": 0.9453781512605042,
      "sse": 1.8283642198549839
    },
    "in_valid_trace": {
      "number_of_samples": 1,
      "scale": 1.8907563025210083,
      "sse": NaN
    },
    "in_valid_trace_index": {
      "number_of_samples": 9,
      "scale": 0.21008403361344538,
      "sse": 1.1737887895194126
    }
  },
  "frequencies_max": 143,
  "frequencies_mean": 96.125,
  "frequencies_median": 94.0,
  "frequencies_min": 47,
  "number_of_main_traces_80.0": 5,
  "number_of_trace_variants": 8
}