{
  "alpha": 1.2817386616533537,
  "alpha_err": 0.0849474026946423,
  "deviation_distributions": {
    "all": {
      "number_of_samples": 11,
      "scale": 0.18258212375859434,
      "sse": 0.8191229808439728
    },
    "in_valid_trace": {
      "number_of_samples": 1,
      "scale": 2.008403361344538,
      "sse": NaN
    },
    "in_valid_trace_index": {
      "number_of_samples": 11,
      "scale": 0.18258212375859434,
      "sse": 1.1128875116104984
    }
  },
  "deviation_distributions_geom": {
    "all": {
      "number_of_samples": 11,
      "shape": 0.5630153121319199,
      "sse": 0.11567854631852945
    },
    "in_valid_trace": {
      "number_of_samples": 1,
      "shape": Infinity,
      "sse": 0.0
    },
    "in_valid_trace_index": {
      "number_of_samples": 1,
      "shape": Infinity,
      "sse": 0.0
    }
  },
  "frequencies_max": 489,
  "frequencies_mean": 90.9090909090909,
  "frequencies_median": 15.0,
  "frequencies_min": 1,
  "number_of_main_traces_80.0": 2,
  "number_of_trace_variants": 11
}