{
  "alpha": 525.9993650787575,
  "alpha_err": 371.2306111658213,
  "deviation_distributions_geom": {
    "all": {
      "number_of_samples": 1,
      "shape": Infinity,
      "sse": 0.0
    },
    "in_valid_trace": {
      "number_of_samples": 1,
      "shape": Infinity,
      "sse": 0.0
    },
    "in_valid_trace_index": {
      "number_of_samples": 1,
      "shape": Infinity,
      "sse": 0.0
    }
  },
  "frequencies_max": 263,
  "frequencies_mean": 250.0,
  "frequencies_median": 259.5,
  "frequencies_min": 218,
  "number_of_main_traces_80.0": 3,
  "number_of_trace_variants": 4
}