{
  "alpha": 15.202948709714411,
  "alpha_err": 6.35175175917287,
  "deviation_distributions_geom": {
    "all": {
      "number_of_samples": 100,
      "shape": 0.04167010252604381,
      "sse": 0.0015930757265453616
    },
    "in_valid_trace": {
      "number_of_samples": 50,
      "shape": 0.07008794995013147,
      "sse": 0.0009827294560843887
    },
    "in_valid_trace_index": {
      "number_of_samples": 392,
      "shape": 0.007178886766375872,
      "sse": 0.0008908312728129989
    }
  },
  "frequencies_max": 30,
  "frequencies_mean": 1.953125,
  "frequencies_median": 1.0,
  "frequencies_min": 1,
  "number_of_main_traces_80.0": 312,
  "number_of_trace_variants": 512
}