{
  "alpha": 1.9672019273451302,
  "alpha_err": 0.4836009636725651,
  "deviation_distributions": {
    "all": {
      "number_of_samples": 93,
      "scale": 0.034706989247311824,
      "sse": 0.0260693641184186
    },
    "in_valid_trace": {
      "number_of_samples": 22,
      "scale": 0.14671590909090912,
      "sse": 0.21848490094417253
    },
    "in_valid_trace_index": {
      "number_of_samples": 252,
      "scale": 0.012808531746031745,
      "sse": 0.004628402053173699
    }
  },
  "deviation_distributions_geom": {
    "all": {
      "number_of_samples": 93,
      "shape": 0.04751115202152517,
      "sse": 0.0004948102268030691
    },
    "in_valid_trace": {
      "number_of_samples": 22,
      "shape": 0.22888187872415003,
      "sse": 0.0034952797632279305
    },
    "in_valid_trace_index": {
      "number_of_samples": 165,
      "shape": 0.021308933945344558,
      "sse": 0.0030948712728827306
    }
  },
  "frequencies_max": 495,
  "frequencies_mean": 4.566210045662101,
  "frequencies_median": 1.0,
  "frequencies_min": 1,
  "number_of_main_traces_80.0": 24,
  "number_of_trace_variants": 219
}