{
  "alpha": 1.6698010675651997,
  "alpha_err": 0.11011461720376604,
  "deviation_distributions": {
    "all": {
      "number_of_samples": 30,
      "scale": 0.043930635838150295,
      "sse": 0.18565234151595414
    },
    "in_valid_trace": {
      "number_of_samples": 6,
      "scale": 0.21965317919075145,
      "sse": 0.9797629070619186
    },
    "in_valid_trace_index": {
      "number_of_samples": 55,
      "scale": 0.02396216500262743,
      "sse": 0.18659656165567542
    }
  },
  "deviation_distributions_geom": {
    "all": {
      "number_of_samples": 30,
      "shape": 0.17697063369397217,
      "sse": 0.0032964313788658444
    },
    "in_valid_trace": {
      "number_of_samples": 6,
      "shape": 1.0601851851851851,
      "sse": NaN
    },
    "in_valid_trace_index": {
      "number_of_samples": 6,
      "shape": 1.0601851851851851,
      "sse": NaN
    }
  },
  "frequencies_max": 145,
  "frequencies_mean": 16.19607843137255,
  "frequencies_median": 4.0,
  "frequencies_min": 1,
  "number_of_main_traces_80.0": 13,
  "number_of_trace_variants": 51
}