{
  "alpha": 2.5479868543050066,
  "alpha_err": 0.18371224058143826,
  "deviation_distributions": {
    "all": {
      "number_of_samples": 59,
      "scale": 0.03318570252391903,
      "sse": 0.027106667817666
    },
    "in_valid_trace": {
      "number_of_samples": 16,
      "scale": 0.12237227805695142,
      "sse": 0.48232741852949224
    },
    "in_valid_trace_index": {
      "number_of_samples": 160,
      "scale": 0.012237227805695142,
      "sse": 0.0027699589193875326
    }
  },
  "deviation_distributions_geom": {
    "all": {
      "number_of_samples": 59,
      "shape": 0.0625,
      "sse": 0.0020756888193730044
    },
    "in_valid_trace": {
      "number_of_samples": 16,
      "shape": 0.22122905027932963,
      "sse": 0.017578815727604502
    },
    "in_valid_trace_index": {
      "number_of_samples": 94,
      "shape": 0.02685161618732502,
      "sse": 0.00605927906308526
    }
  },
  "frequencies_max": 461,
  "frequencies_mean": 6.134969325153374,
  "frequencies_median": 1.0,
  "frequencies_min": 1,
  "number_of_main_traces_80.0": 19,
  "number_of_trace_variants": 163
}