{
  "alpha": 1.840408746590228,
  "alpha_err": 0.0783685197082603,
  "deviation_distributions_geom": {
    "all": {
      "number_of_samples": 55,
      "shape": 0.07565953210552513,
      "sse": 0.001382007689932544
    },
    "in_valid_trace": {
      "number_of_samples": 39,
      "shape": 0.1262541806020067,
      "sse": 0.012733258769243479
    },
    "in_valid_trace_index": {
      "number_of_samples": 134,
      "shape": 0.023751793755257558,
      "sse": 0.005404349768848222
    }
  },
  "frequencies_max": 49,
  "frequencies_mean": 5.4945054945054945,
  "frequencies_median": 2.0,
  "frequencies_min": 1,
  "number_of_main_traces_80.0": 58,
  "number_of_trace_variants": 182
}