{
  "alpha": 1.9047429481040408,
  "alpha_err": 0.19743109734115571,
  "deviation_distributions_geom": {
    "all": {
      "number_of_samples": 100,
      "shape": 0.045273499734466274,
      "sse": 0.0036058532227205738
    },
    "in_valid_trace": {
      "number_of_samples": 46,
      "shape": 0.094109396914446,
      "sse": 0.002716295001488862
    },
    "in_valid_trace_index": {
      "number_of_samples": 287,
      "shape": 0.010300498803682227,
      "sse": 0.0015979349123799724
    }
  },
  "frequencies_max": 520,
  "frequencies_mean": 3.717472118959108,
  "frequencies_median": 1.0,
  "frequencies_min": 1,
  "number_of_main_traces_80.0": 69,
  "number_of_trace_variants": 269
}