{
  "alpha": 1.769741994566373,
  "alpha_err": 0.15095882502791413,
  "deviation_distributions": {
    "all": {
      "number_of_samples": 129,
      "scale": 0.02861205251061509,
      "sse": 0.1267696893096384
    },
    "in_valid_trace": {
      "number_of_samples": 8,
      "scale": 0.4613693467336682,
      "sse": 1.0863597828206923
    },
    "in_valid_trace_index": {
      "number_of_samples": 78,
      "scale": 0.04731993299832495,
      "sse": 0.30245358679539175
    }
  },
  "deviation_distributions_geom": {
    "all": {
      "number_of_samples": 100,
      "shape": 0.055243235139794615,
      "sse": 0.0009713108137650999
    },
    "in_valid_trace": {
      "number_of_samples": 8,
      "shape": 0.8976857490864799,
      "sse": 0.09604831359483147
    },
    "in_valid_trace_index": {
      "number_of_samples": 47,
      "shape": 0.07612667478684532,
      "sse": 0.02433597101815691
    }
  },
  "frequencies_max": 494,
  "frequencies_mean": 6.5359477124183005,
  "frequencies_median": 1.0,
  "frequencies_min": 1,
  "number_of_main_traces_80.0": 12,
  "number_of_trace_variants": 153
}