{
  "alpha": 1.8482416661269467,
  "alpha_err": 0.07743351579224908,
  "deviation_distributions_geom": {
    "all": {
      "number_of_samples": 44,
      "shape": 0.16676810712111992,
      "sse": 0.018726146390417166
    },
    "in_valid_trace": {
      "number_of_samples": 38,
      "shape": 0.12270076267384479,
      "sse": 0.005294010939508751
    },
    "in_valid_trace_index": {
      "number_of_samples": 124,
      "shape": 0.024714665751308675,
      "sse": 0.006342359441790393
    }
  },
  "frequencies_max": 50,
  "frequencies_mean": 4.566210045662101,
  "frequencies_median": 2.0,
  "frequencies_min": 1,
  "number_of_main_traces_80.0": 73,
  "number_of_trace_variants": 219
}