{
  "alpha": 4.476059496782208,
  "alpha_err": 1.7380297483911038,
  "deviation_distributions_geom": {
    "all": {
      "number_of_samples": 100,
      "shape": 0.04733421063125573,
      "sse": 0.002236982609681137
    },
    "in_valid_trace": {
      "number_of_samples": 50,
      "shape": 0.06553922413221827,
      "sse": 0.003713191124873537
    },
    "in_valid_trace_index": {
      "number_of_samples": 577,
      "shape": 0.005335459340120201,
      "sse": 0.0009880834404264155
    }
  },
  "frequencies_max": 2,
  "frequencies_mean": 1.0040160642570282,
  "frequencies_median": 1.0,
  "frequencies_min": 1,
  "number_of_main_traces_80.0": 796,
  "number_of_trace_variants": 996
}