{
  "alpha": 1.8560459879428048,
  "alpha_err": 0.16177748535223274,
  "deviation_distributions": {
    "all": {
      "number_of_samples": 22,
      "scale": 0.08142100617828772,
      "sse": 0.729832967250705
    },
    "in_valid_trace": {
      "number_of_samples": 3,
      "scale": 0.5970873786407768,
      "sse": 1.6394166259314145
    },
    "in_valid_trace_index": {
      "number_of_samples": 33,
      "scale": 0.05428067078552515,
      "sse": 0.29899280537653156
    }
  },
  "deviation_distributions_geom": {
    "all": {
      "number_of_samples": 22,
      "shape": 0.1412752959144712,
      "sse": 0.005410690043610426
    },
    "in_valid_trace": {
      "number_of_samples": 3,
      "shape": 1.4083969465648856,
      "sse": NaN
    },
    "in_valid_trace_index": {
      "number_of_samples": 17,
      "shape": 0.15032414910858996,
      "sse": 0.026843479749098082
    }
  },
  "frequencies_max": 520,
  "frequencies_mean": 30.303030303030305,
  "frequencies_median": 9.0,
  "frequencies_min": 1,
  "number_of_main_traces_80.0": 5,
  "number_of_trace_variants": 33
}