{
  "alpha": 2.0205288621854476,
  "alpha_err": 0.18329239451985826,
  "deviation_distributions": {
    "all": {
      "number_of_samples": 25,
      "scale": 0.08768472906403942,
      "sse": 0.28533861860990756
    },
    "in_valid_trace": {
      "number_of_samples": 10,
      "scale": 0.2192118226600986,
      "sse": 0.5343141063373785
    },
    "in_valid_trace_index": {
      "number_of_samples": 100,
      "scale": 0.02192118226600985,
      "sse": 0.08011609237129
    }
  },
  "deviation_distributions_geom": {
    "all": {
      "number_of_samples": 25,
      "shape": 0.15656390717007274,
      "sse": 0.00585461127768976
    },
    "in_valid_trace": {
      "number_of_samples": 10,
      "shape": 0.7563025210084033,
      "sse": 0.03928184340739263
    },
    "in_valid_trace_index": {
      "number_of_samples": 37,
      "shape": 0.12299893276414088,
      "sse": 0.030794817633063284
    }
  },
  "frequencies_max": 523,
  "frequencies_mean": 13.698630136986301,
  "frequencies_median": 2.0,
  "frequencies_min": 1,
  "number_of_main_traces_80.0": 12,
  "number_of_trace_variants": 73
}