{
  "alpha": 3.278063739437634,
  "alpha_err": 0.4556127478875268,
  "deviation_distributions": {
    "all": {
      "number_of_samples": 23,
      "scale": 0.04826294986478053,
      "sse": 0.33353913035938904
    },
    "in_valid_trace": {
      "number_of_samples": 25,
      "scale": 0.04440191387559809,
      "sse": 0.5404753236728401
    },
    "in_valid_trace_index": {
      "number_of_samples": 300,
      "scale": 0.003700159489633174,
      "sse": 0.002722507525522596
    }
  },
  "deviation_distributions_geom": {
    "all": {
      "number_of_samples": 23,
      "shape": 0.13817330210772832,
      "sse": 0.004888963991686618
    },
    "in_valid_trace": {
      "number_of_samples": 25,
      "shape": 0.11603273952816563,
      "sse": 0.00420471747649103
    },
    "in_valid_trace_index": {
      "number_of_samples": 65,
      "shape": 0.034963086780888705,
      "sse": 0.005571186953900607
    }
  },
  "frequencies_max": 50,
  "frequencies_mean": 14.285714285714286,
  "frequencies_median": 11.0,
  "frequencies_min": 1,
  "number_of_main_traces_80.0": 37,
  "number_of_trace_variants": 70
}