{
  "alpha": 500.99933333262175,
  "alpha_err": 353.5529191882498,
  "deviation_distributions_geom": {
    "all": {
      "number_of_samples": 1,
      "shape": Infinity,
      "sse": 0.0
    },
    "in_valid_trace": {
      "number_of_samples": 1,
      "shape": Infinity,
      "sse": 0.0
    },
    "in_valid_trace_index": {
      "number_of_samples": 1,
      "shape": Infinity,
      "sse": 0.0
    }
  },
  "frequencies_max": 501,
  "frequencies_mean": 500.0,
  "frequencies_median": 500.0,
  "frequencies_min": 499,
  "number_of_main_traces_80.0": 1,
  "number_of_trace_variants": 2
}