{
  "alpha": 1.4055147664581455,
  "alpha_err": 0.07530220169323355,
  "deviation_distributions": {
    "all": {
      "number_of_samples": 8,
      "scale": 0.205188679245283,
      "sse": 1.1644906548705483
    },
    "in_valid_trace": {
      "number_of_samples": 11,
      "scale": 0.14922813036020582,
      "sse": 0.9029691241122848
    },
    "in_valid_trace_index": {
      "number_of_samples": 116,
      "scale": 0.014150943396226414,
      "sse": 0.01473205935364309
    }
  },
  "deviation_distributions_geom": {
    "all": {
      "number_of_samples": 8,
      "shape": 0.40675990675990675,
      "sse": 0.0756936454229391
    },
    "in_valid_trace": {
      "number_of_samples": 11,
      "shape": 0.2894954507857734,
      "sse": 0.02356568699032013
    },
    "in_valid_trace_index": {
      "number_of_samples": 42,
      "shape": 0.06848249027237355,
      "sse": 0.026271828213958345
    }
  },
  "frequencies_max": 130,
  "frequencies_mean": 29.41176470588235,
  "frequencies_median": 13.0,
  "frequencies_min": 1,
  "number_of_main_traces_80.0": 11,
  "number_of_trace_variants": 34
}