{
  "alpha": 2.1801002880987648,
  "alpha_err": 0.11101449678000033,
  "deviation_distributions_geom": {
    "all": {
      "number_of_samples": 78,
      "shape": 0.06595651539471764,
      "sse": 0.0003599703387989966
    },
    "in_valid_trace": {
      "number_of_samples": 41,
      "shape": 0.16022198353025421,
      "sse": 0.05972020604971547
    },
    "in_valid_trace_index": {
      "number_of_samples": 219,
      "shape": 0.018502407052955167,
      "sse": 0.013142693029907431
    }
  },
  "frequencies_max": 140,
  "frequencies_mean": 3.3222591362126246,
  "frequencies_median": 1.0,
  "frequencies_min": 1,
  "number_of_main_traces_80.0": 107,
  "number_of_trace_variants": 301
}