{
  "alpha": 22.496123471848918,
  "alpha_err": 15.20005467616768,
  "deviation_distributions_geom": {
    "all": {
      "number_of_samples": 73,
      "shape": 0.08676199666637424,
      "sse": 0.008133635153328725
    },
    "in_valid_trace": {
      "number_of_samples": 50,
      "shape": 0.05930130740662459,
      "sse": 0.0013113807854923084
    },
    "in_valid_trace_index": {
      "number_of_samples": 459,
      "shape": 0.005675788661285654,
      "sse": 0.000973596713456882
    }
  },
  "frequencies_max": 11,
  "frequencies_mean": 1.4792899408284024,
  "frequencies_median": 1.0,
  "frequencies_min": 1,
  "number_of_main_traces_80.0": 476,
  "number_of_trace_variants": 676
}