{
  "alpha": 2.638905594333851,
  "alpha_err": 0.4231636048574115,
  "deviation_distributions": {
    "all": {
      "number_of_samples": 13,
      "scale": 0.11663879598662209,
      "sse": 1.1843100045971642
    },
    "in_valid_trace": {
      "number_of_samples": 4,
      "scale": 0.37907608695652173,
      "sse": 1.540917401945042
    },
    "in_valid_trace_index": {
      "number_of_samples": 32,
      "scale": 0.047384510869565216,
      "sse": 0.44466994254144004
    }
  },
  "deviation_distributions_geom": {
    "all": {
      "number_of_samples": 13,
      "shape": 0.2280130293159609,
      "sse": 0.012630958570858273
    },
    "in_valid_trace": {
      "number_of_samples": 4,
      "shape": 0.7142857142857143,
      "sse": 0.20516034863086574
    },
    "in_valid_trace_index": {
      "number_of_samples": 14,
      "shape": 0.18105670103092783,
      "sse": 0.02575232588347865
    }
  },
  "frequencies_max": 330,
  "frequencies_mean": 66.66666666666667,
  "frequencies_median": 29.0,
  "frequencies_min": 23,
  "number_of_main_traces_80.0": 7,
  "number_of_trace_variants": 15
}