{
  "alpha": 1.9815731922793258,
  "alpha_err": 0.1659161519564649,
  "deviation_distributions": {
    "all": {
      "number_of_samples": 53,
      "scale": 0.05329797553114929,
      "sse": 0.16982407189617563
    },
    "in_valid_trace": {
      "number_of_samples": 32,
      "scale": 0.088274771973466,
      "sse": 0.19633326920363092
    },
    "in_valid_trace_index": {
      "number_of_samples": 394,
      "scale": 0.007169524627286579,
      "sse": 0.0015682268176358321
    }
  },
  "deviation_distributions_geom": {
    "all": {
      "number_of_samples": 53,
      "shape": 0.10439560439560439,
      "sse": 0.0010345171412369056
    },
    "in_valid_trace": {
      "number_of_samples": 32,
      "shape": 0.14990859232175502,
      "sse": 0.0022178796113819384
    },
    "in_valid_trace_index": {
      "number_of_samples": 81,
      "shape": 0.03582943001399112,
      "sse": 0.0062899167059106125
    }
  },
  "frequencies_max": 334,
  "frequencies_mean": 4.672897196261682,
  "frequencies_median": 1.0,
  "frequencies_min": 1,
  "number_of_main_traces_80.0": 50,
  "number_of_trace_variants": 214
}