{
  "alpha": 6.581299963934662,
  "alpha_err": 2.1095330995749837,
  "deviation_distributions_geom": {
    "all": {
      "number_of_samples": 100,
      "shape": 0.03933281107194151,
      "sse": 0.0018864075987554923
    },
    "in_valid_trace": {
      "number_of_samples": 47,
      "shape": 0.08686486879406848,
      "sse": 0.00162430597463457
    },
    "in_valid_trace_index": {
      "number_of_samples": 332,
      "shape": 0.008360269122268133,
      "sse": 0.001589827243017435
    }
  },
  "frequencies_max": 55,
  "frequencies_mean": 2.1459227467811157,
  "frequencies_median": 1.0,
  "frequencies_min": 1,
  "number_of_main_traces_80.0": 266,
  "number_of_trace_variants": 466
}