{
  "alpha": 2.049685921906713,
  "alpha_err": 0.1196228127620555,
  "deviation_distributions": {
    "all": {
      "number_of_samples": 77,
      "scale": 0.04663909887790485,
      "sse": 0.10781538386161359
    },
    "in_valid_trace": {
      "number_of_samples": 33,
      "scale": 0.10882456404844468,
      "sse": 0.4227044606321521
    },
    "in_valid_trace_index": {
      "number_of_samples": 534,
      "scale": 0.006725113508611747,
      "sse": 0.0008408744154730851
    }
  },
  "deviation_distributions_geom": {
    "all": {
      "number_of_samples": 77,
      "shape": 0.06687527939204292,
      "sse": 0.0007378993530489113
    },
    "in_valid_trace": {
      "number_of_samples": 33,
      "shape": 0.3108852181279119,
      "sse": 0.004974529687612556
    },
    "in_valid_trace_index": {
      "number_of_samples": 161,
      "shape": 0.022107822107822108,
      "sse": 0.005104743760444538
    }
  },
  "frequencies_max": 501,
  "frequencies_mean": 4.672897196261682,
  "frequencies_median": 1.0,
  "frequencies_min": 1,
  "number_of_main_traces_80.0": 45,
  "number_of_trace_variants": 214
}