{
  "alpha": 1.7036380057819054,
  "alpha_err": 0.14362950648293232,
  "deviation_distributions": {
    "all": {
      "number_of_samples": 67,
      "scale": 0.056945004706198746,
      "sse": 0.24329611800214115
    },
    "in_valid_trace": {
      "number_of_samples": 2,
      "scale": 1.9076576576576576,
      "sse": 1.7151036263099062
    },
    "in_valid_trace_index": {
      "number_of_samples": 37,
      "scale": 0.10311663014365717,
      "sse": 0.7458097967204927
    }
  },
  "deviation_distributions_geom": {
    "all": {
      "number_of_samples": 67,
      "shape": 0.09497645211930926,
      "sse": 0.0010729713525529157
    },
    "in_valid_trace": {
      "number_of_samples": 2,
      "shape": 84.7,
      "sse": NaN
    },
    "in_valid_trace_index": {
      "number_of_samples": 12,
      "shape": 0.19734389561975768,
      "sse": 0.1002939883524513
    }
  },
  "frequencies_max": 531,
  "frequencies_mean": 10.869565217391305,
  "frequencies_median": 1.0,
  "frequencies_min": 1,
  "number_of_main_traces_80.0": 5,
  "number_of_trace_variants": 92
}