{
  "alpha": 2.3966043340748366,
  "alpha_err": 0.23276738901247276,
  "deviation_distributions": {
    "all": {
      "number_of_samples": 36,
      "scale": 0.06024416135881104,
      "sse": 0.060846299992954204
    },
    "in_valid_trace": {
      "number_of_samples": 28,
      "scale": 0.07745677888989992,
      "sse": 0.3321972167158283
    },
    "in_valid_trace_index": {
      "number_of_samples": 305,
      "scale": 0.00711078625874491,
      "sse": 0.0004582592257916495
    }
  },
  "deviation_distributions_geom": {
    "all": {
      "number_of_samples": 36,
      "shape": 0.11392811296534017,
      "sse": 0.0022654855845719033
    },
    "in_valid_trace": {
      "number_of_samples": 28,
      "shape": 0.12996658002227998,
      "sse": 0.012255443117037442
    },
    "in_valid_trace_index": {
      "number_of_samples": 112,
      "shape": 0.02558860848724094,
      "sse": 0.006412592045815104
    }
  },
  "frequencies_max": 126,
  "frequencies_mean": 6.418032786885246,
  "frequencies_median": 2.0,
  "frequencies_min": 1,
  "number_of_main_traces_80.0": 39,
  "number_of_trace_variants": 122
}