{
  "alpha": 3.3337650332105837,
  "alpha_err": 0.5218457257770919,
  "deviation_distributions_geom": {
    "all": {
      "number_of_samples": 79,
      "shape": 0.10453615279672578,
      "sse": 0.0008790951575428352
    },
    "in_valid_trace": {
      "number_of_samples": 48,
      "shape": 0.09226566847083818,
      "sse": 0.0008385668103434439
    },
    "in_valid_trace_index": {
      "number_of_samples": 272,
      "shape": 0.012760336341813401,
      "sse": 0.0021814842605589486
    }
  },
  "frequencies_max": 23,
  "frequencies_mean": 1.7064846416382253,
  "frequencies_median": 1.0,
  "frequencies_min": 1,
  "number_of_main_traces_80.0": 386,
  "number_of_trace_variants": 586
}