{
  "alpha": 1.7469381387028804,
  "alpha_err": 0.1007171180764064,
  "deviation_distributions": {
    "all": {
      "number_of_samples": 15,
      "scale": 0.14158730158730157,
      "sse": 0.4383916992259892
    },
    "in_valid_trace": {
      "number_of_samples": 9,
      "scale": 0.23597883597883598,
      "sse": 0.8053829719762063
    },
    "in_valid_trace_index": {
      "number_of_samples": 108,
      "scale": 0.01966490299823633,
      "sse": 0.12529639278832783
    }
  },
  "deviation_distributions_geom": {
    "all": {
      "number_of_samples": 15,
      "shape": 0.280426599749059,
      "sse": 0.020812489184044027
    },
    "in_valid_trace": {
      "number_of_samples": 9,
      "shape": 0.4556574923547401,
      "sse": 0.066244021635658
    },
    "in_valid_trace_index": {
      "number_of_samples": 18,
      "shape": 0.15493934142114385,
      "sse": 0.03784054967167398
    }
  },
  "frequencies_max": 130,
  "frequencies_mean": 12.987012987012987,
  "frequencies_median": 4.0,
  "frequencies_min": 1,
  "number_of_main_traces_80.0": 20,
  "number_of_trace_variants": 77
}