{
  "alpha": 2.9510082526623345,
  "alpha_err": 0.7374118060541724,
  "deviation_distributions": {
    "all": {
      "number_of_samples": 4,
      "scale": 0.4494219653179191,
      "sse": 1.7208719992457322
    },
    "in_valid_trace": {
      "number_of_samples": 3,
      "scale": 0.5992292870905588,
      "sse": 1.7077417640426518
    },
    "in_valid_trace_index": {
      "number_of_samples": 23,
      "scale": 0.07816034179442072,
      "sse": 0.7292368465783395
    }
  },
  "deviation_distributions_geom": {
    "all": {
      "number_of_samples": 4,
      "shape": 0.8638888888888889,
      "sse": 0.1814467209285114
    },
    "in_valid_trace": {
      "number_of_samples": 3,
      "shape": 1.0366666666666666,
      "sse": NaN
    },
    "in_valid_trace_index": {
      "number_of_samples": 6,
      "shape": 0.43194444444444446,
      "sse": 0.08255951299883849
    }
  },
  "frequencies_max": 253,
  "frequencies_mean": 72.91666666666667,
  "frequencies_median": 56.5,
  "frequencies_min": 18,
  "number_of_main_traces_80.0": 6,
  "number_of_trace_variants": 12
}