{
  "alpha": 13.039003338578437,
  "alpha_err": 6.950721818303064,
  "deviation_distributions_geom": {
    "all": {
      "number_of_samples": 100,
      "shape": 0.07000665041010862,
      "sse": 0.008593934445629224
    },
    "in_valid_trace": {
      "number_of_samples": 48,
      "shape": 0.11467502288571228,
      "sse": 0.001767539239839592
    },
    "in_valid_trace_index": {
      "number_of_samples": 374,
      "shape": 0.009513447865799662,
      "sse": 0.0014067018486993016
    }
  },
  "frequencies_max": 11,
  "frequencies_mean": 1.5015015015015014,
  "frequencies_median": 1.0,
  "frequencies_min": 1,
  "number_of_main_traces_80.0": 466,
  "number_of_trace_variants": 666
}