{
  "alpha": 2.319097704903017,
  "alpha_err": 0.1465664116558908,
  "deviation_distributions_geom": {
    "all": {
      "number_of_samples": 78,
      "shape": 0.06959995158264239,
      "sse": 0.0006441536458565772
    },
    "in_valid_trace": {
      "number_of_samples": 45,
      "shape": 0.33265365569472766,
      "sse": 0.22184662965305965
    },
    "in_valid_trace_index": {
      "number_of_samples": 215,
      "shape": 0.030422549364417423,
      "sse": 0.015561986579858805
    }
  },
  "frequencies_max": 499,
  "frequencies_mean": 3.401360544217687,
  "frequencies_median": 1.0,
  "frequencies_min": 1,
  "number_of_main_traces_80.0": 94,
  "number_of_trace_variants": 294
}