{
  "alpha": 3.5616944797274743,
  "alpha_err": 1.2808472398637372,
  "deviation_distributions": {
    "all": {
      "number_of_samples": 81,
      "scale": 0.03381620034328018,
      "sse": 0.09744119537184183
    },
    "in_valid_trace": {
      "number_of_samples": 18,
      "scale": 0.15217290154476082,
      "sse": 0.24688230993922394
    },
    "in_valid_trace_index": {
      "number_of_samples": 165,
      "scale": 0.016600680168519368,
      "sse": 0.009396601126062656
    }
  },
  "deviation_distributions_geom": {
    "all": {
      "number_of_samples": 81,
      "shape": 0.06571792201781788,
      "sse": 0.005046506473850098
    },
    "in_valid_trace": {
      "number_of_samples": 18,
      "shape": 0.3023001095290252,
      "sse": 0.013687481803815642
    },
    "in_valid_trace_index": {
      "number_of_samples": 111,
      "shape": 0.035414058307994996,
      "sse": 0.005632956091182901
    }
  },
  "frequencies_max": 248,
  "frequencies_mean": 5.0761421319796955,
  "frequencies_median": 1.0,
  "frequencies_min": 1,
  "number_of_main_traces_80.0": 21,
  "number_of_trace_variants": 197
}