{
  "alpha": 2.152149900048051,
  "alpha_err": 0.2103528299612133,
  "deviation_distributions_geom": {
    "all": {
      "number_of_samples": 100,
      "shape": 0.044072033702143416,
      "sse": 0.006498166243902217
    },
    "in_valid_trace": {
      "number_of_samples": 48,
      "shape": 0.06734624532789671,
      "sse": 0.0018906374405816902
    },
    "in_valid_trace_index": {
      "number_of_samples": 384,
      "shape": 0.006808873828829116,
      "sse": 0.0010655166720616705
    }
  },
  "frequencies_max": 525,
  "frequencies_mean": 3.0303030303030303,
  "frequencies_median": 1.0,
  "frequencies_min": 1,
  "number_of_main_traces_80.0": 130,
  "number_of_trace_variants": 330
}