{
  "alpha": 1.3076396922132543,
  "alpha_err": 0.06279668921244502,
  "deviation_distributions": {
    "all": {
      "number_of_samples": 10,
      "scale": 0.2041666666666667,
      "sse": 0.8402710396722559
    },
    "in_valid_trace": {
      "number_of_samples": 2,
      "scale": 1.0208333333333333,
      "sse": 1.7579378244932058
    },
    "in_valid_trace_index": {
      "number_of_samples": 17,
      "scale": 0.12009803921568626,
      "sse": 0.9387473367522937
    }
  },
  "deviation_distributions_geom": {
    "all": {
      "number_of_samples": 10,
      "shape": 0.4914744232698094,
      "sse": 0.08790071617883793
    },
    "in_valid_trace": {
      "number_of_samples": 2,
      "shape": 3.8888888888888893,
      "sse": NaN
    },
    "in_valid_trace_index": {
      "number_of_samples": 3,
      "shape": 1.3172043010752688,
      "sse": NaN
    }
  },
  "frequencies_max": 273,
  "frequencies_mean": 41.666666666666664,
  "frequencies_median": 17.0,
  "frequencies_min": 1,
  "number_of_main_traces_80.0": 6,
  "number_of_trace_variants": 24
}