{
  "alpha": 2.0182697743774574,
  "alpha_err": 0.15179469566275788,
  "deviation_distributions": {
    "all": {
      "number_of_samples": 97,
      "scale": 0.04150052389012231,
      "sse": 0.13491170594076365
    },
    "in_valid_trace": {
      "number_of_samples": 23,
      "scale": 0.175023948580081,
      "sse": 0.9798138013556601
    },
    "in_valid_trace_index": {
      "number_of_samples": 359,
      "scale": 0.011213233474489865,
      "sse": 0.00882386858414616
    }
  },
  "deviation_distributions_geom": {
    "all": {
      "number_of_samples": 97,
      "shape": 0.0575355386377417,
      "sse": 0.001655702352694402
    },
    "in_valid_trace": {
      "number_of_samples": 23,
      "shape": 0.21428571428571427,
      "sse": 0.012816560768658551
    },
    "in_valid_trace_index": {
      "number_of_samples": 146,
      "shape": 0.018217347453353506,
      "sse": 0.004588172546405161
    }
  },
  "frequencies_max": 502,
  "frequencies_mean": 5.434782608695652,
  "frequencies_median": 1.0,
  "frequencies_min": 1,
  "number_of_main_traces_80.0": 33,
  "number_of_trace_variants": 184
}