{
  "alpha": 18.49523705818949,
  "alpha_err": 12.37100076231197,
  "deviation_distributions_geom": {
    "all": {
      "number_of_samples": 42,
      "shape": 0.08926956128448665,
      "sse": 0.003345460468156831
    },
    "in_valid_trace": {
      "number_of_samples": 49,
      "shape": 0.07069938210799677,
      "sse": 0.0014634370793075464
    },
    "in_valid_trace_index": {
      "number_of_samples": 298,
      "shape": 0.009097788981385194,
      "sse": 0.0013497112950649507
    }
  },
  "frequencies_max": 9,
  "frequencies_mean": 1.7182130584192439,
  "frequencies_median": 1.0,
  "frequencies_min": 1,
  "number_of_main_traces_80.0": 382,
  "number_of_trace_variants": 582
}