{
  "alpha": 2.06793024173113,
  "alpha_err": 0.1805131575104635,
  "deviation_distributions_geom": {
    "all": {
      "number_of_samples": 100,
      "shape": 0.03660360546707187,
      "sse": 0.002166635220628905
    },
    "in_valid_trace": {
      "number_of_samples": 50,
      "shape": 0.10702218975436034,
      "sse": 0.024243485431081176
    },
    "in_valid_trace_index": {
      "number_of_samples": 595,
      "shape": 0.0068945600323268115,
      "sse": 0.0017258119066305736
    }
  },
  "frequencies_max": 30,
  "frequencies_mean": 1.3831258644536653,
  "frequencies_median": 1.0,
  "frequencies_min": 1,
  "number_of_main_traces_80.0": 523,
  "number_of_trace_variants": 723
}