{
  "alpha": 1.8279213257066311,
  "alpha_err": 0.1463571959240288,
  "deviation_distributions": {
    "all": {
      "number_of_samples": 28,
      "scale": 0.07377551020408162,
      "sse": 0.20809886228781124
    },
    "in_valid_trace": {
      "number_of_samples": 9,
      "scale": 0.22952380952380955,
      "sse": 0.6407299168051485
    },
    "in_valid_trace_index": {
      "number_of_samples": 77,
      "scale": 0.026827458256029686,
      "sse": 0.09418534504716948
    }
  },
  "deviation_distributions_geom": {
    "all": {
      "number_of_samples": 28,
      "shape": 0.15759312320916904,
      "sse": 0.0025821385625638058
    },
    "in_valid_trace": {
      "number_of_samples": 9,
      "shape": 0.5847797062750334,
      "sse": 0.05770927001818038
    },
    "in_valid_trace_index": {
      "number_of_samples": 44,
      "shape": 0.07476330395037545,
      "sse": 0.012553210282765775
    }
  },
  "frequencies_max": 247,
  "frequencies_mean": 23.25581395348837,
  "frequencies_median": 6.0,
  "frequencies_min": 1,
  "number_of_main_traces_80.0": 11,
  "number_of_trace_variants": 43
}