{
  "alpha": 1.5940245333078022,
  "alpha_err": 0.07799924249980895,
  "deviation_distributions": {
    "all": {
      "number_of_samples": 19,
      "scale": 0.11760261898766051,
      "sse": 0.3558435930155566
    },
    "in_valid_trace": {
      "number_of_samples": 11,
      "scale": 0.2031317964332318,
      "sse": 0.9056139807281336
    },
    "in_valid_trace_index": {
      "number_of_samples": 101,
      "scale": 0.02212326495807475,
      "sse": 0.1384285594761401
    }
  },
  "deviation_distributions_geom": {
    "all": {
      "number_of_samples": 19,
      "shape": 0.2311881188118812,
      "sse": 0.008762276490862963
    },
    "in_valid_trace": {
      "number_of_samples": 11,
      "shape": 0.4308118081180811,
      "sse": 0.016515396976130414
    },
    "in_valid_trace_index": {
      "number_of_samples": 17,
      "shape": 0.18687474989995997,
      "sse": 0.025846717787962187
    }
  },
  "frequencies_max": 115,
  "frequencies_mean": 13.513513513513514,
  "frequencies_median": 4.0,
  "frequencies_min": 1,
  "number_of_main_traces_80.0": 19,
  "number_of_trace_variants": 74
}