{
  "alpha": 58.97321939683899,
  "alpha_err": 33.470853824554226,
  "deviation_distributions": {
    "all": {
      "number_of_samples": 2,
      "scale": 0.9937106918238994,
      "sse": NaN
    },
    "in_valid_trace": {
      "number_of_samples": 4,
      "scale": 0.4968553459119497,
      "sse": NaN
    },
    "in_valid_trace_index": {
      "number_of_samples": 28,
      "scale": 0.07097933513027853,
      "sse": 0.6872738791997054
    }
  },
  "deviation_distributions_geom": {
    "all": {
      "number_of_samples": 2,
      "shape": 2.0,
      "sse": NaN
    },
    "in_valid_trace": {
      "number_of_samples": 4,
      "shape": 0.6694736842105263,
      "sse": 0.19118300493637325
    },
    "in_valid_trace_index": {
      "number_of_samples": 4,
      "shape": 0.6694736842105263,
      "sse": 0.19118300493637325
    }
  },
  "frequencies_max": 178,
  "frequencies_mean": 166.66666666666666,
  "frequencies_median": 166.5,
  "frequencies_min": 157,
  "number_of_main_traces_80.0": 4,
  "number_of_trace_variants": 6
}