{
  "alpha": 4.984584825074217,
  "alpha_err": 0.704381737505748,
  "deviation_distributions_geom": {
    "all": {
      "number_of_samples": 32,
      "shape": 0.11369788846778558,
      "sse": 0.0032918386259316906
    },
    "in_valid_trace": {
      "number_of_samples": 41,
      "shape": 0.08805939368942049,
      "sse": 0.0009750154564237773
    },
    "in_valid_trace_index": {
      "number_of_samples": 127,
      "shape": 0.019815628500043078,
      "sse": 0.004487868979240249
    }
  },
  "frequencies_max": 30,
  "frequencies_mean": 8.474576271186441,
  "frequencies_median": 8.0,
  "frequencies_min": 1,
  "number_of_main_traces_80.0": 66,
  "number_of_trace_variants": 118
}