{
  "alpha": 1.9557807177087472,
  "alpha_err": 0.14247937709201972,
  "deviation_distributions": {
    "all": {
      "number_of_samples": 26,
      "scale": 0.09022196708763874,
      "sse": 0.2268891131764185
    },
    "in_valid_trace": {
      "number_of_samples": 11,
      "scale": 0.21325192220714612,
      "sse": 0.6161782684048616
    },
    "in_valid_trace_index": {
      "number_of_samples": 169,
      "scale": 0.013880302628867497,
      "sse": 0.05055644681460393
    }
  },
  "deviation_distributions_geom": {
    "all": {
      "number_of_samples": 26,
      "shape": 0.22248353715898403,
      "sse": 0.003039912645127774
    },
    "in_valid_trace": {
      "number_of_samples": 11,
      "shape": 0.38783894823336074,
      "sse": 0.022792756272175908
    },
    "in_valid_trace_index": {
      "number_of_samples": 16,
      "shape": 0.1868566904196358,
      "sse": 0.0121829842929541
    }
  },
  "frequencies_max": 131,
  "frequencies_mean": 9.900990099009901,
  "frequencies_median": 3.0,
  "frequencies_min": 1,
  "number_of_main_traces_80.0": 26,
  "number_of_trace_variants": 101
}