{
  "alpha": 3.02301906486436,
  "alpha_err": 0.3633449501508871,
  "deviation_distributions_geom": {
    "all": {
      "number_of_samples": 100,
      "shape": 0.049935033198631525,
      "sse": 0.008299841312805872
    },
    "in_valid_trace": {
      "number_of_samples": 48,
      "shape": 0.26102689486552566,
      "sse": 0.052417438426064084
    },
    "in_valid_trace_index": {
      "number_of_samples": 371,
      "shape": 0.020519666555418474,
      "sse": 0.0086475445893902
    }
  },
  "frequencies_max": 10,
  "frequencies_mean": 1.1820330969267139,
  "frequencies_median": 1.0,
  "frequencies_min": 1,
  "number_of_main_traces_80.0": 646,
  "number_of_trace_variants": 846
}