{
  "alpha": 1.3391553121520006,
  "alpha_err": 0.05816465617763403,
  "deviation_distributions": {
    "all": {
      "number_of_samples": 11,
      "scale": 0.13305785123966943,
      "sse": 0.7618601882110804
    },
    "in_valid_trace": {
      "number_of_samples": 3,
      "scale": 0.48787878787878786,
      "sse": 1.5373054999475964
    },
    "in_valid_trace_index": {
      "number_of_samples": 33,
      "scale": 0.04435261707988981,
      "sse": 0.46249402542265117
    }
  },
  "deviation_distributions_geom": {
    "all": {
      "number_of_samples": 11,
      "shape": 0.5709219858156028,
      "sse": 0.0958094278453707
    },
    "in_valid_trace": {
      "number_of_samples": 3,
      "shape": 1.75,
      "sse": NaN
    },
    "in_valid_trace_index": {
      "number_of_samples": 4,
      "shape": 0.8797814207650273,
      "sse": 0.18630720236326856
    }
  },
  "frequencies_max": 137,
  "frequencies_mean": 29.41176470588235,
  "frequencies_median": 8.0,
  "frequencies_min": 1,
  "number_of_main_traces_80.0": 9,
  "number_of_trace_variants": 34
}