{
  "alpha": 24.49645347252871,
  "alpha_err": 16.61450158425925,
  "deviation_distributions_geom": {
    "all": {
      "number_of_samples": 100,
      "shape": 0.046617875360390325,
      "sse": 0.0023379975233108665
    },
    "in_valid_trace": {
      "number_of_samples": 50,
      "shape": 0.050691948925758845,
      "sse": 0.0021496228226694242
    },
    "in_valid_trace_index": {
      "number_of_samples": 458,
      "shape": 0.005209198111916565,
      "sse": 0.000879287620301578
    }
  },
  "frequencies_max": 12,
  "frequencies_mean": 1.7985611510791366,
  "frequencies_median": 1.0,
  "frequencies_min": 1,
  "number_of_main_traces_80.0": 356,
  "number_of_trace_variants": 556
}