{
  "alpha": 3.8221189114551914,
  "alpha_err": 1.15212522108732,
  "deviation_distributions": {
    "all": {
      "number_of_samples": 4,
      "scale": 0.49353448275862066,
      "sse": NaN
    },
    "in_valid_trace": {
      "number_of_samples": 2,
      "scale": 0.9870689655172413,
      "sse": NaN
    },
    "in_valid_trace_index": {
      "number_of_samples": 14,
      "scale": 0.14100985221674875,
      "sse": 1.0055017912065225
    }
  },
  "deviation_distributions_geom": {
    "all": {
      "number_of_samples": 4,
      "shape": 0.6705539358600583,
      "sse": 0.19139318980544495
    },
    "in_valid_trace": {
      "number_of_samples": 2,
      "shape": 2.0,
      "sse": NaN
    },
    "in_valid_trace_index": {
      "number_of_samples": 4,
      "shape": 0.6666666666666666,
      "sse": 0.19469071773476143
    }
  },
  "frequencies_max": 219,
  "frequencies_mean": 166.66666666666666,
  "frequencies_median": 167.0,
  "frequencies_min": 113,
  "number_of_main_traces_80.0": 4,
  "number_of_trace_variants": 6
}