{
  "alpha": 2.0165212155125145,
  "alpha_err": 0.22182311502926746,
  "deviation_distributions": {
    "all": {
      "number_of_samples": 8,
      "scale": 0.1651376146788991,
      "sse": 1.040072133361757
    },
    "in_valid_trace": {
      "number_of_samples": 5,
      "scale": 0.26422018348623855,
      "sse": 1.0259360498397643
    },
    "in_valid_trace_index": {
      "number_of_samples": 49,
      "scale": 0.026961243212881486,
      "sse": 0.23354404258458286
    }
  },
  "deviation_distributions_geom": {
    "all": {
      "number_of_samples": 8,
      "shape": 0.5088339222614842,
      "sse": 0.05896979718544536
    },
    "in_valid_trace": {
      "number_of_samples": 5,
      "shape": 1.3649289099526067,
      "sse": NaN
    },
    "in_valid_trace_index": {
      "number_of_samples": 8,
      "shape": 0.39237057220708443,
      "sse": 0.08291869359064909
    }
  },
  "frequencies_max": 330,
  "frequencies_mean": 40.0,
  "frequencies_median": 22.0,
  "frequencies_min": 4,
  "number_of_main_traces_80.0": 10,
  "number_of_trace_variants": 25
}