{
  "alpha": 20.50573560571062,
  "alpha_err": 7.9631832152714646,
  "deviation_distributions": {
    "all": {
      "number_of_samples": 5,
      "scale": 0.25123152709359603,
      "sse": 1.3196973055122923
    },
    "in_valid_trace": {
      "number_of_samples": 6,
      "scale": 0.20935960591133004,
      "sse": 1.2516491806467327
    },
    "in_valid_trace_index": {
      "number_of_samples": 60,
      "scale": 0.020935960591133004,
      "sse": 0.15645353218491934
    }
  },
  "deviation_distributions_geom": {
    "all": {
      "number_of_samples": 5,
      "shape": 1.4021739130434783,
      "sse": NaN
    },
    "in_valid_trace": {
      "number_of_samples": 6,
      "shape": 0.5707964601769911,
      "sse": 0.13145551572036068
    },
    "in_valid_trace_index": {
      "number_of_samples": 9,
      "shape": 0.2807399347116431,
      "sse": 0.049135340168801354
    }
  },
  "frequencies_max": 91,
  "frequencies_mean": 55.55555555555556,
  "frequencies_median": 56.0,
  "frequencies_min": 25,
  "number_of_main_traces_80.0": 11,
  "number_of_trace_variants": 18
}