{
  "alpha": 24.49645347252871,
  "alpha_err": 16.61450158425925,
  "deviation_distributions_geom": {
    "all": {
      "number_of_samples": 100,
      "shape": 0.042998015931771744,
      "sse": 0.0007043050417982081
    },
    "in_valid_trace": {
      "number_of_samples": 50,
      "shape": 0.06219227779217414,
      "sse": 0.002525673538441641
    },
    "in_valid_trace_index": {
      "number_of_samples": 346,
      "shape": 0.007826385522701568,
      "sse": 0.0015212786519103742
    }
  },
  "frequencies_max": 12,
  "frequencies_mean": 2.100840336134454,
  "frequencies_median": 1.0,
  "frequencies_min": 1,
  "number_of_main_traces_80.0": 276,
  "number_of_trace_variants": 476
}