{
  "alpha": 2.396181457298402,
  "alpha_err": 0.23599773980176106,
  "deviation_distributions": {
    "all": {
      "number_of_samples": 27,
      "scale": 0.061083471531232725,
      "sse": 0.1830050591468169
    },
    "in_valid_trace": {
      "number_of_samples": 17,
      "scale": 0.09701492537313432,
      "sse": 0.17478332150787043
    },
    "in_valid_trace_index": {
      "number_of_samples": 160,
      "scale": 0.010307835820895523,
      "sse": 0.0031937922763819815
    }
  },
  "deviation_distributions_geom": {
    "all": {
      "number_of_samples": 27,
      "shape": 0.13141524105754276,
      "sse": 0.0026995591476091613
    },
    "in_valid_trace": {
      "number_of_samples": 17,
      "shape": 0.26229508196721313,
      "sse": 0.020924397458667775
    },
    "in_valid_trace_index": {
      "number_of_samples": 55,
      "shape": 0.05865302642796249,
      "sse": 0.009885506704769348
    }
  },
  "frequencies_max": 260,
  "frequencies_mean": 16.666666666666668,
  "frequencies_median": 7.0,
  "frequencies_min": 1,
  "number_of_main_traces_80.0": 20,
  "number_of_trace_variants": 60
}