{
  "alpha": 2.362512042773468,
  "alpha_err": 0.24875952689982406,
  "deviation_distributions": {
    "all": {
      "number_of_samples": 34,
      "scale": 0.0634828188701223,
      "sse": 0.21571303146108053
    },
    "in_valid_trace": {
      "number_of_samples": 25,
      "scale": 0.08633663366336634,
      "sse": 0.22608705062603854
    },
    "in_valid_trace_index": {
      "number_of_samples": 319,
      "scale": 0.006766193860765386,
      "sse": 0.0007346137689689364
    }
  },
  "deviation_distributions_geom": {
    "all": {
      "number_of_samples": 34,
      "shape": 0.10397553516819573,
      "sse": 0.001658812934924049
    },
    "in_valid_trace": {
      "number_of_samples": 25,
      "shape": 0.2609988109393579,
      "sse": 0.015147014682558172
    },
    "in_valid_trace_index": {
      "number_of_samples": 71,
      "shape": 0.048523438357668244,
      "sse": 0.015624336928021374
    }
  },
  "frequencies_max": 130,
  "frequencies_mean": 7.751937984496124,
  "frequencies_median": 3.0,
  "frequencies_min": 1,
  "number_of_main_traces_80.0": 36,
  "number_of_trace_variants": 129
}