{
  "alpha": 6.484814947747079,
  "alpha_err": 2.452883813433885,
  "deviation_distributions_geom": {
    "all": {
      "number_of_samples": 100,
      "shape": 0.0531211118866264,
      "sse": 0.011991697479482389
    },
    "in_valid_trace": {
      "number_of_samples": 50,
      "shape": 0.07458701818788586,
      "sse": 0.006138257388381299
    },
    "in_valid_trace_index": {
      "number_of_samples": 562,
      "shape": 0.005725763027143452,
      "sse": 0.0014773785718995304
    }
  },
  "frequencies_max": 3,
  "frequencies_mean": 1.0649627263045793,
  "frequencies_median": 1.0,
  "frequencies_min": 1,
  "number_of_main_traces_80.0": 739,
  "number_of_trace_variants": 939
}