{
  "alpha": 1.9056588320709489,
  "alpha_err": 0.16534992390968062,
  "deviation_distributions_geom": {
    "all": {
      "number_of_samples": 95,
      "shape": 0.07721010332950631,
      "sse": 0.0036063836999615144
    },
    "in_valid_trace": {
      "number_of_samples": 24,
      "shape": 0.4433333333333333,
      "sse": 0.013925034189106698
    },
    "in_valid_trace_index": {
      "number_of_samples": 157,
      "shape": 0.02347732181425486,
      "sse": 0.0063896671205217115
    }
  },
  "frequencies_max": 127,
  "frequencies_mean": 3.937007874015748,
  "frequencies_median": 1.0,
  "frequencies_min": 1,
  "number_of_main_traces_80.0": 58,
  "number_of_trace_variants": 254
}