{
  "alpha": 1.5770186269444988,
  "alpha_err": 0.11104728653127821,
  "deviation_distributions": {
    "all": {
      "number_of_samples": 20,
      "scale": 0.12196261682242986,
      "sse": 0.6228139637671937
    },
    "in_valid_trace": {
      "number_of_samples": 3,
      "scale": 0.8130841121495327,
      "sse": 1.564217323212417
    },
    "in_valid_trace_index": {
      "number_of_samples": 17,
      "scale": 0.14348543155579987,
      "sse": 0.9863424635375062
    }
  },
  "deviation_distributions_geom": {
    "all": {
      "number_of_samples": 20,
      "shape": 0.47282608695652173,
      "sse": 0.01791411716934581
    },
    "in_valid_trace": {
      "number_of_samples": 3,
      "shape": 3.0,
      "sse": NaN
    },
    "in_valid_trace_index": {
      "number_of_samples": 6,
      "shape": 0.43391521197007477,
      "sse": 0.14786305838272812
    }
  },
  "frequencies_max": 502,
  "frequencies_mean": 20.408163265306122,
  "frequencies_median": 2.0,
  "frequencies_min": 1,
  "number_of_main_traces_80.0": 4,
  "number_of_trace_variants": 49
}