{
  "alpha": 1.7078948960889686,
  "alpha_err": 0.13623443627164272,
  "deviation_distributions": {
    "all": {
      "number_of_samples": 12,
      "scale": 0.13204809286898841,
      "sse": 0.4799570627136086
    },
    "in_valid_trace": {
      "number_of_samples": 3,
      "scale": 0.5281923714759534,
      "sse": 1.6367628098489058
    },
    "in_valid_trace_index": {
      "number_of_samples": 26,
      "scale": 0.060945273631840796,
      "sse": 0.29497761386452354
    }
  },
  "deviation_distributions_geom": {
    "all": {
      "number_of_samples": 12,
      "shape": 0.3921568627450981,
      "sse": 0.02822253459366559
    },
    "in_valid_trace": {
      "number_of_samples": 3,
      "shape": 1.2914979757085019,
      "sse": NaN
    },
    "in_valid_trace_index": {
      "number_of_samples": 20,
      "shape": 0.14178112538768278,
      "sse": 0.0213548316588189
    }
  },
  "frequencies_max": 514,
  "frequencies_mean": 24.390243902439025,
  "frequencies_median": 4.0,
  "frequencies_min": 1,
  "number_of_main_traces_80.0": 4,
  "number_of_trace_variants": 41
}