{
  "alpha": 2.20727205835978,
  "alpha_err": 0.19088647299483136,
  "deviation_distributions_geom": {
    "all": {
      "number_of_samples": 100,
      "shape": 0.07161983782764474,
      "sse": 0.01025193275047391
    },
    "in_valid_trace": {
      "number_of_samples": 31,
      "shape": 0.7274783264229174,
      "sse": 0.0625304491015879
    },
    "in_valid_trace_index": {
      "number_of_samples": 121,
      "shape": 0.03776437973751042,
      "sse": 0.006283011636884677
    }
  },
  "frequencies_max": 255,
  "frequencies_mean": 3.003003003003003,
  "frequencies_median": 1.0,
  "frequencies_min": 1,
  "number_of_main_traces_80.0": 133,
  "number_of_trace_variants": 333
}