{
  "alpha": 1.856961985731108,
  "alpha_err": 0.08284564213312913,
  "deviation_distributions_geom": {
    "all": {
      "number_of_samples": 67,
      "shape": 0.08787666433076384,
      "sse": 0.0007413027609355783
    },
    "in_valid_trace": {
      "number_of_samples": 36,
      "shape": 0.508585445625511,
      "sse": 0.040527361582454735
    },
    "in_valid_trace_index": {
      "number_of_samples": 125,
      "shape": 0.037029489680067536,
      "sse": 0.008654282297136776
    }
  },
  "frequencies_max": 47,
  "frequencies_mean": 3.816793893129771,
  "frequencies_median": 1.0,
  "frequencies_min": 1,
  "number_of_main_traces_80.0": 84,
  "number_of_trace_variants": 262
}