{
  "alpha": 1.480272297628951,
  "alpha_err": 0.21478430104166912,
  "deviation_distributions": {
    "all": {
      "number_of_samples": 4,
      "scale": 0.43163265306122445,
      "sse": 1.7227511128582156
    },
    "in_valid_trace": {
      "number_of_samples": 1,
      "scale": 1.726530612244898,
      "sse": NaN
    },
    "in_valid_trace_index": {
      "number_of_samples": 7,
      "scale": 0.2466472303206997,
      "sse": 0.9730049459442522
    }
  },
  "deviation_distributions_geom": {
    "all": {
      "number_of_samples": 4,
      "shape": 0.8197674418604651,
      "sse": 0.17278675006005664
    },
    "in_valid_trace": {
      "number_of_samples": 1,
      "shape": Infinity,
      "sse": 0.0
    },
    "in_valid_trace_index": {
      "number_of_samples": 4,
      "shape": 1.8471615720524017,
      "sse": NaN
    }
  },
  "frequencies_max": 498,
  "frequencies_mean": 200.0,
  "frequencies_median": 127.0,
  "frequencies_min": 12,
  "number_of_main_traces_80.0": 1,
  "number_of_trace_variants": 5
}