{
  "alpha": 2.3103793367034324,
  "alpha_err": 0.13038761733026127,
  "deviation_distributions_geom": {
    "all": {
      "number_of_samples": 65,
      "shape": 0.06837761857259454,
      "sse": 0.002055375874055898
    },
    "in_valid_trace": {
      "number_of_samples": 44,
      "shape": 0.10996916752312436,
      "sse": 0.002504478647711583
    },
    "in_valid_trace_index": {
      "number_of_samples": 218,
      "shape": 0.014892392252984978,
      "sse": 0.002830441244034097
    }
  },
  "frequencies_max": 49,
  "frequencies_mean": 3.690036900369004,
  "frequencies_median": 2.0,
  "frequencies_min": 1,
  "number_of_main_traces_80.0": 116,
  "number_of_trace_variants": 271
}