{
  "alpha": 2.2574290303206315,
  "alpha_err": 0.13971433670229239,
  "deviation_distributions_geom": {
    "all": {
      "number_of_samples": 55,
      "shape": 0.13168635875402793,
      "sse": 0.04502543213837459
    },
    "in_valid_trace": {
      "number_of_samples": 48,
      "shape": 0.06083233771405814,
      "sse": 0.0015602703314081165
    },
    "in_valid_trace_index": {
      "number_of_samples": 300,
      "shape": 0.008152013853711405,
      "sse": 0.001468819120969423
    }
  },
  "frequencies_max": 261,
  "frequencies_mean": 3.236245954692557,
  "frequencies_median": 1.0,
  "frequencies_min": 1,
  "number_of_main_traces_80.0": 109,
  "number_of_trace_variants": 309
}