{
  "alpha": 1.833197324939345,
  "alpha_err": 0.19638649284370072,
  "deviation_distributions": {
    "all": {
      "number_of_samples": 112,
      "scale": 0.027050644378354357,
      "sse": 0.04324011163369129
    },
    "in_valid_trace": {
      "number_of_samples": 40,
      "scale": 0.0757418042593922,
      "sse": 0.18904182133488634
    },
    "in_valid_trace_index": {
      "number_of_samples": 410,
      "scale": 0.007389444317989483,
      "sse": 0.0008669550397891091
    }
  },
  "deviation_distributions_geom": {
    "all": {
      "number_of_samples": 100,
      "shape": 0.048593943139678616,
      "sse": 0.0011588003399412349
    },
    "in_valid_trace": {
      "number_of_samples": 40,
      "shape": 0.09858483065670219,
      "sse": 0.006650811345732511
    },
    "in_valid_trace_index": {
      "number_of_samples": 258,
      "shape": 0.011461650743099787,
      "sse": 0.002058617536323933
    }
  },
  "frequencies_max": 531,
  "frequencies_mean": 4.081632653061225,
  "frequencies_median": 1.0,
  "frequencies_min": 1,
  "number_of_main_traces_80.0": 45,
  "number_of_trace_variants": 245
}