{
  "alpha": 1.4698573019603267,
  "alpha_err": 0.11074642813538746,
  "deviation_distributions": {
    "all": {
      "number_of_samples": 9,
      "scale": 0.11159003831417626,
      "sse": 0.40116079376352776
    },
    "in_valid_trace": {
      "number_of_samples": 2,
      "scale": 0.5021551724137931,
      "sse": 1.7723994519597348
    },
    "in_valid_trace_index": {
      "number_of_samples": 20,
      "scale": 0.050215517241379314,
      "sse": 0.5202158263229012
    }
  },
  "deviation_distributions_geom": {
    "all": {
      "number_of_samples": 9,
      "shape": 0.9357429718875502,
      "sse": 0.2646498978138999
    },
    "in_valid_trace": {
      "number_of_samples": 2,
      "shape": 2.080357142857143,
      "sse": NaN
    },
    "in_valid_trace_index": {
      "number_of_samples": 2,
      "shape": 2.080357142857143,
      "sse": NaN
    }
  },
  "frequencies_max": 518,
  "frequencies_mean": 52.63157894736842,
  "frequencies_median": 7.0,
  "frequencies_min": 1,
  "number_of_main_traces_80.0": 3,
  "number_of_trace_variants": 19
}