{
  "alpha": 1.768374324821016,
  "alpha_err": 0.14520909837739804,
  "deviation_distributions_geom": {
    "all": {
      "number_of_samples": 100,
      "shape": 0.043875952042564045,
      "sse": 0.0008397874925347335
    },
    "in_valid_trace": {
      "number_of_samples": 35,
      "shape": 0.18486279138388906,
      "sse": 0.0022908935697799385
    },
    "in_valid_trace_index": {
      "number_of_samples": 222,
      "shape": 0.015648069708338375,
      "sse": 0.0019662001478875724
    }
  },
  "frequencies_max": 102,
  "frequencies_mean": 2.7472527472527473,
  "frequencies_median": 1.0,
  "frequencies_min": 1,
  "number_of_main_traces_80.0": 164,
  "number_of_trace_variants": 364
}