{
  "alpha": 2.249404344696835,
  "alpha_err": 0.5587506092251403,
  "deviation_distributions": {
    "all": {
      "number_of_samples": 41,
      "scale": 0.05221747967479674,
      "sse": 0.19904358011330595
    },
    "in_valid_trace": {
      "number_of_samples": 14,
      "scale": 0.15292261904761903,
      "sse": 0.7935455989438109
    },
    "in_valid_trace_index": {
      "number_of_samples": 198,
      "scale": 0.010812710437710437,
      "sse": 0.0019497114434525863
    }
  },
  "deviation_distributions_geom": {
    "all": {
      "number_of_samples": 41,
      "shape": 0.10029365258640163,
      "sse": 0.0030742301439069157
    },
    "in_valid_trace": {
      "number_of_samples": 14,
      "shape": 0.3292867981790592,
      "sse": 0.010960871560339822
    },
    "in_valid_trace_index": {
      "number_of_samples": 80,
      "shape": 0.042102288782141846,
      "sse": 0.008443205417621967
    }
  },
  "frequencies_max": 488,
  "frequencies_mean": 6.410256410256411,
  "frequencies_median": 1.0,
  "frequencies_min": 1,
  "number_of_main_traces_80.0": 22,
  "number_of_trace_variants": 156
}