{
  "alpha": 1.8467658044296522,
  "alpha_err": 0.12351348686383906,
  "deviation_distributions": {
    "all": {
      "number_of_samples": 48,
      "scale": 0.06942733990147786,
      "sse": 0.34621581080318153
    },
    "in_valid_trace": {
      "number_of_samples": 11,
      "scale": 0.3029556650246305,
      "sse": 0.8737368608502745
    },
    "in_valid_trace_index": {
      "number_of_samples": 156,
      "scale": 0.021362258431223944,
      "sse": 0.1228598017809749
    }
  },
  "deviation_distributions_geom": {
    "all": {
      "number_of_samples": 48,
      "shape": 0.1210213361315145,
      "sse": 0.0007084369963658303
    },
    "in_valid_trace": {
      "number_of_samples": 11,
      "shape": 0.6183970856102003,
      "sse": 0.02990928853396566
    },
    "in_valid_trace_index": {
      "number_of_samples": 61,
      "shape": 0.06923618798430109,
      "sse": 0.028756826101577686
    }
  },
  "frequencies_max": 97,
  "frequencies_mean": 7.462686567164179,
  "frequencies_median": 1.0,
  "frequencies_min": 1,
  "number_of_main_traces_80.0": 28,
  "number_of_trace_variants": 134
}