{
  "alpha": 2.237078102181047,
  "alpha_err": 0.15839162043656954,
  "deviation_distributions": {
    "all": {
      "number_of_samples": 64,
      "scale": 0.050631510416666664,
      "sse": 0.19394896971698747
    },
    "in_valid_trace": {
      "number_of_samples": 33,
      "scale": 0.09819444444444442,
      "sse": 0.49143565553553475
    },
    "in_valid_trace_index": {
      "number_of_samples": 435,
      "scale": 0.007449233716475096,
      "sse": 0.0020216678665665056
    }
  },
  "deviation_distributions_geom": {
    "all": {
      "number_of_samples": 64,
      "shape": 0.10071504640194737,
      "sse": 0.005637915504750739
    },
    "in_valid_trace": {
      "number_of_samples": 33,
      "shape": 0.21519400065210306,
      "sse": 0.0021735683623645592
    },
    "in_valid_trace_index": {
      "number_of_samples": 114,
      "shape": 0.03046099451520783,
      "sse": 0.0077138655746128585
    }
  },
  "frequencies_max": 343,
  "frequencies_mean": 4.464285714285714,
  "frequencies_median": 1.0,
  "frequencies_min": 1,
  "number_of_main_traces_80.0": 42,
  "number_of_trace_variants": 224
}