{
  "alpha": 2.377688015635073,
  "alpha_err": 0.3006361721752965,
  "deviation_distributions": {
    "all": {
      "number_of_samples": 18,
      "scale": 0.06801661474558669,
      "sse": 0.16063855528162335
    },
    "in_valid_trace": {
      "number_of_samples": 12,
      "scale": 0.10202492211838006,
      "sse": 0.5787952652001958
    },
    "in_valid_trace_index": {
      "number_of_samples": 106,
      "scale": 0.011549991183212835,
      "sse": 0.00893459410727003
    }
  },
  "deviation_distributions_geom": {
    "all": {
      "number_of_samples": 18,
      "shape": 0.24261992619926198,
      "sse": 0.004745309246841359
    },
    "in_valid_trace": {
      "number_of_samples": 12,
      "shape": 0.37896253602305474,
      "sse": 0.03017824864243756
    },
    "in_valid_trace_index": {
      "number_of_samples": 28,
      "shape": 0.11037344398340249,
      "sse": 0.012056066968684808
    }
  },
  "frequencies_max": 253,
  "frequencies_mean": 25.0,
  "frequencies_median": 14.5,
  "frequencies_min": 2,
  "number_of_main_traces_80.0": 15,
  "number_of_trace_variants": 40
}