{
  "alpha": 250.99866666097464,
  "alpha_err": 176.77575248357041,
  "deviation_distributions_geom": {
    "all": {
      "number_of_samples": 1,
      "shape": Infinity,
      "sse": 0.0
    },
    "in_valid_trace": {
      "number_of_samples": 1,
      "shape": Infinity,
      "sse": 0.0
    },
    "in_valid_trace_index": {
      "number_of_samples": 1,
      "shape": Infinity,
      "sse": 0.0
    }
  },
  "frequencies_max": 502,
  "frequencies_mean": 500.0,
  "frequencies_median": 500.0,
  "frequencies_min": 498,
  "number_of_main_traces_80.0": 1,
  "number_of_trace_variants": 2
}