{
  "alpha": 1.6937706008219977,
  "alpha_err": 0.12666460260137344,
  "deviation_distributions": {
    "all": {
      "number_of_samples": 80,
      "scale": 0.03689024390243903,
      "sse": 0.0692642722810416
    },
    "in_valid_trace": {
      "number_of_samples": 3,
      "scale": 0.983739837398374,
      "sse": 1.6909998998893867
    },
    "in_valid_trace_index": {
      "number_of_samples": 23,
      "scale": 0.12831389183457056,
      "sse": 0.5808206613606761
    }
  },
  "deviation_distributions_geom": {
    "all": {
      "number_of_samples": 80,
      "shape": 0.06554958372852777,
      "sse": 0.0016066716806967315
    },
    "in_valid_trace": {
      "number_of_samples": 3,
      "shape": 1.6263440860215055,
      "sse": NaN
    },
    "in_valid_trace_index": {
      "number_of_samples": 15,
      "shape": 0.19172457359444092,
      "sse": 0.02501181213160483
    }
  },
  "frequencies_max": 499,
  "frequencies_mean": 10.869565217391305,
  "frequencies_median": 1.0,
  "frequencies_min": 1,
  "number_of_main_traces_80.0": 5,
  "number_of_trace_variants": 92
}