{
  "alpha": 1.874820315296595,
  "alpha_err": 0.09379058257602313,
  "deviation_distributions": {
    "all": {
      "number_of_samples": 35,
      "scale": 0.0533095238095238,
      "sse": 0.16325826160054374
    },
    "in_valid_trace": {
      "number_of_samples": 30,
      "scale": 0.062194444444444434,
      "sse": 0.1835104710376732
    },
    "in_valid_trace_index": {
      "number_of_samples": 252,
      "scale": 0.007404100529100529,
      "sse": 0.002859118527135437
    }
  },
  "deviation_distributions_geom": {
    "all": {
      "number_of_samples": 35,
      "shape": 0.1809976247030879,
      "sse": 0.003937418526607026
    },
    "in_valid_trace": {
      "number_of_samples": 30,
      "shape": 0.17895725692813527,
      "sse": 0.0025402054623545538
    },
    "in_valid_trace_index": {
      "number_of_samples": 100,
      "shape": 0.031404690416294734,
      "sse": 0.011045397750181865
    }
  },
  "frequencies_max": 175,
  "frequencies_mean": 6.024096385542169,
  "frequencies_median": 2.0,
  "frequencies_min": 1,
  "number_of_main_traces_80.0": 39,
  "number_of_trace_variants": 166
}