{
  "alpha": 19.04585348531464,
  "alpha_err": 10.418778367502956,
  "deviation_distributions_geom": {
    "all": {
      "number_of_samples": 100,
      "shape": 0.051361563517915314,
      "sse": 0.010214319001736001
    },
    "in_valid_trace": {
      "number_of_samples": 50,
      "shape": 0.05180632516272655,
      "sse": 0.0021036296818499733
    },
    "in_valid_trace_index": {
      "number_of_samples": 458,
      "shape": 0.005303285251760993,
      "sse": 0.0009014963504168608
    }
  },
  "frequencies_max": 16,
  "frequencies_mean": 1.5797788309636651,
  "frequencies_median": 1.0,
  "frequencies_min": 1,
  "number_of_main_traces_80.0": 433,
  "number_of_trace_variants": 633
}