{
  "alpha": 1.9059604418219203,
  "alpha_err": 0.14148725032159293,
  "deviation_distributions": {
    "all": {
      "number_of_samples": 22,
      "scale": 0.09136592051164917,
      "sse": 0.39081039087438973
    },
    "in_valid_trace": {
      "number_of_samples": 11,
      "scale": 0.18273184102329829,
      "sse": 0.7030661556823101
    },
    "in_valid_trace_index": {
      "number_of_samples": 99,
      "scale": 0.02030353789147759,
      "sse": 0.045707895871356714
    }
  },
  "deviation_distributions_geom": {
    "all": {
      "number_of_samples": 22,
      "shape": 0.24150268336314848,
      "sse": 0.009583803306833153
    },
    "in_valid_trace": {
      "number_of_samples": 11,
      "shape": 0.3297785069729286,
      "sse": 0.02849451637800082
    },
    "in_valid_trace_index": {
      "number_of_samples": 37,
      "shape": 0.06479550922213312,
      "sse": 0.01358595726163225
    }
  },
  "frequencies_max": 513,
  "frequencies_mean": 9.00900900900901,
  "frequencies_median": 2.0,
  "frequencies_min": 1,
  "number_of_main_traces_80.0": 15,
  "number_of_trace_variants": 111
}