{
  "alpha": 1.8143166865590152,
  "alpha_err": 0.19750080655210642,
  "deviation_distributions": {
    "all": {
      "number_of_samples": 10,
      "scale": 0.157013201320132,
      "sse": 0.5939643974155339
    },
    "in_valid_trace": {
      "number_of_samples": 4,
      "scale": 0.39253300330033003,
      "sse": 1.3810600182203714
    },
    "in_valid_trace_index": {
      "number_of_samples": 38,
      "scale": 0.041319263505297896,
      "sse": 0.19712119864478841
    }
  },
  "deviation_distributions_geom": {
    "all": {
      "number_of_samples": 10,
      "shape": 0.5519031141868512,
      "sse": 0.07111174948391752
    },
    "in_valid_trace": {
      "number_of_samples": 4,
      "shape": 1.3305439330543931,
      "sse": NaN
    },
    "in_valid_trace_index": {
      "number_of_samples": 24,
      "shape": 0.16164658634538154,
      "sse": 0.02125859817650231
    }
  },
  "frequencies_max": 508,
  "frequencies_mean": 26.31578947368421,
  "frequencies_median": 4.5,
  "frequencies_min": 1,
  "number_of_main_traces_80.0": 5,
  "number_of_trace_variants": 38
}