{
  "alpha": 2.0501071344822126,
  "alpha_err": 0.19499999945980936,
  "deviation_distributions": {
    "all": {
      "number_of_samples": 54,
      "scale": 0.04411764705882354,
      "sse": 0.1092725147626471
    },
    "in_valid_trace": {
      "number_of_samples": 18,
      "scale": 0.1323529411764705,
      "sse": 0.5565652515109074
    },
    "in_valid_trace_index": {
      "number_of_samples": 159,
      "scale": 0.01498335183129856,
      "sse": 0.027572740054057094
    }
  },
  "deviation_distributions_geom": {
    "all": {
      "number_of_samples": 54,
      "shape": 0.09911154985192498,
      "sse": 0.0004771615701170873
    },
    "in_valid_trace": {
      "number_of_samples": 18,
      "shape": 0.3481953290870488,
      "sse": 0.01795691007543735
    },
    "in_valid_trace_index": {
      "number_of_samples": 73,
      "shape": 0.044186046511627906,
      "sse": 0.006756210940957073
    }
  },
  "frequencies_max": 469,
  "frequencies_mean": 7.092198581560283,
  "frequencies_median": 1.0,
  "frequencies_min": 1,
  "number_of_main_traces_80.0": 23,
  "number_of_trace_variants": 141
}