{
  "alpha": 2.452431140657854,
  "alpha_err": 0.19408927522224861,
  "deviation_distributions": {
    "all": {
      "number_of_samples": 22,
      "scale": 0.054090909090909085,
      "sse": 0.15596427638527394
    },
    "in_valid_trace": {
      "number_of_samples": 39,
      "scale": 0.0305128205128205,
      "sse": 0.29786102829275823
    },
    "in_valid_trace_index": {
      "number_of_samples": 336,
      "scale": 0.0035416666666666674,
      "sse": 0.0
    }
  },
  "deviation_distributions_geom": {
    "all": {
      "number_of_samples": 22,
      "shape": 0.21384750219106047,
      "sse": 0.007731353788455166
    },
    "in_valid_trace": {
      "number_of_samples": 39,
      "shape": 0.08578263841421736,
      "sse": 0.0018189892157925876
    },
    "in_valid_trace_index": {
      "number_of_samples": 95,
      "shape": 0.02614711567809543,
      "sse": 0.003915500682325125
    }
  },
  "frequencies_max": 339,
  "frequencies_mean": 8.474576271186441,
  "frequencies_median": 4.0,
  "frequencies_min": 1,
  "number_of_main_traces_80.0": 47,
  "number_of_trace_variants": 118
}