{
  "alpha": 1.3256639806953432,
  "alpha_err": 0.09401109345991075,
  "deviation_distributions": {
    "all": {
      "number_of_samples": 15,
      "scale": 0.09891598915989161,
      "sse": 0.48223183465843533
    },
    "in_valid_trace": {
      "number_of_samples": 1,
      "scale": 1.483739837398374,
      "sse": NaN
    },
    "in_valid_trace_index": {
      "number_of_samples": 3,
      "scale": 0.494579945799458,
      "sse": 1.4454121326269491
    }
  },
  "deviation_distributions_geom": {
    "all": {
      "number_of_samples": 15,
      "shape": 0.2962662337662338,
      "sse": 0.019279157260651242
    },
    "in_valid_trace": {
      "number_of_samples": 1,
      "shape": Infinity,
      "sse": 0.0
    },
    "in_valid_trace_index": {
      "number_of_samples": 2,
      "shape": 1.4777327935222673,
      "sse": NaN
    }
  },
  "frequencies_max": 491,
  "frequencies_mean": 83.33333333333333,
  "frequencies_median": 26.5,
  "frequencies_min": 1,
  "number_of_main_traces_80.0": 2,
  "number_of_trace_variants": 12
}