{
  "alpha": 2.228596501941131,
  "alpha_err": 0.11456721454473347,
  "deviation_distributions_geom": {
    "all": {
      "number_of_samples": 61,
      "shape": 0.11829069939376018,
      "sse": 0.020966087693719444
    },
    "in_valid_trace": {
      "number_of_samples": 37,
      "shape": 0.14203833064660576,
      "sse": 0.007925557032228293
    },
    "in_valid_trace_index": {
      "number_of_samples": 135,
      "shape": 0.023939668527666543,
      "sse": 0.007487789934315588
    }
  },
  "frequencies_max": 123,
  "frequencies_mean": 3.0631578947368423,
  "frequencies_median": 1.0,
  "frequencies_min": 1,
  "number_of_main_traces_80.0": 112,
  "number_of_trace_variants": 285
}