{
  "alpha": 3.4028709202362943,
  "alpha_err": 0.5010332219878549,
  "deviation_distributions_geom": {
    "all": {
      "number_of_samples": 33,
      "shape": 0.21458442237323574,
      "sse": 0.0028032825874937843
    },
    "in_valid_trace": {
      "number_of_samples": 36,
      "shape": 0.15439385422522017,
      "sse": 0.0019244437830651811
    },
    "in_valid_trace_index": {
      "number_of_samples": 116,
      "shape": 0.02887165884513365,
      "sse": 0.007878339870713317
    }
  },
  "frequencies_max": 34,
  "frequencies_mean": 3.6101083032490973,
  "frequencies_median": 1.0,
  "frequencies_min": 1,
  "number_of_main_traces_80.0": 106,
  "number_of_trace_variants": 277
}