{
  "alpha": 1.5637730137463832,
  "alpha_err": 0.25212695652336725,
  "deviation_distributions": {
    "all": {
      "number_of_samples": 4,
      "scale": 0.4587378640776699,
      "sse": 1.7304253011742294
    },
    "in_valid_trace": {
      "number_of_samples": 1,
      "scale": 1.8349514563106797,
      "sse": NaN
    },
    "in_valid_trace_index": {
      "number_of_samples": 7,
      "scale": 0.2621359223300971,
      "sse": 1.1786883706032665
    }
  },
  "deviation_distributions_geom": {
    "all": {
      "number_of_samples": 4,
      "shape": 0.8289473684210527,
      "sse": 0.17417687622808892
    },
    "in_valid_trace": {
      "number_of_samples": 1,
      "shape": Infinity,
      "sse": 0.0
    },
    "in_valid_trace_index": {
      "number_of_samples": 3,
      "shape": 1.96875,
      "sse": NaN
    }
  },
  "frequencies_max": 507,
  "frequencies_mean": 200.0,
  "frequencies_median": 150.0,
  "frequencies_min": 20,
  "number_of_main_traces_80.0": 2,
  "number_of_trace_variants": 5
}