{
  "alpha": 2.4192741518283656,
  "alpha_err": 0.2838548303656731,
  "deviation_distributions_geom": {
    "all": {
      "number_of_samples": 58,
      "shape": 0.08399589638368814,
      "sse": 0.000568316617453095
    },
    "in_valid_trace": {
      "number_of_samples": 41,
      "shape": 0.2165498832165499,
      "sse": 0.011900644095041732
    },
    "in_valid_trace_index": {
      "number_of_samples": 141,
      "shape": 0.02743254292722813,
      "sse": 0.007977710825146027
    }
  },
  "frequencies_max": 79,
  "frequencies_mean": 4.405286343612334,
  "frequencies_median": 1.0,
  "frequencies_min": 1,
  "number_of_main_traces_80.0": 61,
  "number_of_trace_variants": 227
}