{
  "alpha": 1.7451179392523992,
  "alpha_err": 0.09171767809802568,
  "deviation_distributions": {
    "all": {
      "number_of_samples": 40,
      "scale": 0.042664203612479475,
      "sse": 0.055409131932828794
    },
    "in_valid_trace": {
      "number_of_samples": 26,
      "scale": 0.0656372363268915,
      "sse": 0.4574173526706855
    },
    "in_valid_trace_index": {
      "number_of_samples": 208,
      "scale": 0.008204654540861438,
      "sse": 0.0014471333566326422
    }
  },
  "deviation_distributions_geom": {
    "all": {
      "number_of_samples": 40,
      "shape": 0.10401146131805158,
      "sse": 0.0015678160149907414
    },
    "in_valid_trace": {
      "number_of_samples": 26,
      "shape": 0.13067349926793556,
      "sse": 0.003220599367104804
    },
    "in_valid_trace_index": {
      "number_of_samples": 95,
      "shape": 0.02784431137724551,
      "sse": 0.004139984454448286
    }
  },
  "frequencies_max": 49,
  "frequencies_mean": 9.900990099009901,
  "frequencies_median": 4.0,
  "frequencies_min": 1,
  "number_of_main_traces_80.0": 33,
  "number_of_trace_variants": 101
}