{
  "alpha": 12.303040579598498,
  "alpha_err": 3.996228320930411,
  "deviation_distributions_geom": {
    "all": {
      "number_of_samples": 55,
      "shape": 0.07698990118362471,
      "sse": 0.0016085400635470594
    },
    "in_valid_trace": {
      "number_of_samples": 50,
      "shape": 0.07916806440791681,
      "sse": 0.004832186119153545
    },
    "in_valid_trace_index": {
      "number_of_samples": 215,
      "shape": 0.013933760490930421,
      "sse": 0.0022523396980251315
    }
  },
  "frequencies_max": 18,
  "frequencies_mean": 4.739336492890995,
  "frequencies_median": 3.0,
  "frequencies_min": 1,
  "number_of_main_traces_80.0": 99,
  "number_of_trace_variants": 211
}