{
  "alpha": 3.0270302470415777,
  "alpha_err": 0.25142215869609974,
  "deviation_distributions_geom": {
    "all": {
      "number_of_samples": 100,
      "shape": 0.05459597713852663,
      "sse": 0.0002587496801710893
    },
    "in_valid_trace": {
      "number_of_samples": 50,
      "shape": 0.11096690460739779,
      "sse": 0.005948198457986569
    },
    "in_valid_trace_index": {
      "number_of_samples": 358,
      "shape": 0.010728802619107154,
      "sse": 0.002008917248692368
    }
  },
  "frequencies_max": 16,
  "frequencies_mean": 2.074688796680498,
  "frequencies_median": 1.0,
  "frequencies_min": 1,
  "number_of_main_traces_80.0": 282,
  "number_of_trace_variants": 482
}