{
  "alpha": 1.9852374085399263,
  "alpha_err": 0.2844135415181079,
  "deviation_distributions": {
    "all": {
      "number_of_samples": 84,
      "scale": 0.0759352317141262,
      "sse": 0.3966215113709788
    },
    "in_valid_trace": {
      "number_of_samples": 18,
      "scale": 0.35436441466592217,
      "sse": 0.9938616567609726
    },
    "in_valid_trace_index": {
      "number_of_samples": 366,
      "scale": 0.01742775809832404,
      "sse": 0.07968471688745093
    }
  },
  "deviation_distributions_geom": {
    "all": {
      "number_of_samples": 84,
      "shape": 0.09109642577986214,
      "sse": 0.0005043266167096934
    },
    "in_valid_trace": {
      "number_of_samples": 18,
      "shape": 0.9868114817688131,
      "sse": 0.359813480189366
    },
    "in_valid_trace_index": {
      "number_of_samples": 94,
      "shape": 0.04407117339928552,
      "sse": 0.006836704315003912
    }
  },
  "frequencies_max": 512,
  "frequencies_mean": 4.587155963302752,
  "frequencies_median": 1.0,
  "frequencies_min": 1,
  "number_of_main_traces_80.0": 36,
  "number_of_trace_variants": 218
}