{
  "alpha": 24.098573222559928,
  "alpha_err": 13.335967467941257,
  "deviation_distributions": {
    "all": {
      "number_of_samples": 5,
      "scale": 0.323265306122449,
      "sse": 1.6355635211120636
    },
    "in_valid_trace": {
      "number_of_samples": 7,
      "scale": 0.23090379008746353,
      "sse": 0.9189826005659583
    },
    "in_valid_trace_index": {
      "number_of_samples": 65,
      "scale": 0.02486656200941915,
      "sse": 0.1313353338236596
    }
  },
  "deviation_distributions_geom": {
    "all": {
      "number_of_samples": 5,
      "shape": 0.5336927223719676,
      "sse": 0.09851496863151576
    },
    "in_valid_trace": {
      "number_of_samples": 7,
      "shape": 0.8364779874213836,
      "sse": 0.10083785283136579
    },
    "in_valid_trace_index": {
      "number_of_samples": 20,
      "shape": 0.2331969608416131,
      "sse": 0.03435946464689414
    }
  },
  "frequencies_max": 134,
  "frequencies_mean": 52.63157894736842,
  "frequencies_median": 34.0,
  "frequencies_min": 1,
  "number_of_main_traces_80.0": 7,
  "number_of_trace_variants": 19
}