{
  "alpha": 1.7653715959088983,
  "alpha_err": 0.10320268493901026,
  "deviation_distributions": {
    "all": {
      "number_of_samples": 29,
      "scale": 0.0814891061931721,
      "sse": 0.2089026971194909
    },
    "in_valid_trace": {
      "number_of_samples": 19,
      "scale": 0.12437810945273634,
      "sse": 0.5025842509622052
    },
    "in_valid_trace_index": {
      "number_of_samples": 262,
      "scale": 0.009019786563366373,
      "sse": 0.0074353522620172925
    }
  },
  "deviation_distributions_geom": {
    "all": {
      "number_of_samples": 29,
      "shape": 0.15452179570592062,
      "sse": 0.003539823757344095
    },
    "in_valid_trace": {
      "number_of_samples": 19,
      "shape": 0.3105022831050228,
      "sse": 0.009968992088919597
    },
    "in_valid_trace_index": {
      "number_of_samples": 48,
      "shape": 0.07065376722368807,
      "sse": 0.02908728182982742
    }
  },
  "frequencies_max": 135,
  "frequencies_mean": 8.064516129032258,
  "frequencies_median": 2.0,
  "frequencies_min": 1,
  "number_of_main_traces_80.0": 28,
  "number_of_trace_variants": 124
}