{
  "alpha": 1.8031745703684483,
  "alpha_err": 0.20079364259211208,
  "deviation_distributions": {
    "all": {
      "number_of_samples": 14,
      "scale": 0.1586599241466498,
      "sse": 0.6849717524813996
    },
    "in_valid_trace": {
      "number_of_samples": 2,
      "scale": 1.1106194690265487,
      "sse": 1.8240395803060432
    },
    "in_valid_trace_index": {
      "number_of_samples": 20,
      "scale": 0.11106194690265485,
      "sse": 0.8439088882339254
    }
  },
  "deviation_distributions_geom": {
    "all": {
      "number_of_samples": 14,
      "shape": 0.4428822495606327,
      "sse": 0.017762959460221904
    },
    "in_valid_trace": {
      "number_of_samples": 2,
      "shape": 2.441747572815534,
      "sse": NaN
    },
    "in_valid_trace_index": {
      "number_of_samples": 5,
      "shape": 0.41986644407345575,
      "sse": 0.22603425974541058
    }
  },
  "frequencies_max": 345,
  "frequencies_mean": 34.48275862068966,
  "frequencies_median": 8.0,
  "frequencies_min": 1,
  "number_of_main_traces_80.0": 4,
  "number_of_trace_variants": 29
}