{
  "alpha": 1.7494613999163235,
  "alpha_err": 0.14163489153006545,
  "deviation_distributions": {
    "all": {
      "number_of_samples": 121,
      "scale": 0.03683077914361339,
      "sse": 0.24173618400387836
    },
    "in_valid_trace": {
      "number_of_samples": 11,
      "scale": 0.40513857057974595,
      "sse": 1.1973976469506145
    },
    "in_valid_trace_index": {
      "number_of_samples": 196,
      "scale": 0.022737368757026612,
      "sse": 0.04684860214285374
    }
  },
  "deviation_distributions_geom": {
    "all": {
      "number_of_samples": 100,
      "shape": 0.074895759578318,
      "sse": 0.005038072020557399
    },
    "in_valid_trace": {
      "number_of_samples": 11,
      "shape": 0.33789785344189494,
      "sse": 0.05638447647327387
    },
    "in_valid_trace_index": {
      "number_of_samples": 113,
      "shape": 0.01911296738265712,
      "sse": 0.00640051975249639
    }
  },
  "frequencies_max": 251,
  "frequencies_mean": 6.410256410256411,
  "frequencies_median": 1.0,
  "frequencies_min": 1,
  "number_of_main_traces_80.0": 20,
  "number_of_trace_variants": 156
}