{
  "alpha": 1.9376603920963185,
  "alpha_err": 0.10974484797132672,
  "deviation_distributions": {
    "all": {
      "number_of_samples": 45,
      "scale": 0.03244591125779245,
      "sse": 0.11417175942597402
    },
    "in_valid_trace": {
      "number_of_samples": 39,
      "scale": 0.037437589912837445,
      "sse": 0.1139487525174741
    },
    "in_valid_trace_index": {
      "number_of_samples": 307,
      "scale": 0.0047559153309467755,
      "sse": 0.0013383456754738044
    }
  },
  "deviation_distributions_geom": {
    "all": {
      "number_of_samples": 45,
      "shape": 0.07183974211374626,
      "sse": 0.002632983534019355
    },
    "in_valid_trace": {
      "number_of_samples": 39,
      "shape": 0.08267300581088219,
      "sse": 0.0031921190152689187
    },
    "in_valid_trace_index": {
      "number_of_samples": 157,
      "shape": 0.015221765374857841,
      "sse": 0.0035222104808584377
    }
  },
  "frequencies_max": 54,
  "frequencies_mean": 6.25,
  "frequencies_median": 2.0,
  "frequencies_min": 1,
  "number_of_main_traces_80.0": 47,
  "number_of_trace_variants": 160
}