{
  "alpha": 5.406170838066409,
  "alpha_err": 1.5578166393315853,
  "deviation_distributions": {
    "all": {
      "number_of_samples": 6,
      "scale": 0.24548440065681446,
      "sse": 1.211726128989805
    },
    "in_valid_trace": {
      "number_of_samples": 7,
      "scale": 0.21041520056298382,
      "sse": 0.8801797186853707
    },
    "in_valid_trace_index": {
      "number_of_samples": 77,
      "scale": 0.01912865459663489,
      "sse": 0.10939546226370643
    }
  },
  "deviation_distributions_geom": {
    "all": {
      "number_of_samples": 6,
      "shape": 0.6780045351473923,
      "sse": 0.11117227602868139
    },
    "in_valid_trace": {
      "number_of_samples": 7,
      "shape": 0.6185567010309279,
      "sse": 0.11862154936705466
    },
    "in_valid_trace_index": {
      "number_of_samples": 12,
      "shape": 0.22288261515601784,
      "sse": 0.05142664815490659
    }
  },
  "frequencies_max": 115,
  "frequencies_mean": 50.0,
  "frequencies_median": 44.0,
  "frequencies_min": 14,
  "number_of_main_traces_80.0": 11,
  "number_of_trace_variants": 20
}