{
  "alpha": 3.0182369775287605,
  "alpha_err": 1.1652296622646867,
  "deviation_distributions": {
    "all": {
      "number_of_samples": 4,
      "scale": 0.4849397590361446,
      "sse": 1.7543763822888305
    },
    "in_valid_trace": {
      "number_of_samples": 1,
      "scale": 1.9397590361445782,
      "sse": NaN
    },
    "in_valid_trace_index": {
      "number_of_samples": 9,
      "scale": 0.21552878179384205,
      "sse": 1.1295523738413242
    }
  },
  "deviation_distributions_geom": {
    "all": {
      "number_of_samples": 4,
      "shape": 0.7523364485981308,
      "sse": 0.1698535730963
    },
    "in_valid_trace": {
      "number_of_samples": 1,
      "shape": Infinity,
      "sse": 0.0
    },
    "in_valid_trace_index": {
      "number_of_samples": 3,
      "shape": 1.9015748031496065,
      "sse": NaN
    }
  },
  "frequencies_max": 498,
  "frequencies_mean": 200.0,
  "frequencies_median": 162.0,
  "frequencies_min": 20,
  "number_of_main_traces_80.0": 2,
  "number_of_trace_variants": 5
}