{
  "alpha": 5.842988931204242,
  "alpha_err": 2.421494465602121,
  "deviation_distributions": {
    "all": {
      "number_of_samples": 6,
      "scale": 0.31127450980392163,
      "sse": 1.508813700679223
    },
    "in_valid_trace": {
      "number_of_samples": 2,
      "scale": 0.9338235294117647,
      "sse": 1.657330324276838
    },
    "in_valid_trace_index": {
      "number_of_samples": 30,
      "scale": 0.062254901960784315,
      "sse": 0.6230593024542108
    }
  },
  "deviation_distributions_geom": {
    "all": {
      "number_of_samples": 6,
      "shape": 0.5521739130434783,
      "sse": 0.05822767234345629
    },
    "in_valid_trace": {
      "number_of_samples": 2,
      "shape": 9.525,
      "sse": NaN
    },
    "in_valid_trace_index": {
      "number_of_samples": 4,
      "shape": 0.8429203539823008,
      "sse": 0.34203804120328785
    }
  },
  "frequencies_max": 238,
  "frequencies_mean": 83.33333333333333,
  "frequencies_median": 58.5,
  "frequencies_min": 21,
  "number_of_main_traces_80.0": 6,
  "number_of_trace_variants": 12
}