{
  "alpha": 6.569340522508717,
  "alpha_err": 1.6792193493530279,
  "deviation_distributions_geom": {
    "all": {
      "number_of_samples": 31,
      "shape": 0.1974676724137931,
      "sse": 0.002057096573238555
    },
    "in_valid_trace": {
      "number_of_samples": 42,
      "shape": 0.14059820918270147,
      "sse": 0.0037471674954582816
    },
    "in_valid_trace_index": {
      "number_of_samples": 148,
      "shape": 0.024412008413538147,
      "sse": 0.008034792307441418
    }
  },
  "frequencies_max": 33,
  "frequencies_mean": 4.065040650406504,
  "frequencies_median": 2.0,
  "frequencies_min": 1,
  "number_of_main_traces_80.0": 89,
  "number_of_trace_variants": 246
}