{
  "alpha": 10.716580215607792,
  "alpha_err": 4.858290107803896,
  "deviation_distributions_geom": {
    "all": {
      "number_of_samples": 1,
      "shape": Infinity,
      "sse": 0.0
    },
    "in_valid_trace": {
      "number_of_samples": 1,
      "shape": Infinity,
      "sse": 0.0
    },
    "in_valid_trace_index": {
      "number_of_samples": 1,
      "shape": Infinity,
      "sse": 0.0
    }
  },
  "frequencies_max": 271,
  "frequencies_mean": 250.0,
  "frequencies_median": 252.0,
  "frequencies_min": 225,
  "number_of_main_traces_80.0": 3,
  "number_of_trace_variants": 4
}