{
  "alpha": 1.7402465356240087,
  "alpha_err": 0.16982420221532288,
  "deviation_distributions": {
    "all": {
      "number_of_samples": 84,
      "scale": 0.03930461073318216,
      "sse": 0.0467961880736715
    },
    "in_valid_trace": {
      "number_of_samples": 24,
      "scale": 0.13756613756613756,
      "sse": 0.33427020164267235
    },
    "in_valid_trace_index": {
      "number_of_samples": 267,
      "scale": 0.012365495511562926,
      "sse": 0.005951546724074745
    }
  },
  "deviation_distributions_geom": {
    "all": {
      "number_of_samples": 84,
      "shape": 0.06068241469816273,
      "sse": 0.007688271648346069
    },
    "in_valid_trace": {
      "number_of_samples": 24,
      "shape": 0.2140122511485452,
      "sse": 0.005460805075938605
    },
    "in_valid_trace_index": {
      "number_of_samples": 130,
      "shape": 0.024959673996094747,
      "sse": 0.003580959132260957
    }
  },
  "frequencies_max": 336,
  "frequencies_mean": 4.269035532994923,
  "frequencies_median": 1.0,
  "frequencies_min": 1,
  "number_of_main_traces_80.0": 30,
  "number_of_trace_variants": 197
}