{
  "alpha": 2.3369380185189694,
  "alpha_err": 0.20879463976400633,
  "deviation_distributions": {
    "all": {
      "number_of_samples": 30,
      "scale": 0.05534324133050248,
      "sse": 0.12349383547367901
    },
    "in_valid_trace": {
      "number_of_samples": 25,
      "scale": 0.06641188959660298,
      "sse": 0.6653677881916338
    },
    "in_valid_trace_index": {
      "number_of_samples": 259,
      "scale": 0.006410414053726156,
      "sse": 0.004005261917801344
    }
  },
  "deviation_distributions_geom": {
    "all": {
      "number_of_samples": 30,
      "shape": 0.180787191460974,
      "sse": 0.0074466619314929785
    },
    "in_valid_trace": {
      "number_of_samples": 25,
      "shape": 0.11741424802110817,
      "sse": 0.004006815014590961
    },
    "in_valid_trace_index": {
      "number_of_samples": 60,
      "shape": 0.037803040679358996,
      "sse": 0.00830471058066339
    }
  },
  "frequencies_max": 265,
  "frequencies_mean": 8.103092783505154,
  "frequencies_median": 3.0,
  "frequencies_min": 1,
  "number_of_main_traces_80.0": 32,
  "number_of_trace_variants": 97
}