{
  "alpha": 1.9855974598574884,
  "alpha_err": 0.2463993649643721,
  "deviation_distributions_geom": {
    "all": {
      "number_of_samples": 100,
      "shape": 0.052526835051764656,
      "sse": 0.000303348937054623
    },
    "in_valid_trace": {
      "number_of_samples": 48,
      "shape": 0.18368779392152734,
      "sse": 0.0063388698894515025
    },
    "in_valid_trace_index": {
      "number_of_samples": 487,
      "shape": 0.007674304995398825,
      "sse": 0.002202204642655673
    }
  },
  "frequencies_max": 508,
  "frequencies_mean": 2.450980392156863,
  "frequencies_median": 1.0,
  "frequencies_min": 1,
  "number_of_main_traces_80.0": 208,
  "number_of_trace_variants": 408
}