{
  "alpha": 1.8969698369402765,
  "alpha_err": 0.1516155748106437,
  "deviation_distributions": {
    "all": {
      "number_of_samples": 38,
      "scale": 0.07213930348258707,
      "sse": 0.31908845738061153
    },
    "in_valid_trace": {
      "number_of_samples": 27,
      "scale": 0.10152939008660403,
      "sse": 0.47685901163786193
    },
    "in_valid_trace_index": {
      "number_of_samples": 325,
      "scale": 0.008434749330271718,
      "sse": 0.00180494887714977
    }
  },
  "deviation_distributions_geom": {
    "all": {
      "number_of_samples": 38,
      "shape": 0.20541342232109752,
      "sse": 0.004762093519195511
    },
    "in_valid_trace": {
      "number_of_samples": 27,
      "shape": 0.1184154175588865,
      "sse": 0.0032687920211694277
    },
    "in_valid_trace_index": {
      "number_of_samples": 192,
      "shape": 0.013603153239761585,
      "sse": 0.0031858274404029073
    }
  },
  "frequencies_max": 316,
  "frequencies_mean": 4.587155963302752,
  "frequencies_median": 1.0,
  "frequencies_min": 1,
  "number_of_main_traces_80.0": 33,
  "number_of_trace_variants": 218
}