{
  "alpha": 1.6945663976037444,
  "alpha_err": 0.18563067801421548,
  "deviation_distributions_geom": {
    "all": {
      "number_of_samples": 100,
      "shape": 0.06036348355919739,
      "sse": 0.0012324052134147878
    },
    "in_valid_trace": {
      "number_of_samples": 45,
      "shape": 0.19522776572668116,
      "sse": 0.004083021921171147
    },
    "in_valid_trace_index": {
      "number_of_samples": 488,
      "shape": 0.006375462173523999,
      "sse": 0.0021005602625237293
    }
  },
  "frequencies_max": 230,
  "frequencies_mean": 2.242152466367713,
  "frequencies_median": 1.0,
  "frequencies_min": 1,
  "number_of_main_traces_80.0": 246,
  "number_of_trace_variants": 446
}