{
  "alpha": 2.1807787738849305,
  "alpha_err": 0.2708892289495934,
  "deviation_distributions": {
    "all": {
      "number_of_samples": 13,
      "scale": 0.13310708898944193,
      "sse": 0.44837408739533546
    },
    "in_valid_trace": {
      "number_of_samples": 7,
      "scale": 0.24719887955182074,
      "sse": 0.9485280455199563
    },
    "in_valid_trace_index": {
      "number_of_samples": 77,
      "scale": 0.02247262541380188,
      "sse": 0.16489423331458228
    }
  },
  "deviation_distributions_geom": {
    "all": {
      "number_of_samples": 13,
      "shape": 0.35172413793103446,
      "sse": 0.023740283554533313
    },
    "in_valid_trace": {
      "number_of_samples": 7,
      "shape": 0.6513761467889908,
      "sse": 0.12557964075899342
    },
    "in_valid_trace_index": {
      "number_of_samples": 12,
      "shape": 0.2363515312916112,
      "sse": 0.04718174377559808
    }
  },
  "frequencies_max": 127,
  "frequencies_mean": 16.949152542372882,
  "frequencies_median": 5.0,
  "frequencies_min": 1,
  "number_of_main_traces_80.0": 15,
  "number_of_trace_variants": 59
}