{
  "alpha": 10.919232581391489,
  "alpha_err": 4.436015667324416,
  "deviation_distributions_geom": {
    "all": {
      "number_of_samples": 100,
      "shape": 0.05391546561438308,
      "sse": 0.004648668590402248
    },
    "in_valid_trace": {
      "number_of_samples": 50,
      "shape": 0.0650939918908957,
      "sse": 0.001450692207767741
    },
    "in_valid_trace_index": {
      "number_of_samples": 421,
      "shape": 0.006734848995064317,
      "sse": 0.0011499730060881993
    }
  },
  "frequencies_max": 8,
  "frequencies_mean": 1.278772378516624,
  "frequencies_median": 1.0,
  "frequencies_min": 1,
  "number_of_main_traces_80.0": 582,
  "number_of_trace_variants": 782
}