{
  "alpha": 1.7727289384262621,
  "alpha_err": 0.16112512182089747,
  "deviation_distributions_geom": {
    "all": {
      "number_of_samples": 68,
      "shape": 0.05818771392541885,
      "sse": 0.001800849774625883
    },
    "in_valid_trace": {
      "number_of_samples": 44,
      "shape": 0.08322513632822644,
      "sse": 0.008559686223663987
    },
    "in_valid_trace_index": {
      "number_of_samples": 213,
      "shape": 0.014672858482133126,
      "sse": 0.0021152461111663586
    }
  },
  "frequencies_max": 341,
  "frequencies_mean": 3.4364261168384878,
  "frequencies_median": 1.0,
  "frequencies_min": 1,
  "number_of_main_traces_80.0": 91,
  "number_of_trace_variants": 291
}