{
  "alpha": 1.9373133664214526,
  "alpha_err": 0.11451105316344677,
  "deviation_distributions_geom": {
    "all": {
      "number_of_samples": 46,
      "shape": 0.10550064460678985,
      "sse": 0.0010383717295868024
    },
    "in_valid_trace": {
      "number_of_samples": 41,
      "shape": 0.12384519350811486,
      "sse": 0.0007919319873029568
    },
    "in_valid_trace_index": {
      "number_of_samples": 170,
      "shape": 0.017317278435942253,
      "sse": 0.00261428150930432
    }
  },
  "frequencies_max": 121,
  "frequencies_mean": 4.854368932038835,
  "frequencies_median": 2.0,
  "frequencies_min": 1,
  "number_of_main_traces_80.0": 63,
  "number_of_trace_variants": 206
}