{
  "alpha": 2.751742326751647,
  "alpha_err": 0.15991146454974375,
  "deviation_distributions_geom": {
    "all": {
      "number_of_samples": 64,
      "shape": 0.06027140851661207,
      "sse": 0.0012073558036412076
    },
    "in_valid_trace": {
      "number_of_samples": 49,
      "shape": 0.06592039800995025,
      "sse": 0.0015941206271647477
    },
    "in_valid_trace_index": {
      "number_of_samples": 277,
      "shape": 0.008976096003096875,
      "sse": 0.0015905506471455741
    }
  },
  "frequencies_max": 500,
  "frequencies_mean": 3.3783783783783785,
  "frequencies_median": 1.0,
  "frequencies_min": 1,
  "number_of_main_traces_80.0": 108,
  "number_of_trace_variants": 296
}