{
  "alpha": 1.5214813608384206,
  "alpha_err": 0.0881464381748416,
  "deviation_distributions": {
    "all": {
      "number_of_samples": 11,
      "scale": 0.18741258741258743,
      "sse": 0.7578523872238636
    },
    "in_valid_trace": {
      "number_of_samples": 4,
      "scale": 0.5153846153846153,
      "sse": 1.5808509633861834
    },
    "in_valid_trace_index": {
      "number_of_samples": 36,
      "scale": 0.057264957264957256,
      "sse": 0.58444863106747
    }
  },
  "deviation_distributions_geom": {
    "all": {
      "number_of_samples": 11,
      "shape": 0.7040280210157619,
      "sse": 0.11955718381979531
    },
    "in_valid_trace": {
      "number_of_samples": 4,
      "shape": 0.8187372708757638,
      "sse": 0.26958023022341315
    },
    "in_valid_trace_index": {
      "number_of_samples": 6,
      "shape": 0.4060606060606061,
      "sse": 0.07625326650938644
    }
  },
  "frequencies_max": 341,
  "frequencies_mean": 20.795454545454547,
  "frequencies_median": 6.5,
  "frequencies_min": 1,
  "number_of_main_traces_80.0": 10,
  "number_of_trace_variants": 44
}