{
  "alpha": 1.6513079262897845,
  "alpha_err": 0.13580709062104288,
  "deviation_distributions_geom": {
    "all": {
      "number_of_samples": 100,
      "shape": 0.03789105084073866,
      "sse": 0.0005192765570981221
    },
    "in_valid_trace": {
      "number_of_samples": 50,
      "shape": 0.06090689562650926,
      "sse": 0.001181048424753823
    },
    "in_valid_trace_index": {
      "number_of_samples": 400,
      "shape": 0.006328155751354952,
      "sse": 0.001061207550423654
    }
  },
  "frequencies_max": 99,
  "frequencies_mean": 2.159827213822894,
  "frequencies_median": 1.0,
  "frequencies_min": 1,
  "number_of_main_traces_80.0": 263,
  "number_of_trace_variants": 463
}