{
  "alpha": 2.203780477248664,
  "alpha_err": 0.20644664867031995,
  "deviation_distributions_geom": {
    "all": {
      "number_of_samples": 100,
      "shape": 0.05363027644255998,
      "sse": 0.0009311017530733543
    },
    "in_valid_trace": {
      "number_of_samples": 35,
      "shape": 0.45142673933953187,
      "sse": 0.13087350586377258
    },
    "in_valid_trace_index": {
      "number_of_samples": 246,
      "shape": 0.03032001522874849,
      "sse": 0.027378082192984318
    }
  },
  "frequencies_max": 60,
  "frequencies_mean": 1.8484288354898337,
  "frequencies_median": 1.0,
  "frequencies_min": 1,
  "number_of_main_traces_80.0": 341,
  "number_of_trace_variants": 541
}