{
  "alpha": 2.3532545988567213,
  "alpha_err": 0.2557410806520969,
  "deviation_distributions_geom": {
    "all": {
      "number_of_samples": 100,
      "shape": 0.0507201923784752,
      "sse": 0.001473558487526227
    },
    "in_valid_trace": {
      "number_of_samples": 50,
      "shape": 0.11553133514986376,
      "sse": 0.06545057686506205
    },
    "in_valid_trace_index": {
      "number_of_samples": 319,
      "shape": 0.012187413082505247,
      "sse": 0.006876768004286202
    }
  },
  "frequencies_max": 44,
  "frequencies_mean": 1.6103059581320451,
  "frequencies_median": 1.0,
  "frequencies_min": 1,
  "number_of_main_traces_80.0": 421,
  "number_of_trace_variants": 621
}