{
  "alpha": 2.538042413507843,
  "alpha_err": 0.44399460073190744,
  "deviation_distributions": {
    "all": {
      "number_of_samples": 13,
      "scale": 0.12253451676528601,
      "sse": 0.8882315844891742
    },
    "in_valid_trace": {
      "number_of_samples": 9,
      "scale": 0.176994301994302,
      "sse": 0.5125317954277163
    },
    "in_valid_trace_index": {
      "number_of_samples": 79,
      "scale": 0.02016390782213567,
      "sse": 0.09098647652390764
    }
  },
  "deviation_distributions_geom": {
    "all": {
      "number_of_samples": 13,
      "shape": 0.27292340884573896,
      "sse": 0.02279221574675202
    },
    "in_valid_trace": {
      "number_of_samples": 9,
      "shape": 0.5419354838709677,
      "sse": 0.05810542666412525
    },
    "in_valid_trace_index": {
      "number_of_samples": 27,
      "shape": 0.11067708333333333,
      "sse": 0.020314847462501135
    }
  },
  "frequencies_max": 132,
  "frequencies_mean": 23.84375,
  "frequencies_median": 10.0,
  "frequencies_min": 1,
  "number_of_main_traces_80.0": 11,
  "number_of_trace_variants": 32
}