{
  "alpha": 2.434079858210884,
  "alpha_err": 0.3832739639070343,
  "deviation_distributions": {
    "all": {
      "number_of_samples": 18,
      "scale": 0.08479973185855538,
      "sse": 0.2974827910841549
    },
    "in_valid_trace": {
      "number_of_samples": 6,
      "scale": 0.2543991955756662,
      "sse": 0.8354120831979996
    },
    "in_valid_trace_index": {
      "number_of_samples": 48,
      "scale": 0.03179989944695827,
      "sse": 0.17258636830471913
    }
  },
  "deviation_distributions_geom": {
    "all": {
      "number_of_samples": 18,
      "shape": 0.29518072289156627,
      "sse": 0.008016475706701472
    },
    "in_valid_trace": {
      "number_of_samples": 6,
      "shape": 1.1724137931034484,
      "sse": NaN
    },
    "in_valid_trace_index": {
      "number_of_samples": 22,
      "shape": 0.15456989247311828,
      "sse": 0.04145584496404194
    }
  },
  "frequencies_max": 497,
  "frequencies_mean": 37.03703703703704,
  "frequencies_median": 19.0,
  "frequencies_min": 1,
  "number_of_main_traces_80.0": 8,
  "number_of_trace_variants": 27
}