{
  "alpha": 3.0374605094286764,
  "alpha_err": 0.9111800401107742,
  "deviation_distributions": {
    "all": {
      "number_of_samples": 8,
      "scale": 0.17952674897119342,
      "sse": 1.1589808080407527
    },
    "in_valid_trace": {
      "number_of_samples": 3,
      "scale": 0.4787379972565158,
      "sse": 1.502835430742581
    },
    "in_valid_trace_index": {
      "number_of_samples": 13,
      "scale": 0.11047799936688826,
      "sse": 0.7402691243037267
    }
  },
  "deviation_distributions_geom": {
    "all": {
      "number_of_samples": 8,
      "shape": 0.47035040431266845,
      "sse": 0.05733049576939969
    },
    "in_valid_trace": {
      "number_of_samples": 3,
      "shape": 2.0409356725146197,
      "sse": NaN
    },
    "in_valid_trace_index": {
      "number_of_samples": 6,
      "shape": 0.6155202821869489,
      "sse": 0.1508551478071558
    }
  },
  "frequencies_max": 336,
  "frequencies_mean": 111.11111111111111,
  "frequencies_median": 88.0,
  "frequencies_min": 26,
  "number_of_main_traces_80.0": 4,
  "number_of_trace_variants": 9
}