{
  "alpha": 2.547718111180531,
  "alpha_err": 0.1678735992163092,
  "deviation_distributions_geom": {
    "all": {
      "number_of_samples": 75,
      "shape": 0.07791519434628975,
      "sse": 0.006329264281190492
    },
    "in_valid_trace": {
      "number_of_samples": 47,
      "shape": 0.11827376938637897,
      "sse": 0.0008268056042546549
    },
    "in_valid_trace_index": {
      "number_of_samples": 264,
      "shape": 0.011379230778572558,
      "sse": 0.003547090262814044
    }
  },
  "frequencies_max": 498,
  "frequencies_mean": 2.932551319648094,
  "frequencies_median": 1.0,
  "frequencies_min": 1,
  "number_of_main_traces_80.0": 141,
  "number_of_trace_variants": 341
}