{
  "alpha": 1.9356777603615445,
  "alpha_err": 0.20922390772031715,
  "deviation_distributions_geom": {
    "all": {
      "number_of_samples": 100,
      "shape": 0.04845732769345608,
      "sse": 0.006924479496588071
    },
    "in_valid_trace": {
      "number_of_samples": 40,
      "shape": 0.13560836162229767,
      "sse": 0.0016410410403303833
    },
    "in_valid_trace_index": {
      "number_of_samples": 242,
      "shape": 0.01341781587774879,
      "sse": 0.0017999379021822806
    }
  },
  "frequencies_max": 238,
  "frequencies_mean": 3.3003300330033003,
  "frequencies_median": 1.0,
  "frequencies_min": 1,
  "number_of_main_traces_80.0": 103,
  "number_of_trace_variants": 303
}