{
  "alpha": 2.1394781784550867,
  "alpha_err": 0.2325950091875829,
  "deviation_distributions": {
    "all": {
      "number_of_samples": 4,
      "scale": 0.2677725118483412,
      "sse": 1.1271248319054066
    },
    "in_valid_trace": {
      "number_of_samples": 9,
      "scale": 0.11901000526592943,
      "sse": 1.0674319302370288
    },
    "in_valid_trace_index": {
      "number_of_samples": 82,
      "scale": 0.01306207374869957,
      "sse": 0.03681329320809608
    }
  },
  "deviation_distributions_geom": {
    "all": {
      "number_of_samples": 4,
      "shape": 1.7142857142857142,
      "sse": NaN
    },
    "in_valid_trace": {
      "number_of_samples": 9,
      "shape": 0.31875881523272215,
      "sse": 0.027364263788202215
    },
    "in_valid_trace_index": {
      "number_of_samples": 13,
      "shape": 0.18952618453865336,
      "sse": 0.030040016430043857
    }
  },
  "frequencies_max": 97,
  "frequencies_mean": 41.666666666666664,
  "frequencies_median": 30.5,
  "frequencies_min": 15,
  "number_of_main_traces_80.0": 13,
  "number_of_trace_variants": 24
}