{
  "alpha": 2.318479953715121,
  "alpha_err": 0.13251222121449124,
  "deviation_distributions_geom": {
    "all": {
      "number_of_samples": 56,
      "shape": 0.1105872267466781,
      "sse": 0.006640717792688203
    },
    "in_valid_trace": {
      "number_of_samples": 50,
      "shape": 0.09046692607003891,
      "sse": 0.007502396914046872
    },
    "in_valid_trace_index": {
      "number_of_samples": 284,
      "shape": 0.01116059787427117,
      "sse": 0.005112285458914869
    }
  },
  "frequencies_max": 32,
  "frequencies_mean": 2.6595744680851063,
  "frequencies_median": 1.0,
  "frequencies_min": 1,
  "number_of_main_traces_80.0": 176,
  "number_of_trace_variants": 376
}