{
  "alpha": 2.108464599232356,
  "alpha_err": 0.26126761160747586,
  "deviation_distributions_geom": {
    "all": {
      "number_of_samples": 100,
      "shape": 0.0502348024643488,
      "sse": 0.00040105452867805806
    },
    "in_valid_trace": {
      "number_of_samples": 38,
      "shape": 0.2618510158013544,
      "sse": 0.14183541518990145
    },
    "in_valid_trace_index": {
      "number_of_samples": 210,
      "shape": 0.02265125613200535,
      "sse": 0.007557132368331563
    }
  },
  "frequencies_max": 508,
  "frequencies_mean": 3.1446540880503147,
  "frequencies_median": 1.0,
  "frequencies_min": 1,
  "number_of_main_traces_80.0": 118,
  "number_of_trace_variants": 318
}