{
  "alpha": 2.454621453584876,
  "alpha_err": 0.24587590210332744,
  "deviation_distributions_geom": {
    "all": {
      "number_of_samples": 63,
      "shape": 0.09974372116863148,
      "sse": 0.008415913760274752
    },
    "in_valid_trace": {
      "number_of_samples": 44,
      "shape": 0.1614704901633878,
      "sse": 0.006144603616826641
    },
    "in_valid_trace_index": {
      "number_of_samples": 205,
      "shape": 0.018686462716913328,
      "sse": 0.003875927395116292
    }
  },
  "frequencies_max": 28,
  "frequencies_mean": 1.733102253032929,
  "frequencies_median": 1.0,
  "frequencies_min": 1,
  "number_of_main_traces_80.0": 377,
  "number_of_trace_variants": 577
}