{
  "alpha": 2.1215341462413466,
  "alpha_err": 0.1435977328229463,
  "deviation_distributions_geom": {
    "all": {
      "number_of_samples": 71,
      "shape": 0.07200559760829464,
      "sse": 0.004301638072872008
    },
    "in_valid_trace": {
      "number_of_samples": 35,
      "shape": 0.16644295302013423,
      "sse": 0.00504869374403764
    },
    "in_valid_trace_index": {
      "number_of_samples": 168,
      "shape": 0.017097673595232125,
      "sse": 0.006948870532631541
    }
  },
  "frequencies_max": 50,
  "frequencies_mean": 3.3557046979865772,
  "frequencies_median": 1.0,
  "frequencies_min": 1,
  "number_of_main_traces_80.0": 111,
  "number_of_trace_variants": 298
}