{
  "alpha": 1.8281849366949723,
  "alpha_err": 0.10603821530184722,
  "deviation_distributions": {
    "all": {
      "number_of_samples": 26,
      "scale": 0.06870398578319371,
      "sse": 0.09596853849796416
    },
    "in_valid_trace": {
      "number_of_samples": 27,
      "scale": 0.0661593937171495,
      "sse": 0.047974086191505325
    },
    "in_valid_trace_index": {
      "number_of_samples": 281,
      "scale": 0.00635695242122077,
      "sse": 0.0006727653167326854
    }
  },
  "deviation_distributions_geom": {
    "all": {
      "number_of_samples": 26,
      "shape": 0.18865030674846625,
      "sse": 0.0019550159802416115
    },
    "in_valid_trace": {
      "number_of_samples": 27,
      "shape": 0.15850515463917528,
      "sse": 0.004100819820505554
    },
    "in_valid_trace_index": {
      "number_of_samples": 108,
      "shape": 0.029455310527546172,
      "sse": 0.009673313922010117
    }
  },
  "frequencies_max": 131,
  "frequencies_mean": 7.299270072992701,
  "frequencies_median": 2.0,
  "frequencies_min": 1,
  "number_of_main_traces_80.0": 32,
  "number_of_trace_variants": 137
}