{
  "alpha": 2.0956851228934315,
  "alpha_err": 0.14387050502460322,
  "deviation_distributions_geom": {
    "all": {
      "number_of_samples": 84,
      "shape": 0.057919621749408984,
      "sse": 0.00029633949483118114
    },
    "in_valid_trace": {
      "number_of_samples": 44,
      "shape": 0.11343331206126357,
      "sse": 0.0013971418120200664
    },
    "in_valid_trace_index": {
      "number_of_samples": 237,
      "shape": 0.0115748502121084,
      "sse": 0.001621829246340715
    }
  },
  "frequencies_max": 85,
  "frequencies_mean": 4.237288135593221,
  "frequencies_median": 1.0,
  "frequencies_min": 1,
  "number_of_main_traces_80.0": 75,
  "number_of_trace_variants": 236
}