{
  "alpha": 1.3636071725492576,
  "alpha_err": 0.2571090973976471,
  "deviation_distributions_geom": {
    "all": {
      "number_of_samples": 100,
      "shape": 0.04589309557651721,
      "sse": 0.002262856145008393
    },
    "in_valid_trace": {
      "number_of_samples": 48,
      "shape": 0.09726947570444038,
      "sse": 0.007179783492818118
    },
    "in_valid_trace_index": {
      "number_of_samples": 496,
      "shape": 0.007395270429946592,
      "sse": 0.002035928776381709
    }
  },
  "frequencies_max": 510,
  "frequencies_mean": 2.05761316872428,
  "frequencies_median": 1.0,
  "frequencies_min": 1,
  "number_of_main_traces_80.0": 286,
  "number_of_trace_variants": 486
}