{
  "alpha": 258.12425105646355,
  "alpha_err": 181.81430152953766,
  "deviation_distributions": {
    "all": {
      "number_of_samples": 25,
      "scale": 0.06960396039603961,
      "sse": 0.18715810014947334
    },
    "in_valid_trace": {
      "number_of_samples": 9,
      "scale": 0.19334433443344334,
      "sse": 1.1614068564974267
    },
    "in_valid_trace_index": {
      "number_of_samples": 78,
      "scale": 0.02230896166539731,
      "sse": 0.004832906716793665
    }
  },
  "deviation_distributions_geom": {
    "all": {
      "number_of_samples": 25,
      "shape": 0.325068870523416,
      "sse": 0.01965433662408604
    },
    "in_valid_trace": {
      "number_of_samples": 9,
      "shape": 0.32234432234432236,
      "sse": 0.02966982617335798
    },
    "in_valid_trace_index": {
      "number_of_samples": 58,
      "shape": 0.043724596625200146,
      "sse": 0.009057678863781128
    }
  },
  "frequencies_max": 258,
  "frequencies_mean": 9.70873786407767,
  "frequencies_median": 2.0,
  "frequencies_min": 1,
  "number_of_main_traces_80.0": 11,
  "number_of_trace_variants": 103
}