{
  "alpha": 2.3767143291006274,
  "alpha_err": 0.3818318542491014,
  "deviation_distributions_geom": {
    "all": {
      "number_of_samples": 84,
      "shape": 0.05505584659484037,
      "sse": 0.003621323499786692
    },
    "in_valid_trace": {
      "number_of_samples": 38,
      "shape": 0.1597303634232122,
      "sse": 0.0021081281330034046
    },
    "in_valid_trace_index": {
      "number_of_samples": 176,
      "shape": 0.019010054637742073,
      "sse": 0.0035592711929407495
    }
  },
  "frequencies_max": 188,
  "frequencies_mean": 4.184100418410042,
  "frequencies_median": 1.0,
  "frequencies_min": 1,
  "number_of_main_traces_80.0": 60,
  "number_of_trace_variants": 239
}