{
  "alpha": 2.115099233998648,
  "alpha_err": 0.16095071073056622,
  "deviation_distributions_geom": {
    "all": {
      "number_of_samples": 100,
      "shape": 0.0621700247818123,
      "sse": 0.006709154589845092
    },
    "in_valid_trace": {
      "number_of_samples": 43,
      "shape": 0.08769701949652649,
      "sse": 0.0021988873882191912
    },
    "in_valid_trace_index": {
      "number_of_samples": 372,
      "shape": 0.007939206944951122,
      "sse": 0.0014842160239297842
    }
  },
  "frequencies_max": 270,
  "frequencies_mean": 2.857142857142857,
  "frequencies_median": 1.0,
  "frequencies_min": 1,
  "number_of_main_traces_80.0": 150,
  "number_of_trace_variants": 350
}