{
  "alpha": 2.019549418560293,
  "alpha_err": 0.240310102539595,
  "deviation_distributions": {
    "all": {
      "number_of_samples": 14,
      "scale": 0.1770034843205575,
      "sse": 0.8037002843843396
    },
    "in_valid_trace": {
      "number_of_samples": 2,
      "scale": 1.2390243902439024,
      "sse": 1.8528262312588792
    },
    "in_valid_trace_index": {
      "number_of_samples": 22,
      "scale": 0.11263858093126387,
      "sse": 0.3981949256525505
    }
  },
  "deviation_distributions_geom": {
    "all": {
      "number_of_samples": 14,
      "shape": 0.27608695652173915,
      "sse": 0.016953384907524433
    },
    "in_valid_trace": {
      "number_of_samples": 2,
      "shape": 2.081967213114754,
      "sse": NaN
    },
    "in_valid_trace_index": {
      "number_of_samples": 16,
      "shape": 0.18710865561694293,
      "sse": 0.04033688146777588
    }
  },
  "frequencies_max": 495,
  "frequencies_mean": 27.77777777777778,
  "frequencies_median": 8.5,
  "frequencies_min": 1,
  "number_of_main_traces_80.0": 6,
  "number_of_trace_variants": 36
}