{
  "alpha": 46.44721117448316,
  "alpha_err": 32.13603120749408,
  "deviation_distributions_geom": {
    "all": {
      "number_of_samples": 1,
      "shape": Infinity,
      "sse": 0.0
    },
    "in_valid_trace": {
      "number_of_samples": 1,
      "shape": Infinity,
      "sse": 0.0
    },
    "in_valid_trace_index": {
      "number_of_samples": 1,
      "shape": Infinity,
      "sse": 0.0
    }
  },
  "frequencies_max": 511,
  "frequencies_mean": 500.0,
  "frequencies_median": 500.0,
  "frequencies_min": 489,
  "number_of_main_traces_80.0": 1,
  "number_of_trace_variants": 2
}