{
  "alpha": 1.9280495267922486,
  "alpha_err": 0.16668261555532735,
  "deviation_distributions": {
    "all": {
      "number_of_samples": 9,
      "scale": 0.20121614151464898,
      "sse": 1.1355872098026978
    },
    "in_valid_trace": {
      "number_of_samples": 7,
      "scale": 0.2587064676616916,
      "sse": 1.4381871472877594
    },
    "in_valid_trace_index": {
      "number_of_samples": 104,
      "scale": 0.01741293532338308,
      "sse": 0.10265765801100207
    }
  },
  "deviation_distributions_geom": {
    "all": {
      "number_of_samples": 9,
      "shape": 0.39956331877729256,
      "sse": 0.043877477183326914
    },
    "in_valid_trace": {
      "number_of_samples": 7,
      "shape": 0.378099173553719,
      "sse": 0.0657904438577649
    },
    "in_valid_trace_index": {
      "number_of_samples": 22,
      "shape": 0.10662405578152238,
      "sse": 0.012839149610046133
    }
  },
  "frequencies_max": 173,
  "frequencies_mean": 22.727272727272727,
  "frequencies_median": 10.0,
  "frequencies_min": 1,
  "number_of_main_traces_80.0": 16,
  "number_of_trace_variants": 44
}