{
  "alpha": 8.48887568941862,
  "alpha_err": 4.323704395213485,
  "deviation_distributions_geom": {
    "all": {
      "number_of_samples": 100,
      "shape": 0.03505296288603793,
      "sse": 0.0005333397366417599
    },
    "in_valid_trace": {
      "number_of_samples": 50,
      "shape": 0.058237243207422136,
      "sse": 0.001419252910592457
    },
    "in_valid_trace_index": {
      "number_of_samples": 476,
      "shape": 0.005537826168575183,
      "sse": 0.0008456394085776302
    }
  },
  "frequencies_max": 4,
  "frequencies_mean": 1.2836970474967908,
  "frequencies_median": 1.0,
  "frequencies_min": 1,
  "number_of_main_traces_80.0": 579,
  "number_of_trace_variants": 779
}