{
  "alpha": 1.7622581310256116,
  "alpha_err": 0.1047042067521517,
  "deviation_distributions": {
    "all": {
      "number_of_samples": 14,
      "scale": 0.14866291344123855,
      "sse": 0.17007047984863588
    },
    "in_valid_trace": {
      "number_of_samples": 9,
      "scale": 0.23125342090859335,
      "sse": 1.0804544164942231
    },
    "in_valid_trace_index": {
      "number_of_samples": 104,
      "scale": 0.02001231527093596,
      "sse": 0.12843784376562298
    }
  },
  "deviation_distributions_geom": {
    "all": {
      "number_of_samples": 14,
      "shape": 0.2975609756097561,
      "sse": 0.01548993805445891
    },
    "in_valid_trace": {
      "number_of_samples": 9,
      "shape": 0.3931226765799256,
      "sse": 0.03164225098067788
    },
    "in_valid_trace_index": {
      "number_of_samples": 16,
      "shape": 0.15062166962699822,
      "sse": 0.0390035411600423
    }
  },
  "frequencies_max": 50,
  "frequencies_mean": 12.658227848101266,
  "frequencies_median": 6.0,
  "frequencies_min": 1,
  "number_of_main_traces_80.0": 28,
  "number_of_trace_variants": 79
}