{
  "alpha": 1.755665847538277,
  "alpha_err": 0.16489980697319587,
  "deviation_distributions_geom": {
    "all": {
      "number_of_samples": 100,
      "shape": 0.038142063665195576,
      "sse": 0.0006449506566872661
    },
    "in_valid_trace": {
      "number_of_samples": 49,
      "shape": 0.08448785673942656,
      "sse": 0.0013055539751525129
    },
    "in_valid_trace_index": {
      "number_of_samples": 517,
      "shape": 0.005977412605047744,
      "sse": 0.0009212003734444794
    }
  },
  "frequencies_max": 151,
  "frequencies_mean": 1.8726591760299625,
  "frequencies_median": 1.0,
  "frequencies_min": 1,
  "number_of_main_traces_80.0": 334,
  "number_of_trace_variants": 534
}