{
  "alpha": 1.6295711159761068,
  "alpha_err": 0.07471634529690788,
  "deviation_distributions": {
    "all": {
      "number_of_samples": 20,
      "scale": 0.08858173076923079,
      "sse": 0.332233543729632
    },
    "in_valid_trace": {
      "number_of_samples": 14,
      "scale": 0.1265453296703297,
      "sse": 0.6284514350903951
    },
    "in_valid_trace_index": {
      "number_of_samples": 212,
      "scale": 0.008356767053701017,
      "sse": 0.0006850593734935232
    }
  },
  "deviation_distributions_geom": {
    "all": {
      "number_of_samples": 20,
      "shape": 0.2856054836252856,
      "sse": 0.009842049596472346
    },
    "in_valid_trace": {
      "number_of_samples": 14,
      "shape": 0.3318465655664585,
      "sse": 0.022396057355075487
    },
    "in_valid_trace_index": {
      "number_of_samples": 38,
      "shape": 0.07209122535755702,
      "sse": 0.032384254470556526
    }
  },
  "frequencies_max": 89,
  "frequencies_mean": 10.416666666666666,
  "frequencies_median": 3.0,
  "frequencies_min": 1,
  "number_of_main_traces_80.0": 27,
  "number_of_trace_variants": 96
}