{
  "alpha": 1.471975822519382,
  "alpha_err": 0.09439516450387639,
  "deviation_distributions": {
    "all": {
      "number_of_samples": 11,
      "scale": 0.18791574279379156,
      "sse": 0.8045438417978137
    },
    "in_valid_trace": {
      "number_of_samples": 2,
      "scale": 1.0335365853658536,
      "sse": 1.8299704636014664
    },
    "in_valid_trace_index": {
      "number_of_samples": 17,
      "scale": 0.12159253945480633,
      "sse": 0.9409113882073685
    }
  },
  "deviation_distributions_geom": {
    "all": {
      "number_of_samples": 11,
      "shape": 0.424812030075188,
      "sse": 0.04530126638054149
    },
    "in_valid_trace": {
      "number_of_samples": 2,
      "shape": 2.2012987012987013,
      "sse": NaN
    },
    "in_valid_trace_index": {
      "number_of_samples": 3,
      "shape": 0.9390581717451524,
      "sse": 0.10342988232802001
    }
  },
  "frequencies_max": 133,
  "frequencies_mean": 25.75862068965517,
  "frequencies_median": 10.0,
  "frequencies_min": 1,
  "number_of_main_traces_80.0": 7,
  "number_of_trace_variants": 29
}