{
  "alpha": 2.054790970909764,
  "alpha_err": 0.09793488302459474,
  "deviation_distributions_geom": {
    "all": {
      "number_of_samples": 58,
      "shape": 0.11575402270175877,
      "sse": 0.007295986905926525
    },
    "in_valid_trace": {
      "number_of_samples": 34,
      "shape": 0.1776188635485118,
      "sse": 0.015357707414931827
    },
    "in_valid_trace_index": {
      "number_of_samples": 114,
      "shape": 0.0326811063443898,
      "sse": 0.007984987305395425
    }
  },
  "frequencies_max": 129,
  "frequencies_mean": 2.985074626865672,
  "frequencies_median": 1.0,
  "frequencies_min": 1,
  "number_of_main_traces_80.0": 135,
  "number_of_trace_variants": 335
}