{
  "alpha": 2.496983279441327,
  "alpha_err": 0.352842342738613,
  "deviation_distributions_geom": {
    "all": {
      "number_of_samples": 100,
      "shape": 0.04419209194144206,
      "sse": 0.004612662863805431
    },
    "in_valid_trace": {
      "number_of_samples": 50,
      "shape": 0.0681789486974454,
      "sse": 0.0007399327521833334
    },
    "in_valid_trace_index": {
      "number_of_samples": 410,
      "shape": 0.006587019696480465,
      "sse": 0.0009874047452806487
    }
  },
  "frequencies_max": 48,
  "frequencies_mean": 1.8281535648994516,
  "frequencies_median": 1.0,
  "frequencies_min": 1,
  "number_of_main_traces_80.0": 347,
  "number_of_trace_variants": 547
}