{
  "alpha": 1.956867510028717,
  "alpha_err": 0.2040048385955317,
  "deviation_distributions": {
    "all": {
      "number_of_samples": 16,
      "scale": 0.14212740384615385,
      "sse": 0.5856864199298651
    },
    "in_valid_trace": {
      "number_of_samples": 5,
      "scale": 0.45480769230769214,
      "sse": 1.351143078376557
    },
    "in_valid_trace_index": {
      "number_of_samples": 71,
      "scale": 0.03202871072589382,
      "sse": 0.2973224799588427
    }
  },
  "deviation_distributions_geom": {
    "all": {
      "number_of_samples": 16,
      "shape": 0.22417061611374406,
      "sse": 0.014072610335765132
    },
    "in_valid_trace": {
      "number_of_samples": 5,
      "shape": 1.5662251655629138,
      "sse": NaN
    },
    "in_valid_trace_index": {
      "number_of_samples": 9,
      "shape": 0.35457271364317844,
      "sse": 0.07401964447823392
    }
  },
  "frequencies_max": 232,
  "frequencies_mean": 17.24137931034483,
  "frequencies_median": 5.0,
  "frequencies_min": 1,
  "number_of_main_traces_80.0": 13,
  "number_of_trace_variants": 58
}