{
  "alpha": 2.4039605517621534,
  "alpha_err": 0.5306472100725261,
  "deviation_distributions": {
    "all": {
      "number_of_samples": 7,
      "scale": 0.1915024630541872,
      "sse": 1.1956126949512753
    },
    "in_valid_trace": {
      "number_of_samples": 3,
      "scale": 0.4468390804597701,
      "sse": 1.3979361551712333
    },
    "in_valid_trace_index": {
      "number_of_samples": 19,
      "scale": 0.07055353901996371,
      "sse": 0.6182587709868211
    }
  },
  "deviation_distributions_geom": {
    "all": {
      "number_of_samples": 7,
      "shape": 0.5115131578947368,
      "sse": 0.05513244581884298
    },
    "in_valid_trace": {
      "number_of_samples": 3,
      "shape": 3.344086021505376,
      "sse": NaN
    },
    "in_valid_trace_index": {
      "number_of_samples": 7,
      "shape": 0.40547588005215124,
      "sse": 0.13077314190559652
    }
  },
  "frequencies_max": 474,
  "frequencies_mean": 90.9090909090909,
  "frequencies_median": 45.0,
  "frequencies_min": 17,
  "number_of_main_traces_80.0": 4,
  "number_of_trace_variants": 11
}