{
  "alpha": 1.7084002361299682,
  "alpha_err": 0.2044975335118158,
  "deviation_distributions": {
    "all": {
      "number_of_samples": 99,
      "scale": 0.027985043060419944,
      "sse": 0.05784668777212698
    },
    "in_valid_trace": {
      "number_of_samples": 22,
      "scale": 0.12593269377188976,
      "sse": 0.3363895186655638
    },
    "in_valid_trace_index": {
      "number_of_samples": 169,
      "scale": 0.016393605106399853,
      "sse": 0.023361609437438008
    }
  },
  "deviation_distributions_geom": {
    "all": {
      "number_of_samples": 99,
      "shape": 0.05247024882798414,
      "sse": 0.0029782348951445875
    },
    "in_valid_trace": {
      "number_of_samples": 22,
      "shape": 0.27057115198451115,
      "sse": 0.012466113507899768
    },
    "in_valid_trace_index": {
      "number_of_samples": 103,
      "shape": 0.03704176778643505,
      "sse": 0.007831511158203144
    }
  },
  "frequencies_max": 528,
  "frequencies_mean": 4.975124378109452,
  "frequencies_median": 1.0,
  "frequencies_min": 1,
  "number_of_main_traces_80.0": 24,
  "number_of_trace_variants": 201
}