{
  "alpha": 2.101456211911323,
  "alpha_err": 0.18618008077880183,
  "deviation_distributions": {
    "all": {
      "number_of_samples": 65,
      "scale": 0.047782051282051284,
      "sse": 0.1651727106924163
    },
    "in_valid_trace": {
      "number_of_samples": 36,
      "scale": 0.08627314814814814,
      "sse": 0.1323227961696886
    },
    "in_valid_trace_index": {
      "number_of_samples": 548,
      "scale": 0.005667579075425791,
      "sse": 0.0026592613278107005
    }
  },
  "deviation_distributions_geom": {
    "all": {
      "number_of_samples": 65,
      "shape": 0.08184274868099344,
      "sse": 0.0007514965313569432
    },
    "in_valid_trace": {
      "number_of_samples": 36,
      "shape": 0.14476409666283085,
      "sse": 0.0015363444855235621
    },
    "in_valid_trace_index": {
      "number_of_samples": 142,
      "shape": 0.019100957995578483,
      "sse": 0.004772443227079416
    }
  },
  "frequencies_max": 524,
  "frequencies_mean": 4.3478260869565215,
  "frequencies_median": 1.0,
  "frequencies_min": 1,
  "number_of_main_traces_80.0": 50,
  "number_of_trace_variants": 230
}