{
  "alpha": 2.2720313623255226,
  "alpha_err": 0.40225163601155495,
  "deviation_distributions": {
    "all": {
      "number_of_samples": 4,
      "scale": 0.41103603603603606,
      "sse": 1.7009438201054625
    },
    "in_valid_trace": {
      "number_of_samples": 4,
      "scale": 0.41103603603603606,
      "sse": 1.557267146192578
    },
    "in_valid_trace_index": {
      "number_of_samples": 52,
      "scale": 0.03161815661815662,
      "sse": 0.2439376749436827
    }
  },
  "deviation_distributions_geom": {
    "all": {
      "number_of_samples": 4,
      "shape": 0.8568075117370891,
      "sse": 0.17972390167880659
    },
    "in_valid_trace": {
      "number_of_samples": 4,
      "shape": 0.7373737373737373,
      "sse": 0.20400081517203644
    },
    "in_valid_trace_index": {
      "number_of_samples": 16,
      "shape": 0.1726584673604541,
      "sse": 0.0527869023998212
    }
  },
  "frequencies_max": 257,
  "frequencies_mean": 45.45454545454545,
  "frequencies_median": 14.5,
  "frequencies_min": 1,
  "number_of_main_traces_80.0": 6,
  "number_of_trace_variants": 22
}