{
  "alpha": 1.5069767554506859,
  "alpha_err": 0.08224248974947333,
  "deviation_distributions": {
    "all": {
      "number_of_samples": 15,
      "scale": 0.11124999999999999,
      "sse": 0.7824042291512576
    },
    "in_valid_trace": {
      "number_of_samples": 7,
      "scale": 0.23839285714285716,
      "sse": 0.7521972344492535
    },
    "in_valid_trace_index": {
      "number_of_samples": 78,
      "scale": 0.021394230769230773,
      "sse": 0.11613197699202644
    }
  },
  "deviation_distributions_geom": {
    "all": {
      "number_of_samples": 15,
      "shape": 0.22258862324814507,
      "sse": 0.01412138988163791
    },
    "in_valid_trace": {
      "number_of_samples": 7,
      "shape": 0.8999999999999999,
      "sse": 0.21050031657486154
    },
    "in_valid_trace_index": {
      "number_of_samples": 23,
      "shape": 0.1498065229408513,
      "sse": 0.026658701117759444
    }
  },
  "frequencies_max": 128,
  "frequencies_mean": 18.357142857142858,
  "frequencies_median": 9.5,
  "frequencies_min": 1,
  "number_of_main_traces_80.0": 14,
  "number_of_trace_variants": 42
}