{
  "alpha": 2.0716662796358616,
  "alpha_err": 0.27670304358145015,
  "deviation_distributions": {
    "all": {
      "number_of_samples": 80,
      "scale": 0.05211442786069651,
      "sse": 0.180663627791542
    },
    "in_valid_trace": {
      "number_of_samples": 14,
      "scale": 0.29779673063255147,
      "sse": 0.7281311534536261
    },
    "in_valid_trace_index": {
      "number_of_samples": 166,
      "scale": 0.025115386920817596,
      "sse": 0.17493044378833306
    }
  },
  "deviation_distributions_geom": {
    "all": {
      "number_of_samples": 80,
      "shape": 0.078544588030428,
      "sse": 0.0031390062614745982
    },
    "in_valid_trace": {
      "number_of_samples": 14,
      "shape": 1.2507418397626113,
      "sse": NaN
    },
    "in_valid_trace_index": {
      "number_of_samples": 60,
      "shape": 0.10098143549722124,
      "sse": 0.019807273263888234
    }
  },
  "frequencies_max": 524,
  "frequencies_mean": 4.854368932038835,
  "frequencies_median": 1.0,
  "frequencies_min": 1,
  "number_of_main_traces_80.0": 30,
  "number_of_trace_variants": 206
}