{
  "alpha": 1.7737873368946055,
  "alpha_err": 0.1346990858148148,
  "deviation_distributions": {
    "all": {
      "number_of_samples": 18,
      "scale": 0.10180668473351401,
      "sse": 0.27263608733031014
    },
    "in_valid_trace": {
      "number_of_samples": 7,
      "scale": 0.26178861788617885,
      "sse": 1.089836180346023
    },
    "in_valid_trace_index": {
      "number_of_samples": 99,
      "scale": 0.018510306315184365,
      "sse": 0.05160307503560512
    }
  },
  "deviation_distributions_geom": {
    "all": {
      "number_of_samples": 18,
      "shape": 0.3102880658436214,
      "sse": 0.005856526886313396
    },
    "in_valid_trace": {
      "number_of_samples": 7,
      "shape": 0.5229485396383867,
      "sse": 0.06453973258628382
    },
    "in_valid_trace_index": {
      "number_of_samples": 37,
      "shape": 0.07188922610015175,
      "sse": 0.03420583516982758
    }
  },
  "frequencies_max": 228,
  "frequencies_mean": 14.084507042253522,
  "frequencies_median": 3.0,
  "frequencies_min": 1,
  "number_of_main_traces_80.0": 11,
  "number_of_trace_variants": 71
}