{
  "alpha": 2.119048618091562,
  "alpha_err": 0.20098706503498012,
  "deviation_distributions_geom": {
    "all": {
      "number_of_samples": 29,
      "shape": 0.14995083579154375,
      "sse": 0.0050294404471724055
    },
    "in_valid_trace": {
      "number_of_samples": 40,
      "shape": 0.08835399250504468,
      "sse": 0.001580956983952476
    },
    "in_valid_trace_index": {
      "number_of_samples": 181,
      "shape": 0.014488238043308928,
      "sse": 0.002484685814722949
    }
  },
  "frequencies_max": 83,
  "frequencies_mean": 4.081632653061225,
  "frequencies_median": 1.0,
  "frequencies_min": 1,
  "number_of_main_traces_80.0": 84,
  "number_of_trace_variants": 245
}