{
  "alpha": 1.6223304496583113,
  "alpha_err": 0.10519304547516654,
  "deviation_distributions": {
    "all": {
      "number_of_samples": 47,
      "scale": 0.059533551554828146,
      "sse": 0.14458072943773603
    },
    "in_valid_trace": {
      "number_of_samples": 12,
      "scale": 0.23317307692307687,
      "sse": 1.0092190300626818
    },
    "in_valid_trace_index": {
      "number_of_samples": 118,
      "scale": 0.023712516297262058,
      "sse": 0.06226170197727098
    }
  },
  "deviation_distributions_geom": {
    "all": {
      "number_of_samples": 47,
      "shape": 0.10673474349623147,
      "sse": 0.0016175654980105391
    },
    "in_valid_trace": {
      "number_of_samples": 12,
      "shape": 0.29435483870967744,
      "sse": 0.02143788647039546
    },
    "in_valid_trace_index": {
      "number_of_samples": 58,
      "shape": 0.04564788878514369,
      "sse": 0.004066379617354755
    }
  },
  "frequencies_max": 122,
  "frequencies_mean": 5.1066666666666665,
  "frequencies_median": 1.0,
  "frequencies_min": 1,
  "number_of_main_traces_80.0": 18,
  "number_of_trace_variants": 150
}