{
  "alpha": 64.49868764234418,
  "alpha_err": 44.900352628347996,
  "deviation_distributions_geom": {
    "all": {
      "number_of_samples": 70,
      "shape": 0.13379991766158914,
      "sse": 0.04381926328172176
    },
    "in_valid_trace": {
      "number_of_samples": 39,
      "shape": 0.14785812989405803,
      "sse": 0.0012906434146960745
    },
    "in_valid_trace_index": {
      "number_of_samples": 158,
      "shape": 0.02164315710132443,
      "sse": 0.004561893111788645
    }
  },
  "frequencies_max": 32,
  "frequencies_mean": 2.949852507374631,
  "frequencies_median": 1.0,
  "frequencies_min": 1,
  "number_of_main_traces_80.0": 139,
  "number_of_trace_variants": 339
}