{
  "alpha": 2.1297737027058545,
  "alpha_err": 0.3406395881714408,
  "deviation_distributions": {
    "all": {
      "number_of_samples": 19,
      "scale": 0.0748987854251012,
      "sse": 0.31307441639185574
    },
    "in_valid_trace": {
      "number_of_samples": 6,
      "scale": 0.2371794871794872,
      "sse": 1.076657348601645
    },
    "in_valid_trace_index": {
      "number_of_samples": 37,
      "scale": 0.038461538461538464,
      "sse": 0.3619534996258272
    }
  },
  "deviation_distributions_geom": {
    "all": {
      "number_of_samples": 19,
      "shape": 0.26601423487544484,
      "sse": 0.011850914607111454
    },
    "in_valid_trace": {
      "number_of_samples": 6,
      "shape": 0.6570796460176991,
      "sse": 0.09594881238498443
    },
    "in_valid_trace_index": {
      "number_of_samples": 10,
      "shape": 0.28846153846153844,
      "sse": 0.0334635377549518
    }
  },
  "frequencies_max": 331,
  "frequencies_mean": 21.27659574468085,
  "frequencies_median": 5.0,
  "frequencies_min": 1,
  "number_of_main_traces_80.0": 10,
  "number_of_trace_variants": 47
}