{
  "alpha": 2.0901198143127315,
  "alpha_err": 0.20979365608080014,
  "deviation_distributions_geom": {
    "all": {
      "number_of_samples": 100,
      "shape": 0.05955587478302508,
      "sse": 0.007471697832565233
    },
    "in_valid_trace": {
      "number_of_samples": 34,
      "shape": 0.22042068361086767,
      "sse": 0.016358867381882965
    },
    "in_valid_trace_index": {
      "number_of_samples": 208,
      "shape": 0.018380412987652583,
      "sse": 0.003882681169672825
    }
  },
  "frequencies_max": 532,
  "frequencies_mean": 3.194888178913738,
  "frequencies_median": 1.0,
  "frequencies_min": 1,
  "number_of_main_traces_80.0": 113,
  "number_of_trace_variants": 313
}