{
  "alpha": 1.8151113610274767,
  "alpha_err": 0.09958170206523853,
  "deviation_distributions": {
    "all": {
      "number_of_samples": 19,
      "scale": 0.07200837915684737,
      "sse": 0.16081667203003916
    },
    "in_valid_trace": {
      "number_of_samples": 23,
      "scale": 0.05948518278174345,
      "sse": 0.17350692611073937
    },
    "in_valid_trace_index": {
      "number_of_samples": 251,
      "scale": 0.005450833481992428,
      "sse": 0.005465695088969769
    }
  },
  "deviation_distributions_geom": {
    "all": {
      "number_of_samples": 19,
      "shape": 0.2588785046728972,
      "sse": 0.007427034754579668
    },
    "in_valid_trace": {
      "number_of_samples": 23,
      "shape": 0.14544513457556937,
      "sse": 0.0040647606621274516
    },
    "in_valid_trace_index": {
      "number_of_samples": 63,
      "shape": 0.04194388197859416,
      "sse": 0.007477329561164999
    }
  },
  "frequencies_max": 91,
  "frequencies_mean": 8.849557522123893,
  "frequencies_median": 3.0,
  "frequencies_min": 1,
  "number_of_main_traces_80.0": 34,
  "number_of_trace_variants": 113
}