{
  "alpha": 1.7917634442889026,
  "alpha_err": 0.10580384071075537,
  "deviation_distributions_geom": {
    "all": {
      "number_of_samples": 100,
      "shape": 0.051795692951210746,
      "sse": 0.01059212705769099
    },
    "in_valid_trace": {
      "number_of_samples": 49,
      "shape": 0.07021512530494566,
      "sse": 0.0009214664171682165
    },
    "in_valid_trace_index": {
      "number_of_samples": 467,
      "shape": 0.006153173853592523,
      "sse": 0.0008723198942556594
    }
  },
  "frequencies_max": 56,
  "frequencies_mean": 1.8726591760299625,
  "frequencies_median": 1.0,
  "frequencies_min": 1,
  "number_of_main_traces_80.0": 334,
  "number_of_trace_variants": 534
}