{
  "alpha": 1.7521062470877473,
  "alpha_err": 0.1329548568721278,
  "deviation_distributions": {
    "all": {
      "number_of_samples": 39,
      "scale": 0.05128205128205127,
      "sse": 0.3273391221979146
    },
    "in_valid_trace": {
      "number_of_samples": 6,
      "scale": 0.3333333333333333,
      "sse": 0.9843367435605451
    },
    "in_valid_trace_index": {
      "number_of_samples": 40,
      "scale": 0.049999999999999996,
      "sse": 0.33697625265521525
    }
  },
  "deviation_distributions_geom": {
    "all": {
      "number_of_samples": 39,
      "shape": 0.2043222003929273,
      "sse": 0.003082685585037449
    },
    "in_valid_trace": {
      "number_of_samples": 6,
      "shape": 2.0594059405940595,
      "sse": NaN
    },
    "in_valid_trace_index": {
      "number_of_samples": 12,
      "shape": 0.29050279329608936,
      "sse": 0.23553744051175052
    }
  },
  "frequencies_max": 478,
  "frequencies_mean": 10.75268817204301,
  "frequencies_median": 1.0,
  "frequencies_min": 1,
  "number_of_main_traces_80.0": 9,
  "number_of_trace_variants": 93
}