{
  "alpha": 8.48887568941862,
  "alpha_err": 5.295434783450987,
  "deviation_distributions_geom": {
    "all": {
      "number_of_samples": 100,
      "shape": 0.03933201180816018,
      "sse": 0.00032703079439768236
    },
    "in_valid_trace": {
      "number_of_samples": 50,
      "shape": 0.058316641629110336,
      "sse": 0.001241378719486016
    },
    "in_valid_trace_index": {
      "number_of_samples": 462,
      "shape": 0.005745817978351888,
      "sse": 0.0007207853549499842
    }
  },
  "frequencies_max": 4,
  "frequencies_mean": 1.095290251916758,
  "frequencies_median": 1.0,
  "frequencies_min": 1,
  "number_of_main_traces_80.0": 713,
  "number_of_trace_variants": 913
}