{
  "alpha": 7.791294730236682,
  "alpha_err": 3.395647365118341,
  "deviation_distributions": {
    "all": {
      "number_of_samples": 4,
      "scale": 0.4488095238095238,
      "sse": 1.7205017288067874
    },
    "in_valid_trace": {
      "number_of_samples": 4,
      "scale": 0.44880952380952377,
      "sse": 1.734865634389966
    },
    "in_valid_trace_index": {
      "number_of_samples": 44,
      "scale": 0.040800865800865796,
      "sse": 0.4221545837811526
    }
  },
  "deviation_distributions_geom": {
    "all": {
      "number_of_samples": 4,
      "shape": 0.8377777777777777,
      "sse": 0.17572070047822672
    },
    "in_valid_trace": {
      "number_of_samples": 4,
      "shape": 0.7320388349514564,
      "sse": 0.21544917626339666
    },
    "in_valid_trace_index": {
      "number_of_samples": 8,
      "shape": 0.31949152542372883,
      "sse": 0.04751685342100639
    }
  },
  "frequencies_max": 153,
  "frequencies_mean": 62.5,
  "frequencies_median": 53.5,
  "frequencies_min": 17,
  "number_of_main_traces_80.0": 8,
  "number_of_trace_variants": 16
}