{
  "alpha": 3.751600855114485,
  "alpha_err": 0.3336806166228499,
  "deviation_distributions_geom": {
    "all": {
      "number_of_samples": 49,
      "shape": 0.07718921498449058,
      "sse": 0.001988878613844683
    },
    "in_valid_trace": {
      "number_of_samples": 49,
      "shape": 0.06837155236183029,
      "sse": 0.0014889634773822204
    },
    "in_valid_trace_index": {
      "number_of_samples": 234,
      "shape": 0.011697523834314907,
      "sse": 0.001960753104401431
    }
  },
  "frequencies_max": 327,
  "frequencies_mean": 3.676470588235294,
  "frequencies_median": 2.0,
  "frequencies_min": 1,
  "number_of_main_traces_80.0": 122,
  "number_of_trace_variants": 272
}