{
  "alpha": 1.5015897725592426,
  "alpha_err": 0.10238658358073435,
  "deviation_distributions": {
    "all": {
      "number_of_samples": 14,
      "scale": 0.15708101422387136,
      "sse": 0.4786133334290063
    },
    "in_valid_trace": {
      "number_of_samples": 3,
      "scale": 0.733044733044733,
      "sse": 1.5477349339249418
    },
    "in_valid_trace_index": {
      "number_of_samples": 31,
      "scale": 0.07093981287529677,
      "sse": 0.5550962286911785
    }
  },
  "deviation_distributions_geom": {
    "all": {
      "number_of_samples": 14,
      "shape": 0.31013431013431014,
      "sse": 0.02204169719458624
    },
    "in_valid_trace": {
      "number_of_samples": 3,
      "shape": 2.8920454545454546,
      "sse": NaN
    },
    "in_valid_trace_index": {
      "number_of_samples": 10,
      "shape": 0.3326797385620915,
      "sse": 0.1988451670359392
    }
  },
  "frequencies_max": 521,
  "frequencies_mean": 29.41176470588235,
  "frequencies_median": 4.0,
  "frequencies_min": 1,
  "number_of_main_traces_80.0": 4,
  "number_of_trace_variants": 34
}