{
  "alpha": 1.7475289851738516,
  "alpha_err": 0.28253939894035723,
  "deviation_distributions_geom": {
    "all": {
      "number_of_samples": 100,
      "shape": 0.04401700165694115,
      "sse": 0.001216627347644955
    },
    "in_valid_trace": {
      "number_of_samples": 37,
      "shape": 0.4171334431630972,
      "sse": 0.031273764719260654
    },
    "in_valid_trace_index": {
      "number_of_samples": 144,
      "shape": 0.03349082461040487,
      "sse": 0.006436222859777974
    }
  },
  "frequencies_max": 486,
  "frequencies_mean": 3.6231884057971016,
  "frequencies_median": 1.0,
  "frequencies_min": 1,
  "number_of_main_traces_80.0": 76,
  "number_of_trace_variants": 276
}