{
  "alpha": 4.476059496782208,
  "alpha_err": 2.006903886186363,
  "deviation_distributions_geom": {
    "all": {
      "number_of_samples": 100,
      "shape": 0.0428331288901004,
      "sse": 0.004152206269108283
    },
    "in_valid_trace": {
      "number_of_samples": 50,
      "shape": 0.05469390431845755,
      "sse": 0.0018231941834531778
    },
    "in_valid_trace_index": {
      "number_of_samples": 601,
      "shape": 0.004330938999839379,
      "sse": 0.0007237043952318868
    }
  },
  "frequencies_max": 2,
  "frequencies_mean": 1.0030090270812437,
  "frequencies_median": 1.0,
  "frequencies_min": 1,
  "number_of_main_traces_80.0": 797,
  "number_of_trace_variants": 997
}