{
  "alpha": 1.9450631429947318,
  "alpha_err": 0.18901262859894635,
  "deviation_distributions": {
    "all": {
      "number_of_samples": 29,
      "scale": 0.0784496914104524,
      "sse": 0.4545718117518454
    },
    "in_valid_trace": {
      "number_of_samples": 8,
      "scale": 0.28438013136289,
      "sse": 1.067301744010635
    },
    "in_valid_trace_index": {
      "number_of_samples": 100,
      "scale": 0.022750410509031198,
      "sse": 0.1397093673728497
    }
  },
  "deviation_distributions_geom": {
    "all": {
      "number_of_samples": 29,
      "shape": 0.18848167539267016,
      "sse": 0.005663271263551954
    },
    "in_valid_trace": {
      "number_of_samples": 8,
      "shape": 0.5502958579881657,
      "sse": 0.06712164964263197
    },
    "in_valid_trace_index": {
      "number_of_samples": 30,
      "shape": 0.0866913123844732,
      "sse": 0.03460450817101575
    }
  },
  "frequencies_max": 503,
  "frequencies_mean": 10.1010101010101,
  "frequencies_median": 2.0,
  "frequencies_min": 1,
  "number_of_main_traces_80.0": 13,
  "number_of_trace_variants": 99
}