{
  "alpha": 1.320952614551698,
  "alpha_err": 0.06692324636333351,
  "deviation_distributions": {
    "all": {
      "number_of_samples": 13,
      "scale": 0.12960568842921785,
      "sse": 0.43501156627308457
    },
    "in_valid_trace": {
      "number_of_samples": 1,
      "scale": 1.684873949579832,
      "sse": NaN
    },
    "in_valid_trace_index": {
      "number_of_samples": 12,
      "scale": 0.140406162464986,
      "sse": 0.9972840704474153
    }
  },
  "deviation_distributions_geom": {
    "all": {
      "number_of_samples": 13,
      "shape": 0.4256900212314225,
      "sse": 0.018472530452908684
    },
    "in_valid_trace": {
      "number_of_samples": 1,
      "shape": Infinity,
      "sse": 0.0
    },
    "in_valid_trace_index": {
      "number_of_samples": 3,
      "shape": 0.820040899795501,
      "sse": 0.5551608141843736
    }
  },
  "frequencies_max": 328,
  "frequencies_mean": 43.47826086956522,
  "frequencies_median": 8.0,
  "frequencies_min": 1,
  "number_of_main_traces_80.0": 4,
  "number_of_trace_variants": 23
}