{
  "alpha": 1.622542331146531,
  "alpha_err": 0.16073973872264383,
  "deviation_distributions": {
    "all": {
      "number_of_samples": 10,
      "scale": 0.21044176706827308,
      "sse": 0.7573463430085653
    },
    "in_valid_trace": {
      "number_of_samples": 1,
      "scale": 2.104417670682731,
      "sse": NaN
    },
    "in_valid_trace_index": {
      "number_of_samples": 4,
      "scale": 0.5261044176706827,
      "sse": 1.4722996185609307
    }
  },
  "deviation_distributions_geom": {
    "all": {
      "number_of_samples": 10,
      "shape": 0.36464857341684065,
      "sse": 0.025549176284395934
    },
    "in_valid_trace": {
      "number_of_samples": 1,
      "shape": Infinity,
      "sse": 0.0
    },
    "in_valid_trace_index": {
      "number_of_samples": 3,
      "shape": 0.8370607028753994,
      "sse": 0.3610240406987972
    }
  },
  "frequencies_max": 468,
  "frequencies_mean": 62.5,
  "frequencies_median": 17.0,
  "frequencies_min": 1,
  "number_of_main_traces_80.0": 2,
  "number_of_trace_variants": 16
}