{
  "alpha": 1.8786492964514807,
  "alpha_err": 0.1690961359431792,
  "deviation_distributions": {
    "all": {
      "number_of_samples": 11,
      "scale": 0.13636363636363635,
      "sse": 0.7019632874158059
    },
    "in_valid_trace": {
      "number_of_samples": 5,
      "scale": 0.29999999999999993,
      "sse": 1.3436958016329839
    },
    "in_valid_trace_index": {
      "number_of_samples": 48,
      "scale": 0.03125000000000001,
      "sse": 0.2617457864162847
    }
  },
  "deviation_distributions_geom": {
    "all": {
      "number_of_samples": 11,
      "shape": 0.36172566371681414,
      "sse": 0.03437881305460217
    },
    "in_valid_trace": {
      "number_of_samples": 5,
      "shape": 0.9732142857142857,
      "sse": 0.3716492563610187
    },
    "in_valid_trace_index": {
      "number_of_samples": 12,
      "shape": 0.21902210314802412,
      "sse": 0.04291010748784548
    }
  },
  "frequencies_max": 464,
  "frequencies_mean": 27.77777777777778,
  "frequencies_median": 10.0,
  "frequencies_min": 1,
  "number_of_main_traces_80.0": 9,
  "number_of_trace_variants": 36
}