{
  "alpha": 2.367112382220256,
  "alpha_err": 0.24167360902800955,
  "deviation_distributions": {
    "all": {
      "number_of_samples": 28,
      "scale": 0.058755571193994834,
      "sse": 0.09737706036845933
    },
    "in_valid_trace": {
      "number_of_samples": 14,
      "scale": 0.11751114238798968,
      "sse": 0.2560529190687354
    },
    "in_valid_trace_index": {
      "number_of_samples": 140,
      "scale": 0.011751114238798968,
      "sse": 0.015225444277140758
    }
  },
  "deviation_distributions_geom": {
    "all": {
      "number_of_samples": 28,
      "shape": 0.17336683417085427,
      "sse": 0.0021164766257324606
    },
    "in_valid_trace": {
      "number_of_samples": 14,
      "shape": 0.3759733036707453,
      "sse": 0.00908514947883735
    },
    "in_valid_trace_index": {
      "number_of_samples": 48,
      "shape": 0.06751616584252568,
      "sse": 0.01044304902668438
    }
  },
  "frequencies_max": 479,
  "frequencies_mean": 16.39344262295082,
  "frequencies_median": 7.0,
  "frequencies_min": 1,
  "number_of_main_traces_80.0": 17,
  "number_of_trace_variants": 61
}