{
  "alpha": 3.141964511958199,
  "alpha_err": 0.9579156508261388,
  "deviation_distributions": {
    "all": {
      "number_of_samples": 5,
      "scale": 0.4259259259259259,
      "sse": 1.735545860119264
    },
    "in_valid_trace": {
      "number_of_samples": 2,
      "scale": 1.0648148148148149,
      "sse": 1.7207729931680575
    },
    "in_valid_trace_index": {
      "number_of_samples": 12,
      "scale": 0.17746913580246915,
      "sse": 1.0979535276412264
    }
  },
  "deviation_distributions_geom": {
    "all": {
      "number_of_samples": 5,
      "shape": 0.5655737704918032,
      "sse": 0.0850700006316078
    },
    "in_valid_trace": {
      "number_of_samples": 2,
      "shape": 5.655737704918033,
      "sse": NaN
    },
    "in_valid_trace_index": {
      "number_of_samples": 3,
      "shape": 1.4139344262295082,
      "sse": NaN
    }
  },
  "frequencies_max": 315,
  "frequencies_mean": 142.85714285714286,
  "frequencies_median": 108.0,
  "frequencies_min": 61,
  "number_of_main_traces_80.0": 4,
  "number_of_trace_variants": 7
}