{
  "alpha": 42.54012778906275,
  "alpha_err": 20.770063894531376,
  "deviation_distributions_geom": {
    "all": {
      "number_of_samples": 2,
      "shape": 2.0,
      "sse": NaN
    },
    "in_valid_trace": {
      "number_of_samples": 2,
      "shape": 2.0,
      "sse": NaN
    },
    "in_valid_trace_index": {
      "number_of_samples": 2,
      "shape": 2.0,
      "sse": NaN
    }
  },
  "frequencies_max": 257,
  "frequencies_mean": 250.0,
  "frequencies_median": 249.5,
  "frequencies_min": 244,
  "number_of_main_traces_80.0": 3,
  "number_of_trace_variants": 4
}