{
  "easy_soundness": true,
  "filename": "/home/dominique/TUe/thesis/git_data/evaluation_data/BPI_2020_Prepaid_travel_cost/predictions/data_gcn_testtesttest_9_cc.txt",
  "full": {
    "fitness                         ": "0.95093",
    "fitness_alignments              ": "0.89845",
    "fitness_alignments_percFitTraces": "62.66730",
    "fscore                          ": "0.94937",
    "fscore_alignments               ": "0.93542",
    "generalization                  ": "0.96505",
    "metricsAverageWeight            ": "0.91595",
    "precision                       ": "0.94782",
    "precision_alignments            ": "0.97557",
    "simplicity                      ": "0.80000"
  },
  "s_components": [
    [
      "p4",
      "Permit FINAL_APPROVED by SUPERVISOR",
      "Request For Payment FINAL_APPROVED by SUPERVISOR",
      "p3",
      "st3",
      ">",
      "p8",
      "Request For Payment APPROVED by BUDGET OWNER",
      "Request For Payment APPROVED by ADMINISTRATION",
      "st2",
      "st1",
      "p1",
      "Request For Payment SUBMITTED by EMPLOYEE",
      "sink",
      "p6",
      "p5",
      "Permit FINAL_APPROVED by DIRECTOR",
      "Request Payment",
      "p2",
      "p7",
      "Payment Handled",
      "Permit APPROVED by ADMINISTRATION",
      "p0",
      "short_circuited_transition",
      "p10",
      "p9",
      "Permit APPROVED by BUDGET OWNER",
      "st0",
      "p11",
      "Permit APPROVED by SUPERVISOR",
      "Permit SUBMITTED by EMPLOYEE",
      "source",
      "|"
    ]
  ],
  "sound": true,
  "top 30": {
    "fitness                         ": "0.96492",
    "fitness_alignments              ": "0.92823",
    "fitness_alignments_percFitTraces": "71.61716",
    "fscore                          ": "0.94563",
    "fscore_alignments               ": "0.93798",
    "generalization                  ": "0.96195",
    "metricsAverageWeight            ": "0.91349",
    "precision                       ": "0.92709",
    "precision_alignments            ": "0.94794",
    "simplicity                      ": "0.80000"
  },
  "uncovered_places_s_component": []
}