{
  "easy_soundness": true,
  "filename": "/home/dominique/TUe/thesis/git_data/evaluation_data/BPI_2020_Prepaid_travel_cost/predictions/data_heuristics_reduced_cc.txt",
  "full": {
    "fitness                         ": "0.90680",
    "fitness_alignments              ": "0.79498",
    "fitness_alignments_percFitTraces": "23.18356",
    "fscore                          ": "0.88828",
    "fscore_alignments               ": "0.83103",
    "generalization                  ": "0.70033",
    "metricsAverageWeight            ": "0.76893",
    "precision                       ": "0.87050",
    "precision_alignments            ": "0.87050",
    "simplicity                      ": "0.59809",
    "entropia_precision              ": "0.6856917081689599",
    "entropia_recall                 ": "0.721873359268276",
    "entropia_partial_precision      ": "0.8360928641723148",
    "entropia_partial_recall         ": "0.814896486539284"
  },
  "s_components": [],
  "sound": false,
  "uncovered_places_s_component": [
    "n12",
    "n41",
    "n27",
    "n32",
    "n37",
    "n44",
    "n36",
    "n14",
    "n39",
    "n5",
    "n25",
    "n13",
    "n34",
    "n46",
    "n22",
    "n26",
    "n38",
    "n45",
    "n29",
    "n42",
    "n3",
    "n10",
    "n43",
    "n23",
    "n40",
    "n47",
    "n15",
    "n2",
    "n7",
    "n24",
    "n4",
    "n17",
    "n19",
    "n16",
    "n28",
    "n8",
    "n20",
    "n11",
    "n21",
    "n18",
    "n33",
    "n9",
    "n30",
    "source",
    "n31",
    "n35",
    "n6",
    "n1"
  ]
}