{
  "easy_soundness": true,
  "filename": "/home/dominique/TUe/thesis/git_data/evaluation_data/BPI_2020_Prepaid_travel_cost/predictions/data_inductive_reduced_cc.txt",
  "full": {
    "fitness                         ": "0.95502",
    "fitness_alignments              ": "0.78361",
    "fitness_alignments_percFitTraces": "0.57361",
    "fscore                          ": "0.39674",
    "fscore_alignments               ": "0.37950",
    "generalization                  ": "0.88424",
    "metricsAverageWeight            ": "0.65284",
    "precision                       ": "0.25038",
    "precision_alignments            ": "0.25038",
    "simplicity                      ": "0.52174",
    "entropia_precision              ": "0.09643926928657545",
    "entropia_recall                 ": "0.59653344054638",
    "entropia_partial_precision      ": "0.4940830361198845",
    "entropia_partial_recall         ": "1.000000000000153"
  },
  "s_components": [
    [
      "Permit APPROVED by SUPERVISOR",
      "Request Payment",
      "n18",
      "Request For Payment APPROVED by SUPERVISOR",
      "Request For Payment FINAL_APPROVED by SUPERVISOR",
      "n22",
      "short_circuited_transition",
      "n11",
      "n42",
      "Request For Payment SUBMITTED by EMPLOYEE",
      "Permit REJECTED by EMPLOYEE",
      "n6",
      "n29",
      "start",
      "n14",
      "n31",
      "Request For Payment REJECTED by EMPLOYEE",
      "n15",
      "n4",
      "source",
      "n33",
      "n5",
      "n43",
      "Request For Payment APPROVED by PRE_APPROVER",
      "n20",
      "n10",
      "n25",
      "n27",
      "n40",
      "Payment Handled",
      "n1",
      "Request For Payment REJECTED by ADMINISTRATION",
      "n12",
      "n21",
      "n2",
      "Permit FINAL_APPROVED by DIRECTOR",
      "Permit SUBMITTED by EMPLOYEE",
      "n37",
      "n8",
      "n7",
      "Request For Payment APPROVED by BUDGET OWNER",
      "n9",
      "Permit APPROVED by BUDGET OWNER",
      "Permit APPROVED by ADMINISTRATION",
      "Request For Payment APPROVED by ADMINISTRATION",
      "Permit FINAL_APPROVED by SUPERVISOR",
      "n17",
      "Permit APPROVED by PRE_APPROVER",
      "n3"
    ]
  ],
  "sound": true,
  "uncovered_places_s_component": []
}