[
  {
    "i": 0,
    "L": {
      "fitness": 0.9319888000649271,
      "precision": 0.9703104646113765,
      "generalization": 0.9657850597835986,
      "simplicity": 0.8378378378378379,
      "metricsAverageWeight": 0.926480540574435,
      "fscore": 0.9507636389245812,
      "fitness_percFitTraces": 47.51434034416826,
      "fitness_alignments": 0.8851215718056069,
      "fitness_alignments_percFitTraces": 47.51434034416826,
      "precision_alignments": 1.0,
      "fscore_alignments": 0.939060467021042,
      "fitness_entropy_partial": 0.640045035636538,
      "precision_entropy_partial": 0.8096075525138978,
      "fscore_entropy_partial": 0.7149096259835657,
      "fitness_entropy_exact": 0.0,
      "precision_entropy_exact": 0.0,
      "fscore_entropy_exact": 0
    },
    "L_5": {
      "fitness": 0.9792181757434013,
      "precision": 0.9310933498874835,
      "generalization": 0.9556689617188293,
      "simplicity": 0.8378378378378379,
      "metricsAverageWeight": 0.9259545812968879,
      "fscore": 0.9545495792604075,
      "fitness_percFitTraces": 74.06171809841534,
      "fitness_alignments": 0.9827078120655963,
      "fitness_alignments_percFitTraces": 74.06171809841534,
      "precision_alignments": 0.9310933498874835,
      "fscore_alignments": 0.9562045701372485,
      "fitness_entropy_partial": 0.994088061680789,
      "precision_entropy_partial": 0.8096075522622005,
      "fscore_entropy_partial": 0.8924135493028896,
      "fitness_entropy_exact": 0.0,
      "precision_entropy_exact": 0.0,
      "fscore_entropy_exact": 0
    },
    "args": {
      "config": "config.json",
      "dataDirectory": "/mnt/c/Users/s140511/tue/thesis/APDGnn_data/evaluation_data/BPI_2020_Prepaid_travel_cost/",
      "logFilename": "data",
      "miner": "gnn",
      "model_filename": "/mnt/c/Users/s140511/tue/thesis/git_clean/project/ml_models/models/simple_ws2_frequency_144_",
      "visualize": false,
      "export": "simple",
      "conformanceChecking": true,
      "beam_width": -50,
      "beam_length": 20,
      "number_of_petrinets": 20,
      "top_x_traces": 5,
      "length_normalization": 0,
      "timeout": null,
      "prom": false,
      "import_petrinet": null
    },
    "easy_soundness": true,
    "log_filename": "/mnt/c/Users/s140511/tue/thesis/APDGnn_data/evaluation_data/BPI_2020_Prepaid_travel_cost/data",
    "petrinet_filename": "/mnt/c/Users/s140511/tue/thesis/APDGnn_data/evaluation_data/BPI_2020_Prepaid_travel_cost/predictions/data_gcn_simple_0",
    "sound": true,
    "soundness_info": {
      "s_components": [
        [
          "Request For Payment APPROVED by BUDGET OWNER",
          "Request For Payment FINAL_APPROVED by SUPERVISOR",
          "sink",
          "Permit SUBMITTED by EMPLOYEE",
          "p0",
          "Payment Handled",
          "p5",
          "p9",
          "Request Payment",
          "Request For Payment SUBMITTED by EMPLOYEE",
          "p1",
          "source",
          "Permit APPROVED by ADMINISTRATION",
          "p2",
          "p10",
          "p11",
          "p7",
          "p3",
          "Request For Payment APPROVED by ADMINISTRATION",
          "Permit APPROVED by BUDGET OWNER",
          "Permit APPROVED by SUPERVISOR",
          "st0",
          "Permit FINAL_APPROVED by DIRECTOR",
          "p8",
          "p4",
          "st1",
          "st2",
          "Permit FINAL_APPROVED by SUPERVISOR",
          "short_circuited_transition",
          ">",
          "|",
          "p6"
        ]
      ],
      "uncovered_places_s_component": []
    }
  },
  {
    "i": 8,
    "L": {
      "fitness": 0.9241303192576544,
      "precision": 0.9708380879928997,
      "generalization": 0.9683051009731982,
      "simplicity": 0.8823529411764706,
      "metricsAverageWeight": 0.9364066123500557,
      "fscore": 0.9469085698437645,
      "fitness_percFitTraces": 41.395793499043975,
      "fitness_alignments": 0.8773295808933964,
      "fitness_alignments_percFitTraces": 41.395793499043975,
      "precision_alignments": 1.0,
      "fscore_alignments": 0.9346569614866312,
      "fitness_entropy_partial": 0.640045035356862,
      "precision_entropy_partial": 0.8388471879306427,
      "fscore_entropy_partial": 0.726083983137825,
      "fitness_entropy_exact": 0.0,
      "precision_entropy_exact": 0.0,
      "fscore_entropy_exact": 0
    },
    "L_5": {
      "fitness": 0.970550576184379,
      "precision": 0.9300853289292595,
      "generalization": 0.9584662143660982,
      "simplicity": 0.8823529411764706,
      "metricsAverageWeight": 0.9353637651640518,
      "fscore": 0.9498871924541051,
      "fitness_percFitTraces": 63.55296080066722,
      "fitness_alignments": 0.9752015568529211,
      "fitness_alignments_percFitTraces": 63.55296080066722,
      "precision_alignments": 0.9300853289292595,
      "fscore_alignments": 0.9521092781841244,
      "fitness_entropy_partial": 0.994088063482129,
      "precision_entropy_partial": 0.8388471888371664,
      "fscore_entropy_partial": 0.9098935452885317,
      "fitness_entropy_exact": 0.0,
      "precision_entropy_exact": 0.0,
      "fscore_entropy_exact": 0
    },
    "args": {
      "config": "config.json",
      "dataDirectory": "/mnt/c/Users/s140511/tue/thesis/APDGnn_data/evaluation_data/BPI_2020_Prepaid_travel_cost/",
      "logFilename": "data",
      "miner": "gnn",
      "model_filename": "/mnt/c/Users/s140511/tue/thesis/git_clean/project/ml_models/models/simple_ws2_frequency_144_",
      "visualize": false,
      "export": "simple",
      "conformanceChecking": true,
      "beam_width": -50,
      "beam_length": 20,
      "number_of_petrinets": 20,
      "top_x_traces": 5,
      "length_normalization": 0,
      "timeout": null,
      "prom": false,
      "import_petrinet": null
    },
    "easy_soundness": true,
    "log_filename": "/mnt/c/Users/s140511/tue/thesis/APDGnn_data/evaluation_data/BPI_2020_Prepaid_travel_cost/data",
    "petrinet_filename": "/mnt/c/Users/s140511/tue/thesis/APDGnn_data/evaluation_data/BPI_2020_Prepaid_travel_cost/predictions/data_gcn_simple_8",
    "sound": true,
    "soundness_info": {
      "s_components": [
        [
          "Request For Payment APPROVED by BUDGET OWNER",
          "Request Payment",
          "p6",
          "sink",
          ">",
          "Permit SUBMITTED by EMPLOYEE",
          "Payment Handled",
          "p3",
          "p0",
          "p7",
          "st1",
          "p2",
          "Permit APPROVED by ADMINISTRATION",
          "p11",
          "p1",
          "p8",
          "Permit APPROVED by SUPERVISOR",
          "p10",
          "p9",
          "Permit APPROVED by BUDGET OWNER",
          "Request For Payment FINAL_APPROVED by SUPERVISOR",
          "|",
          "short_circuited_transition",
          "Request For Payment SUBMITTED by EMPLOYEE",
          "p4",
          "source",
          "st0",
          "Permit FINAL_APPROVED by SUPERVISOR",
          "Request For Payment APPROVED by ADMINISTRATION",
          "p5",
          "Permit FINAL_APPROVED by DIRECTOR"
        ]
      ],
      "uncovered_places_s_component": []
    }
  },
  {
    "i": 7,
    "L": {
      "fitness": 0.9126027061276213,
      "precision": 0.9713890808569454,
      "generalization": 0.9683051009731982,
      "simplicity": 0.8823529411764706,
      "metricsAverageWeight": 0.9336624572835589,
      "fscore": 0.9410787350742661,
      "fitness_percFitTraces": 29.73231357552581,
      "fitness_alignments": 0.855624531899687,
      "fitness_alignments_percFitTraces": 29.73231357552581,
      "precision_alignments": 1.0,
      "fscore_alignments": 0.9221957537107416,
      "fitness_entropy_partial": 0.635478233992541,
      "precision_entropy_partial": 0.8367985448178793,
      "fscore_entropy_partial": 0.7223740387973175,
      "fitness_entropy_exact": 0.0,
      "precision_entropy_exact": 0.0,
      "fscore_entropy_exact": 0
    },
    "L_5": {
      "fitness": 0.9549160994676191,
      "precision": 0.9456075533661741,
      "generalization": 0.9584662143660982,
      "simplicity": 0.8823529411764706,
      "metricsAverageWeight": 0.9353357020940906,
      "fscore": 0.9502390303232006,
      "fitness_percFitTraces": 44.20350291909925,
      "fitness_alignments": 0.9582825431449253,
      "fitness_alignments_percFitTraces": 44.20350291909925,
      "precision_alignments": 0.9456075533661741,
      "fscore_alignments": 0.951902856911053,
      "fitness_entropy_partial": 0.986995120005533,
      "precision_entropy_partial": 0.8367985453609699,
      "fscore_entropy_partial": 0.9057121936357124,
      "fitness_entropy_exact": 0.0,
      "precision_entropy_exact": 0.0,
      "fscore_entropy_exact": 0
    },
    "args": {
      "config": "config.json",
      "dataDirectory": "/mnt/c/Users/s140511/tue/thesis/APDGnn_data/evaluation_data/BPI_2020_Prepaid_travel_cost/",
      "logFilename": "data",
      "miner": "gnn",
      "model_filename": "/mnt/c/Users/s140511/tue/thesis/git_clean/project/ml_models/models/simple_ws2_frequency_144_",
      "visualize": false,
      "export": "simple",
      "conformanceChecking": true,
      "beam_width": -50,
      "beam_length": 20,
      "number_of_petrinets": 20,
      "top_x_traces": 5,
      "length_normalization": 0,
      "timeout": null,
      "prom": false,
      "import_petrinet": null
    },
    "easy_soundness": true,
    "log_filename": "/mnt/c/Users/s140511/tue/thesis/APDGnn_data/evaluation_data/BPI_2020_Prepaid_travel_cost/data",
    "petrinet_filename": "/mnt/c/Users/s140511/tue/thesis/APDGnn_data/evaluation_data/BPI_2020_Prepaid_travel_cost/predictions/data_gcn_simple_7",
    "sound": true,
    "soundness_info": {
      "s_components": [
        [
          "p3",
          "Request Payment",
          "p7",
          "Request For Payment SUBMITTED by EMPLOYEE",
          "Request For Payment APPROVED by ADMINISTRATION",
          "Permit FINAL_APPROVED by SUPERVISOR",
          "source",
          "sink",
          "p5",
          "p10",
          "Permit FINAL_APPROVED by DIRECTOR",
          "p1",
          "p6",
          "Permit APPROVED by SUPERVISOR",
          "Request For Payment APPROVED by BUDGET OWNER",
          ">",
          "p9",
          "short_circuited_transition",
          "st1",
          "p0",
          "Permit SUBMITTED by EMPLOYEE",
          "p2",
          "Request For Payment FINAL_APPROVED by SUPERVISOR",
          "Payment Handled",
          "p11",
          "st0",
          "Permit APPROVED by ADMINISTRATION",
          "Permit APPROVED by BUDGET OWNER",
          "|",
          "p4",
          "p8"
        ]
      ],
      "uncovered_places_s_component": []
    }
  },
  {
    "i": 16,
    "L": {
      "fitness": 0.9110084617585742,
      "precision": 0.9728486311184855,
      "generalization": 0.9683051009731982,
      "simplicity": 0.8823529411764706,
      "metricsAverageWeight": 0.9336287837566821,
      "fscore": 0.9409135526364728,
      "fitness_percFitTraces": 28.44168260038241,
      "fitness_alignments": 0.8516225334215508,
      "fitness_alignments_percFitTraces": 28.44168260038241,
      "precision_alignments": 1.0,
      "fscore_alignments": 0.9198662449282967,
      "fitness_entropy_partial": 0.643851445369224,
      "precision_entropy_partial": 0.8404340442636185,
      "fscore_entropy_partial": 0.7291247915796644,
      "fitness_entropy_exact": 0.0,
      "precision_entropy_exact": 0.0,
      "fscore_entropy_exact": 0
    },
    "L_5": {
      "fitness": 0.9531639598355685,
      "precision": 0.9437939110070258,
      "generalization": 0.9584662143660982,
      "simplicity": 0.8823529411764706,
      "metricsAverageWeight": 0.9344442565962908,
      "fscore": 0.948455793680408,
      "fitness_percFitTraces": 42.035029190992496,
      "fitness_alignments": 0.9559889651632755,
      "fitness_alignments_percFitTraces": 42.035029190992496,
      "precision_alignments": 0.9437939110070258,
      "fscore_alignments": 0.9498522969423023,
      "fitness_entropy_partial": 1.000000000038426,
      "precision_entropy_partial": 0.8404340444168392,
      "fscore_entropy_partial": 0.9132998240074252,
      "fitness_entropy_exact": 0.0,
      "precision_entropy_exact": 0.0,
      "fscore_entropy_exact": 0
    },
    "args": {
      "config": "config.json",
      "dataDirectory": "/mnt/c/Users/s140511/tue/thesis/APDGnn_data/evaluation_data/BPI_2020_Prepaid_travel_cost/",
      "logFilename": "data",
      "miner": "gnn",
      "model_filename": "/mnt/c/Users/s140511/tue/thesis/git_clean/project/ml_models/models/simple_ws2_frequency_144_",
      "visualize": false,
      "export": "simple",
      "conformanceChecking": true,
      "beam_width": -50,
      "beam_length": 20,
      "number_of_petrinets": 20,
      "top_x_traces": 5,
      "length_normalization": 0,
      "timeout": null,
      "prom": false,
      "import_petrinet": null
    },
    "easy_soundness": true,
    "log_filename": "/mnt/c/Users/s140511/tue/thesis/APDGnn_data/evaluation_data/BPI_2020_Prepaid_travel_cost/data",
    "petrinet_filename": "/mnt/c/Users/s140511/tue/thesis/APDGnn_data/evaluation_data/BPI_2020_Prepaid_travel_cost/predictions/data_gcn_simple_16",
    "sound": true,
    "soundness_info": {
      "s_components": [
        [
          "p2",
          "Permit FINAL_APPROVED by DIRECTOR",
          "Request For Payment APPROVED by ADMINISTRATION",
          "st1",
          "Permit SUBMITTED by EMPLOYEE",
          "p10",
          "sink",
          "p4",
          "p0",
          "p6",
          "p9",
          "Request For Payment APPROVED by BUDGET OWNER",
          "Payment Handled",
          ">",
          "st0",
          "Permit APPROVED by ADMINISTRATION",
          "Request Payment",
          "p3",
          "source",
          "p5",
          "Permit APPROVED by SUPERVISOR",
          "|",
          "Request For Payment SUBMITTED by EMPLOYEE",
          "short_circuited_transition",
          "Permit APPROVED by BUDGET OWNER",
          "p7",
          "p8",
          "Request For Payment FINAL_APPROVED by SUPERVISOR",
          "p1",
          "Permit FINAL_APPROVED by SUPERVISOR",
          "p11"
        ]
      ],
      "uncovered_places_s_component": []
    }
  },
  {
    "i": 15,
    "L": {
      "fitness": 0.8876162299239222,
      "precision": 0.966677205184951,
      "generalization": 0.9656400664329158,
      "simplicity": 0.8823529411764706,
      "metricsAverageWeight": 0.9255716106795648,
      "fscore": 0.9254612675358806,
      "fitness_percFitTraces": 10.22944550669216,
      "fitness_alignments": 0.8448251671521593,
      "fitness_alignments_percFitTraces": 10.22944550669216,
      "precision_alignments": 1.0,
      "fscore_alignments": 0.915886428908934,
      "fitness_entropy_partial": 0.640045035982043,
      "precision_entropy_partial": 0.843664882519032,
      "fscore_entropy_partial": 0.7278828743481082,
      "fitness_entropy_exact": 0.0,
      "precision_entropy_exact": 0.0,
      "fscore_entropy_exact": 0
    },
    "L_5": {
      "fitness": 0.9295024526979677,
      "precision": 0.9344895843152041,
      "generalization": 0.9552690319569151,
      "simplicity": 0.8823529411764706,
      "metricsAverageWeight": 0.9254035025366394,
      "fscore": 0.9319893469432762,
      "fitness_percFitTraces": 16.09674728940784,
      "fitness_alignments": 0.9428854402478227,
      "fitness_alignments_percFitTraces": 16.09674728940784,
      "precision_alignments": 0.9344895843152041,
      "fscore_alignments": 0.9386687386225697,
      "fitness_entropy_partial": 0.9940880633615,
      "precision_entropy_partial": 0.8436648825571368,
      "fscore_entropy_partial": 0.9127202773255273,
      "fitness_entropy_exact": 0.0,
      "precision_entropy_exact": 0.0,
      "fscore_entropy_exact": 0
    },
    "args": {
      "config": "config.json",
      "dataDirectory": "/mnt/c/Users/s140511/tue/thesis/APDGnn_data/evaluation_data/BPI_2020_Prepaid_travel_cost/",
      "logFilename": "data",
      "miner": "gnn",
      "model_filename": "/mnt/c/Users/s140511/tue/thesis/git_clean/project/ml_models/models/simple_ws2_frequency_144_",
      "visualize": false,
      "export": "simple",
      "conformanceChecking": true,
      "beam_width": -50,
      "beam_length": 20,
      "number_of_petrinets": 20,
      "top_x_traces": 5,
      "length_normalization": 0,
      "timeout": null,
      "prom": false,
      "import_petrinet": null
    },
    "easy_soundness": true,
    "log_filename": "/mnt/c/Users/s140511/tue/thesis/APDGnn_data/evaluation_data/BPI_2020_Prepaid_travel_cost/data",
    "petrinet_filename": "/mnt/c/Users/s140511/tue/thesis/APDGnn_data/evaluation_data/BPI_2020_Prepaid_travel_cost/predictions/data_gcn_simple_15",
    "sound": true,
    "soundness_info": {
      "s_components": [
        [
          "Payment Handled",
          "source",
          "st0",
          "p1",
          "p8",
          "p9",
          "short_circuited_transition",
          "Request For Payment FINAL_APPROVED by SUPERVISOR",
          "p4",
          "p6",
          "Request For Payment APPROVED by BUDGET OWNER",
          ">",
          "p0",
          "Permit SUBMITTED by EMPLOYEE",
          "Permit APPROVED by SUPERVISOR",
          "Request For Payment SUBMITTED by EMPLOYEE",
          "p3",
          "Permit APPROVED by ADMINISTRATION",
          "p5",
          "Permit APPROVED by BUDGET OWNER",
          "Request Payment",
          "p2",
          "st1",
          "Permit FINAL_APPROVED by SUPERVISOR",
          "p7",
          "Request For Payment APPROVED by ADMINISTRATION",
          "p10",
          "|",
          "Permit FINAL_APPROVED by DIRECTOR",
          "sink",
          "p11"
        ]
      ],
      "uncovered_places_s_component": []
    }
  }
]