{
  "alpha": 1.4780583716770397,
  "alpha_err": 0.07967639527950661,
  "deviation_distributions": {
    "all": {
      "number_of_samples": 78,
      "scale": 0.01918562657999278,
      "sse": 0.09258522284613328
    },
    "in_valid_trace": {
      "number_of_samples": 2,
      "scale": 0.7482394366197183,
      "sse": 1.6057796996867213
    },
    "in_valid_trace_index": {
      "number_of_samples": 11,
      "scale": 0.13604353393085789,
      "sse": 0.6677793287117697
    }
  },
  "deviation_distributions_geom": {
    "all": {
      "number_of_samples": 78,
      "shape": 0.23567467652495377,
      "sse": 0.04654518927292172
    },
    "in_valid_trace": {
      "number_of_samples": 2,
      "shape": 10.920770877944326,
      "sse": NaN
    },
    "in_valid_trace_index": {
      "number_of_samples": 10,
      "shape": 0.7775575545052599,
      "sse": 0.3459347191712795
    }
  },
  "frequencies_max": 4618,
  "frequencies_mean": 106.06060606060606,
  "frequencies_median": 2.0,
  "frequencies_min": 1,
  "number_of_main_traces_80.0": 2,
  "number_of_main_traces_90.0": 5,
  "number_of_trace_variants": 99
}