{
  "easy_soundness": true,
  "filename": "/mnt/c/Users/s140511/tue/thesis/thesis_data/evaluation_data/sepsis/predictions/data_gcn_simpleep144_6_cc.json",
  "full": {
    "fitness": {
      "average_trace_fitness": 0.7449712857493547,
      "log_fitness": 0.6873164022506224,
      "perc_fit_traces": 7.619047619047619,
      "percentage_of_fitting_traces": 7.619047619047619
    },
    "fitness_alignments": {
      "averageFitness": -0.5664761904761887,
      "average_trace_fitness": -0.5664761904761887,
      "percFitTraces": 7.428571428571429,
      "percentage_of_fitting_traces": 7.428571428571429
    },
    "fscore": 0.799473853874554,
    "generalization": 0.9654621689267602,
    "metricsAverageWeight": 0.8707879626886874,
    "precision": 0.9553732795773668,
    "precision_alignments": 0.9584321383735528,
    "simplicity": 0.875
  },
  "s_components": [
    [
      "ER Sepsis Triage",
      "st0",
      "|",
      "p1",
      "ER Triage",
      "short_circuited_transition",
      "sink",
      "p6",
      "p0",
      "p10",
      ">",
      "p8",
      "LacticAcid",
      "p9",
      "IV Antibiotics",
      "p2",
      "IV Liquid",
      "p3",
      "ER Registration",
      "Leucocytes",
      "source"
    ],
    [
      "st1",
      "p1",
      "ER Triage",
      "ER Sepsis Triage",
      "|",
      "Release A",
      "short_circuited_transition",
      "sink",
      "p4",
      "p11",
      "p0",
      ">",
      "Admission NC",
      "CRP",
      "p2",
      "p7",
      "p5",
      "ER Registration",
      "source"
    ]
  ],
  "sound": true,
  "top 8": {
    "fitness": {
      "average_trace_fitness": 0.904409171075838,
      "log_fitness": 0.9341923697734197,
      "perc_fit_traces": 53.17460317460318,
      "percentage_of_fitting_traces": 53.17460317460318
    },
    "fitness_alignments": {
      "averageFitness": 0.8301587301587293,
      "average_trace_fitness": 0.8301587301587293,
      "percFitTraces": 53.17460317460318,
      "percentage_of_fitting_traces": 53.17460317460318
    },
    "fscore": 0.922054128407135,
    "generalization": 0.8321713413758607,
    "metricsAverageWeight": 0.8878977459691383,
    "precision": 0.9102272727272728,
    "precision_alignments": 0.9102272727272728,
    "simplicity": 0.875
  },
  "uncovered_places_s_component": []
}