{
  "easy_soundness": false,
  "filename": "/mnt/c/Users/s140511/tue/thesis/thesis_data/evaluation_data/sepsis/predictions/data_gcn_simpleep144_0_cca.json",
  "full": {
    "entropia_precision": "nan",
    "entropia_recall": "nan",
    "fitness": {
      "average_trace_fitness": 0.6953321528314383,
      "log_fitness": 0.6351701163348806,
      "perc_fit_traces": 0.0,
      "percentage_of_fitting_traces": 0.0
    },
    "fscore": 0.763040554180355,
    "generalization": 0.8965091033703327,
    "metricsAverageWeight": 0.8423513601147626,
    "precision": 0.9553732795773668,
    "simplicity": 0.8823529411764706
  },
  "sound": false,
  "top 8": {
    "fitness": {
      "average_trace_fitness": 0.8911639286639287,
      "log_fitness": 0.8917057275938567,
      "perc_fit_traces": 0.0,
      "percentage_of_fitting_traces": 0.0
    },
    "fscore": 0.9008713113732825,
    "generalization": 0.7515264546025154,
    "metricsAverageWeight": 0.8589530990250288,
    "precision": 0.9102272727272728,
    "simplicity": 0.8823529411764706
  }
}