{
  "easy_soundness": false,
  "filename": "/mnt/c/Users/s140511/tue/thesis/thesis_data/evaluation_data/sepsis/predictions/data_gcn_simpleep144_4_cc.json",
  "full": {
    "entropia_precision": "nan",
    "entropia_recall": "nan",
    "fitness": {
      "average_trace_fitness": 0.6816702785498608,
      "log_fitness": 0.6210652073109594,
      "perc_fit_traces": 0.0,
      "percentage_of_fitting_traces": 0.0
    },
    "fscore": 0.7527716544287858,
    "generalization": 0.8910477448755911,
    "metricsAverageWeight": 0.837459793235097,
    "precision": 0.9553732795773668,
    "simplicity": 0.8823529411764706
  },
  "sound": false,
  "top 8": {
    "fitness": {
      "average_trace_fitness": 0.8181111216825503,
      "log_fitness": 0.8363528080519327,
      "perc_fit_traces": 0.0,
      "percentage_of_fitting_traces": 0.0
    },
    "fscore": 0.8717277196603314,
    "generalization": 0.7383761787659003,
    "metricsAverageWeight": 0.8418273001803941,
    "precision": 0.9102272727272728,
    "simplicity": 0.8823529411764706
  }
}