{
  "easy_soundness": false,
  "filename": "/mnt/c/Users/s140511/tue/thesis/thesis_data/evaluation_data/sepsis/predictions/data_gcn_simpleep144_9_cca.json",
  "full": {
    "entropia_precision": "nan",
    "entropia_recall": "nan",
    "fitness": {
      "average_trace_fitness": 0.6863021503515939,
      "log_fitness": 0.626369381794445,
      "perc_fit_traces": 0.0,
      "percentage_of_fitting_traces": 0.0
    },
    "fscore": 0.760760012248978,
    "generalization": 0.947657772893902,
    "metricsAverageWeight": 0.8439830891907536,
    "precision": 0.9685718687413342,
    "simplicity": 0.8333333333333333
  },
  "sound": false,
  "top 8": {
    "fitness": {
      "average_trace_fitness": 0.8609025234025244,
      "log_fitness": 0.8804815711595373,
      "perc_fit_traces": 0.0,
      "percentage_of_fitting_traces": 0.0
    },
    "fscore": 0.9025871083880586,
    "generalization": 0.797052145366816,
    "metricsAverageWeight": 0.8591745629764305,
    "precision": 0.9258312020460358,
    "simplicity": 0.8333333333333333
  }
}