{
  "easy_soundness": false,
  "filename": "/mnt/c/Users/s140511/tue/thesis/thesis_data/evaluation_data/sepsis/predictions/data_gcn_simpleep144_1_cc.json",
  "full": {
    "entropia_precision": "nan",
    "entropia_recall": "nan",
    "fitness": {
      "average_trace_fitness": 0.7172311362438873,
      "log_fitness": 0.652941211974081,
      "perc_fit_traces": 0.0,
      "percentage_of_fitting_traces": 0.0
    },
    "fscore": 0.7757221492833186,
    "generalization": 0.9535845720803915,
    "metricsAverageWeight": 0.8601717356049295,
    "precision": 0.9553732795773668,
    "simplicity": 0.8787878787878789
  },
  "sound": false,
  "top 8": {
    "fitness": {
      "average_trace_fitness": 0.9288459996793338,
      "log_fitness": 0.9288608383980053,
      "perc_fit_traces": 0.0,
      "percentage_of_fitting_traces": 0.0
    },
    "fscore": 0.9194496582992601,
    "generalization": 0.8280004143864222,
    "metricsAverageWeight": 0.8864691010748948,
    "precision": 0.9102272727272728,
    "simplicity": 0.8787878787878789
  }
}