{
  "easy_soundness": false,
  "filename": "/mnt/c/Users/s140511/tue/thesis/thesis_data/evaluation_data/sepsis/predictions/data_gcn_complexep100_2_cc.json",
  "full": {
    "entropia_precision": "nan",
    "entropia_recall": "nan",
    "fitness": {
      "average_trace_fitness": 0.6743613583969553,
      "log_fitness": 0.6356645616983987,
      "perc_fit_traces": 0.0,
      "percentage_of_fitting_traces": 0.0
    },
    "fscore": 0.7567375565912362,
    "generalization": 0.831851121288613,
    "metricsAverageWeight": 0.7934317157778088,
    "precision": 0.9347826086956522,
    "simplicity": 0.7714285714285715
  },
  "sound": false,
  "top 8": {
    "fitness": {
      "average_trace_fitness": 0.8531470073136739,
      "log_fitness": 0.8432662327006182,
      "perc_fit_traces": 0.0,
      "percentage_of_fitting_traces": 0.0
    },
    "fscore": 0.8675780522810032,
    "generalization": 0.708641134221843,
    "metricsAverageWeight": 0.8041673179210915,
    "precision": 0.8933333333333333,
    "simplicity": 0.7714285714285715
  }
}