{
  "L": {
    "fitness": 0.639397226911842,
    "fitness_alignments": null,
    "fitness_alignments_percFitTraces": null,
    "fitness_entropy_exact": null,
    "fitness_entropy_partial": null,
    "fitness_percFitTraces": 0.0,
    "fscore": 0.7702911313559315,
    "fscore_alignments": null,
    "fscore_entropy_exact": null,
    "fscore_entropy_partial": null,
    "generalization": 0.9676887309034767,
    "metricsAverageWeight": 0.8497968095803397,
    "precision": 0.9685718687413342,
    "precision_alignments": null,
    "precision_entropy_exact": null,
    "precision_entropy_partial": null,
    "simplicity": 0.8235294117647058
  },
  "L_8": {
    "fitness": 0.7841403309207433,
    "fitness_alignments": null,
    "fitness_alignments_percFitTraces": null,
    "fitness_entropy_exact": null,
    "fitness_entropy_partial": null,
    "fitness_percFitTraces": 0.0,
    "fscore": 0.8491154047337375,
    "fscore_alignments": null,
    "fscore_entropy_exact": null,
    "fscore_entropy_partial": null,
    "generalization": 0.7468116627050396,
    "metricsAverageWeight": 0.8200781518591311,
    "precision": 0.9258312020460358,
    "precision_alignments": null,
    "precision_entropy_exact": null,
    "precision_entropy_partial": null,
    "simplicity": 0.8235294117647058
  },
  "args": {
    "beam_length": 20,
    "beam_width": -50,
    "config": "config.json",
    "conformanceChecking": true,
    "dataDirectory": "/mnt/c/Users/s140511/tue/thesis/APDGnn_data/evaluation_data/sepsis/",
    "export": "simple",
    "import_petrinet": null,
    "length_normalization": 0,
    "logFilename": "data",
    "miner": "gnn",
    "model_filename": "/mnt/c/Users/s140511/tue/thesis/git_clean/project/ml_models/models/simple_ws2_frequency_144_",
    "number_of_petrinets": 20,
    "prom": false,
    "timeout": null,
    "top_x_traces": 8,
    "visualize": false
  },
  "easy_soundness": false,
  "log_filename": "/mnt/c/Users/s140511/tue/thesis/APDGnn_data/evaluation_data/sepsis/data",
  "petrinet_filename": "/mnt/c/Users/s140511/tue/thesis/APDGnn_data/evaluation_data/sepsis/predictions/data_gcn_simple_9",
  "sound": false,
  "soundness_info": {
    "s_components": [
      [
        "p2",
        "p10",
        "ER Triage",
        "ER Registration",
        "|",
        "p1",
        "short_circuited_transition",
        "sink",
        "st0",
        "p3",
        "Leucocytes",
        "p8",
        "IV Liquid",
        "source",
        "LacticAcid",
        "IV Antibiotics",
        "p9",
        "p0",
        "p6",
        "ER Sepsis Triage",
        ">"
      ],
      [
        "p2",
        "p7",
        "p0",
        "CRP",
        "sink",
        "source",
        "ER Triage",
        "ER Sepsis Triage",
        "Admission NC",
        "Release A",
        ">",
        "ER Registration",
        "p4",
        "p1",
        "p5",
        "p11",
        "|",
        "short_circuited_transition"
      ]
    ],
    "uncovered_places_s_component": [
      "p12"
    ]
  }
}