{
  "L": {
    "fitness": 0.6770565431140765,
    "fitness_alignments": 0.6732972289676521,
    "fitness_alignments_percFitTraces": 3.619047619047619,
    "fitness_entropy_exact": 0.0,
    "fitness_entropy_partial": null,
    "fitness_percFitTraces": 3.9047619047619047,
    "fscore": 0.7924894792570498,
    "fscore_alignments": 0.7909518769916409,
    "fscore_entropy_exact": 0,
    "fscore_entropy_partial": null,
    "generalization": 0.9630130362537467,
    "metricsAverageWeight": 0.8676107147362975,
    "precision": 0.9553732795773668,
    "precision_alignments": 0.9584321383735528,
    "precision_entropy_exact": 0.0,
    "precision_entropy_partial": null,
    "simplicity": 0.875
  },
  "L_8": {
    "fitness": 0.8766858973716838,
    "fitness_alignments": 0.8564266421409275,
    "fitness_alignments_percFitTraces": 21.428571428571427,
    "fitness_entropy_exact": 0.0,
    "fitness_entropy_partial": 0.992113555036157,
    "fitness_percFitTraces": 21.428571428571427,
    "fscore": 0.8931417897142685,
    "fscore_alignments": 0.8825077511857433,
    "fscore_entropy_exact": 0,
    "fscore_entropy_partial": 0.8371008468991458,
    "generalization": 0.817328925639547,
    "metricsAverageWeight": 0.8698105239346259,
    "precision": 0.9102272727272728,
    "precision_alignments": 0.9102272727272728,
    "precision_entropy_exact": 0.0,
    "precision_entropy_partial": 0.723982288439262,
    "simplicity": 0.875
  },
  "args": {
    "beam_length": 20,
    "beam_width": -50,
    "config": "config.json",
    "conformanceChecking": true,
    "dataDirectory": "/mnt/c/Users/s140511/tue/thesis/APDGnn_data/evaluation_data/sepsis/",
    "export": "simple",
    "import_petrinet": null,
    "length_normalization": 0,
    "logFilename": "data",
    "miner": "gnn",
    "model_filename": "/mnt/c/Users/s140511/tue/thesis/git_clean/project/ml_models/models/simple_ws2_frequency_144_",
    "number_of_petrinets": 20,
    "prom": false,
    "timeout": null,
    "top_x_traces": 8,
    "visualize": false
  },
  "easy_soundness": true,
  "log_filename": "/mnt/c/Users/s140511/tue/thesis/APDGnn_data/evaluation_data/sepsis/data",
  "petrinet_filename": "/mnt/c/Users/s140511/tue/thesis/APDGnn_data/evaluation_data/sepsis/predictions/data_gcn_simple_8",
  "sound": true,
  "soundness_info": {
    "s_components": [
      [
        "p1",
        "p7",
        "CRP",
        ">",
        "ER Sepsis Triage",
        "p10",
        "p0",
        "Admission NC",
        "sink",
        "p4",
        "source",
        "Release A",
        "|",
        "short_circuited_transition",
        "ER Triage",
        "ER Registration",
        "p2",
        "p5",
        "st0"
      ],
      [
        "p1",
        "p8",
        "LacticAcid",
        "p9",
        ">",
        "ER Sepsis Triage",
        "p0",
        "sink",
        "Leucocytes",
        "|",
        "short_circuited_transition",
        "p11",
        "source",
        "st1",
        "IV Liquid",
        "ER Triage",
        "ER Registration",
        "IV Antibiotics",
        "p2",
        "p6",
        "p3"
      ]
    ],
    "uncovered_places_s_component": []
  }
}