{
  "easy_soundness": true,
  "filename": "/home/dominique/TUe/thesis/git_data/evaluation_data/sepsis/predictions/data_split_cc.txt",
  "full": {
    "fitness                         ": "0.91787",
    "fitness_alignments              ": "0.76361",
    "fitness_alignments_percFitTraces": "0.00000",
    "fscore                          ": "0.94798",
    "fscore_alignments               ": "0.85843",
    "generalization                  ": "0.89590",
    "metricsAverageWeight            ": "0.86311",
    "precision                       ": "0.98014",
    "precision_alignments            ": "0.98014",
    "simplicity                      ": "0.65854"
  },
  "s_components": [
    [
      "Leucocytes",
      "n42",
      "short_circuited_transition",
      "n15",
      "n16",
      "Release D",
      "IV Liquid",
      "ER Registration",
      "n2",
      "n40",
      "n1",
      "n50",
      "ER Triage",
      "n9",
      "n5",
      "n41",
      "n17",
      "source",
      "Admission NC",
      "Release C",
      "n46",
      "n7",
      "Admission IC",
      "n8",
      "n36",
      "n3",
      "n14",
      "n39",
      "start",
      "n11",
      "LacticAcid",
      "Release B",
      "n6",
      "n4",
      "n52",
      "ER Sepsis Triage",
      "IV Antibiotics",
      "Release E",
      "n37",
      "n51",
      "Return ER",
      "n19",
      "n48",
      "Release A",
      "n43",
      "n10",
      "n47",
      "n38",
      "n12",
      "n18",
      "n45",
      "CRP",
      "n49",
      "n44",
      "n13"
    ]
  ],
  "sound": true,
  "uncovered_places_s_component": []
}