{
  "alpha": 1.7074254996233549,
  "alpha_err": 0.09370079644640385,
  "deviation_distributions": {
    "all": {
      "number_of_samples": 126,
      "scale": 0.01614853682389228,
      "sse": 0.043679241372207564
    },
    "in_valid_trace": {
      "number_of_samples": 15,
      "scale": 0.13564770932069511,
      "sse": 0.9374807210948974
    },
    "in_valid_trace_index": {
      "number_of_samples": 124,
      "scale": 0.016408997095245372,
      "sse": 0.002750531861709974
    }
  },
  "deviation_distributions_geom": {
    "all": {
      "number_of_samples": 100,
      "shape": 0.052980132450331126,
      "sse": 0.0013733079455506931
    },
    "in_valid_trace": {
      "number_of_samples": 15,
      "shape": 0.18945526143075914,
      "sse": 0.01864262166423343
    },
    "in_valid_trace_index": {
      "number_of_samples": 108,
      "shape": 0.022172172172172173,
      "sse": 0.010629083348228392
    }
  },
  "frequencies_max": 569,
  "frequencies_mean": 10.952879581151832,
  "frequencies_median": 1.0,
  "frequencies_min": 1,
  "number_of_main_traces_80.0": 15,
  "number_of_main_traces_90.0": 43,
  "number_of_trace_variants": 191
}