{
  "L": {
    "fitness": 0.8985671097611037,
    "fitness_alignments": 0.7220277159833262,
    "fitness_alignments_percFitTraces": 4.326252132113506,
    "fitness_entropy_exact": null,
    "fitness_entropy_partial": null,
    "fitness_percFitTraces": 4.326252132113506,
    "fscore": 0.9250320625492359,
    "fscore_alignments": 0.8216276481490609,
    "fscore_entropy_exact": null,
    "fscore_entropy_partial": null,
    "generalization": 0.8805083876923345,
    "metricsAverageWeight": 0.8316933317103521,
    "precision": 0.9531032347933757,
    "precision_alignments": 0.9531032347933757,
    "precision_entropy_exact": null,
    "precision_entropy_partial": null,
    "simplicity": 0.5945945945945946
  },
  "L_0": null,
  "args": {},
  "easy_soundness": true,
  "log_filename": "/mnt/c/Users/s140511/tue/thesis/APDGnn_data/evaluation_data/BPI_2020_International_declarations/data",
  "petrinet_filename": "/mnt/c/Users/s140511/tue/thesis/APDGnn_data/evaluation_data/BPI_2020_International_declarations/results/data_heuristics_reduced.pnml",
  "sound": false,
  "soundness_info": {
    "s_components": [],
    "uncovered_places_s_component": [
      "n8",
      "n28",
      "n19",
      "n5",
      "n14",
      "n34",
      "n6",
      "n25",
      "n16",
      "n24",
      "n15",
      "n11",
      "n31",
      "n10",
      "n30",
      "n2",
      "n21",
      "n1",
      "n20",
      "n4",
      "n3",
      "n27",
      "n18",
      "n26",
      "n17",
      "n13",
      "n33",
      "n12",
      "n32",
      "n23",
      "source",
      "n22",
      "n7",
      "n9",
      "n29"
    ]
  }
}