{
  "L": {
    "fitness": 0.9263088165096471,
    "fitness_alignments": 0.7609880000836013,
    "fitness_alignments_percFitTraces": 7.30467615451641,
    "fitness_entropy_exact": 0.0,
    "fitness_entropy_partial": 0.99999999977693,
    "fitness_percFitTraces": 7.30467615451641,
    "fscore": 0.36497220806325553,
    "fscore_alignments": 0.3499931905219979,
    "fscore_entropy_exact": 0,
    "fscore_entropy_partial": 0.4195603684171206,
    "generalization": 0.8394458711711417,
    "metricsAverageWeight": 0.6395571248479716,
    "precision": 0.22725642040674943,
    "precision_alignments": 0.22725642040674943,
    "precision_entropy_exact": 0.0,
    "precision_entropy_partial": 0.2654706703487043,
    "simplicity": 0.5652173913043479
  },
  "L_0": null,
  "args": {},
  "easy_soundness": true,
  "log_filename": "/mnt/c/Users/s140511/tue/thesis/APDGnn_data/evaluation_data/BPI_2020_Request_for_payment/data",
  "petrinet_filename": "/mnt/c/Users/s140511/tue/thesis/APDGnn_data/evaluation_data/BPI_2020_Request_for_payment/results/data_inductive_reduced.pnml",
  "sound": true,
  "soundness_info": {
    "s_components": [
      [
        "n49",
        "n5",
        "n28",
        "Request For Payment SAVED by EMPLOYEE",
        "n26",
        "source",
        "start",
        "Request For Payment APPROVED by SUPERVISOR",
        "Request For Payment APPROVED by PRE_APPROVER",
        "Request For Payment APPROVED by ADMINISTRATION",
        "n14",
        "n25",
        "n9",
        "n1",
        "Request For Payment REJECTED by EMPLOYEE",
        "n45",
        "n15",
        "n44",
        "n46",
        "Request For Payment SUBMITTED by EMPLOYEE",
        "n6",
        "Request For Payment FINAL_APPROVED by DIRECTOR",
        "Request For Payment REJECTED by ADMINISTRATION",
        "Request For Payment REJECTED by MISSING",
        "n31",
        "n8",
        "Request For Payment REJECTED by SUPERVISOR",
        "n48",
        "n17",
        "Request For Payment FINAL_APPROVED by BUDGET OWNER",
        "n19",
        "Payment Handled",
        "n40",
        "n20",
        "n7",
        "n2",
        "n12",
        "Request For Payment FINAL_APPROVED by SUPERVISOR",
        "n33",
        "Request For Payment APPROVED by BUDGET OWNER",
        "Request For Payment REJECTED by BUDGET OWNER",
        "Request For Payment FOR_APPROVAL by ADMINISTRATION",
        "n4",
        "short_circuited_transition",
        "Request For Payment REJECTED by PRE_APPROVER",
        "n30",
        "n11",
        "n16",
        "n23",
        "n10"
      ],
      [
        "n49",
        "n5",
        "n28",
        "Request For Payment SAVED by EMPLOYEE",
        "n26",
        "source",
        "start",
        "Request For Payment APPROVED by SUPERVISOR",
        "Request For Payment APPROVED by PRE_APPROVER",
        "Request For Payment APPROVED by ADMINISTRATION",
        "n14",
        "n25",
        "n9",
        "n1",
        "Request For Payment REJECTED by EMPLOYEE",
        "n45",
        "n46",
        "n44",
        "Request For Payment SUBMITTED by EMPLOYEE",
        "Request Payment",
        "n6",
        "Request For Payment FINAL_APPROVED by DIRECTOR",
        "Request For Payment REJECTED by ADMINISTRATION",
        "n13",
        "n31",
        "n8",
        "Request For Payment REJECTED by SUPERVISOR",
        "n48",
        "n17",
        "Request For Payment FINAL_APPROVED by BUDGET OWNER",
        "n40",
        "n20",
        "n7",
        "n19",
        "n2",
        "Request For Payment REJECTED by MISSING",
        "n12",
        "Request For Payment FINAL_APPROVED by SUPERVISOR",
        "n33",
        "n4",
        "Request For Payment APPROVED by BUDGET OWNER",
        "Request For Payment REJECTED by BUDGET OWNER",
        "Request For Payment FOR_APPROVAL by ADMINISTRATION",
        "short_circuited_transition",
        "n3",
        "Request For Payment REJECTED by PRE_APPROVER",
        "n30",
        "n16",
        "n23",
        "n10"
      ]
    ],
    "uncovered_places_s_component": []
  }
}