{
  "FULL": {
    "entropia_precision": 0.9756299130142575,
    "entropia_recall": 1.0114622791654,
    "fitness": {
      "average_trace_fitness": 1.0,
      "log_fitness": 1.0,
      "perc_fit_traces": 100.0,
      "percentage_of_fitting_traces": 100.0
    },
    "fitness_alignments": {
      "averageFitness": 1.0,
      "average_trace_fitness": 1.0,
      "percFitTraces": 100.0,
      "percentage_of_fitting_traces": 100.0
    },
    "fscore": 0.993440879276724,
    "generalization": 0.9593880653295587,
    "metricsAverageWeight": 0.9355684186657782,
    "precision": 0.986967241986615,
    "precision_alignments": 0.986967241986615,
    "simplicity": 0.7959183673469388
  },
  "easy_soundness": true,
  "sound": true
}