{
  "FULL": {
    "entropia_precision": 1.0,
    "entropia_recall": 0.66099253189012,
    "fitness": {
      "average_trace_fitness": 0.337,
      "log_fitness": 0.7176320272572402,
      "perc_fit_traces": 33.7,
      "percentage_of_fitting_traces": 33.7
    },
    "fitness_alignments": {
      "averageFitness": 0.17125,
      "average_trace_fitness": 0.17125,
      "percFitTraces": 33.7,
      "percentage_of_fitting_traces": 33.7
    },
    "fscore": 0.8356062484502852,
    "generalization": 0.9455265289297157,
    "metricsAverageWeight": 0.9157896390467389,
    "precision": 1.0,
    "precision_alignments": 1.0,
    "simplicity": 1.0
  },
  "easy_soundness": true,
  "sound": true
}