{
  "FULL": {
    "fitness": {
      "average_trace_fitness": 0.9651999999999921,
      "log_fitness": 0.9584328714763497,
      "perc_fit_traces": 82.6,
      "percentage_of_fitting_traces": 82.6
    },
    "fitness_alignments": {
      "averageFitness": 0.913,
      "average_trace_fitness": 0.913,
      "percFitTraces": 82.6,
      "percentage_of_fitting_traces": 82.6
    },
    "fscore": 0.978775311051476,
    "generalization": 0.9431959391142172,
    "metricsAverageWeight": 0.951597678838118,
    "precision": 1.0,
    "precision_alignments": 1.0,
    "simplicity": 0.9047619047619049
  }
}