{
  "FULL": {
    "fitness": {
      "average_trace_fitness": 1.0,
      "log_fitness": 1.0,
      "perc_fit_traces": 100.0,
      "percentage_of_fitting_traces": 100.0
    },
    "fitness_alignments": {
      "averageFitness": 1.0,
      "average_trace_fitness": 1.0,
      "percFitTraces": 100.0,
      "percentage_of_fitting_traces": 100.0
    },
    "fscore": 0.9998897220996912,
    "generalization": 0.9700017365540947,
    "metricsAverageWeight": 0.9924453012683065,
    "precision": 0.9997794685191311,
    "precision_alignments": 0.9997794685191311,
    "simplicity": 1.0
  }
}