{
  "easy_soundness": true,
  "filename": "/mnt/c/Users/s140511/tue/thesis/thesis_data/process_trees_simple_ws2/predictions/1976_gcn_ep144b_cc.json",
  "full": {
    "entropia_precision": 1.0014330215425897,
    "entropia_recall": 1.00012945090249,
    "fitness": {
      "average_trace_fitness": 1.0,
      "log_fitness": 1.0,
      "perc_fit_traces": 100.0,
      "percentage_of_fitting_traces": 100.0
    },
    "fitness_alignments": {
      "averageFitness": 1.0,
      "average_trace_fitness": 1.0,
      "percFitTraces": 100.0,
      "percentage_of_fitting_traces": 100.0
    },
    "fscore": 0.9998897220996912,
    "generalization": 0.9695956082651501,
    "metricsAverageWeight": 0.9923437691960704,
    "precision": 0.9997794685191311,
    "precision_alignments": 0.9997794685191311,
    "simplicity": 1.0
  },
  "sound": true,
  "top 30": {
    "fitness": {
      "average_trace_fitness": 1.0,
      "log_fitness": 1.0,
      "perc_fit_traces": 100.0,
      "percentage_of_fitting_traces": 100.0
    },
    "fitness_alignments": {
      "averageFitness": 1.0,
      "average_trace_fitness": 1.0,
      "percFitTraces": 100.0,
      "percentage_of_fitting_traces": 100.0
    },
    "fscore": 0.9998897220996912,
    "generalization": 0.9695956082651501,
    "metricsAverageWeight": 0.9923437691960704,
    "precision": 0.9997794685191311,
    "precision_alignments": 0.9997794685191311,
    "simplicity": 1.0
  }
}