{
  "FULL": {
    "fitness": {
      "average_trace_fitness": 1.0,
      "log_fitness": 1.0,
      "perc_fit_traces": 100.0,
      "percentage_of_fitting_traces": 100.0
    },
    "fitness_alignments": {
      "averageFitness": 1.0,
      "average_trace_fitness": 1.0,
      "percFitTraces": 100.0,
      "percentage_of_fitting_traces": 100.0
    },
    "fscore": 0.9997240161174588,
    "generalization": 0.9541229593085436,
    "metricsAverageWeight": 0.9328372304033539,
    "precision": 0.9994481845270942,
    "precision_alignments": 0.9994481845270942,
    "simplicity": 0.7777777777777779
  },
  "Top 30": {
    "fitness": {
      "average_trace_fitness": 1.0,
      "log_fitness": 1.0,
      "perc_fit_traces": 100.0,
      "percentage_of_fitting_traces": 100.0
    },
    "fitness_alignments": {
      "averageFitness": 1.0,
      "average_trace_fitness": 1.0,
      "percFitTraces": 100.0,
      "percentage_of_fitting_traces": 100.0
    },
    "fscore": 0.9997240161174588,
    "generalization": 0.9541229593085436,
    "metricsAverageWeight": 0.9328372304033539,
    "precision": 0.9994481845270942,
    "precision_alignments": 0.9994481845270942,
    "simplicity": 0.7777777777777779
  }
}