{
  "FULL": {
    "fitness": {
      "average_trace_fitness": 1.0,
      "log_fitness": 1.0,
      "perc_fit_traces": 100.0,
      "percentage_of_fitting_traces": 100.0
    },
    "fitness_alignments": {
      "averageFitness": 1.0,
      "average_trace_fitness": 1.0,
      "percFitTraces": 100.0,
      "percentage_of_fitting_traces": 100.0
    },
    "fscore": 0.9998528762689423,
    "generalization": 0.941536669091832,
    "metricsAverageWeight": 0.9186439495618665,
    "precision": 0.9997057958223007,
    "precision_alignments": 0.9997057958223007,
    "simplicity": 0.7333333333333333
  }
}