{
  "FULL": {
    "fitness": {
      "average_trace_fitness": 0.8807673997265356,
      "log_fitness": 0.8800154988619353,
      "perc_fit_traces": 13.7,
      "percentage_of_fitting_traces": 13.7
    },
    "fitness_alignments": {
      "averageFitness": -1.2405,
      "average_trace_fitness": -1.2405,
      "percFitTraces": 13.7,
      "percentage_of_fitting_traces": 13.7
    },
    "fscore": 0.8318626587387293,
    "generalization": 0.9678470479525138,
    "metricsAverageWeight": 0.842475495529887,
    "precision": 0.7887061019717653,
    "precision_alignments": 0.7887061019717653,
    "simplicity": 0.7333333333333333
  },
  "Top 30": {
    "fitness": {
      "average_trace_fitness": 0.8777804095985912,
      "log_fitness": 0.8719930471058578,
      "perc_fit_traces": 16.707616707616708,
      "percentage_of_fitting_traces": 16.707616707616708
    },
    "fitness_alignments": {
      "averageFitness": -0.7493857493857494,
      "average_trace_fitness": -0.7493857493857494,
      "percFitTraces": 16.707616707616708,
      "percentage_of_fitting_traces": 16.707616707616708
    },
    "fscore": 0.8642414762312253,
    "generalization": 0.9568334901449523,
    "metricsAverageWeight": 0.85469659415206,
    "precision": 0.8566265060240964,
    "precision_alignments": 0.8566265060240964,
    "simplicity": 0.7333333333333333
  }
}