{
  "easy_soundness": false,
  "filename": "/mnt/c/Users/s140511/tue/thesis/thesis_data/process_trees_simple_ws2/predictions/1980_gcn_ep144b_cc.json",
  "full": {
    "entropia_precision": "nan",
    "entropia_recall": "nan",
    "fitness": {
      "average_trace_fitness": 0.893554319003179,
      "log_fitness": 0.873526639507948,
      "perc_fit_traces": 0.0,
      "percentage_of_fitting_traces": 0.0
    },
    "fscore": 0.9310511612409468,
    "generalization": 0.9646599660050179,
    "metricsAverageWeight": 0.8694324693633178,
    "precision": 0.9966861290831623,
    "simplicity": 0.6428571428571429
  },
  "sound": false,
  "top 30": {
    "fitness": {
      "average_trace_fitness": 0.9042668050021062,
      "log_fitness": 0.8922828128870866,
      "perc_fit_traces": 0.0,
      "percentage_of_fitting_traces": 0.0
    },
    "fscore": 0.9415026241083528,
    "generalization": 0.9561080464546863,
    "metricsAverageWeight": 0.8719293880166309,
    "precision": 0.9964695498676082,
    "simplicity": 0.6428571428571429
  }
}