{
  "FULL": {
    "entropia_precision": 0.9159977336214744,
    "entropia_recall": 0.883404033565443,
    "fitness": {
      "average_trace_fitness": 0.9478383838383841,
      "log_fitness": 0.9457413249211356,
      "perc_fit_traces": 48.4,
      "percentage_of_fitting_traces": 48.4
    },
    "fitness_alignments": {
      "averageFitness": 0.9140000000000176,
      "average_trace_fitness": 0.9140000000000176,
      "percFitTraces": 48.4,
      "percentage_of_fitting_traces": 48.4
    },
    "fscore": 0.9635956058758796,
    "generalization": 0.9607719548046046,
    "metricsAverageWeight": 0.9521625665067774,
    "precision": 0.9821369863013698,
    "precision_alignments": 0.9821369863013698,
    "simplicity": 0.92
  },
  "easy_soundness": true,
  "sound": true
}