{
  "easy_soundness": false,
  "filename": "/mnt/c/Users/s140511/tue/thesis/thesis_data/process_trees_simple_ws2/predictions/1997_gcn_ep144b_cc.json",
  "full": {
    "entropia_precision": "nan",
    "entropia_recall": "nan",
    "fitness": {
      "average_trace_fitness": 0.9213508279290811,
      "log_fitness": 0.9113179862861799,
      "perc_fit_traces": 0.0,
      "percentage_of_fitting_traces": 0.0
    },
    "fscore": 0.9535449324247471,
    "generalization": 0.9700211356731147,
    "metricsAverageWeight": 0.9332665636074386,
    "precision": 0.9998752806186081,
    "simplicity": 0.851851851851852
  },
  "sound": false,
  "top 30": {
    "fitness": {
      "average_trace_fitness": 0.922400033682326,
      "log_fitness": 0.9133630020861894,
      "perc_fit_traces": 0.0,
      "percentage_of_fitting_traces": 0.0
    },
    "fscore": 0.9544834720100582,
    "generalization": 0.9694266653239482,
    "metricsAverageWeight": 0.9335306444755909,
    "precision": 0.9994810586403736,
    "simplicity": 0.851851851851852
  }
}