{
  "FULL": {
    "entropia_precision": 1.0000000000000004,
    "entropia_recall": 0.999999999999998,
    "fitness": {
      "average_trace_fitness": 1.0,
      "log_fitness": 1.0,
      "perc_fit_traces": 100.0,
      "percentage_of_fitting_traces": 100.0
    },
    "fitness_alignments": {
      "averageFitness": 1.0,
      "average_trace_fitness": 1.0,
      "percFitTraces": 100.0,
      "percentage_of_fitting_traces": 100.0
    },
    "fscore": 1.0,
    "generalization": 0.9486492196176235,
    "metricsAverageWeight": 0.9387752081302122,
    "precision": 1.0,
    "precision_alignments": 1.0,
    "simplicity": 0.8064516129032256
  },
  "easy_soundness": true,
  "sound": true
}