{
  "FULL": {
    "entropia_precision": "nan",
    "entropia_recall": "nan",
    "fitness": {
      "average_trace_fitness": 0.9444444444444552,
      "log_fitness": 0.9444444444444444,
      "perc_fit_traces": 0.0,
      "percentage_of_fitting_traces": 0.0
    },
    "fscore": 0.9024826161020972,
    "generalization": 0.9651005477131128,
    "metricsAverageWeight": 0.9156311975343387,
    "precision": 0.8640909090909091,
    "simplicity": 0.8888888888888888
  },
  "easy_soundness": false,
  "sound": false
}