{
  "easy_soundness": true,
  "filename": "/mnt/c/Users/s140511/tue/thesis/thesis_data/process_trees_simple_ws2/predictions/2006_gcn_ep144b_cc.json",
  "full": {
    "fitness": {
      "average_trace_fitness": 0.9550000000000048,
      "log_fitness": 0.955,
      "perc_fit_traces": 50.5,
      "percentage_of_fitting_traces": 50.5
    },
    "fitness_alignments": {
      "averageFitness": 0.8585714285714307,
      "average_trace_fitness": 0.8585714285714307,
      "percFitTraces": 50.5,
      "percentage_of_fitting_traces": 50.5
    },
    "fscore": 0.9769820971867007,
    "generalization": 0.9657558828501536,
    "metricsAverageWeight": 0.9584498402777558,
    "precision": 1.0,
    "precision_alignments": 1.0,
    "simplicity": 0.9130434782608695
  },
  "sound": true,
  "top 30": {
    "fitness": {
      "average_trace_fitness": 0.9550000000000048,
      "log_fitness": 0.955,
      "perc_fit_traces": 50.5,
      "percentage_of_fitting_traces": 50.5
    },
    "fitness_alignments": {
      "averageFitness": 0.8585714285714307,
      "average_trace_fitness": 0.8585714285714307,
      "percFitTraces": 50.5,
      "percentage_of_fitting_traces": 50.5
    },
    "fscore": 0.9769820971867007,
    "generalization": 0.9657558828501536,
    "metricsAverageWeight": 0.9584498402777558,
    "precision": 1.0,
    "precision_alignments": 1.0,
    "simplicity": 0.9130434782608695
  }
}