{
  "easy_soundness": true,
  "filename": "/mnt/c/Users/s140511/tue/thesis/thesis_data/process_trees_simple_ws2/predictions/2007_gcn_ep144b_cca.json",
  "full": {
    "entropia_precision": 0.9977158489773166,
    "entropia_recall": 0.997582937153332,
    "fitness": {
      "average_trace_fitness": 1.0,
      "log_fitness": 1.0,
      "perc_fit_traces": 100.0,
      "percentage_of_fitting_traces": 100.0
    },
    "fitness_alignments": {
      "averageFitness": 1.0,
      "average_trace_fitness": 1.0,
      "log_fitness": 0.9999547728556443,
      "percFitTraces": 100.0,
      "percentage_of_fitting_traces": 100.0
    },
    "fscore": 0.9998445515311675,
    "generalization": 0.9466169118747499,
    "metricsAverageWeight": 0.9265765158145065,
    "precision": 0.9996891513832763,
    "precision_alignments": 0.9996891513832763,
    "simplicity": 0.7599999999999999
  },
  "sound": true,
  "top 30": {
    "fitness": {
      "average_trace_fitness": 1.0,
      "log_fitness": 1.0,
      "perc_fit_traces": 100.0,
      "percentage_of_fitting_traces": 100.0
    },
    "fitness_alignments": {
      "averageFitness": 1.0,
      "average_trace_fitness": 1.0,
      "log_fitness": 0.9999547728556443,
      "percFitTraces": 100.0,
      "percentage_of_fitting_traces": 100.0
    },
    "fscore": 0.9998445515311675,
    "generalization": 0.9466169118747499,
    "metricsAverageWeight": 0.9265765158145065,
    "precision": 0.9996891513832763,
    "precision_alignments": 0.9996891513832763,
    "simplicity": 0.7599999999999999
  }
}