{
  "FULL": {
    "entropia_precision": 0.9974545154125669,
    "entropia_recall": 0.99664238118775,
    "fitness": {
      "average_trace_fitness": 1.0,
      "log_fitness": 1.0,
      "perc_fit_traces": 100.0,
      "percentage_of_fitting_traces": 100.0
    },
    "fitness_alignments": {
      "averageFitness": 1.0,
      "average_trace_fitness": 1.0,
      "percFitTraces": 100.0,
      "percentage_of_fitting_traces": 100.0
    },
    "fscore": 0.9998445515311675,
    "generalization": 0.9417812870917353,
    "metricsAverageWeight": 0.9139390381901815,
    "precision": 0.9996891513832763,
    "precision_alignments": 0.9996891513832763,
    "simplicity": 0.7142857142857143
  },
  "easy_soundness": true,
  "sound": true
}