{
  "easy_soundness": true,
  "filename": "/mnt/c/Users/s140511/tue/thesis/thesis_data/process_trees_simple_ws2/predictions/2008_gcn_ep144b_cca.json",
  "full": {
    "entropia_precision": 1.0042348522937747,
    "entropia_recall": 0.99757810236964,
    "fitness": {
      "average_trace_fitness": 1.0,
      "log_fitness": 1.0,
      "perc_fit_traces": 100.0,
      "percentage_of_fitting_traces": 100.0
    },
    "fitness_alignments": {
      "averageFitness": 1.0,
      "average_trace_fitness": 1.0,
      "log_fitness": 0.9999880548521191,
      "percFitTraces": 100.0,
      "percentage_of_fitting_traces": 100.0
    },
    "fscore": 1.0,
    "generalization": 0.9544730780786213,
    "metricsAverageWeight": 0.9480777289791147,
    "precision": 1.0,
    "precision_alignments": 1.0,
    "simplicity": 0.8378378378378379
  },
  "sound": true,
  "top 30": {
    "fitness": {
      "average_trace_fitness": 1.0,
      "log_fitness": 1.0,
      "perc_fit_traces": 100.0,
      "percentage_of_fitting_traces": 100.0
    },
    "fitness_alignments": {
      "averageFitness": 1.0,
      "average_trace_fitness": 1.0,
      "log_fitness": 0.9999880548521191,
      "percFitTraces": 100.0,
      "percentage_of_fitting_traces": 100.0
    },
    "fscore": 1.0,
    "generalization": 0.9544730780786213,
    "metricsAverageWeight": 0.9480777289791147,
    "precision": 1.0,
    "precision_alignments": 1.0,
    "simplicity": 0.8378378378378379
  }
}