{
  "FULL": {
    "fitness": {
      "average_trace_fitness": 1.0,
      "log_fitness": 1.0,
      "perc_fit_traces": 100.0,
      "percentage_of_fitting_traces": 100.0
    },
    "fitness_alignments": {
      "averageFitness": 1.0,
      "average_trace_fitness": 1.0,
      "percFitTraces": 100.0,
      "percentage_of_fitting_traces": 100.0
    },
    "fscore": 0.9993961873544381,
    "generalization": 0.9524678759635975,
    "metricsAverageWeight": 0.9211485781863017,
    "precision": 0.9987931034482759,
    "precision_alignments": 0.9987931034482759,
    "simplicity": 0.7333333333333333
  }
}