{
  "easy_soundness": true,
  "filename": "/mnt/c/Users/s140511/tue/thesis/thesis_data/process_trees_simple_ws2/predictions/2011_gcn_ep144b_cca.json",
  "full": {
    "entropia_precision": 0.9966831149077098,
    "entropia_recall": 1.003295299686805,
    "fitness": {
      "average_trace_fitness": 1.0,
      "log_fitness": 1.0,
      "perc_fit_traces": 100.0,
      "percentage_of_fitting_traces": 100.0
    },
    "fitness_alignments": {
      "averageFitness": 1.0,
      "average_trace_fitness": 1.0,
      "log_fitness": 0.999975263444318,
      "percFitTraces": 100.0,
      "percentage_of_fitting_traces": 100.0
    },
    "fscore": 0.9993961873544381,
    "generalization": 0.9547406398828431,
    "metricsAverageWeight": 0.9295599064210149,
    "precision": 0.9987931034482759,
    "precision_alignments": 0.9987931034482759,
    "simplicity": 0.7647058823529413
  },
  "sound": true,
  "top 30": {
    "fitness": {
      "average_trace_fitness": 1.0,
      "log_fitness": 1.0,
      "perc_fit_traces": 100.0,
      "percentage_of_fitting_traces": 100.0
    },
    "fitness_alignments": {
      "averageFitness": 1.0,
      "average_trace_fitness": 1.0,
      "log_fitness": 0.9999741107889194,
      "percFitTraces": 100.0,
      "percentage_of_fitting_traces": 100.0
    },
    "fscore": 0.9983682222947456,
    "generalization": 0.953370155079354,
    "metricsAverageWeight": 0.9287044496857595,
    "precision": 0.9967417613107429,
    "precision_alignments": 0.9967417613107429,
    "simplicity": 0.7647058823529413
  }
}