{
  "FULL": {
    "fitness": {
      "average_trace_fitness": 0.9270000000000166,
      "log_fitness": 0.92739898989899,
      "perc_fit_traces": 54.0,
      "percentage_of_fitting_traces": 54.0
    },
    "fitness_alignments": {
      "averageFitness": 0.8160000000000105,
      "average_trace_fitness": 0.8160000000000105,
      "percFitTraces": 54.0,
      "percentage_of_fitting_traces": 54.0
    },
    "fscore": 0.9623321323288568,
    "generalization": 0.9551945773663706,
    "metricsAverageWeight": 0.944332602342656,
    "precision": 1.0,
    "precision_alignments": 1.0,
    "simplicity": 0.8947368421052632
  }
}