{
  "FULL": {
    "fitness": {
      "average_trace_fitness": 0.9516023754023718,
      "log_fitness": 0.9541773651984989,
      "perc_fit_traces": 53.6,
      "percentage_of_fitting_traces": 53.6
    },
    "fitness_alignments": {
      "averageFitness": 0.8674285714285579,
      "average_trace_fitness": 0.8674285714285579,
      "percFitTraces": 53.6,
      "percentage_of_fitting_traces": 53.6
    },
    "fscore": 0.9762735725811562,
    "generalization": 0.9696969187498343,
    "metricsAverageWeight": 0.9808229257788107,
    "precision": 0.9994174191669094,
    "precision_alignments": 0.9994174191669094,
    "simplicity": 1.0
  }
}