{
  "FULL": {
    "fitness": {
      "average_trace_fitness": 0.9055864550763896,
      "log_fitness": 0.9101204386122596,
      "perc_fit_traces": 0.0,
      "percentage_of_fitting_traces": 0.0
    },
    "fitness_alignments": {
      "averageFitness": 0.83775,
      "average_trace_fitness": 0.83775,
      "percFitTraces": 0.0,
      "percentage_of_fitting_traces": 0.0
    },
    "fscore": 0.7812183075340517,
    "generalization": 0.9696969187498343,
    "metricsAverageWeight": 0.8410292441225802,
    "precision": 0.6842996191282269,
    "precision_alignments": 0.6842996191282269,
    "simplicity": 0.8
  },
  "Top 30": {
    "fitness": {
      "average_trace_fitness": 0.9055864550763896,
      "log_fitness": 0.9101204386122596,
      "perc_fit_traces": 0.0,
      "percentage_of_fitting_traces": 0.0
    },
    "fitness_alignments": {
      "averageFitness": 0.83775,
      "average_trace_fitness": 0.83775,
      "percFitTraces": 0.0,
      "percentage_of_fitting_traces": 0.0
    },
    "fscore": 0.7812183075340517,
    "generalization": 0.9696969187498343,
    "metricsAverageWeight": 0.8410292441225802,
    "precision": 0.6842996191282269,
    "precision_alignments": 0.6842996191282269,
    "simplicity": 0.8
  }
}