{
  "FULL": {
    "fitness": {
      "average_trace_fitness": 0.9138439298468517,
      "log_fitness": 0.9057036476530972,
      "perc_fit_traces": 0.0,
      "percentage_of_fitting_traces": 0.0
    },
    "fscore": 0.8318348408037722,
    "generalization": 0.8084628527724107,
    "metricsAverageWeight": 0.806302199573198,
    "precision": 0.7691068139963168,
    "simplicity": 0.7419354838709676
  },
  "Top 30": {
    "fitness": {
      "average_trace_fitness": 0.9153988576780983,
      "log_fitness": 0.9083404029179799,
      "perc_fit_traces": 0.0,
      "percentage_of_fitting_traces": 0.0
    },
    "fscore": 0.8328100405983498,
    "generalization": 0.8080173373831824,
    "metricsAverageWeight": 0.806792404973305,
    "precision": 0.76887639572109,
    "simplicity": 0.7419354838709676
  }
}