{
  "FULL": {
    "entropia_precision": 0.9832033651645167,
    "entropia_recall": 1.004076875546399,
    "fitness": {
      "average_trace_fitness": 1.0,
      "log_fitness": 1.0,
      "perc_fit_traces": 100.0,
      "percentage_of_fitting_traces": 100.0
    },
    "fitness_alignments": {
      "averageFitness": 1.0,
      "average_trace_fitness": 1.0,
      "percFitTraces": 100.0,
      "percentage_of_fitting_traces": 100.0
    },
    "fscore": 0.9990846248540135,
    "generalization": 0.9699420994790859,
    "metricsAverageWeight": 0.9702891254346735,
    "precision": 0.9981709239987385,
    "precision_alignments": 0.9981709239987385,
    "simplicity": 0.9130434782608695
  },
  "easy_soundness": true,
  "sound": true
}