{
  "FULL": {
    "entropia_precision": 0.9999997827961392,
    "entropia_recall": 0.999999782796138,
    "fitness": {
      "average_trace_fitness": 1.0,
      "log_fitness": 1.0,
      "perc_fit_traces": 100.0,
      "percentage_of_fitting_traces": 100.0
    },
    "fitness_alignments": {
      "averageFitness": 1.0,
      "average_trace_fitness": 1.0,
      "percFitTraces": 100.0,
      "percentage_of_fitting_traces": 100.0
    },
    "fscore": 1.0,
    "generalization": 0.9394452459224926,
    "metricsAverageWeight": 0.9172937439130556,
    "precision": 1.0,
    "precision_alignments": 1.0,
    "simplicity": 0.7297297297297298
  },
  "easy_soundness": true,
  "sound": true
}