{
  "FULL": {
    "fitness": {
      "average_trace_fitness": 0.8739000000000018,
      "log_fitness": 0.9243890437920289,
      "perc_fit_traces": 53.9,
      "percentage_of_fitting_traces": 53.9
    },
    "fitness_alignments": {
      "averageFitness": 0.5325,
      "average_trace_fitness": 0.5325,
      "percFitTraces": 53.9,
      "percentage_of_fitting_traces": 53.9
    },
    "fscore": 0.9607091110542914,
    "generalization": 0.9492988181452947,
    "metricsAverageWeight": 0.9299604270227925,
    "precision": 1.0,
    "precision_alignments": 1.0,
    "simplicity": 0.8461538461538463
  }
}