{
  "FULL": {
    "fitness": {
      "average_trace_fitness": 1.0,
      "log_fitness": 1.0,
      "perc_fit_traces": 100.0,
      "percentage_of_fitting_traces": 100.0
    },
    "fitness_alignments": {
      "averageFitness": 1.0,
      "average_trace_fitness": 1.0,
      "percFitTraces": 100.0,
      "percentage_of_fitting_traces": 100.0
    },
    "fscore": 0.9993251947733268,
    "generalization": 0.9578354599130865,
    "metricsAverageWeight": 0.9691216898924452,
    "precision": 0.9986512996566944,
    "precision_alignments": 0.9986512996566944,
    "simplicity": 0.92
  },
  "Top 30": {
    "fitness": {
      "average_trace_fitness": 1.0,
      "log_fitness": 1.0,
      "perc_fit_traces": 100.0,
      "percentage_of_fitting_traces": 100.0
    },
    "fitness_alignments": {
      "averageFitness": 1.0,
      "average_trace_fitness": 1.0,
      "percFitTraces": 100.0,
      "percentage_of_fitting_traces": 100.0
    },
    "fscore": 0.9993251947733268,
    "generalization": 0.9578354599130865,
    "metricsAverageWeight": 0.9691216898924452,
    "precision": 0.9986512996566944,
    "precision_alignments": 0.9986512996566944,
    "simplicity": 0.92
  }
}