{
  "FULL": {
    "entropia_precision": 0.9828448672431732,
    "entropia_recall": 1.000503111446967,
    "fitness": {
      "average_trace_fitness": 1.0,
      "log_fitness": 1.0,
      "perc_fit_traces": 100.0,
      "percentage_of_fitting_traces": 100.0
    },
    "fitness_alignments": {
      "averageFitness": 1.0,
      "average_trace_fitness": 1.0,
      "percFitTraces": 100.0,
      "percentage_of_fitting_traces": 100.0
    },
    "fscore": 0.9998198003387754,
    "generalization": 0.9703407422355208,
    "metricsAverageWeight": 0.9686855781517778,
    "precision": 0.9996396656096858,
    "precision_alignments": 0.9996396656096858,
    "simplicity": 0.9047619047619049
  },
  "easy_soundness": true,
  "sound": true
}