{
  "easy_soundness": false,
  "filename": "/mnt/c/Users/s140511/tue/thesis/thesis_data/process_trees_simple_ws2/predictions/2026_gcn_ep144b_cc.json",
  "full": {
    "fitness": {
      "average_trace_fitness": 0.9356208333333422,
      "log_fitness": 0.9393351128366901,
      "perc_fit_traces": 0.0,
      "percentage_of_fitting_traces": 0.0
    },
    "fscore": 0.9687187187187187,
    "generalization": 0.9508619744041953,
    "metricsAverageWeight": 0.8804440086523266,
    "precision": 1.0,
    "simplicity": 0.631578947368421
  },
  "sound": false,
  "top 30": {
    "fitness": {
      "average_trace_fitness": 0.9356208333333422,
      "log_fitness": 0.9393351128366901,
      "perc_fit_traces": 0.0,
      "percentage_of_fitting_traces": 0.0
    },
    "fscore": 0.9687187187187187,
    "generalization": 0.9508619744041953,
    "metricsAverageWeight": 0.8804440086523266,
    "precision": 1.0,
    "simplicity": 0.631578947368421
  }
}