{
  "FULL": {
    "entropia_precision": "nan",
    "entropia_recall": "nan",
    "fitness": {
      "average_trace_fitness": 0.8613809523809512,
      "log_fitness": 0.8614933453643131,
      "perc_fit_traces": 44.7,
      "percentage_of_fitting_traces": 44.7
    },
    "fitness_alignments": {
      "averageFitness": 0.314,
      "average_trace_fitness": 0.314,
      "percFitTraces": 44.7,
      "percentage_of_fitting_traces": 44.7
    },
    "fscore": 0.9255937954435289,
    "generalization": 0.9479344884511582,
    "metricsAverageWeight": 0.9260411689801836,
    "precision": 1.0,
    "precision_alignments": 1.0,
    "simplicity": 0.8947368421052632
  },
  "easy_soundness": true,
  "sound": true
}