{
  "easy_soundness": true,
  "filename": "/mnt/c/Users/s140511/tue/thesis/thesis_data/process_trees_simple_ws2/predictions/2030_gcn_ep144b_cca.json",
  "full": {
    "entropia_precision": 0.9999999999785857,
    "entropia_recall": 0.999999999967266,
    "fitness": {
      "average_trace_fitness": 1.0,
      "log_fitness": 1.0,
      "perc_fit_traces": 100.0,
      "percentage_of_fitting_traces": 100.0
    },
    "fitness_alignments": {
      "averageFitness": 1.0,
      "average_trace_fitness": 1.0,
      "log_fitness": 0.9999879931801263,
      "percFitTraces": 100.0,
      "percentage_of_fitting_traces": 100.0
    },
    "fscore": 1.0,
    "generalization": 0.9610149660655324,
    "metricsAverageWeight": 0.9569204081830498,
    "precision": 1.0,
    "precision_alignments": 1.0,
    "simplicity": 0.8666666666666667
  },
  "sound": true,
  "top 30": {
    "fitness": {
      "average_trace_fitness": 1.0,
      "log_fitness": 1.0,
      "perc_fit_traces": 100.0,
      "percentage_of_fitting_traces": 100.0
    },
    "fitness_alignments": {
      "averageFitness": 1.0,
      "average_trace_fitness": 1.0,
      "log_fitness": 0.9999879931801263,
      "percFitTraces": 100.0,
      "percentage_of_fitting_traces": 100.0
    },
    "fscore": 1.0,
    "generalization": 0.9610149660655324,
    "metricsAverageWeight": 0.9569204081830498,
    "precision": 1.0,
    "precision_alignments": 1.0,
    "simplicity": 0.8666666666666667
  }
}