{
  "FULL": {
    "entropia_precision": 0.9999999999999862,
    "entropia_recall": 0.915716435941286,
    "fitness": {
      "average_trace_fitness": 0.9171787878787839,
      "log_fitness": 0.9266566688616812,
      "perc_fit_traces": 53.0,
      "percentage_of_fitting_traces": 53.0
    },
    "fitness_alignments": {
      "averageFitness": 0.90475,
      "average_trace_fitness": 0.90475,
      "percFitTraces": 53.0,
      "percentage_of_fitting_traces": 53.0
    },
    "fscore": 0.9619323295511432,
    "generalization": 0.959558802342641,
    "metricsAverageWeight": 0.9274362207422571,
    "precision": 1.0,
    "precision_alignments": 1.0,
    "simplicity": 0.8235294117647058
  },
  "easy_soundness": true,
  "sound": true
}