{
  "easy_soundness": true,
  "filename": "/mnt/c/Users/s140511/tue/thesis/thesis_data/process_trees_simple_ws2/predictions/2035_gcn_ep144b_cca.json",
  "full": {
    "entropia_precision": 0.950579825562628,
    "entropia_recall": 0.95057557867058,
    "fitness": {
      "average_trace_fitness": 0.9686363636363602,
      "log_fitness": 0.9686363636363636,
      "perc_fit_traces": 65.5,
      "percentage_of_fitting_traces": 65.5
    },
    "fitness_alignments": {
      "averageFitness": 0.9507142857142892,
      "average_trace_fitness": 0.9507142857142892,
      "log_fitness": 0.9507007042756532,
      "percFitTraces": 65.5,
      "percentage_of_fitting_traces": 65.5
    },
    "fscore": 0.9265768592517292,
    "generalization": 0.9657573860578132,
    "metricsAverageWeight": 0.9338637862720763,
    "precision": 0.8880179171332587,
    "precision_alignments": 0.8880179171332587,
    "simplicity": 0.9130434782608695
  },
  "sound": true,
  "top 30": {
    "fitness": {
      "average_trace_fitness": 0.9686363636363602,
      "log_fitness": 0.9686363636363636,
      "perc_fit_traces": 65.5,
      "percentage_of_fitting_traces": 65.5
    },
    "fitness_alignments": {
      "averageFitness": 0.9507142857142892,
      "average_trace_fitness": 0.9507142857142892,
      "log_fitness": 0.9507007042756532,
      "percFitTraces": 65.5,
      "percentage_of_fitting_traces": 65.5
    },
    "fscore": 0.9265768592517292,
    "generalization": 0.9657573860578132,
    "metricsAverageWeight": 0.9338637862720763,
    "precision": 0.8880179171332587,
    "precision_alignments": 0.8880179171332587,
    "simplicity": 0.9130434782608695
  }
}