{
  "FULL": {
    "fitness": {
      "average_trace_fitness": 0.8826607022606989,
      "log_fitness": 0.8932764140875133,
      "perc_fit_traces": 0.0,
      "percentage_of_fitting_traces": 0.0
    },
    "fitness_alignments": {
      "averageFitness": 0.3266666666666672,
      "average_trace_fitness": 0.3266666666666672,
      "percFitTraces": 0.0,
      "percentage_of_fitting_traces": 0.0
    },
    "fscore": 0.8773135673203493,
    "generalization": 0.8817994556596422,
    "metricsAverageWeight": 0.8536912160154251,
    "precision": 0.8619112165367672,
    "precision_alignments": 0.8619112165367672,
    "simplicity": 0.7777777777777779
  }
}