{
  "FULL": {
    "fitness": {
      "average_trace_fitness": 1.0,
      "log_fitness": 1.0,
      "perc_fit_traces": 100.0,
      "percentage_of_fitting_traces": 100.0
    },
    "fitness_alignments": {
      "averageFitness": 1.0,
      "average_trace_fitness": 1.0,
      "percFitTraces": 100.0,
      "percentage_of_fitting_traces": 100.0
    },
    "fscore": 0.9369800857070835,
    "generalization": 0.9492339984770108,
    "metricsAverageWeight": 0.8862380026511982,
    "precision": 0.8814322978420678,
    "precision_alignments": 0.8814322978420678,
    "simplicity": 0.7142857142857143
  }
}