{
  "FULL": {
    "fitness": {
      "average_trace_fitness": 0.9308136363636434,
      "log_fitness": 0.9350560148646404,
      "perc_fit_traces": 50.9,
      "percentage_of_fitting_traces": 50.9
    },
    "fitness_alignments": {
      "averageFitness": 0.8653333333333506,
      "average_trace_fitness": 0.8653333333333506,
      "percFitTraces": 50.9,
      "percentage_of_fitting_traces": 50.9
    },
    "fscore": 0.9664381885400343,
    "generalization": 0.9629520163481103,
    "metricsAverageWeight": 0.9559834892846693,
    "precision": 1.0,
    "precision_alignments": 1.0,
    "simplicity": 0.9259259259259258
  }
}