{
  "FULL": {
    "entropia_precision": "nan",
    "entropia_recall": "nan",
    "fitness": {
      "average_trace_fitness": 0.9120874765987882,
      "log_fitness": 0.9035850743841964,
      "perc_fit_traces": 31.0,
      "percentage_of_fitting_traces": 31.0
    },
    "fitness_alignments": {
      "averageFitness": 0.8195,
      "average_trace_fitness": 0.8195,
      "percFitTraces": 31.0,
      "percentage_of_fitting_traces": 31.0
    },
    "fscore": 0.9437381409291902,
    "generalization": 0.9522964033001069,
    "metricsAverageWeight": 0.915422265506949,
    "precision": 0.9876257661616745,
    "precision_alignments": 0.9876257661616745,
    "simplicity": 0.8181818181818181
  },
  "easy_soundness": true,
  "sound": true
}