{
  "FULL": {
    "entropia_precision": "nan",
    "entropia_recall": "nan",
    "fitness": {
      "average_trace_fitness": 1.0,
      "log_fitness": 1.0,
      "perc_fit_traces": 100.0,
      "percentage_of_fitting_traces": 100.0
    },
    "fitness_alignments": {
      "averageFitness": 1.0,
      "average_trace_fitness": 1.0,
      "percFitTraces": 100.0,
      "percentage_of_fitting_traces": 100.0
    },
    "fscore": 0.8572033449772415,
    "generalization": 0.9557480733704622,
    "metricsAverageWeight": 0.8464601750673284,
    "precision": 0.7500926268988515,
    "precision_alignments": 0.7500926268988515,
    "simplicity": 0.6799999999999999
  },
  "easy_soundness": true,
  "sound": true
}