{
  "FULL": {
    "fitness": {
      "average_trace_fitness": 1.0,
      "log_fitness": 1.0,
      "perc_fit_traces": 100.0,
      "percentage_of_fitting_traces": 100.0
    },
    "fitness_alignments": {
      "averageFitness": 1.0,
      "average_trace_fitness": 1.0,
      "percFitTraces": 100.0,
      "percentage_of_fitting_traces": 100.0
    },
    "fscore": 0.983466569767442,
    "generalization": 0.9416050636666835,
    "metricsAverageWeight": 0.8983216365483438,
    "precision": 0.9674709562109026,
    "precision_alignments": 0.9674709562109026,
    "simplicity": 0.6842105263157894
  }
}