{
  "FULL": {
    "fitness": {
      "average_trace_fitness": 1.0,
      "log_fitness": 1.0,
      "perc_fit_traces": 100.0,
      "percentage_of_fitting_traces": 100.0
    },
    "fitness_alignments": {
      "averageFitness": 1.0,
      "average_trace_fitness": 1.0,
      "percFitTraces": 100.0,
      "percentage_of_fitting_traces": 100.0
    },
    "fscore": 0.983466569767442,
    "generalization": 0.9460245108469405,
    "metricsAverageWeight": 0.9131564754601129,
    "precision": 0.9674709562109026,
    "precision_alignments": 0.9674709562109026,
    "simplicity": 0.7391304347826086
  }
}