{
  "easy_soundness": true,
  "filename": "/mnt/c/Users/s140511/tue/thesis/thesis_data/process_trees_simple_ws2/predictions/2051_gcn_ep144b_cca.json",
  "full": {
    "entropia_precision": 1.0000413798740508,
    "entropia_recall": 0.98996810121207,
    "fitness": {
      "average_trace_fitness": 0.9885833333333348,
      "log_fitness": 0.9876986621172668,
      "perc_fit_traces": 86.3,
      "percentage_of_fitting_traces": 86.3
    },
    "fitness_alignments": {
      "averageFitness": 0.9914375,
      "average_trace_fitness": 0.9914375,
      "log_fitness": 0.9907155933510584,
      "percFitTraces": 86.3,
      "percentage_of_fitting_traces": 86.3
    },
    "fscore": 0.9938112662058997,
    "generalization": 0.9534532037236281,
    "metricsAverageWeight": 0.9352879664602236,
    "precision": 1.0,
    "precision_alignments": 1.0,
    "simplicity": 0.8
  },
  "sound": true,
  "top 30": {
    "fitness": {
      "average_trace_fitness": 0.9885833333333348,
      "log_fitness": 0.9876986621172668,
      "perc_fit_traces": 86.3,
      "percentage_of_fitting_traces": 86.3
    },
    "fitness_alignments": {
      "averageFitness": 0.9914375,
      "average_trace_fitness": 0.9914375,
      "log_fitness": 0.9907155933510584,
      "percFitTraces": 86.3,
      "percentage_of_fitting_traces": 86.3
    },
    "fscore": 0.9938112662058997,
    "generalization": 0.9534532037236281,
    "metricsAverageWeight": 0.9352879664602236,
    "precision": 1.0,
    "precision_alignments": 1.0,
    "simplicity": 0.8
  }
}