{
  "FULL": {
    "entropia_precision": 0.8428121604773231,
    "entropia_recall": 1.000000000000001,
    "fitness": {
      "average_trace_fitness": 1.0,
      "log_fitness": 1.0,
      "perc_fit_traces": 100.0,
      "percentage_of_fitting_traces": 100.0
    },
    "fitness_alignments": {
      "averageFitness": 1.0,
      "average_trace_fitness": 1.0,
      "percFitTraces": 100.0,
      "percentage_of_fitting_traces": 100.0
    },
    "fscore": 0.8778601091116358,
    "generalization": 0.9520796091242713,
    "metricsAverageWeight": 0.854649777891653,
    "precision": 0.782308976126551,
    "precision_alignments": 0.782308976126551,
    "simplicity": 0.6842105263157894
  },
  "easy_soundness": true,
  "sound": true
}