{
  "FULL": {
    "fitness": {
      "average_trace_fitness": 0.8215828282828304,
      "log_fitness": 0.8507364808593021,
      "perc_fit_traces": 0.0,
      "percentage_of_fitting_traces": 0.0
    },
    "fscore": 0.8725653773152112,
    "generalization": 0.9455688831301571,
    "metricsAverageWeight": 0.8396290030344018,
    "precision": 0.8955439814814815,
    "simplicity": 0.6666666666666666
  },
  "Top 30": {
    "fitness": {
      "average_trace_fitness": 0.8148691817956872,
      "log_fitness": 0.8458000702051021,
      "perc_fit_traces": 0.0,
      "percentage_of_fitting_traces": 0.0
    },
    "fscore": 0.848234400968487,
    "generalization": 0.9395349845237823,
    "metricsAverageWeight": 0.8256711265655879,
    "precision": 0.850682784866801,
    "simplicity": 0.6666666666666666
  }
}