{
  "FULL": {
    "fitness": {
      "average_trace_fitness": 0.8060347222222279,
      "log_fitness": 0.8604452087241582,
      "perc_fit_traces": 32.1,
      "percentage_of_fitting_traces": 32.1
    },
    "fitness_alignments": {
      "averageFitness": 0.6749999999999997,
      "average_trace_fitness": 0.6749999999999997,
      "percFitTraces": 32.1,
      "percentage_of_fitting_traces": 32.1
    },
    "fscore": 0.9193494170135474,
    "generalization": 0.9449343132991459,
    "metricsAverageWeight": 0.8996855869829871,
    "precision": 0.986911213005419,
    "precision_alignments": 0.986911213005419,
    "simplicity": 0.8064516129032256
  }
}