{
  "FULL": {
    "fitness": {
      "average_trace_fitness": 0.9813264650212961,
      "log_fitness": 0.9728503184713376,
      "perc_fit_traces": 65.9,
      "percentage_of_fitting_traces": 65.9
    },
    "fitness_alignments": {
      "averageFitness": 0.485,
      "average_trace_fitness": 0.485,
      "percFitTraces": 65.9,
      "percentage_of_fitting_traces": 65.9
    },
    "fscore": 0.9862383469873685,
    "generalization": 0.9711951545520816,
    "metricsAverageWeight": 0.9860113682558548,
    "precision": 1.0,
    "precision_alignments": 1.0,
    "simplicity": 1.0
  }
}