{
  "FULL": {
    "fitness": {
      "average_trace_fitness": 1.0,
      "log_fitness": 1.0,
      "perc_fit_traces": 100.0,
      "percentage_of_fitting_traces": 100.0
    },
    "fitness_alignments": {
      "averageFitness": 1.0,
      "average_trace_fitness": 1.0,
      "percFitTraces": 100.0,
      "percentage_of_fitting_traces": 100.0
    },
    "fscore": 0.9997543601080816,
    "generalization": 0.9708693104557284,
    "metricsAverageWeight": 0.992594537830042,
    "precision": 0.99950884086444,
    "precision_alignments": 0.99950884086444,
    "simplicity": 1.0
  }
}