{
  "easy_soundness": true,
  "filename": "/mnt/c/Users/s140511/tue/thesis/thesis_data/process_trees_simple_ws2/predictions/2065_gcn_ep144b_cc.json",
  "full": {
    "entropia_precision": 0.9606154290585318,
    "entropia_recall": 1.000238438008603,
    "fitness": {
      "average_trace_fitness": 1.0,
      "log_fitness": 1.0,
      "perc_fit_traces": 100.0,
      "percentage_of_fitting_traces": 100.0
    },
    "fitness_alignments": {
      "averageFitness": 1.0,
      "average_trace_fitness": 1.0,
      "percFitTraces": 100.0,
      "percentage_of_fitting_traces": 100.0
    },
    "fscore": 0.998919138012565,
    "generalization": 0.9691393137994382,
    "metricsAverageWeight": 0.9560306952424906,
    "precision": 0.9978406100276672,
    "precision_alignments": 0.9978406100276672,
    "simplicity": 0.8571428571428572
  },
  "sound": true,
  "top 30": {
    "fitness": {
      "average_trace_fitness": 1.0,
      "log_fitness": 1.0,
      "perc_fit_traces": 100.0,
      "percentage_of_fitting_traces": 100.0
    },
    "fitness_alignments": {
      "averageFitness": 1.0,
      "average_trace_fitness": 1.0,
      "percFitTraces": 100.0,
      "percentage_of_fitting_traces": 100.0
    },
    "fscore": 0.998339829652086,
    "generalization": 0.9682938095849536,
    "metricsAverageWeight": 0.9555304573067275,
    "precision": 0.9966851624990992,
    "precision_alignments": 0.9966851624990992,
    "simplicity": 0.8571428571428572
  }
}