{
  "easy_soundness": true,
  "filename": "/mnt/c/Users/s140511/tue/thesis/thesis_data/process_trees_simple_ws2/predictions/2068_gcn_ep144b_cc.json",
  "full": {
    "entropia_precision": 1.0533004761372575,
    "entropia_recall": 1.001616424659292,
    "fitness": {
      "average_trace_fitness": 1.0,
      "log_fitness": 1.0,
      "perc_fit_traces": 100.0,
      "percentage_of_fitting_traces": 100.0
    },
    "fitness_alignments": {
      "averageFitness": 1.0,
      "average_trace_fitness": 1.0,
      "percFitTraces": 100.0,
      "percentage_of_fitting_traces": 100.0
    },
    "fscore": 0.9990176357767694,
    "generalization": 0.9652949513251323,
    "metricsAverageWeight": 0.9658330377658564,
    "precision": 0.9980371997382933,
    "precision_alignments": 0.9980371997382933,
    "simplicity": 0.8999999999999999
  },
  "sound": true,
  "top 30": {
    "fitness": {
      "average_trace_fitness": 1.0,
      "log_fitness": 1.0,
      "perc_fit_traces": 100.0,
      "percentage_of_fitting_traces": 100.0
    },
    "fitness_alignments": {
      "averageFitness": 1.0,
      "average_trace_fitness": 1.0,
      "percFitTraces": 100.0,
      "percentage_of_fitting_traces": 100.0
    },
    "fscore": 0.9593077935920747,
    "generalization": 0.9453038937717587,
    "metricsAverageWeight": 0.9417754251841133,
    "precision": 0.9217978069646946,
    "precision_alignments": 0.9217978069646946,
    "simplicity": 0.8999999999999999
  }
}