{
  "FULL": {
    "fitness": {
      "average_trace_fitness": 0.9170800355784615,
      "log_fitness": 0.9473335541570056,
      "perc_fit_traces": 68.2,
      "percentage_of_fitting_traces": 68.2
    },
    "fitness_alignments": {
      "averageFitness": 0.8940000000000001,
      "average_trace_fitness": 0.8940000000000001,
      "percFitTraces": 68.2,
      "percentage_of_fitting_traces": 68.2
    },
    "fscore": 0.9727444517476029,
    "generalization": 0.9504537318036973,
    "metricsAverageWeight": 0.9143358583299449,
    "precision": 0.9995561473590768,
    "precision_alignments": 0.9995561473590768,
    "simplicity": 0.7599999999999999
  }
}