{
  "FULL": {
    "entropia_precision": 0.98285979050069,
    "entropia_recall": 0.979467929128834,
    "fitness": {
      "average_trace_fitness": 1.0,
      "log_fitness": 1.0,
      "perc_fit_traces": 100.0,
      "percentage_of_fitting_traces": 100.0
    },
    "fitness_alignments": {
      "averageFitness": 1.0,
      "average_trace_fitness": 1.0,
      "percFitTraces": 100.0,
      "percentage_of_fitting_traces": 100.0
    },
    "fscore": 1.0,
    "generalization": 0.9589281033586268,
    "metricsAverageWeight": 0.9563986925063234,
    "precision": 1.0,
    "precision_alignments": 1.0,
    "simplicity": 0.8666666666666667
  },
  "easy_soundness": true,
  "sound": true
}