{
  "FULL": {
    "fitness": {
      "average_trace_fitness": 0.9794301679350411,
      "log_fitness": 0.9641741303895022,
      "perc_fit_traces": 84.50106157112526,
      "percentage_of_fitting_traces": 84.50106157112526
    },
    "fitness_alignments": {
      "averageFitness": 0.5201698513800425,
      "average_trace_fitness": 0.5201698513800425,
      "percFitTraces": 84.50106157112526,
      "percentage_of_fitting_traces": 84.50106157112526
    },
    "fscore": 0.9575804397169007,
    "generalization": 0.9283560319151566,
    "metricsAverageWeight": 0.9027620859272775,
    "precision": 0.9510763209393347,
    "precision_alignments": 0.9510763209393347,
    "simplicity": 0.7674418604651162
  }
}