{
  "FULL": {
    "entropia_precision": 0.958482169558334,
    "entropia_recall": 0.89613833108318,
    "fitness": {
      "average_trace_fitness": 0.8905485442410375,
      "log_fitness": 0.9253559061177375,
      "perc_fit_traces": 38.7,
      "percentage_of_fitting_traces": 38.7
    },
    "fitness_alignments": {
      "averageFitness": 0.41199999999999165,
      "average_trace_fitness": 0.41199999999999165,
      "percFitTraces": 38.7,
      "percentage_of_fitting_traces": 38.7
    },
    "fscore": 0.9579853371781137,
    "generalization": 0.9658915418145588,
    "metricsAverageWeight": 0.9525433434645556,
    "precision": 0.993,
    "precision_alignments": 0.993,
    "simplicity": 0.9259259259259258
  },
  "easy_soundness": true,
  "sound": true
}