{
  "FULL": {
    "fitness": {
      "average_trace_fitness": 1.0,
      "log_fitness": 1.0,
      "perc_fit_traces": 100.0,
      "percentage_of_fitting_traces": 100.0
    },
    "fitness_alignments": {
      "averageFitness": 1.0,
      "average_trace_fitness": 1.0,
      "percFitTraces": 100.0,
      "percentage_of_fitting_traces": 100.0
    },
    "fscore": 0.9958646243424752,
    "generalization": 0.963068164531,
    "metricsAverageWeight": 0.9521225029016533,
    "precision": 0.9917633104902478,
    "precision_alignments": 0.9917633104902478,
    "simplicity": 0.853658536585366
  }
}