{
  "FULL": {
    "fitness": {
      "average_trace_fitness": 0.8915161616161746,
      "log_fitness": 0.8951385116024192,
      "perc_fit_traces": 0.0,
      "percentage_of_fitting_traces": 0.0
    },
    "fscore": 0.9446681665980625,
    "generalization": 0.9604384848405886,
    "metricsAverageWeight": 0.9238942491107519,
    "precision": 1.0,
    "simplicity": 0.8399999999999999
  },
  "Top 30": {
    "fitness": {
      "average_trace_fitness": 0.8915161616161746,
      "log_fitness": 0.8951385116024192,
      "perc_fit_traces": 0.0,
      "percentage_of_fitting_traces": 0.0
    },
    "fscore": 0.9446681665980625,
    "generalization": 0.9604384848405886,
    "metricsAverageWeight": 0.9238942491107519,
    "precision": 1.0,
    "simplicity": 0.8399999999999999
  }
}