{
  "FULL": {
    "entropia_precision": 0.9289183265839832,
    "entropia_recall": 0.848062432633609,
    "fitness": {
      "average_trace_fitness": 0.9448888888888982,
      "log_fitness": 0.9424133811230585,
      "perc_fit_traces": 51.8,
      "percentage_of_fitting_traces": 51.8
    },
    "fitness_alignments": {
      "averageFitness": 0.9035999999999781,
      "average_trace_fitness": 0.9035999999999781,
      "percFitTraces": 51.8,
      "percentage_of_fitting_traces": 51.8
    },
    "fscore": 0.9576340351050084,
    "generalization": 0.9594138174207592,
    "metricsAverageWeight": 0.9271287352048077,
    "precision": 0.9733544089420797,
    "precision_alignments": 0.9733544089420797,
    "simplicity": 0.8333333333333333
  },
  "easy_soundness": true,
  "sound": true
}