{
  "FULL": {
    "entropia_precision": 0.999999999999999,
    "entropia_recall": 0.8922470788533,
    "fitness": {
      "average_trace_fitness": 0.9588888888888982,
      "log_fitness": 0.955794504181601,
      "perc_fit_traces": 63.0,
      "percentage_of_fitting_traces": 63.0
    },
    "fitness_alignments": {
      "averageFitness": 0.9383333333333473,
      "average_trace_fitness": 0.9383333333333473,
      "percFitTraces": 63.0,
      "percentage_of_fitting_traces": 63.0
    },
    "fscore": 0.9773976786805131,
    "generalization": 0.9594138174207592,
    "metricsAverageWeight": 0.9371354137339234,
    "precision": 1.0,
    "precision_alignments": 1.0,
    "simplicity": 0.8333333333333333
  },
  "easy_soundness": true,
  "sound": true
}