{
  "FULL": {
    "entropia_precision": 0.9999999999701025,
    "entropia_recall": 0.965325470415727,
    "fitness": {
      "average_trace_fitness": 0.9738333333333393,
      "log_fitness": 0.9681476973016839,
      "perc_fit_traces": 84.3,
      "percentage_of_fitting_traces": 84.3
    },
    "fitness_alignments": {
      "averageFitness": 0.686,
      "average_trace_fitness": 0.686,
      "percFitTraces": 84.3,
      "percentage_of_fitting_traces": 84.3
    },
    "fscore": 0.9838161014328419,
    "generalization": 0.948745169082488,
    "metricsAverageWeight": 0.929223216596043,
    "precision": 1.0,
    "precision_alignments": 1.0,
    "simplicity": 0.8
  },
  "easy_soundness": true,
  "sound": true
}