{
  "FULL": {
    "fitness": {
      "average_trace_fitness": 1.0,
      "log_fitness": 1.0,
      "perc_fit_traces": 100.0,
      "percentage_of_fitting_traces": 100.0
    },
    "fitness_alignments": {
      "averageFitness": 1.0,
      "average_trace_fitness": 1.0,
      "percFitTraces": 100.0,
      "percentage_of_fitting_traces": 100.0
    },
    "fscore": 0.983064792595132,
    "generalization": 0.9689140439912387,
    "metricsAverageWeight": 0.9454403813820101,
    "precision": 0.9666936353829558,
    "precision_alignments": 0.9666936353829558,
    "simplicity": 0.8461538461538463
  }
}