{
  "FULL": {
    "entropia_precision": 0.9988672835124721,
    "entropia_recall": 0.998866038553282,
    "fitness": {
      "average_trace_fitness": 1.0,
      "log_fitness": 1.0,
      "perc_fit_traces": 100.0,
      "percentage_of_fitting_traces": 100.0
    },
    "fitness_alignments": {
      "averageFitness": 1.0,
      "average_trace_fitness": 1.0,
      "percFitTraces": 100.0,
      "percentage_of_fitting_traces": 100.0
    },
    "fscore": 1.0,
    "generalization": 0.9552377159307444,
    "metricsAverageWeight": 0.9688094289826861,
    "precision": 1.0,
    "precision_alignments": 1.0,
    "simplicity": 0.92
  },
  "easy_soundness": true,
  "sound": true
}