{
  "FULL": {
    "entropia_precision": 1.0000775762676428,
    "entropia_recall": 1.00009660888198,
    "fitness": {
      "average_trace_fitness": 1.0,
      "log_fitness": 1.0,
      "perc_fit_traces": 100.0,
      "percentage_of_fitting_traces": 100.0
    },
    "fitness_alignments": {
      "averageFitness": 1.0,
      "average_trace_fitness": 1.0,
      "percFitTraces": 100.0,
      "percentage_of_fitting_traces": 100.0
    },
    "fscore": 1.0,
    "generalization": 0.9572591786180631,
    "metricsAverageWeight": 0.972073415344171,
    "precision": 1.0,
    "precision_alignments": 1.0,
    "simplicity": 0.9310344827586208
  },
  "easy_soundness": true,
  "sound": true
}