{
  "FULL": {
    "entropia_precision": null,
    "entropia_recall": null,
    "fitness": {
      "average_trace_fitness": 0.9751000000000221,
      "log_fitness": 0.9643674871207785,
      "perc_fit_traces": 50.2,
      "percentage_of_fitting_traces": 50.2
    },
    "fitness_alignments": {
      "averageFitness": -0.8259999999999984,
      "average_trace_fitness": -0.8259999999999984,
      "percFitTraces": 50.2,
      "percentage_of_fitting_traces": 50.2
    },
    "fscore": 0.9348384913843402,
    "generalization": 0.9552377159307444,
    "metricsAverageWeight": 0.9358339994936757,
    "precision": 0.9070641282565131,
    "precision_alignments": 0.9070641282565131,
    "simplicity": 0.9166666666666667
  },
  "easy_soundness": true,
  "sound": false
}