{
  "FULL": {
    "entropia_precision": 0.9999999999771921,
    "entropia_recall": 0.837168151028885,
    "fitness": {
      "average_trace_fitness": 0.8644666666666636,
      "log_fitness": 0.8926921461570768,
      "perc_fit_traces": 48.9,
      "percentage_of_fitting_traces": 48.9
    },
    "fitness_alignments": {
      "averageFitness": 0.80975,
      "average_trace_fitness": 0.80975,
      "percFitTraces": 48.9,
      "percentage_of_fitting_traces": 48.9
    },
    "fscore": 0.9433041162764895,
    "generalization": 0.9506822406093988,
    "metricsAverageWeight": 0.9608435966916189,
    "precision": 1.0,
    "precision_alignments": 1.0,
    "simplicity": 1.0
  },
  "easy_soundness": true,
  "sound": true
}