{
  "FULL": {
    "fitness": {
      "average_trace_fitness": 0.8860476190475993,
      "log_fitness": 0.8834736036725326,
      "perc_fit_traces": 0.0,
      "percentage_of_fitting_traces": 0.0
    },
    "fscore": 0.9381321850753545,
    "generalization": 0.948941266382803,
    "metricsAverageWeight": 0.8866751460852624,
    "precision": 1.0,
    "simplicity": 0.7142857142857143
  },
  "Top 30": {
    "fitness": {
      "average_trace_fitness": 0.8860476190475993,
      "log_fitness": 0.8834736036725326,
      "perc_fit_traces": 0.0,
      "percentage_of_fitting_traces": 0.0
    },
    "fscore": 0.9381321850753545,
    "generalization": 0.948941266382803,
    "metricsAverageWeight": 0.8866751460852624,
    "precision": 1.0,
    "simplicity": 0.7142857142857143
  }
}