{
  "FULL": {
    "fitness": {
      "average_trace_fitness": 1.0,
      "log_fitness": 1.0,
      "perc_fit_traces": 100.0,
      "percentage_of_fitting_traces": 100.0
    },
    "fitness_alignments": {
      "averageFitness": 1.0,
      "average_trace_fitness": 1.0,
      "percFitTraces": 100.0,
      "percentage_of_fitting_traces": 100.0
    },
    "fscore": 0.9997427156364572,
    "generalization": 0.94208030346158,
    "metricsAverageWeight": 0.9139628953441608,
    "precision": 0.9994855636293486,
    "precision_alignments": 0.9994855636293486,
    "simplicity": 0.7142857142857143
  }
}