{
  "FULL": {
    "fitness": {
      "average_trace_fitness": 0.91406565656565,
      "log_fitness": 0.914779857108734,
      "perc_fit_traces": 40.9,
      "percentage_of_fitting_traces": 40.9
    },
    "fitness_alignments": {
      "averageFitness": 0.8718333333333459,
      "average_trace_fitness": 0.8718333333333459,
      "percFitTraces": 40.9,
      "percentage_of_fitting_traces": 40.9
    },
    "fscore": 0.9526720189980663,
    "generalization": 0.9436644631548854,
    "metricsAverageWeight": 0.9049312904157198,
    "precision": 0.9938389809341437,
    "precision_alignments": 0.9938389809341437,
    "simplicity": 0.7674418604651162
  }
}