{
  "FULL": {
    "fitness": {
      "average_trace_fitness": 0.8125874125874126,
      "log_fitness": 0.9562948467058057,
      "perc_fit_traces": 81.25874125874125,
      "percentage_of_fitting_traces": 81.25874125874125
    },
    "fitness_alignments": {
      "averageFitness": 0.7188811188811188,
      "average_trace_fitness": 0.7188811188811188,
      "percFitTraces": 81.25874125874125,
      "percentage_of_fitting_traces": 81.25874125874125
    },
    "fscore": 0.9776592197399133,
    "generalization": 0.9241628788969427,
    "metricsAverageWeight": 0.9145588758451315,
    "precision": 1.0,
    "precision_alignments": 1.0,
    "simplicity": 0.7777777777777779
  }
}