{
  "FULL": {
    "fitness": {
      "average_trace_fitness": 0.9667583333333207,
      "log_fitness": 0.9657264786290591,
      "perc_fit_traces": 48.6,
      "percentage_of_fitting_traces": 48.6
    },
    "fitness_alignments": {
      "averageFitness": 0.9485999999999883,
      "average_trace_fitness": 0.9485999999999883,
      "percFitTraces": 48.6,
      "percentage_of_fitting_traces": 48.6
    },
    "fscore": 0.972584831735776,
    "generalization": 0.9648705498326895,
    "metricsAverageWeight": 0.9481228159801374,
    "precision": 0.9795412942823302,
    "precision_alignments": 0.9795412942823302,
    "simplicity": 0.8823529411764706
  }
}