{
  "FULL": {
    "fitness": {
      "average_trace_fitness": 1.0,
      "log_fitness": 1.0,
      "perc_fit_traces": 100.0,
      "percentage_of_fitting_traces": 100.0
    },
    "fitness_alignments": {
      "averageFitness": 1.0,
      "average_trace_fitness": 1.0,
      "percFitTraces": 100.0,
      "percentage_of_fitting_traces": 100.0
    },
    "fscore": 0.9813058228899814,
    "generalization": 0.8656315034437506,
    "metricsAverageWeight": 0.8803092399084309,
    "precision": 0.9632977638822809,
    "precision_alignments": 0.9632977638822809,
    "simplicity": 0.6923076923076922
  },
  "Top 30": {
    "fitness": {
      "average_trace_fitness": 1.0,
      "log_fitness": 1.0,
      "perc_fit_traces": 100.0,
      "percentage_of_fitting_traces": 100.0
    },
    "fitness_alignments": {
      "averageFitness": 1.0,
      "average_trace_fitness": 1.0,
      "percFitTraces": 100.0,
      "percentage_of_fitting_traces": 100.0
    },
    "fscore": 0.9798493338776116,
    "generalization": 0.8646766124634946,
    "metricsAverageWeight": 0.8793697575314653,
    "precision": 0.9604947253546744,
    "precision_alignments": 0.9604947253546744,
    "simplicity": 0.6923076923076922
  }
}