{
  "easy_soundness": true,
  "filename": "/mnt/c/Users/s140511/tue/thesis/thesis_data/process_trees_simple_ws2/predictions/2101_gcn_ep144b_cca.json",
  "full": {
    "entropia_precision": 0.9999999999999996,
    "entropia_recall": 0.99999999999999,
    "fitness": {
      "average_trace_fitness": 0.9402499999999961,
      "log_fitness": 0.9409055425448868,
      "perc_fit_traces": 24.3,
      "percentage_of_fitting_traces": 24.3
    },
    "fitness_alignments": {
      "averageFitness": 0.243,
      "average_trace_fitness": 0.243,
      "log_fitness": 0.2802662795226798,
      "percFitTraces": 24.3,
      "percentage_of_fitting_traces": 24.3
    },
    "fscore": 0.9695531512689539,
    "generalization": 0.8676267801946548,
    "metricsAverageWeight": 0.8731857122638327,
    "precision": 1.0,
    "precision_alignments": 1.0,
    "simplicity": 0.6842105263157894
  },
  "sound": false,
  "top 30": {
    "fitness": {
      "average_trace_fitness": 0.9402499999999961,
      "log_fitness": 0.9409055425448868,
      "perc_fit_traces": 24.3,
      "percentage_of_fitting_traces": 24.3
    },
    "fitness_alignments": {
      "averageFitness": 0.243,
      "average_trace_fitness": 0.243,
      "log_fitness": 0.2802662795226798,
      "percFitTraces": 24.3,
      "percentage_of_fitting_traces": 24.3
    },
    "fscore": 0.9695531512689539,
    "generalization": 0.8676267801946548,
    "metricsAverageWeight": 0.8731857122638327,
    "precision": 1.0,
    "precision_alignments": 1.0,
    "simplicity": 0.6842105263157894
  }
}