{
  "easy_soundness": true,
  "filename": "/mnt/c/Users/s140511/tue/thesis/thesis_data/process_trees_simple_ws2/predictions/2102_gcn_ep144b_cca.json",
  "full": {
    "entropia_precision": 1.000000000000001,
    "entropia_recall": 0.892029096174852,
    "fitness": {
      "average_trace_fitness": 0.9332241630276548,
      "log_fitness": 0.9216654904728299,
      "perc_fit_traces": 63.646288209606986,
      "percentage_of_fitting_traces": 63.646288209606986
    },
    "fitness_alignments": {
      "averageFitness": 0.8936499272197944,
      "average_trace_fitness": 0.8936499272197944,
      "log_fitness": 0.862274506535925,
      "percFitTraces": 63.646288209606986,
      "percentage_of_fitting_traces": 63.646288209606986
    },
    "fscore": 0.9592361366140286,
    "generalization": 0.944302345559931,
    "metricsAverageWeight": 0.8875445905871375,
    "precision": 1.0,
    "precision_alignments": 1.0,
    "simplicity": 0.6842105263157894
  },
  "sound": true,
  "top 30": {
    "fitness": {
      "average_trace_fitness": 0.9332241630276548,
      "log_fitness": 0.9216654904728299,
      "perc_fit_traces": 63.646288209606986,
      "percentage_of_fitting_traces": 63.646288209606986
    },
    "fitness_alignments": {
      "averageFitness": 0.8936499272197944,
      "average_trace_fitness": 0.8936499272197944,
      "log_fitness": 0.862274506535925,
      "percFitTraces": 63.646288209606986,
      "percentage_of_fitting_traces": 63.646288209606986
    },
    "fscore": 0.9592361366140286,
    "generalization": 0.944302345559931,
    "metricsAverageWeight": 0.8875445905871375,
    "precision": 1.0,
    "precision_alignments": 1.0,
    "simplicity": 0.6842105263157894
  }
}