{
  "FULL": {
    "fitness": {
      "average_trace_fitness": 0.8936499272197944,
      "log_fitness": 0.8623398098387763,
      "perc_fit_traces": 63.646288209606986,
      "percentage_of_fitting_traces": 63.646288209606986
    },
    "fitness_alignments": {
      "averageFitness": 0.6364628820960698,
      "average_trace_fitness": 0.6364628820960698,
      "percFitTraces": 63.646288209606986,
      "percentage_of_fitting_traces": 63.646288209606986
    },
    "fscore": 0.9260821309655938,
    "generalization": 0.9367501040874928,
    "metricsAverageWeight": 0.8497724784815673,
    "precision": 1.0,
    "precision_alignments": 1.0,
    "simplicity": 0.6000000000000001
  },
  "Top 30": {
    "fitness": {
      "average_trace_fitness": 0.8936499272197944,
      "log_fitness": 0.8623398098387763,
      "perc_fit_traces": 63.646288209606986,
      "percentage_of_fitting_traces": 63.646288209606986
    },
    "fitness_alignments": {
      "averageFitness": 0.6364628820960698,
      "average_trace_fitness": 0.6364628820960698,
      "percFitTraces": 63.646288209606986,
      "percentage_of_fitting_traces": 63.646288209606986
    },
    "fscore": 0.9260821309655938,
    "generalization": 0.9367501040874928,
    "metricsAverageWeight": 0.8497724784815673,
    "precision": 1.0,
    "precision_alignments": 1.0,
    "simplicity": 0.6000000000000001
  }
}