{
  "FULL": {
    "entropia_precision": 1.0002742164267227,
    "entropia_recall": 0.999451263493735,
    "fitness": {
      "average_trace_fitness": 1.0,
      "log_fitness": 1.0,
      "perc_fit_traces": 100.0,
      "percentage_of_fitting_traces": 100.0
    },
    "fitness_alignments": {
      "averageFitness": 1.0,
      "average_trace_fitness": 1.0,
      "percFitTraces": 100.0,
      "percentage_of_fitting_traces": 100.0
    },
    "fscore": 0.9998313090418354,
    "generalization": 0.9483271327998868,
    "metricsAverageWeight": 0.9369974519468092,
    "precision": 0.9996626749873503,
    "precision_alignments": 0.9996626749873503,
    "simplicity": 0.8
  },
  "easy_soundness": true,
  "sound": true
}