{
  "FULL": {
    "entropia_precision": 0.9983418795980202,
    "entropia_recall": 0.998818678862109,
    "fitness": {
      "average_trace_fitness": 1.0,
      "log_fitness": 1.0,
      "perc_fit_traces": 100.0,
      "percentage_of_fitting_traces": 100.0
    },
    "fitness_alignments": {
      "averageFitness": 1.0,
      "average_trace_fitness": 1.0,
      "percFitTraces": 100.0,
      "percentage_of_fitting_traces": 100.0
    },
    "fscore": 0.9997142693868221,
    "generalization": 0.941493792133693,
    "metricsAverageWeight": 0.9176630559685979,
    "precision": 0.9994287020109689,
    "precision_alignments": 0.9994287020109689,
    "simplicity": 0.7297297297297298
  },
  "easy_soundness": true,
  "sound": true
}