{
  "easy_soundness": true,
  "filename": "/mnt/c/Users/s140511/tue/thesis/thesis_data/process_trees_simple_ws2/predictions/2106_gcn_ep144b_cca.json",
  "full": {
    "entropia_precision": 1.0000000000000233,
    "entropia_recall": 0.916498091996667,
    "fitness": {
      "average_trace_fitness": 0.9471333333333404,
      "log_fitness": 0.9543304221251819,
      "perc_fit_traces": 49.8,
      "percentage_of_fitting_traces": 49.8
    },
    "fitness_alignments": {
      "averageFitness": 0.9329642857142921,
      "average_trace_fitness": 0.9329642857142921,
      "log_fitness": 0.9372041419933343,
      "percFitTraces": 49.8,
      "percentage_of_fitting_traces": 49.8
    },
    "fscore": 0.9766315985476212,
    "generalization": 0.9623040786189506,
    "metricsAverageWeight": 0.9791586251860331,
    "precision": 1.0,
    "precision_alignments": 1.0,
    "simplicity": 1.0
  },
  "sound": true,
  "top 30": {
    "fitness": {
      "average_trace_fitness": 0.9471333333333404,
      "log_fitness": 0.9543304221251819,
      "perc_fit_traces": 49.8,
      "percentage_of_fitting_traces": 49.8
    },
    "fitness_alignments": {
      "averageFitness": 0.9329642857142921,
      "average_trace_fitness": 0.9329642857142921,
      "log_fitness": 0.9372041419933343,
      "percFitTraces": 49.8,
      "percentage_of_fitting_traces": 49.8
    },
    "fscore": 0.9766315985476212,
    "generalization": 0.9623040786189506,
    "metricsAverageWeight": 0.9791586251860331,
    "precision": 1.0,
    "precision_alignments": 1.0,
    "simplicity": 1.0
  }
}