{
  "FULL": {
    "fitness": {
      "average_trace_fitness": 1.0,
      "log_fitness": 1.0,
      "perc_fit_traces": 100.0,
      "percentage_of_fitting_traces": 100.0
    },
    "fitness_alignments": {
      "averageFitness": 1.0,
      "average_trace_fitness": 1.0,
      "percFitTraces": 100.0,
      "percentage_of_fitting_traces": 100.0
    },
    "fscore": 0.9958905418750598,
    "generalization": 0.9647884224043637,
    "metricsAverageWeight": 0.9534365000898509,
    "precision": 0.9918147208121827,
    "precision_alignments": 0.9918147208121827,
    "simplicity": 0.8571428571428572
  }
}