{
  "easy_soundness": true,
  "filename": "/mnt/c/Users/s140511/tue/thesis/thesis_data/process_trees_simple_ws2/predictions/2108_gcn_ep144b_cca.json",
  "full": {
    "entropia_precision": 0.9240646297809456,
    "entropia_recall": 0.956564562231068,
    "fitness": {
      "average_trace_fitness": 1.0,
      "log_fitness": 1.0,
      "perc_fit_traces": 100.0,
      "percentage_of_fitting_traces": 100.0
    },
    "fitness_alignments": {
      "averageFitness": 1.0,
      "average_trace_fitness": 1.0,
      "log_fitness": 0.9999887767814054,
      "percFitTraces": 100.0,
      "percentage_of_fitting_traces": 100.0
    },
    "fscore": 0.9958905418750598,
    "generalization": 0.9652669292035574,
    "metricsAverageWeight": 0.958020412503935,
    "precision": 0.9918147208121827,
    "precision_alignments": 0.9918147208121827,
    "simplicity": 0.875
  },
  "sound": true,
  "top 30": {
    "fitness": {
      "average_trace_fitness": 1.0,
      "log_fitness": 1.0,
      "perc_fit_traces": 100.0,
      "percentage_of_fitting_traces": 100.0
    },
    "fitness_alignments": {
      "averageFitness": 1.0,
      "average_trace_fitness": 1.0,
      "log_fitness": 0.9999876938735335,
      "percFitTraces": 100.0,
      "percentage_of_fitting_traces": 100.0
    },
    "fscore": 0.9970242756460453,
    "generalization": 0.9614379434339334,
    "metricsAverageWeight": 0.9576260380133865,
    "precision": 0.9940662086196127,
    "precision_alignments": 0.9940662086196127,
    "simplicity": 0.875
  }
}