{
  "easy_soundness": false,
  "filename": "/mnt/c/Users/s140511/tue/thesis/thesis_data/process_trees_simple_ws2/predictions/2110_gcn_ep144b_cca.json",
  "full": {
    "entropia_precision": "nan",
    "entropia_recall": "nan",
    "fitness": {
      "average_trace_fitness": 0.9307206726567363,
      "log_fitness": 0.9316298342541436,
      "perc_fit_traces": 0.0,
      "percentage_of_fitting_traces": 0.0
    },
    "fscore": 0.9646049338577046,
    "generalization": 0.9521441664051542,
    "metricsAverageWeight": 0.8919961317437718,
    "precision": 1.0,
    "simplicity": 0.6842105263157894
  },
  "sound": false,
  "top 30": {
    "fitness": {
      "average_trace_fitness": 0.9306294841862179,
      "log_fitness": 0.9314198275062598,
      "perc_fit_traces": 0.0,
      "percentage_of_fitting_traces": 0.0
    },
    "fscore": 0.9644923534919453,
    "generalization": 0.9519957262406823,
    "metricsAverageWeight": 0.8919065200156829,
    "precision": 1.0,
    "simplicity": 0.6842105263157894
  }
}