{
  "FULL": {
    "entropia_precision": "nan",
    "entropia_recall": "nan",
    "fitness": {
      "average_trace_fitness": 1.0,
      "log_fitness": 1.0,
      "perc_fit_traces": 100.0,
      "percentage_of_fitting_traces": 100.0
    },
    "fitness_alignments": {
      "averageFitness": 1.0,
      "average_trace_fitness": 1.0,
      "percFitTraces": 100.0,
      "percentage_of_fitting_traces": 100.0
    },
    "fscore": 0.999091000908999,
    "generalization": 0.9470063536811094,
    "metricsAverageWeight": 0.9187299340716806,
    "precision": 0.998183652875883,
    "precision_alignments": 0.998183652875883,
    "simplicity": 0.7297297297297298
  },
  "easy_soundness": true,
  "sound": true
}