{
  "easy_soundness": false,
  "filename": "/mnt/c/Users/s140511/tue/thesis/thesis_data/process_trees_simple_ws2/predictions/2112_gcn_ep144b_cc.json",
  "full": {
    "entropia_precision": "nan",
    "entropia_recall": "nan",
    "fitness": {
      "average_trace_fitness": 0.8690161310910893,
      "log_fitness": 0.8596876636263604,
      "perc_fit_traces": 0.0,
      "percentage_of_fitting_traces": 0.0
    },
    "fscore": 0.710314133983957,
    "generalization": 0.7049943905210556,
    "metricsAverageWeight": 0.6674617093431532,
    "precision": 0.6051647832251965,
    "simplicity": 0.5
  },
  "sound": false,
  "top 30": {
    "fitness": {
      "average_trace_fitness": 0.8652315840511972,
      "log_fitness": 0.8596291097137005,
      "perc_fit_traces": 0.0,
      "percentage_of_fitting_traces": 0.0
    },
    "fscore": 0.7088106150901013,
    "generalization": 0.6805295635346336,
    "metricsAverageWeight": 0.6607932144113743,
    "precision": 0.6030141843971631,
    "simplicity": 0.5
  }
}