{
  "FULL": {
    "entropia_precision": "nan",
    "entropia_recall": "nan",
    "fitness": {
      "average_trace_fitness": 0.9286107097654483,
      "log_fitness": 0.9519319562575942,
      "perc_fit_traces": 0.0,
      "percentage_of_fitting_traces": 0.0
    },
    "fscore": 0.5362762115811762,
    "generalization": 0.7959576513012812,
    "metricsAverageWeight": 0.7002933755348146,
    "precision": 0.37328389458038325,
    "simplicity": 0.6799999999999999
  },
  "easy_soundness": false,
  "sound": false
}