{
  "FULL": {
    "fitness": {
      "average_trace_fitness": 0.9242749738292132,
      "log_fitness": 0.9393585204066544,
      "perc_fit_traces": 61.51560178306092,
      "percentage_of_fitting_traces": 61.51560178306092
    },
    "fitness_alignments": {
      "averageFitness": 0.700742942050523,
      "average_trace_fitness": 0.700742942050523,
      "percFitTraces": 61.51560178306092,
      "percentage_of_fitting_traces": 61.51560178306092
    },
    "fscore": 0.9687311660246142,
    "generalization": 0.9442716946898193,
    "metricsAverageWeight": 0.93244601531258,
    "precision": 1.0,
    "precision_alignments": 1.0,
    "simplicity": 0.8461538461538463
  }
}