{
  "easy_soundness": true,
  "filename": "/mnt/c/Users/s140511/tue/thesis/thesis_data/process_trees_simple_ws2/predictions/2120_gcn_ep144b_cc.json",
  "full": {
    "entropia_precision": 0.9999999999999968,
    "entropia_recall": 0.999999999999993,
    "fitness": {
      "average_trace_fitness": 1.0,
      "log_fitness": 1.0,
      "perc_fit_traces": 100.0,
      "percentage_of_fitting_traces": 100.0
    },
    "fitness_alignments": {
      "averageFitness": 1.0,
      "average_trace_fitness": 1.0,
      "percFitTraces": 100.0,
      "percentage_of_fitting_traces": 100.0
    },
    "fscore": 1.0,
    "generalization": 0.9262521947124474,
    "metricsAverageWeight": 0.9283715593164097,
    "precision": 1.0,
    "precision_alignments": 1.0,
    "simplicity": 0.7872340425531915
  },
  "sound": true,
  "top 30": {
    "fitness": {
      "average_trace_fitness": 1.0,
      "log_fitness": 1.0,
      "perc_fit_traces": 100.0,
      "percentage_of_fitting_traces": 100.0
    },
    "fitness_alignments": {
      "averageFitness": 1.0,
      "average_trace_fitness": 1.0,
      "percFitTraces": 100.0,
      "percentage_of_fitting_traces": 100.0
    },
    "fscore": 1.0,
    "generalization": 0.9262521947124474,
    "metricsAverageWeight": 0.9283715593164097,
    "precision": 1.0,
    "precision_alignments": 1.0,
    "simplicity": 0.7872340425531915
  }
}