{
  "easy_soundness": false,
  "filename": "/mnt/c/Users/s140511/tue/thesis/thesis_data/process_trees_simple_ws2/predictions/2121_gcn_ep144b_cca.json",
  "full": {
    "entropia_precision": "nan",
    "entropia_recall": "nan",
    "fitness": {
      "average_trace_fitness": 0.8764326498951533,
      "log_fitness": 0.8814505978602895,
      "perc_fit_traces": 0.0,
      "percentage_of_fitting_traces": 0.0
    },
    "fscore": 0.9369904252205544,
    "generalization": 0.9628415911486875,
    "metricsAverageWeight": 0.8985730472522442,
    "precision": 1.0,
    "simplicity": 0.7499999999999999
  },
  "sound": false,
  "top 30": {
    "fitness": {
      "average_trace_fitness": 0.8763616431172179,
      "log_fitness": 0.8812529588133187,
      "perc_fit_traces": 0.0,
      "percentage_of_fitting_traces": 0.0
    },
    "fscore": 0.9368787484796377,
    "generalization": 0.9627784236001281,
    "metricsAverageWeight": 0.8985078456033617,
    "precision": 1.0,
    "simplicity": 0.7499999999999999
  }
}