{
  "FULL": {
    "fitness": {
      "average_trace_fitness": 1.0,
      "log_fitness": 1.0,
      "perc_fit_traces": 100.0,
      "percentage_of_fitting_traces": 100.0
    },
    "fitness_alignments": {
      "averageFitness": 1.0,
      "average_trace_fitness": 1.0,
      "percFitTraces": 100.0,
      "percentage_of_fitting_traces": 100.0
    },
    "fscore": 0.9997221836366162,
    "generalization": 0.9589844420525689,
    "metricsAverageWeight": 0.9601954762058156,
    "precision": 0.999444521594223,
    "precision_alignments": 0.999444521594223,
    "simplicity": 0.8823529411764706
  },
  "Top 30": {
    "fitness": {
      "average_trace_fitness": 1.0,
      "log_fitness": 1.0,
      "perc_fit_traces": 100.0,
      "percentage_of_fitting_traces": 100.0
    },
    "fitness_alignments": {
      "averageFitness": 1.0,
      "average_trace_fitness": 1.0,
      "percFitTraces": 100.0,
      "percentage_of_fitting_traces": 100.0
    },
    "fscore": 0.9997221836366162,
    "generalization": 0.9589844420525689,
    "metricsAverageWeight": 0.9601954762058156,
    "precision": 0.999444521594223,
    "precision_alignments": 0.999444521594223,
    "simplicity": 0.8823529411764706
  }
}