{
  "FULL": {
    "entropia_precision": 0.9359152265504914,
    "entropia_recall": 0.979545426390694,
    "fitness": {
      "average_trace_fitness": 1.0,
      "log_fitness": 1.0,
      "perc_fit_traces": 100.0,
      "percentage_of_fitting_traces": 100.0
    },
    "fitness_alignments": {
      "averageFitness": 1.0,
      "average_trace_fitness": 1.0,
      "percFitTraces": 100.0,
      "percentage_of_fitting_traces": 100.0
    },
    "fscore": 0.9835708566853483,
    "generalization": 0.9687401699857752,
    "metricsAverageWeight": 0.9424365811357196,
    "precision": 0.9676728212237696,
    "precision_alignments": 0.9676728212237696,
    "simplicity": 0.8333333333333333
  },
  "easy_soundness": true,
  "sound": true
}