{
  "FULL": {
    "entropia_precision": 0.9830288184331711,
    "entropia_recall": 0.984116239252176,
    "fitness": {
      "average_trace_fitness": 1.0,
      "log_fitness": 1.0,
      "perc_fit_traces": 100.0,
      "percentage_of_fitting_traces": 100.0
    },
    "fitness_alignments": {
      "averageFitness": 1.0,
      "average_trace_fitness": 1.0,
      "percFitTraces": 100.0,
      "percentage_of_fitting_traces": 100.0
    },
    "fscore": 0.9997145711431425,
    "generalization": 0.9668492509941109,
    "metricsAverageWeight": 0.969830508608509,
    "precision": 0.9994293051790555,
    "precision_alignments": 0.9994293051790555,
    "simplicity": 0.9130434782608695
  },
  "easy_soundness": true,
  "sound": true
}