{
  "FULL": {
    "fitness": {
      "average_trace_fitness": 0.9768654177586564,
      "log_fitness": 0.963415611476198,
      "perc_fit_traces": 51.5,
      "percentage_of_fitting_traces": 51.5
    },
    "fitness_alignments": {
      "averageFitness": 0.23916666666665895,
      "average_trace_fitness": 0.23916666666665895,
      "percFitTraces": 51.5,
      "percentage_of_fitting_traces": 51.5
    },
    "fscore": 0.9813669666727892,
    "generalization": 0.9677123029300299,
    "metricsAverageWeight": 0.942781978601557,
    "precision": 1.0,
    "precision_alignments": 1.0,
    "simplicity": 0.8399999999999999
  },
  "Top 30": {
    "fitness": {
      "average_trace_fitness": 0.9827257342147278,
      "log_fitness": 0.9741634418392897,
      "perc_fit_traces": 59.468822170900694,
      "percentage_of_fitting_traces": 59.468822170900694
    },
    "fitness_alignments": {
      "averageFitness": 0.5631254811393291,
      "average_trace_fitness": 0.5631254811393291,
      "percFitTraces": 59.468822170900694,
      "percentage_of_fitting_traces": 59.468822170900694
    },
    "fscore": 0.9869126549437878,
    "generalization": 0.9604093234348781,
    "metricsAverageWeight": 0.9436431913185419,
    "precision": 1.0,
    "precision_alignments": 1.0,
    "simplicity": 0.8399999999999999
  }
}