{
  "FULL": {
    "fitness": {
      "average_trace_fitness": 1.0,
      "log_fitness": 1.0,
      "perc_fit_traces": 100.0,
      "percentage_of_fitting_traces": 100.0
    },
    "fitness_alignments": {
      "averageFitness": 1.0,
      "average_trace_fitness": 1.0,
      "percFitTraces": 100.0,
      "percentage_of_fitting_traces": 100.0
    },
    "fscore": 0.9875963351304866,
    "generalization": 0.9677123029300299,
    "metricsAverageWeight": 0.9473406878198452,
    "precision": 0.9754966021955045,
    "precision_alignments": 0.9754966021955045,
    "simplicity": 0.8461538461538463
  }
}