{
  "easy_soundness": false,
  "filename": "/mnt/c/Users/s140511/tue/thesis/thesis_data/process_trees_simple_ws2/predictions/2127_gcn_ep144b_cca.json",
  "full": {
    "entropia_precision": "nan",
    "entropia_recall": "nan",
    "fitness": {
      "average_trace_fitness": 0.9290226567888842,
      "log_fitness": 0.9167244993074262,
      "perc_fit_traces": 0.0,
      "percentage_of_fitting_traces": 0.0
    },
    "fscore": 0.9565532236256885,
    "generalization": 0.9678145983866893,
    "metricsAverageWeight": 0.8942116975004518,
    "precision": 1.0,
    "simplicity": 0.6923076923076922
  },
  "sound": false,
  "top 30": {
    "fitness": {
      "average_trace_fitness": 0.9343138532134603,
      "log_fitness": 0.9264395707713051,
      "perc_fit_traces": 0.0,
      "percentage_of_fitting_traces": 0.0
    },
    "fscore": 0.9618153456019164,
    "generalization": 0.961272291629277,
    "metricsAverageWeight": 0.8950048886770685,
    "precision": 1.0,
    "simplicity": 0.6923076923076922
  }
}