{
  "easy_soundness": true,
  "filename": "/mnt/c/Users/s140511/tue/thesis/thesis_data/process_trees_simple_ws2/predictions/2129_gcn_ep144b_cca.json",
  "full": {
    "entropia_precision": 0.9895761503060958,
    "entropia_recall": 0.999775402402204,
    "fitness": {
      "average_trace_fitness": 1.0,
      "log_fitness": 1.0,
      "perc_fit_traces": 100.0,
      "percentage_of_fitting_traces": 100.0
    },
    "fitness_alignments": {
      "averageFitness": 1.0,
      "average_trace_fitness": 1.0,
      "log_fitness": 0.9999845119722455,
      "percFitTraces": 100.0,
      "percentage_of_fitting_traces": 100.0
    },
    "fscore": 0.9997976118194698,
    "generalization": 0.9705931789051664,
    "metricsAverageWeight": 0.9925471211123701,
    "precision": 0.9995953055443141,
    "precision_alignments": 0.9995953055443141,
    "simplicity": 1.0
  },
  "sound": true,
  "top 30": {
    "fitness": {
      "average_trace_fitness": 1.0,
      "log_fitness": 1.0,
      "perc_fit_traces": 100.0,
      "percentage_of_fitting_traces": 100.0
    },
    "fitness_alignments": {
      "averageFitness": 1.0,
      "average_trace_fitness": 1.0,
      "log_fitness": 0.9999845119722455,
      "percFitTraces": 100.0,
      "percentage_of_fitting_traces": 100.0
    },
    "fscore": 0.9997976118194698,
    "generalization": 0.9705931789051664,
    "metricsAverageWeight": 0.9925471211123701,
    "precision": 0.9995953055443141,
    "precision_alignments": 0.9995953055443141,
    "simplicity": 1.0
  }
}