{
  "FULL": {
    "entropia_precision": 1.0,
    "entropia_recall": 0.91159235380798,
    "fitness": {
      "average_trace_fitness": 0.9291428571428453,
      "log_fitness": 0.9339019189765458,
      "perc_fit_traces": 50.4,
      "percentage_of_fitting_traces": 50.4
    },
    "fitness_alignments": {
      "averageFitness": 0.9291428571428453,
      "average_trace_fitness": 0.9291428571428453,
      "percFitTraces": 50.4,
      "percentage_of_fitting_traces": 50.4
    },
    "fscore": 0.9658213891951488,
    "generalization": 0.9526682519807363,
    "metricsAverageWeight": 0.9716425427393205,
    "precision": 1.0,
    "precision_alignments": 1.0,
    "simplicity": 1.0
  },
  "easy_soundness": true,
  "sound": true
}