{
  "FULL": {
    "fitness": {
      "average_trace_fitness": 0.9528833333333474,
      "log_fitness": 0.9532360643471754,
      "perc_fit_traces": 0.0,
      "percentage_of_fitting_traces": 0.0
    },
    "fscore": 0.8770470575898778,
    "generalization": 0.9544920641667081,
    "metricsAverageWeight": 0.8799659655567833,
    "precision": 0.8121357337132495,
    "simplicity": 0.8
  }
}