{
  "FULL": {
    "entropia_precision": 0.9782280137671963,
    "entropia_recall": 1.001508680588533,
    "fitness": {
      "average_trace_fitness": 1.0,
      "log_fitness": 1.0,
      "perc_fit_traces": 100.0,
      "percentage_of_fitting_traces": 100.0
    },
    "fitness_alignments": {
      "averageFitness": 1.0,
      "average_trace_fitness": 1.0,
      "percFitTraces": 100.0,
      "percentage_of_fitting_traces": 100.0
    },
    "fscore": 0.9998321725266426,
    "generalization": 0.9693409861813527,
    "metricsAverageWeight": 0.9922513468893268,
    "precision": 0.9996644013759544,
    "precision_alignments": 0.9996644013759544,
    "simplicity": 1.0
  },
  "easy_soundness": true,
  "sound": true
}