{
  "FULL": {
    "fitness": {
      "average_trace_fitness": 0.989976102837609,
      "log_fitness": 0.9769926047658176,
      "perc_fit_traces": 83.13253012048193,
      "percentage_of_fitting_traces": 83.13253012048193
    },
    "fitness_alignments": {
      "averageFitness": 0.9096385542168639,
      "average_trace_fitness": 0.9096385542168639,
      "percFitTraces": 83.13253012048193,
      "percentage_of_fitting_traces": 83.13253012048193
    },
    "fscore": 0.9820194481897316,
    "generalization": 0.9438123272876083,
    "metricsAverageWeight": 0.9385142664495427,
    "precision": 0.9870982875908985,
    "precision_alignments": 0.9870982875908985,
    "simplicity": 0.8461538461538463
  }
}