{
  "FULL": {
    "fitness": {
      "average_trace_fitness": 1.0,
      "log_fitness": 1.0,
      "perc_fit_traces": 100.0,
      "percentage_of_fitting_traces": 100.0
    },
    "fitness_alignments": {
      "averageFitness": 1.0,
      "average_trace_fitness": 1.0,
      "percFitTraces": 100.0,
      "percentage_of_fitting_traces": 100.0
    },
    "fscore": 0.9443178117876913,
    "generalization": 0.8683532538086338,
    "metricsAverageWeight": 0.8889915660208155,
    "precision": 0.8945095619987662,
    "precision_alignments": 0.8945095619987662,
    "simplicity": 0.7931034482758622
  },
  "Top 30": {
    "fitness": {
      "average_trace_fitness": 1.0,
      "log_fitness": 1.0,
      "perc_fit_traces": 100.0,
      "percentage_of_fitting_traces": 100.0
    },
    "fitness_alignments": {
      "averageFitness": 1.0,
      "average_trace_fitness": 1.0,
      "percFitTraces": 100.0,
      "percentage_of_fitting_traces": 100.0
    },
    "fscore": 0.9544890754698979,
    "generalization": 0.86414320024174,
    "metricsAverageWeight": 0.8925467415234505,
    "precision": 0.9129403175762001,
    "precision_alignments": 0.9129403175762001,
    "simplicity": 0.7931034482758622
  }
}