{
  "FULL": {
    "entropia_precision": 0.0,
    "entropia_recall": 0.0,
    "fitness": {
      "average_trace_fitness": 0.875,
      "log_fitness": 0.875,
      "perc_fit_traces": 0.0,
      "percentage_of_fitting_traces": 0.0
    },
    "fitness_alignments": {
      "averageFitness": 0.5,
      "average_trace_fitness": 0.5,
      "percFitTraces": 0.0,
      "percentage_of_fitting_traces": 0.0
    },
    "fscore": 0.9104873708201942,
    "generalization": 0.9683772233983162,
    "metricsAverageWeight": 0.948088041612677,
    "precision": 0.9489749430523918,
    "precision_alignments": 0.9489749430523918,
    "simplicity": 1.0
  },
  "easy_soundness": true,
  "sound": true
}