{
  "FULL": {
    "entropia_precision": 0.9999999999999966,
    "entropia_recall": 0.986991651099861,
    "fitness": {
      "average_trace_fitness": 0.9824652777777801,
      "log_fitness": 0.9593755742340522,
      "perc_fit_traces": 93.3,
      "percentage_of_fitting_traces": 93.3
    },
    "fitness_alignments": {
      "averageFitness": 0.866,
      "average_trace_fitness": 0.866,
      "percFitTraces": 93.3,
      "percentage_of_fitting_traces": 93.3
    },
    "fscore": 0.979266646833735,
    "generalization": 0.9195608729587663,
    "metricsAverageWeight": 0.8886530307171234,
    "precision": 1.0,
    "precision_alignments": 1.0,
    "simplicity": 0.6756756756756757
  },
  "easy_soundness": true,
  "sound": true
}