{
  "FULL": {
    "fitness": {
      "average_trace_fitness": 0.9323636363636433,
      "log_fitness": 0.9365942028985508,
      "perc_fit_traces": 52.0,
      "percentage_of_fitting_traces": 52.0
    },
    "fitness_alignments": {
      "averageFitness": 0.8673333333333502,
      "average_trace_fitness": 0.8673333333333502,
      "percFitTraces": 52.0,
      "percentage_of_fitting_traces": 52.0
    },
    "fscore": 0.9672591206735267,
    "generalization": 0.9671542109619494,
    "metricsAverageWeight": 0.9759371034651251,
    "precision": 1.0,
    "precision_alignments": 1.0,
    "simplicity": 1.0
  }
}