{
  "FULL": {
    "entropia_precision": 0.9999999999999996,
    "entropia_recall": 0.698567695738002,
    "fitness": {
      "average_trace_fitness": 0.8974285714285796,
      "log_fitness": 0.9014007140895358,
      "perc_fit_traces": 28.2,
      "percentage_of_fitting_traces": 28.2
    },
    "fitness_alignments": {
      "averageFitness": 0.20050000000000023,
      "average_trace_fitness": 0.20050000000000023,
      "percFitTraces": 28.2,
      "percentage_of_fitting_traces": 28.2
    },
    "fscore": 0.948143868265203,
    "generalization": 0.7669315552405301,
    "metricsAverageWeight": 0.8337497339991831,
    "precision": 1.0,
    "precision_alignments": 1.0,
    "simplicity": 0.6666666666666666
  },
  "easy_soundness": true,
  "sound": false
}