{
  "FULL": {
    "entropia_precision": 0.9952856033940426,
    "entropia_recall": 0.996112547495601,
    "fitness": {
      "average_trace_fitness": 1.0,
      "log_fitness": 1.0,
      "perc_fit_traces": 100.0,
      "percentage_of_fitting_traces": 100.0
    },
    "fitness_alignments": {
      "averageFitness": 1.0,
      "average_trace_fitness": 1.0,
      "percFitTraces": 100.0,
      "percentage_of_fitting_traces": 100.0
    },
    "fscore": 0.9996254837501561,
    "generalization": 0.9603163454735393,
    "metricsAverageWeight": 0.9444373528938725,
    "precision": 0.9992512479201331,
    "precision_alignments": 0.9992512479201331,
    "simplicity": 0.8181818181818181
  },
  "easy_soundness": true,
  "sound": true
}