{
  "easy_soundness": true,
  "filename": "/mnt/c/Users/s140511/tue/thesis/thesis_data/process_trees_simple_ws2/predictions/2151_gcn_ep144b_cca.json",
  "full": {
    "entropia_precision": 0.9999978085966951,
    "entropia_recall": 0.905952878479754,
    "fitness": {
      "average_trace_fitness": 0.938,
      "log_fitness": 0.9449378330373002,
      "perc_fit_traces": 50.4,
      "percentage_of_fitting_traces": 50.4
    },
    "fitness_alignments": {
      "averageFitness": 0.9618461538461451,
      "average_trace_fitness": 0.9618461538461451,
      "log_fitness": 0.9632558759497045,
      "percFitTraces": 50.4,
      "percentage_of_fitting_traces": 50.4
    },
    "fscore": 0.971689497716895,
    "generalization": 0.9631733406487961,
    "metricsAverageWeight": 0.9770277934215241,
    "precision": 1.0,
    "precision_alignments": 1.0,
    "simplicity": 1.0
  },
  "sound": true,
  "top 30": {
    "fitness": {
      "average_trace_fitness": 0.938,
      "log_fitness": 0.9449378330373002,
      "perc_fit_traces": 50.4,
      "percentage_of_fitting_traces": 50.4
    },
    "fitness_alignments": {
      "averageFitness": 0.9618461538461451,
      "average_trace_fitness": 0.9618461538461451,
      "log_fitness": 0.9632558759497045,
      "percFitTraces": 50.4,
      "percentage_of_fitting_traces": 50.4
    },
    "fscore": 0.971689497716895,
    "generalization": 0.9631733406487961,
    "metricsAverageWeight": 0.9770277934215241,
    "precision": 1.0,
    "precision_alignments": 1.0,
    "simplicity": 1.0
  }
}