{
  "FULL": {
    "entropia_precision": 0.9999999928934049,
    "entropia_recall": 0.905952881789458,
    "fitness": {
      "average_trace_fitness": 0.9291428571428592,
      "log_fitness": 0.9339019189765458,
      "perc_fit_traces": 50.4,
      "percentage_of_fitting_traces": 50.4
    },
    "fitness_alignments": {
      "averageFitness": 0.9291428571428592,
      "average_trace_fitness": 0.9291428571428592,
      "percFitTraces": 50.4,
      "percentage_of_fitting_traces": 50.4
    },
    "fscore": 0.9658213891951488,
    "generalization": 0.9634874654260478,
    "metricsAverageWeight": 0.9743473461006484,
    "precision": 1.0,
    "precision_alignments": 1.0,
    "simplicity": 1.0
  },
  "easy_soundness": true,
  "sound": true
}