{
  "FULL": {
    "fitness": {
      "average_trace_fitness": 0.9668801059836668,
      "log_fitness": 0.9668801059836608,
      "perc_fit_traces": 76.8160741885626,
      "percentage_of_fitting_traces": 76.8160741885626
    },
    "fitness_alignments": {
      "averageFitness": 0.9227202472952019,
      "average_trace_fitness": 0.9227202472952019,
      "percFitTraces": 76.8160741885626,
      "percentage_of_fitting_traces": 76.8160741885626
    },
    "fscore": 0.9831612034126628,
    "generalization": 0.9443990871007861,
    "metricsAverageWeight": 0.9778197982711117,
    "precision": 1.0,
    "precision_alignments": 1.0,
    "simplicity": 1.0
  }
}