{
  "easy_soundness": false,
  "filename": "/mnt/c/Users/s140511/tue/thesis/thesis_data/process_trees_simple_ws2/predictions/2158_gcn_ep144b_cc.json",
  "full": {
    "entropia_precision": "nan",
    "entropia_recall": "nan",
    "fitness": {
      "average_trace_fitness": 0.8422367662735387,
      "log_fitness": 0.8337126000842815,
      "perc_fit_traces": 0.0,
      "percentage_of_fitting_traces": 0.0
    },
    "fscore": 0.9093165418026382,
    "generalization": 0.8338794912417522,
    "metricsAverageWeight": 0.8874862581256261,
    "precision": 1.0,
    "simplicity": 0.8823529411764706
  },
  "sound": false,
  "top 30": {
    "fitness": {
      "average_trace_fitness": 0.8422367662735387,
      "log_fitness": 0.8337126000842815,
      "perc_fit_traces": 0.0,
      "percentage_of_fitting_traces": 0.0
    },
    "fscore": 0.9093165418026382,
    "generalization": 0.8338794912417522,
    "metricsAverageWeight": 0.8874862581256261,
    "precision": 1.0,
    "simplicity": 0.8823529411764706
  }
}