{
  "easy_soundness": true,
  "filename": "/mnt/c/Users/s140511/tue/thesis/thesis_data/process_trees_simple_ws2/predictions/2160_gcn_ep144b_cc.json",
  "full": {
    "entropia_precision": 0.9999999999999968,
    "entropia_recall": 0.916840692689267,
    "fitness": {
      "average_trace_fitness": 0.9502721977369047,
      "log_fitness": 0.946735565934612,
      "perc_fit_traces": 73.7,
      "percentage_of_fitting_traces": 73.7
    },
    "fitness_alignments": {
      "averageFitness": 0.8927999999999947,
      "average_trace_fitness": 0.8927999999999947,
      "percFitTraces": 73.7,
      "percentage_of_fitting_traces": 73.7
    },
    "fscore": 0.97263910158244,
    "generalization": 0.9594277905207814,
    "metricsAverageWeight": 0.943207505780515,
    "precision": 1.0,
    "precision_alignments": 1.0,
    "simplicity": 0.8666666666666667
  },
  "sound": true,
  "top 30": {
    "fitness": {
      "average_trace_fitness": 0.9502721977369047,
      "log_fitness": 0.946735565934612,
      "perc_fit_traces": 73.7,
      "percentage_of_fitting_traces": 73.7
    },
    "fitness_alignments": {
      "averageFitness": 0.8927999999999947,
      "average_trace_fitness": 0.8927999999999947,
      "percFitTraces": 73.7,
      "percentage_of_fitting_traces": 73.7
    },
    "fscore": 0.97263910158244,
    "generalization": 0.9594277905207814,
    "metricsAverageWeight": 0.943207505780515,
    "precision": 1.0,
    "precision_alignments": 1.0,
    "simplicity": 0.8666666666666667
  }
}