{
  "FULL": {
    "fitness": {
      "average_trace_fitness": 0.9102807539682607,
      "log_fitness": 0.9110818573480134,
      "perc_fit_traces": 38.0,
      "percentage_of_fitting_traces": 38.0
    },
    "fitness_alignments": {
      "averageFitness": 0.7560000000000013,
      "average_trace_fitness": 0.7560000000000013,
      "percFitTraces": 38.0,
      "percentage_of_fitting_traces": 38.0
    },
    "fscore": 0.9502928837483381,
    "generalization": 0.9562538057496893,
    "metricsAverageWeight": 0.9293773348766182,
    "precision": 0.993030819265913,
    "precision_alignments": 0.993030819265913,
    "simplicity": 0.8571428571428572
  }
}