{
  "easy_soundness": true,
  "filename": "/mnt/c/Users/s140511/tue/thesis/thesis_data/process_trees_simple_ws2/predictions/2163_gcn_ep144b_cc.json",
  "full": {
    "entropia_precision": 0.9999999999983048,
    "entropia_recall": 0.99999999999811,
    "fitness": {
      "average_trace_fitness": 1.0,
      "log_fitness": 1.0,
      "perc_fit_traces": 100.0,
      "percentage_of_fitting_traces": 100.0
    },
    "fitness_alignments": {
      "averageFitness": 1.0,
      "average_trace_fitness": 1.0,
      "percFitTraces": 100.0,
      "percentage_of_fitting_traces": 100.0
    },
    "fscore": 1.0,
    "generalization": 0.9348533916999706,
    "metricsAverageWeight": 0.9420466812583259,
    "precision": 1.0,
    "precision_alignments": 1.0,
    "simplicity": 0.8333333333333333
  },
  "sound": true,
  "top 30": {
    "fitness": {
      "average_trace_fitness": 1.0,
      "log_fitness": 1.0,
      "perc_fit_traces": 100.0,
      "percentage_of_fitting_traces": 100.0
    },
    "fitness_alignments": {
      "averageFitness": 1.0,
      "average_trace_fitness": 1.0,
      "percFitTraces": 100.0,
      "percentage_of_fitting_traces": 100.0
    },
    "fscore": 1.0,
    "generalization": 0.9348533916999706,
    "metricsAverageWeight": 0.9420466812583259,
    "precision": 1.0,
    "precision_alignments": 1.0,
    "simplicity": 0.8333333333333333
  }
}