{
  "FULL": {
    "entropia_precision": 0.9300843182492587,
    "entropia_recall": 0.864470373753493,
    "fitness": {
      "average_trace_fitness": 0.8905574675324701,
      "log_fitness": 0.8959516441386265,
      "perc_fit_traces": 23.6,
      "percentage_of_fitting_traces": 23.6
    },
    "fitness_alignments": {
      "averageFitness": 0.8861111111111206,
      "average_trace_fitness": 0.8861111111111206,
      "percFitTraces": 23.6,
      "percentage_of_fitting_traces": 23.6
    },
    "fscore": 0.9400142283565759,
    "generalization": 0.9633401215328381,
    "metricsAverageWeight": 0.9286483441904402,
    "precision": 0.9886349444236293,
    "precision_alignments": 0.9886349444236293,
    "simplicity": 0.8666666666666667
  },
  "easy_soundness": true,
  "sound": true
}