{
  "FULL": {
    "fitness": {
      "average_trace_fitness": 1.0,
      "log_fitness": 1.0,
      "perc_fit_traces": 100.0,
      "percentage_of_fitting_traces": 100.0
    },
    "fitness_alignments": {
      "averageFitness": 1.0,
      "average_trace_fitness": 1.0,
      "percFitTraces": 100.0,
      "percentage_of_fitting_traces": 100.0
    },
    "fscore": 0.9997117117117117,
    "generalization": 0.9659867524918884,
    "metricsAverageWeight": 0.9556382998076345,
    "precision": 0.9994235895957922,
    "precision_alignments": 0.9994235895957922,
    "simplicity": 0.8571428571428572
  }
}