{
  "easy_soundness": true,
  "filename": "/mnt/c/Users/s140511/tue/thesis/thesis_data/process_trees_simple_ws2/predictions/2165_gcn_ep144b_cc.json",
  "full": {
    "entropia_precision": 0.9888702231576447,
    "entropia_recall": 1.00904523723583,
    "fitness": {
      "average_trace_fitness": 1.0,
      "log_fitness": 1.0,
      "perc_fit_traces": 100.0,
      "percentage_of_fitting_traces": 100.0
    },
    "fitness_alignments": {
      "averageFitness": 1.0,
      "average_trace_fitness": 1.0,
      "percFitTraces": 100.0,
      "percentage_of_fitting_traces": 100.0
    },
    "fscore": 0.9997117117117117,
    "generalization": 0.9663545172467235,
    "metricsAverageWeight": 0.960194526710629,
    "precision": 0.9994235895957922,
    "precision_alignments": 0.9994235895957922,
    "simplicity": 0.875
  },
  "sound": true,
  "top 30": {
    "fitness": {
      "average_trace_fitness": 1.0,
      "log_fitness": 1.0,
      "perc_fit_traces": 100.0,
      "percentage_of_fitting_traces": 100.0
    },
    "fitness_alignments": {
      "averageFitness": 1.0,
      "average_trace_fitness": 1.0,
      "percFitTraces": 100.0,
      "percentage_of_fitting_traces": 100.0
    },
    "fscore": 0.9997117117117117,
    "generalization": 0.9663545172467235,
    "metricsAverageWeight": 0.960194526710629,
    "precision": 0.9994235895957922,
    "precision_alignments": 0.9994235895957922,
    "simplicity": 0.875
  }
}