{
  "FULL": {
    "entropia_precision": "nan",
    "entropia_recall": "nan",
    "fitness": {
      "average_trace_fitness": 1.0,
      "log_fitness": 1.0,
      "perc_fit_traces": 100.0,
      "percentage_of_fitting_traces": 100.0
    },
    "fitness_alignments": {
      "averageFitness": 1.0,
      "average_trace_fitness": 1.0,
      "percFitTraces": 100.0,
      "percentage_of_fitting_traces": 100.0
    },
    "fscore": 0.9762903605939194,
    "generalization": 0.9517987717953207,
    "metricsAverageWeight": 0.895724275649667,
    "precision": 0.9536789759646376,
    "precision_alignments": 0.9536789759646376,
    "simplicity": 0.6774193548387096
  },
  "easy_soundness": true,
  "sound": true
}