{
  "FULL": {
    "fitness": {
      "average_trace_fitness": 1.0,
      "log_fitness": 1.0,
      "perc_fit_traces": 100.0,
      "percentage_of_fitting_traces": 100.0
    },
    "fitness_alignments": {
      "averageFitness": 1.0,
      "average_trace_fitness": 1.0,
      "percFitTraces": 100.0,
      "percentage_of_fitting_traces": 100.0
    },
    "fscore": 0.9934756237500411,
    "generalization": 0.9577897021596903,
    "metricsAverageWeight": 0.9330148938329436,
    "precision": 0.9870358306188926,
    "precision_alignments": 0.9870358306188926,
    "simplicity": 0.7872340425531915
  }
}