{
  "easy_soundness": false,
  "filename": "/mnt/c/Users/s140511/tue/thesis/thesis_data/process_trees_simple_ws2/predictions/2170_gcn_ep144b_cca.json",
  "full": {
    "entropia_precision": "nan",
    "entropia_recall": "nan",
    "fitness": {
      "average_trace_fitness": 0.7999999999999887,
      "log_fitness": 0.8,
      "perc_fit_traces": 0.0,
      "percentage_of_fitting_traces": 0.0
    },
    "fscore": 0.888888888888889,
    "generalization": 0.8318037608768527,
    "metricsAverageWeight": 0.8785391755133308,
    "precision": 1.0,
    "simplicity": 0.8823529411764706
  },
  "sound": false,
  "top 30": {
    "fitness": {
      "average_trace_fitness": 0.7999999999999887,
      "log_fitness": 0.8,
      "perc_fit_traces": 0.0,
      "percentage_of_fitting_traces": 0.0
    },
    "fscore": 0.888888888888889,
    "generalization": 0.8318037608768527,
    "metricsAverageWeight": 0.8785391755133308,
    "precision": 1.0,
    "simplicity": 0.8823529411764706
  }
}