{
  "FULL": {
    "entropia_precision": 0.9839264185363549,
    "entropia_recall": 0.983551642770976,
    "fitness": {
      "average_trace_fitness": 0.9901952190538308,
      "log_fitness": 0.9745284024299264,
      "perc_fit_traces": 84.3,
      "percentage_of_fitting_traces": 84.3
    },
    "fitness_alignments": {
      "averageFitness": 0.761,
      "average_trace_fitness": 0.761,
      "percFitTraces": 84.3,
      "percentage_of_fitting_traces": 84.3
    },
    "fscore": 0.9797633113331343,
    "generalization": 0.9523536324358899,
    "metricsAverageWeight": 0.9104166324171842,
    "precision": 0.9850547650731907,
    "precision_alignments": 0.9850547650731907,
    "simplicity": 0.7297297297297298
  },
  "easy_soundness": true,
  "sound": true
}