{
  "FULL": {
    "fitness": {
      "average_trace_fitness": 0.9748999999999943,
      "log_fitness": 0.968687624750499,
      "perc_fit_traces": 74.9,
      "percentage_of_fitting_traces": 74.9
    },
    "fitness_alignments": {
      "averageFitness": 0.8996000000000057,
      "average_trace_fitness": 0.8996000000000057,
      "percFitTraces": 74.9,
      "percentage_of_fitting_traces": 74.9
    },
    "fscore": 0.9840947975413472,
    "generalization": 0.9605889866492884,
    "metricsAverageWeight": 0.9823191528499469,
    "precision": 1.0,
    "precision_alignments": 1.0,
    "simplicity": 1.0
  }
}