{
  "easy_soundness": true,
  "filename": "/mnt/c/Users/s140511/tue/thesis/thesis_data/process_trees_simple_ws2/predictions/2185_gcn_ep144b_cc.json",
  "full": {
    "fitness": {
      "average_trace_fitness": 1.0,
      "log_fitness": 1.0,
      "perc_fit_traces": 100.0,
      "percentage_of_fitting_traces": 100.0
    },
    "fitness_alignments": {
      "averageFitness": 1.0,
      "average_trace_fitness": 1.0,
      "percFitTraces": 100.0,
      "percentage_of_fitting_traces": 100.0
    },
    "fscore": 0.9959582667543941,
    "generalization": 0.9607628051183577,
    "metricsAverageWeight": 0.940558921962358,
    "precision": 0.9919490732072646,
    "precision_alignments": 0.9919490732072646,
    "simplicity": 0.8095238095238095
  },
  "sound": true,
  "top 30": {
    "fitness": {
      "average_trace_fitness": 1.0,
      "log_fitness": 1.0,
      "perc_fit_traces": 100.0,
      "percentage_of_fitting_traces": 100.0
    },
    "fitness_alignments": {
      "averageFitness": 1.0,
      "average_trace_fitness": 1.0,
      "percFitTraces": 100.0,
      "percentage_of_fitting_traces": 100.0
    },
    "fscore": 0.9865157163238069,
    "generalization": 0.9515113504413198,
    "metricsAverageWeight": 0.9336063515206621,
    "precision": 0.9733902461175189,
    "precision_alignments": 0.9733902461175189,
    "simplicity": 0.8095238095238095
  }
}