{
  "FULL": {
    "entropia_precision": 0.9969991381164972,
    "entropia_recall": 0.996301710411063,
    "fitness": {
      "average_trace_fitness": 1.0,
      "log_fitness": 1.0,
      "perc_fit_traces": 100.0,
      "percentage_of_fitting_traces": 100.0
    },
    "fitness_alignments": {
      "averageFitness": 1.0,
      "average_trace_fitness": 1.0,
      "percFitTraces": 100.0,
      "percentage_of_fitting_traces": 100.0
    },
    "fscore": 0.9998847527947448,
    "generalization": 0.9561306953896465,
    "metricsAverageWeight": 0.9435205114304324,
    "precision": 0.999769532150265,
    "precision_alignments": 0.999769532150265,
    "simplicity": 0.8181818181818181
  },
  "easy_soundness": true,
  "sound": true
}