{
  "FULL": {
    "entropia_precision": 0.985561148314267,
    "entropia_recall": 1.001503427500756,
    "fitness": {
      "average_trace_fitness": 1.0,
      "log_fitness": 1.0,
      "perc_fit_traces": 100.0,
      "percentage_of_fitting_traces": 100.0
    },
    "fitness_alignments": {
      "averageFitness": 1.0,
      "average_trace_fitness": 1.0,
      "percFitTraces": 100.0,
      "percentage_of_fitting_traces": 100.0
    },
    "fscore": 0.9842027141645463,
    "generalization": 0.9566035332045862,
    "metricsAverageWeight": 0.9258195214623222,
    "precision": 0.9688967748669242,
    "precision_alignments": 0.9688967748669242,
    "simplicity": 0.7777777777777779
  },
  "easy_soundness": true,
  "sound": true
}