{
  "FULL": {
    "entropia_precision": 0.905565927839796,
    "entropia_recall": 1.012410773060581,
    "fitness": {
      "average_trace_fitness": 0.9999910714285715,
      "log_fitness": 0.9999121882683526,
      "perc_fit_traces": 99.9,
      "percentage_of_fitting_traces": 99.9
    },
    "fitness_alignments": {
      "averageFitness": 0.999,
      "average_trace_fitness": 0.999,
      "percFitTraces": 99.9,
      "percentage_of_fitting_traces": 99.9
    },
    "fscore": 0.9823333882723301,
    "generalization": 0.9568741296974062,
    "metricsAverageWeight": 0.9376799347825795,
    "precision": 0.9653619925931305,
    "precision_alignments": 0.9653619925931305,
    "simplicity": 0.8285714285714286
  },
  "easy_soundness": true,
  "sound": true
}