{
  "FULL": {
    "fitness": {
      "average_trace_fitness": 0.8518472997650468,
      "log_fitness": 0.8441166450003135,
      "perc_fit_traces": 0.0,
      "percentage_of_fitting_traces": 0.0
    },
    "fscore": 0.8758028121035922,
    "generalization": 0.9636425311479782,
    "metricsAverageWeight": 0.8525068690554704,
    "precision": 0.9099606077658976,
    "simplicity": 0.6923076923076922
  },
  "Top 30": {
    "fitness": {
      "average_trace_fitness": 0.8666888850412539,
      "log_fitness": 0.8636055040645946,
      "perc_fit_traces": 0.0,
      "percentage_of_fitting_traces": 0.0
    },
    "fscore": 0.8819353056638646,
    "generalization": 0.9498437948911146,
    "metricsAverageWeight": 0.8517042654836948,
    "precision": 0.901060070671378,
    "simplicity": 0.6923076923076922
  }
}