{
  "FULL": {
    "entropia_precision": 0.8260313527816496,
    "entropia_recall": 0.762692160937205,
    "fitness": {
      "average_trace_fitness": 0.9548705964866898,
      "log_fitness": 0.9436031954214856,
      "perc_fit_traces": 52.7,
      "percentage_of_fitting_traces": 52.7
    },
    "fitness_alignments": {
      "averageFitness": 0.9053999999999784,
      "average_trace_fitness": 0.9053999999999784,
      "percFitTraces": 52.7,
      "percentage_of_fitting_traces": 52.7
    },
    "fscore": 0.9694488127706866,
    "generalization": 0.9635717849301036,
    "metricsAverageWeight": 0.94966549145822,
    "precision": 0.9967501433760275,
    "precision_alignments": 0.9967501433760275,
    "simplicity": 0.8947368421052632
  },
  "easy_soundness": true,
  "sound": true
}