{
  "FULL": {
    "entropia_precision": "nan",
    "entropia_recall": "nan",
    "fitness": {
      "average_trace_fitness": 1.0,
      "log_fitness": 1.0,
      "perc_fit_traces": 100.0,
      "percentage_of_fitting_traces": 100.0
    },
    "fitness_alignments": {
      "averageFitness": 1.0,
      "average_trace_fitness": 1.0,
      "percFitTraces": 100.0,
      "percentage_of_fitting_traces": 100.0
    },
    "fscore": 0.9988063977082835,
    "generalization": 0.962858538018403,
    "metricsAverageWeight": 0.9484518781860505,
    "precision": 0.9976156413924654,
    "precision_alignments": 0.9976156413924654,
    "simplicity": 0.8333333333333333
  },
  "easy_soundness": true,
  "sound": true
}