{
  "FULL": {
    "entropia_precision": 0.8327711288310848,
    "entropia_recall": 0.999999999999995,
    "fitness": {
      "average_trace_fitness": 1.0,
      "log_fitness": 1.0,
      "perc_fit_traces": 100.0,
      "percentage_of_fitting_traces": 100.0
    },
    "fitness_alignments": {
      "averageFitness": 1.0,
      "average_trace_fitness": 1.0,
      "percFitTraces": 100.0,
      "percentage_of_fitting_traces": 100.0
    },
    "fscore": 0.838821138211382,
    "generalization": 0.9464158346988568,
    "metricsAverageWeight": 0.8414432672161056,
    "precision": 0.722387537195869,
    "precision_alignments": 0.722387537195869,
    "simplicity": 0.6969696969696969
  },
  "easy_soundness": true,
  "sound": true
}