{
  "FULL": {
    "fitness": {
      "average_trace_fitness": 0.9641428571428653,
      "log_fitness": 0.9544133672357429,
      "perc_fit_traces": 49.8,
      "percentage_of_fitting_traces": 49.8
    },
    "fitness_alignments": {
      "averageFitness": -0.33866666666666917,
      "average_trace_fitness": -0.33866666666666917,
      "percFitTraces": 49.8,
      "percentage_of_fitting_traces": 49.8
    },
    "fscore": 0.9179542666201294,
    "generalization": 0.955300733022101,
    "metricsAverageWeight": 0.9206952941376817,
    "precision": 0.8841781874039939,
    "precision_alignments": 0.8841781874039939,
    "simplicity": 0.8888888888888888
  }
}