{
  "FULL": {
    "entropia_precision": null,
    "entropia_recall": null,
    "fitness": {
      "average_trace_fitness": 0.9831942251297052,
      "log_fitness": 0.9758821625121399,
      "perc_fit_traces": 56.3049853372434,
      "percentage_of_fitting_traces": 56.3049853372434
    },
    "fitness_alignments": {
      "averageFitness": 0.12609970674486803,
      "average_trace_fitness": 0.12609970674486803,
      "percFitTraces": 56.3049853372434,
      "percentage_of_fitting_traces": 56.3049853372434
    },
    "fscore": 0.9528669525502566,
    "generalization": 0.9259859836896305,
    "metricsAverageWeight": 0.9403379716383838,
    "precision": 0.9309123117803366,
    "precision_alignments": 0.9309123117803366,
    "simplicity": 0.9285714285714284
  },
  "easy_soundness": true,
  "sound": false
}