{
  "easy_soundness": true,
  "filename": "/mnt/c/Users/s140511/tue/thesis/thesis_data/process_trees_simple_ws2/predictions/2207_gcn_ep144b_cc.json",
  "full": {
    "entropia_precision": 0.9999978644066249,
    "entropia_recall": 0.999888232373397,
    "fitness": {
      "average_trace_fitness": 1.0,
      "log_fitness": 1.0,
      "perc_fit_traces": 100.0,
      "percentage_of_fitting_traces": 100.0
    },
    "fitness_alignments": {
      "averageFitness": 1.0,
      "average_trace_fitness": 1.0,
      "percFitTraces": 100.0,
      "percentage_of_fitting_traces": 100.0
    },
    "fscore": 1.0,
    "generalization": 0.9286341143833613,
    "metricsAverageWeight": 0.9670070134443252,
    "precision": 1.0,
    "precision_alignments": 1.0,
    "simplicity": 0.9393939393939394
  },
  "sound": true,
  "top 30": {
    "fitness": {
      "average_trace_fitness": 1.0,
      "log_fitness": 1.0,
      "perc_fit_traces": 100.0,
      "percentage_of_fitting_traces": 100.0
    },
    "fitness_alignments": {
      "averageFitness": 1.0,
      "average_trace_fitness": 1.0,
      "percFitTraces": 100.0,
      "percentage_of_fitting_traces": 100.0
    },
    "fscore": 1.0,
    "generalization": 0.9286341143833613,
    "metricsAverageWeight": 0.9670070134443252,
    "precision": 1.0,
    "precision_alignments": 1.0,
    "simplicity": 0.9393939393939394
  }
}