{
  "FULL": {
    "entropia_precision": 0.7542018649245338,
    "entropia_recall": 0.999813489030434,
    "fitness": {
      "average_trace_fitness": 1.0,
      "log_fitness": 1.0,
      "perc_fit_traces": 100.0,
      "percentage_of_fitting_traces": 100.0
    },
    "fitness_alignments": {
      "averageFitness": 0.0,
      "average_trace_fitness": 0.0,
      "percFitTraces": 0.0,
      "percentage_of_fitting_traces": 0.0
    },
    "fscore": 0.9991910694062449,
    "generalization": 0.8715651814175631,
    "metricsAverageWeight": 0.9033845928748464,
    "precision": 0.9983834464920789,
    "precision_alignments": 0.9983834464920789,
    "simplicity": 0.7435897435897437
  },
  "easy_soundness": true,
  "sound": true
}