{
  "FULL": {
    "fitness": {
      "average_trace_fitness": 0.9955805844346096,
      "log_fitness": 0.9880017110128583,
      "perc_fit_traces": 95.65217391304348,
      "percentage_of_fitting_traces": 95.65217391304348
    },
    "fitness_alignments": {
      "averageFitness": 0.9130434782608695,
      "average_trace_fitness": 0.9130434782608695,
      "percFitTraces": 95.65217391304348,
      "percentage_of_fitting_traces": 95.65217391304348
    },
    "fscore": 0.9932640848661742,
    "generalization": 0.9290771383896405,
    "metricsAverageWeight": 0.9262838375662323,
    "precision": 0.9985828166519043,
    "precision_alignments": 0.9985828166519043,
    "simplicity": 0.7894736842105263
  }
}