{
  "easy_soundness": true,
  "filename": "/mnt/c/Users/s140511/tue/thesis/thesis_data/process_trees_simple_ws2/predictions/2210_gcn_ep144b_cc.json",
  "full": {
    "entropia_precision": 1.000008897263046,
    "entropia_recall": 1.00006651619212,
    "fitness": {
      "average_trace_fitness": 1.0,
      "log_fitness": 1.0,
      "perc_fit_traces": 100.0,
      "percentage_of_fitting_traces": 100.0
    },
    "fitness_alignments": {
      "averageFitness": 1.0,
      "average_trace_fitness": 1.0,
      "percFitTraces": 100.0,
      "percentage_of_fitting_traces": 100.0
    },
    "fscore": 0.9991910694062449,
    "generalization": 0.933736649923282,
    "metricsAverageWeight": 0.9330300241038403,
    "precision": 0.9983834464920789,
    "precision_alignments": 0.9983834464920789,
    "simplicity": 0.8
  },
  "sound": true,
  "top 30": {
    "fitness": {
      "average_trace_fitness": 1.0,
      "log_fitness": 1.0,
      "perc_fit_traces": 100.0,
      "percentage_of_fitting_traces": 100.0
    },
    "fitness_alignments": {
      "averageFitness": 1.0,
      "average_trace_fitness": 1.0,
      "percFitTraces": 100.0,
      "percentage_of_fitting_traces": 100.0
    },
    "fscore": 0.9991910694062449,
    "generalization": 0.933736649923282,
    "metricsAverageWeight": 0.9330300241038403,
    "precision": 0.9983834464920789,
    "precision_alignments": 0.9983834464920789,
    "simplicity": 0.8
  }
}