{
  "FULL": {
    "entropia_precision": 0.9875802637937748,
    "entropia_recall": 0.990729819070665,
    "fitness": {
      "average_trace_fitness": 1.0,
      "log_fitness": 1.0,
      "perc_fit_traces": 100.0,
      "percentage_of_fitting_traces": 100.0
    },
    "fitness_alignments": {
      "averageFitness": 1.0,
      "average_trace_fitness": 1.0,
      "percFitTraces": 100.0,
      "percentage_of_fitting_traces": 100.0
    },
    "fscore": 0.9998232653494045,
    "generalization": 0.9677017311014093,
    "metricsAverageWeight": 0.9680275572553394,
    "precision": 0.9996465931580435,
    "precision_alignments": 0.9996465931580435,
    "simplicity": 0.9047619047619049
  },
  "easy_soundness": true,
  "sound": true
}