{
  "FULL": {
    "entropia_precision": 0.9063675593850672,
    "entropia_recall": 1.000459559691679,
    "fitness": {
      "average_trace_fitness": 1.0,
      "log_fitness": 1.0,
      "perc_fit_traces": 100.0,
      "percentage_of_fitting_traces": 100.0
    },
    "fitness_alignments": {
      "averageFitness": 1.0,
      "average_trace_fitness": 1.0,
      "percFitTraces": 100.0,
      "percentage_of_fitting_traces": 100.0
    },
    "fscore": 0.9745334278289629,
    "generalization": 0.9577416198172006,
    "metricsAverageWeight": 0.9145183389756787,
    "precision": 0.9503317360855141,
    "precision_alignments": 0.9503317360855141,
    "simplicity": 0.7499999999999999
  },
  "easy_soundness": true,
  "sound": true
}