{
  "FULL": {
    "entropia_precision": 0.8986537126633888,
    "entropia_recall": 0.854751399907149,
    "fitness": {
      "average_trace_fitness": 0.937375,
      "log_fitness": 0.9332089054792694,
      "perc_fit_traces": 49.9,
      "percentage_of_fitting_traces": 49.9
    },
    "fitness_alignments": {
      "averageFitness": 0.8997999999999782,
      "average_trace_fitness": 0.8997999999999782,
      "percFitTraces": 49.9,
      "percentage_of_fitting_traces": 49.9
    },
    "fscore": 0.9527224260026191,
    "generalization": 0.9665123764612886,
    "metricsAverageWeight": 0.968197679343024,
    "precision": 0.973069435431538,
    "precision_alignments": 0.973069435431538,
    "simplicity": 1.0
  },
  "easy_soundness": true,
  "sound": true
}