{
  "FULL": {
    "entropia_precision": 1.000075835043656,
    "entropia_recall": 1.000227635949081,
    "fitness": {
      "average_trace_fitness": 1.0,
      "log_fitness": 1.0,
      "perc_fit_traces": 100.0,
      "percentage_of_fitting_traces": 100.0
    },
    "fitness_alignments": {
      "averageFitness": 1.0,
      "average_trace_fitness": 1.0,
      "percFitTraces": 100.0,
      "percentage_of_fitting_traces": 100.0
    },
    "fscore": 0.9998738170347002,
    "generalization": 0.9453444524300343,
    "metricsAverageWeight": 0.9262730295849246,
    "precision": 0.9997476659096644,
    "precision_alignments": 0.9997476659096644,
    "simplicity": 0.7599999999999999
  },
  "easy_soundness": true,
  "sound": true
}