{
  "FULL": {
    "fitness": {
      "average_trace_fitness": 1.0,
      "log_fitness": 1.0,
      "perc_fit_traces": 100.0,
      "percentage_of_fitting_traces": 100.0
    },
    "fitness_alignments": {
      "averageFitness": 1.0,
      "average_trace_fitness": 1.0,
      "percFitTraces": 100.0,
      "percentage_of_fitting_traces": 100.0
    },
    "fscore": 0.9996338873837592,
    "generalization": 0.9466623713135897,
    "metricsAverageWeight": 0.9264826035149732,
    "precision": 0.9992680427463037,
    "precision_alignments": 0.9992680427463037,
    "simplicity": 0.7599999999999999
  }
}