{
  "FULL": {
    "fitness": {
      "average_trace_fitness": 1.0,
      "log_fitness": 1.0,
      "perc_fit_traces": 100.0,
      "percentage_of_fitting_traces": 100.0
    },
    "fitness_alignments": {
      "averageFitness": 1.0,
      "average_trace_fitness": 1.0,
      "percFitTraces": 100.0,
      "percentage_of_fitting_traces": 100.0
    },
    "fscore": 0.9996338873837592,
    "generalization": 0.9502815133277107,
    "metricsAverageWeight": 0.9356632510874692,
    "precision": 0.9992680427463037,
    "precision_alignments": 0.9992680427463037,
    "simplicity": 0.7931034482758622
  }
}