{
  "FULL": {
    "entropia_precision": 0.962376407757064,
    "entropia_recall": 0.997907191159604,
    "fitness": {
      "average_trace_fitness": 1.0,
      "log_fitness": 1.0,
      "perc_fit_traces": 100.0,
      "percentage_of_fitting_traces": 100.0
    },
    "fitness_alignments": {
      "averageFitness": 1.0,
      "average_trace_fitness": 1.0,
      "percFitTraces": 100.0,
      "percentage_of_fitting_traces": 100.0
    },
    "fscore": 0.997765529569492,
    "generalization": 0.970382773775956,
    "metricsAverageWeight": 0.9676714252825034,
    "precision": 0.9955410225921522,
    "precision_alignments": 0.9955410225921522,
    "simplicity": 0.9047619047619049
  },
  "easy_soundness": true,
  "sound": true
}