{
  "FULL": {
    "fitness": {
      "average_trace_fitness": 0.9562289999813206,
      "log_fitness": 0.9614078419265205,
      "perc_fit_traces": 0.0,
      "percentage_of_fitting_traces": 0.0
    },
    "fscore": 0.8534839904387863,
    "generalization": 0.970382773775956,
    "metricsAverageWeight": 0.8997838742537284,
    "precision": 0.767344881312437,
    "simplicity": 0.8999999999999999
  }
}