{
  "FULL": {
    "fitness": {
      "average_trace_fitness": 0.9529002769359372,
      "log_fitness": 0.9450467504158779,
      "perc_fit_traces": 35.5,
      "percentage_of_fitting_traces": 35.5
    },
    "fscore": 0.8314670013479507,
    "generalization": 0.9141487688227486,
    "metricsAverageWeight": 0.848280329732048,
    "precision": 0.7422591330228986,
    "simplicity": 0.7916666666666667
  }
}