{
  "easy_soundness": false,
  "filename": "/mnt/c/Users/s140511/tue/thesis/thesis_data/process_trees_simple_ws2/predictions/2222_gcn_ep144b_cc.json",
  "full": {
    "entropia_precision": "nan",
    "entropia_recall": "nan",
    "fitness": {
      "average_trace_fitness": 0.809024607279262,
      "log_fitness": 0.8389482516982274,
      "perc_fit_traces": 0.0,
      "percentage_of_fitting_traces": 0.0
    },
    "fscore": 0.9124218160282407,
    "generalization": 0.6814769361847415,
    "metricsAverageWeight": 0.7409310392387836,
    "precision": 1.0,
    "simplicity": 0.44329896907216493
  },
  "sound": false,
  "top 30": {
    "fitness": {
      "average_trace_fitness": 0.7861909488960249,
      "log_fitness": 0.7937277113986175,
      "perc_fit_traces": 0.0,
      "percentage_of_fitting_traces": 0.0
    },
    "fscore": 0.885003566990362,
    "generalization": 0.66580385498974,
    "metricsAverageWeight": 0.7257076338651307,
    "precision": 1.0,
    "simplicity": 0.44329896907216493
  }
}