{
  "FULL": {
    "fitness": {
      "average_trace_fitness": 0.9642857142856943,
      "log_fitness": 0.9642857142857143,
      "perc_fit_traces": 0.0,
      "percentage_of_fitting_traces": 0.0
    },
    "fscore": 0.9317474092602992,
    "generalization": 0.9683772233983162,
    "metricsAverageWeight": 0.9584990677543409,
    "precision": 0.9013333333333333,
    "simplicity": 1.0
  }
}