{
  "FULL": {
    "entropia_precision": 0.9758936114982769,
    "entropia_recall": 1.00053163550078,
    "fitness": {
      "average_trace_fitness": 1.0,
      "log_fitness": 1.0,
      "perc_fit_traces": 100.0,
      "percentage_of_fitting_traces": 100.0
    },
    "fitness_alignments": {
      "averageFitness": 1.0,
      "average_trace_fitness": 1.0,
      "percFitTraces": 100.0,
      "percentage_of_fitting_traces": 100.0
    },
    "fscore": 0.9726632836798167,
    "generalization": 0.9532563462651845,
    "metricsAverageWeight": 0.903580862492728,
    "precision": 0.9467813894200128,
    "precision_alignments": 0.9467813894200128,
    "simplicity": 0.7142857142857143
  },
  "easy_soundness": true,
  "sound": true
}