{
  "FULL": {
    "fitness": {
      "average_trace_fitness": 1.0,
      "log_fitness": 1.0,
      "perc_fit_traces": 100.0,
      "percentage_of_fitting_traces": 100.0
    },
    "fitness_alignments": {
      "averageFitness": 1.0,
      "average_trace_fitness": 1.0,
      "percFitTraces": 100.0,
      "percentage_of_fitting_traces": 100.0
    },
    "fscore": 0.9918355695118469,
    "generalization": 0.9660753768529552,
    "metricsAverageWeight": 0.9390825912492162,
    "precision": 0.9838033752406841,
    "precision_alignments": 0.9838033752406841,
    "simplicity": 0.8064516129032256
  }
}