{
  "FULL": {
    "fitness": {
      "average_trace_fitness": 1.0,
      "log_fitness": 1.0,
      "perc_fit_traces": 100.0,
      "percentage_of_fitting_traces": 100.0
    },
    "fitness_alignments": {
      "averageFitness": 1.0,
      "average_trace_fitness": 1.0,
      "percFitTraces": 100.0,
      "percentage_of_fitting_traces": 100.0
    },
    "fscore": 0.9998699017758407,
    "generalization": 0.9713905070329563,
    "metricsAverageWeight": 0.9927825861078325,
    "precision": 0.999739837398374,
    "precision_alignments": 0.999739837398374,
    "simplicity": 1.0
  }
}