{
  "FULL": {
    "entropia_precision": 0.931027840284903,
    "entropia_recall": 1.001348210051373,
    "fitness": {
      "average_trace_fitness": 0.9999705882352942,
      "log_fitness": 0.9998683517640864,
      "perc_fit_traces": 99.7,
      "percentage_of_fitting_traces": 99.7
    },
    "fitness_alignments": {
      "averageFitness": 0.9986666666666666,
      "average_trace_fitness": 0.9986666666666666,
      "percFitTraces": 99.7,
      "percentage_of_fitting_traces": 99.7
    },
    "fscore": 0.9477188112532741,
    "generalization": 0.9763380445772653,
    "metricsAverageWeight": 0.9192364682548486,
    "precision": 0.9007394766780432,
    "precision_alignments": 0.9007394766780432,
    "simplicity": 0.8
  },
  "easy_soundness": true,
  "sound": true
}