{
  "easy_soundness": false,
  "filename": "/mnt/c/Users/s140511/tue/thesis/thesis_data/process_trees_simple_ws2/predictions/2235_gcn_ep144b_cc.json",
  "full": {
    "fitness": {
      "average_trace_fitness": 0.9732896600248198,
      "log_fitness": 0.9781047468908741,
      "perc_fit_traces": 0.0,
      "percentage_of_fitting_traces": 0.0
    },
    "fscore": 0.9769598009106781,
    "generalization": 0.9689075294471909,
    "metricsAverageWeight": 0.9422459136952505,
    "precision": 0.9758175322890904,
    "simplicity": 0.8461538461538463
  },
  "sound": false,
  "top 30": {
    "fitness": {
      "average_trace_fitness": 0.9707129746259671,
      "log_fitness": 0.9733424470266576,
      "perc_fit_traces": 0.0,
      "percentage_of_fitting_traces": 0.0
    },
    "fscore": 0.9812304327636053,
    "generalization": 0.9626071066317696,
    "metricsAverageWeight": 0.9428376779100577,
    "precision": 0.989247311827957,
    "simplicity": 0.8461538461538463
  }
}