{
  "FULL": {
    "entropia_precision": 0.903083986592712,
    "entropia_recall": 0.990145096217729,
    "fitness": {
      "average_trace_fitness": 1.0,
      "log_fitness": 1.0,
      "perc_fit_traces": 100.0,
      "percentage_of_fitting_traces": 100.0
    },
    "fitness_alignments": {
      "averageFitness": 1.0,
      "average_trace_fitness": 1.0,
      "percFitTraces": 100.0,
      "percentage_of_fitting_traces": 100.0
    },
    "fscore": 0.9962755449039739,
    "generalization": 0.9660845207409658,
    "metricsAverageWeight": 0.9711472941654322,
    "precision": 0.9925787299948374,
    "precision_alignments": 0.9925787299948374,
    "simplicity": 0.9259259259259258
  },
  "easy_soundness": true,
  "sound": true
}