{
  "easy_soundness": false,
  "filename": "/mnt/c/Users/s140511/tue/thesis/thesis_data/process_trees_simple_ws2/predictions/2239_gcn_ep144b_cc.json",
  "full": {
    "entropia_precision": "nan",
    "entropia_recall": "nan",
    "fitness": {
      "average_trace_fitness": 0.8719064610353854,
      "log_fitness": 0.8632711167352104,
      "perc_fit_traces": 0.0,
      "percentage_of_fitting_traces": 0.0
    },
    "fscore": 0.8752219527013867,
    "generalization": 0.9690871244479494,
    "metricsAverageWeight": 0.9114481218748973,
    "precision": 0.8875083203905036,
    "simplicity": 0.9259259259259258
  },
  "sound": false,
  "top 30": {
    "fitness": {
      "average_trace_fitness": 0.8773407024325293,
      "log_fitness": 0.8716546342886312,
      "perc_fit_traces": 0.0,
      "percentage_of_fitting_traces": 0.0
    },
    "fscore": 0.878220894304536,
    "generalization": 0.9669306262384166,
    "metricsAverageWeight": 0.9123495050581205,
    "precision": 0.8848868337795084,
    "simplicity": 0.9259259259259258
  }
}