{
  "FULL": {
    "entropia_precision": 1.000000000000004,
    "entropia_recall": 0.923015532116653,
    "fitness": {
      "average_trace_fitness": 0.9561999999999901,
      "log_fitness": 0.9634268537074149,
      "perc_fit_traces": 78.1,
      "percentage_of_fitting_traces": 78.1
    },
    "fitness_alignments": {
      "averageFitness": 0.8905,
      "average_trace_fitness": 0.8905,
      "percFitTraces": 78.1,
      "percentage_of_fitting_traces": 78.1
    },
    "fscore": 0.9813727991834652,
    "generalization": 0.9552225547810737,
    "metricsAverageWeight": 0.9796623521221222,
    "precision": 1.0,
    "precision_alignments": 1.0,
    "simplicity": 1.0
  },
  "easy_soundness": true,
  "sound": true
}