{
  "FULL": {
    "entropia_precision": 0.9652055345236717,
    "entropia_recall": 1.000521442397518,
    "fitness": {
      "average_trace_fitness": 1.0,
      "log_fitness": 1.0,
      "perc_fit_traces": 100.0,
      "percentage_of_fitting_traces": 100.0
    },
    "fitness_alignments": {
      "averageFitness": 1.0,
      "average_trace_fitness": 1.0,
      "percFitTraces": 100.0,
      "percentage_of_fitting_traces": 100.0
    },
    "fscore": 0.9899490059862538,
    "generalization": 0.9591904245299399,
    "metricsAverageWeight": 0.9238465079736655,
    "precision": 0.9800980463891125,
    "precision_alignments": 0.9800980463891125,
    "simplicity": 0.7560975609756097
  },
  "easy_soundness": true,
  "sound": true
}