{
  "easy_soundness": false,
  "filename": "/mnt/c/Users/s140511/tue/thesis/thesis_data/process_trees_simple_ws2/predictions/2247_gcn_ep144b_cc.json",
  "full": {
    "fitness": {
      "average_trace_fitness": 0.811454032876734,
      "log_fitness": 0.8159050357244444,
      "perc_fit_traces": 0.0,
      "percentage_of_fitting_traces": 0.0
    },
    "fscore": 0.8986208195616837,
    "generalization": 0.729739876514379,
    "metricsAverageWeight": 0.821193836755358,
    "precision": 1.0,
    "simplicity": 0.7391304347826086
  },
  "sound": false,
  "top 30": {
    "fitness": {
      "average_trace_fitness": 0.811454032876734,
      "log_fitness": 0.8159050357244444,
      "perc_fit_traces": 0.0,
      "percentage_of_fitting_traces": 0.0
    },
    "fscore": 0.8986208195616837,
    "generalization": 0.729739876514379,
    "metricsAverageWeight": 0.821193836755358,
    "precision": 1.0,
    "simplicity": 0.7391304347826086
  }
}