{
  "FULL": {
    "fitness": {
      "average_trace_fitness": 1.0,
      "log_fitness": 1.0,
      "perc_fit_traces": 100.0,
      "percentage_of_fitting_traces": 100.0
    },
    "fitness_alignments": {
      "averageFitness": 1.0,
      "average_trace_fitness": 1.0,
      "percFitTraces": 100.0,
      "percentage_of_fitting_traces": 100.0
    },
    "fscore": 0.83325952170062,
    "generalization": 0.9602561876286295,
    "metricsAverageWeight": 0.8686083627166088,
    "precision": 0.7141772632378061,
    "precision_alignments": 0.7141772632378061,
    "simplicity": 0.8
  }
}