{
  "FULL": {
    "fitness": {
      "average_trace_fitness": 0.9353484848484865,
      "log_fitness": 0.9389099321580016,
      "perc_fit_traces": 49.8,
      "percentage_of_fitting_traces": 49.8
    },
    "fitness_alignments": {
      "averageFitness": 0.8765999999999924,
      "average_trace_fitness": 0.8765999999999924,
      "percFitTraces": 49.8,
      "percentage_of_fitting_traces": 49.8
    },
    "fscore": 0.9684925705785593,
    "generalization": 0.96717828749894,
    "metricsAverageWeight": 0.9765220549142354,
    "precision": 1.0,
    "precision_alignments": 1.0,
    "simplicity": 1.0
  }
}