{
  "FULL": {
    "entropia_precision": "nan",
    "entropia_recall": "nan",
    "fitness": {
      "average_trace_fitness": 0.9583333333333469,
      "log_fitness": 0.9583333333333333,
      "perc_fit_traces": 0.0,
      "percentage_of_fitting_traces": 0.0
    },
    "fscore": 0.8339282595406514,
    "generalization": 0.9683772233983162,
    "metricsAverageWeight": 0.9162054169606901,
    "precision": 0.7381111111111112,
    "simplicity": 1.0
  },
  "easy_soundness": false,
  "sound": false
}