{
  "FULL": {
    "fitness": {
      "average_trace_fitness": 1.0,
      "log_fitness": 1.0,
      "perc_fit_traces": 100.0,
      "percentage_of_fitting_traces": 100.0
    },
    "fitness_alignments": {
      "averageFitness": 1.0,
      "average_trace_fitness": 1.0,
      "percFitTraces": 100.0,
      "percentage_of_fitting_traces": 100.0
    },
    "fscore": 0.9958963903918032,
    "generalization": 0.8861320556574453,
    "metricsAverageWeight": 0.9278229278391148,
    "precision": 0.9918263223656809,
    "precision_alignments": 0.9918263223656809,
    "simplicity": 0.8333333333333333
  }
}