{
  "FULL": {
    "fitness": {
      "average_trace_fitness": 1.0,
      "log_fitness": 1.0,
      "perc_fit_traces": 100.0,
      "percentage_of_fitting_traces": 100.0
    },
    "fitness_alignments": {
      "averageFitness": 1.0,
      "average_trace_fitness": 1.0,
      "percFitTraces": 100.0,
      "percentage_of_fitting_traces": 100.0
    },
    "fscore": 0.9993672387882623,
    "generalization": 0.9540740487001016,
    "metricsAverageWeight": 0.932646776080382,
    "precision": 0.9987352778436487,
    "precision_alignments": 0.9987352778436487,
    "simplicity": 0.7777777777777779
  }
}