{
  "FULL": {
    "entropia_precision": null,
    "entropia_recall": null,
    "fitness": {
      "average_trace_fitness": 0.9856354327380102,
      "log_fitness": 0.9829990837829583,
      "perc_fit_traces": 66.6,
      "percentage_of_fitting_traces": 66.6
    },
    "fitness_alignments": {
      "averageFitness": -0.67,
      "average_trace_fitness": -0.67,
      "percFitTraces": 66.6,
      "percentage_of_fitting_traces": 66.6
    },
    "fscore": 0.9088776710748865,
    "generalization": 0.9445015694338079,
    "metricsAverageWeight": 0.8764961220555851,
    "precision": 0.8451505016722408,
    "precision_alignments": 0.8451505016722408,
    "simplicity": 0.7333333333333333
  },
  "easy_soundness": true,
  "sound": false
}