{
  "FULL": {
    "fitness": {
      "average_trace_fitness": 0.9271227272727282,
      "log_fitness": 0.9319775751608175,
      "perc_fit_traces": 50.9,
      "percentage_of_fitting_traces": 50.9
    },
    "fitness_alignments": {
      "averageFitness": 0.85075,
      "average_trace_fitness": 0.85075,
      "percFitTraces": 50.9,
      "percentage_of_fitting_traces": 50.9
    },
    "fscore": 0.9647912969002653,
    "generalization": 0.9635942376014269,
    "metricsAverageWeight": 0.9538929531905611,
    "precision": 1.0,
    "precision_alignments": 1.0,
    "simplicity": 0.92
  }
}