{
  "FULL": {
    "entropia_precision": 0.9999999999999972,
    "entropia_recall": 0.75870036515999,
    "fitness": {
      "average_trace_fitness": 0.8524999999999979,
      "log_fitness": 0.8534573271336433,
      "perc_fit_traces": 17.6,
      "percentage_of_fitting_traces": 17.6
    },
    "fitness_alignments": {
      "averageFitness": 0.6674999999999942,
      "average_trace_fitness": 0.6674999999999942,
      "percFitTraces": 17.6,
      "percentage_of_fitting_traces": 17.6
    },
    "fscore": 0.9209355021445333,
    "generalization": 0.9558897522437936,
    "metricsAverageWeight": 0.9523367698443592,
    "precision": 1.0,
    "precision_alignments": 1.0,
    "simplicity": 1.0
  },
  "easy_soundness": true,
  "sound": true
}