{
  "FULL": {
    "entropia_precision": 0.9425270040607973,
    "entropia_recall": 1.00268576288292,
    "fitness": {
      "average_trace_fitness": 1.0,
      "log_fitness": 1.0,
      "perc_fit_traces": 100.0,
      "percentage_of_fitting_traces": 100.0
    },
    "fitness_alignments": {
      "averageFitness": 1.0,
      "average_trace_fitness": 1.0,
      "percFitTraces": 100.0,
      "percentage_of_fitting_traces": 100.0
    },
    "fscore": 0.9914552271340134,
    "generalization": 0.9583579942648396,
    "metricsAverageWeight": 0.9398987639528507,
    "precision": 0.9830552433647445,
    "precision_alignments": 0.9830552433647445,
    "simplicity": 0.8181818181818181
  },
  "easy_soundness": true,
  "sound": true
}