{
  "easy_soundness": true,
  "filename": "/mnt/c/Users/s140511/tue/thesis/thesis_data/process_trees_simple_ws2/predictions/2261_gcn_ep144b_cca.json",
  "full": {
    "entropia_precision": 0.999998292578883,
    "entropia_recall": 1.00000001036337,
    "fitness": {
      "average_trace_fitness": 1.0,
      "log_fitness": 1.0,
      "perc_fit_traces": 100.0,
      "percentage_of_fitting_traces": 100.0
    },
    "fitness_alignments": {
      "averageFitness": 1.0,
      "average_trace_fitness": 1.0,
      "log_fitness": 0.999990000099999,
      "percFitTraces": 100.0,
      "percentage_of_fitting_traces": 100.0
    },
    "fscore": 1.0,
    "generalization": 0.9663574996699347,
    "metricsAverageWeight": 0.9743479956071388,
    "precision": 1.0,
    "precision_alignments": 1.0,
    "simplicity": 0.9310344827586208
  },
  "sound": true,
  "top 30": {
    "fitness": {
      "average_trace_fitness": 1.0,
      "log_fitness": 1.0,
      "perc_fit_traces": 100.0,
      "percentage_of_fitting_traces": 100.0
    },
    "fitness_alignments": {
      "averageFitness": 1.0,
      "average_trace_fitness": 1.0,
      "log_fitness": 0.999990000099999,
      "percFitTraces": 100.0,
      "percentage_of_fitting_traces": 100.0
    },
    "fscore": 1.0,
    "generalization": 0.9663574996699347,
    "metricsAverageWeight": 0.9743479956071388,
    "precision": 1.0,
    "precision_alignments": 1.0,
    "simplicity": 0.9310344827586208
  }
}