{
  "easy_soundness": true,
  "filename": "/mnt/c/Users/s140511/tue/thesis/thesis_data/process_trees_simple_ws2/predictions/2262_gcn_ep144b_cca.json",
  "full": {
    "entropia_precision": 0.9952916369123667,
    "entropia_recall": 1.00034594119227,
    "fitness": {
      "average_trace_fitness": 1.0,
      "log_fitness": 1.0,
      "perc_fit_traces": 100.0,
      "percentage_of_fitting_traces": 100.0
    },
    "fitness_alignments": {
      "averageFitness": 1.0,
      "average_trace_fitness": 1.0,
      "log_fitness": 0.999987500156248,
      "percFitTraces": 100.0,
      "percentage_of_fitting_traces": 100.0
    },
    "fscore": 1.0,
    "generalization": 0.9640107495627251,
    "metricsAverageWeight": 0.9710026873906813,
    "precision": 1.0,
    "precision_alignments": 1.0,
    "simplicity": 0.92
  },
  "sound": true,
  "top 30": {
    "fitness": {
      "average_trace_fitness": 1.0,
      "log_fitness": 1.0,
      "perc_fit_traces": 100.0,
      "percentage_of_fitting_traces": 100.0
    },
    "fitness_alignments": {
      "averageFitness": 1.0,
      "average_trace_fitness": 1.0,
      "log_fitness": 0.999987500156248,
      "percFitTraces": 100.0,
      "percentage_of_fitting_traces": 100.0
    },
    "fscore": 1.0,
    "generalization": 0.9640107495627251,
    "metricsAverageWeight": 0.9710026873906813,
    "precision": 1.0,
    "precision_alignments": 1.0,
    "simplicity": 0.92
  }
}