{
  "FULL": {
    "fitness": {
      "average_trace_fitness": 0.733,
      "log_fitness": 0.9089358799454297,
      "perc_fit_traces": 73.3,
      "percentage_of_fitting_traces": 73.3
    },
    "fitness_alignments": {
      "averageFitness": 0.5995,
      "average_trace_fitness": 0.5995,
      "percFitTraces": 73.3,
      "percentage_of_fitting_traces": 73.3
    },
    "fscore": 0.9522958727889941,
    "generalization": 0.9382299606079306,
    "metricsAverageWeight": 0.9284581268050067,
    "precision": 1.0,
    "precision_alignments": 1.0,
    "simplicity": 0.8666666666666667
  }
}