{
  "FULL": {
    "fitness": {
      "average_trace_fitness": 0.9493999999999885,
      "log_fitness": 0.9467704607616242,
      "perc_fit_traces": 49.4,
      "percentage_of_fitting_traces": 49.4
    },
    "fitness_alignments": {
      "averageFitness": 0.8987999999999783,
      "average_trace_fitness": 0.8987999999999783,
      "percFitTraces": 49.4,
      "percentage_of_fitting_traces": 49.4
    },
    "fscore": 0.966511347213417,
    "generalization": 0.9667731426675968,
    "metricsAverageWeight": 0.9488433586702154,
    "precision": 0.9870929891463772,
    "precision_alignments": 0.9870929891463772,
    "simplicity": 0.8947368421052632
  }
}