{
  "FULL": {
    "fitness": {
      "average_trace_fitness": 1.0,
      "log_fitness": 1.0,
      "perc_fit_traces": 100.0,
      "percentage_of_fitting_traces": 100.0
    },
    "fitness_alignments": {
      "averageFitness": 1.0,
      "average_trace_fitness": 1.0,
      "percFitTraces": 100.0,
      "percentage_of_fitting_traces": 100.0
    },
    "fscore": 0.9997474428589468,
    "generalization": 0.9593834973333114,
    "metricsAverageWeight": 0.9634038381736192,
    "precision": 0.9994950132559021,
    "precision_alignments": 0.9994950132559021,
    "simplicity": 0.8947368421052632
  }
}