{
  "FULL": {
    "entropia_precision": "nan",
    "entropia_recall": "nan",
    "fitness": {
      "average_trace_fitness": 0.9032942307692255,
      "log_fitness": 0.9036948679906935,
      "perc_fit_traces": 0.0,
      "percentage_of_fitting_traces": 0.0
    },
    "fscore": 0.6847570815316817,
    "generalization": 0.8951329410665769,
    "metricsAverageWeight": 0.771721117630629,
    "precision": 0.5512145562020874,
    "simplicity": 0.7368421052631579
  },
  "easy_soundness": false,
  "sound": false
}