{
  "FULL": {
    "fitness": {
      "average_trace_fitness": 0.9120924244634017,
      "log_fitness": 0.9174772287178409,
      "perc_fit_traces": 0.0,
      "percentage_of_fitting_traces": 0.0
    },
    "fscore": 0.9569628415679597,
    "generalization": 0.970244324310167,
    "metricsAverageWeight": 0.917876334202948,
    "precision": 1.0,
    "simplicity": 0.7837837837837838
  },
  "Top 30": {
    "fitness": {
      "average_trace_fitness": 0.9070546737213295,
      "log_fitness": 0.9095317262399556,
      "perc_fit_traces": 0.0,
      "percentage_of_fitting_traces": 0.0
    },
    "fscore": 0.9526227961982151,
    "generalization": 0.9599391196028979,
    "metricsAverageWeight": 0.9133136574066593,
    "precision": 1.0,
    "simplicity": 0.7837837837837838
  }
}