{
  "FULL": {
    "entropia_precision": 1.008914135494758,
    "entropia_recall": 1.016423019698383,
    "fitness": {
      "average_trace_fitness": 0.9999912280701755,
      "log_fitness": 0.9999560594076808,
      "perc_fit_traces": 99.9,
      "percentage_of_fitting_traces": 99.9
    },
    "fitness_alignments": {
      "averageFitness": 0.9996,
      "average_trace_fitness": 0.9996,
      "percFitTraces": 99.9,
      "percentage_of_fitting_traces": 99.9
    },
    "fscore": 0.9950015446720366,
    "generalization": 0.970244324310167,
    "metricsAverageWeight": 0.9472169241886038,
    "precision": 0.9900958844651383,
    "precision_alignments": 0.9900958844651383,
    "simplicity": 0.8285714285714286
  },
  "easy_soundness": true,
  "sound": true
}