{
  "FULL": {
    "entropia_precision": 0.958616831206788,
    "entropia_recall": 0.95260204846402,
    "fitness": {
      "average_trace_fitness": 0.9769226823593676,
      "log_fitness": 0.98195205144636,
      "perc_fit_traces": 51.4,
      "percentage_of_fitting_traces": 51.4
    },
    "fitness_alignments": {
      "averageFitness": 0.9027999999999943,
      "average_trace_fitness": 0.9027999999999943,
      "percFitTraces": 51.4,
      "percentage_of_fitting_traces": 51.4
    },
    "fscore": 0.9802631500319527,
    "generalization": 0.8755124290842727,
    "metricsAverageWeight": 0.902407358615331,
    "precision": 0.9785800482703138,
    "precision_alignments": 0.9809609445248055,
    "simplicity": 0.7735849056603775
  },
  "easy_soundness": true,
  "sound": false
}