{
  "FULL": {
    "entropia_precision": 0.0,
    "entropia_recall": 0.0,
    "fitness": {
      "average_trace_fitness": 0.9141695969764889,
      "log_fitness": 0.927929022848809,
      "perc_fit_traces": 0.0,
      "percentage_of_fitting_traces": 0.0
    },
    "fitness_alignments": {
      "averageFitness": 0.40925,
      "average_trace_fitness": 0.40925,
      "percFitTraces": 0.0,
      "percentage_of_fitting_traces": 0.0
    },
    "fscore": 0.8676790779322451,
    "generalization": 0.9155878148056318,
    "metricsAverageWeight": 0.856880925070318,
    "precision": 0.814776093396062,
    "precision_alignments": 0.814776093396062,
    "simplicity": 0.7692307692307694
  },
  "easy_soundness": true,
  "sound": false
}