{
  "FULL": {
    "fitness": {
      "average_trace_fitness": 0.9748999999999943,
      "log_fitness": 0.9666045769026078,
      "perc_fit_traces": 74.9,
      "percentage_of_fitting_traces": 74.9
    },
    "fitness_alignments": {
      "averageFitness": 0.9497999999999885,
      "average_trace_fitness": 0.9497999999999885,
      "percFitTraces": 74.9,
      "percentage_of_fitting_traces": 74.9
    },
    "fscore": 0.9801692516947972,
    "generalization": 0.9568997600557302,
    "metricsAverageWeight": 0.9555965754717672,
    "precision": 0.9941200601668262,
    "precision_alignments": 0.9941200601668262,
    "simplicity": 0.9047619047619049
  }
}