{
  "FULL": {
    "entropia_precision": 1.0000000000004243,
    "entropia_recall": 0.953303666266746,
    "fitness": {
      "average_trace_fitness": 0.9895999999999976,
      "log_fitness": 0.9866186309830159,
      "perc_fit_traces": 89.6,
      "percentage_of_fitting_traces": 89.6
    },
    "fitness_alignments": {
      "averageFitness": 0.9584000000000024,
      "average_trace_fitness": 0.9584000000000024,
      "percFitTraces": 89.6,
      "percentage_of_fitting_traces": 89.6
    },
    "fscore": 0.9932642487046631,
    "generalization": 0.9551361455052092,
    "metricsAverageWeight": 0.9636995636872737,
    "precision": 1.0,
    "precision_alignments": 1.0,
    "simplicity": 0.9130434782608695
  },
  "easy_soundness": true,
  "sound": true
}