{
  "FULL": {
    "fitness": {
      "average_trace_fitness": 0.9715555555555621,
      "log_fitness": 0.9680917362582575,
      "perc_fit_traces": 74.4,
      "percentage_of_fitting_traces": 74.4
    },
    "fitness_alignments": {
      "averageFitness": 0.8976000000000058,
      "average_trace_fitness": 0.8976000000000058,
      "percFitTraces": 74.4,
      "percentage_of_fitting_traces": 74.4
    },
    "fscore": 0.9837872070930969,
    "generalization": 0.9568997600557302,
    "metricsAverageWeight": 0.9595087436437143,
    "precision": 1.0,
    "precision_alignments": 1.0,
    "simplicity": 0.9130434782608695
  },
  "Top 30": {
    "fitness": {
      "average_trace_fitness": 0.9715555555555621,
      "log_fitness": 0.9680917362582575,
      "perc_fit_traces": 74.4,
      "percentage_of_fitting_traces": 74.4
    },
    "fitness_alignments": {
      "averageFitness": 0.8976000000000058,
      "average_trace_fitness": 0.8976000000000058,
      "percFitTraces": 74.4,
      "percentage_of_fitting_traces": 74.4
    },
    "fscore": 0.9837872070930969,
    "generalization": 0.9568997600557302,
    "metricsAverageWeight": 0.9595087436437143,
    "precision": 1.0,
    "precision_alignments": 1.0,
    "simplicity": 0.9130434782608695
  }
}