{
  "FULL": {
    "fitness": {
      "average_trace_fitness": 0.9618935064934995,
      "log_fitness": 0.9535313343754441,
      "perc_fit_traces": 73.3,
      "percentage_of_fitting_traces": 73.3
    },
    "fitness_alignments": {
      "averageFitness": 0.5755,
      "average_trace_fitness": 0.5755,
      "percFitTraces": 73.3,
      "percentage_of_fitting_traces": 73.3
    },
    "fscore": 0.976212991925511,
    "generalization": 0.9428947265887623,
    "metricsAverageWeight": 0.8991065152410517,
    "precision": 1.0,
    "precision_alignments": 1.0,
    "simplicity": 0.7000000000000001
  },
  "Top 30": {
    "fitness": {
      "average_trace_fitness": 0.963303021413898,
      "log_fitness": 0.9554140127388535,
      "perc_fit_traces": 75.25667351129364,
      "percentage_of_fitting_traces": 75.25667351129364
    },
    "fitness_alignments": {
      "averageFitness": 0.6175564681724846,
      "average_trace_fitness": 0.6175564681724846,
      "percFitTraces": 75.25667351129364,
      "percentage_of_fitting_traces": 75.25667351129364
    },
    "fscore": 0.9771986970684039,
    "generalization": 0.9414133015644158,
    "metricsAverageWeight": 0.8992068285758174,
    "precision": 1.0,
    "precision_alignments": 1.0,
    "simplicity": 0.7000000000000001
  }
}