{
  "FULL": {
    "fitness": {
      "average_trace_fitness": 0.9341725441225475,
      "log_fitness": 0.9276850297334192,
      "perc_fit_traces": 70.7,
      "percentage_of_fitting_traces": 70.7
    },
    "fitness_alignments": {
      "averageFitness": 0.802,
      "average_trace_fitness": 0.802,
      "percFitTraces": 70.7,
      "percentage_of_fitting_traces": 70.7
    },
    "fscore": 0.9492056853292223,
    "generalization": 0.9417638744519613,
    "metricsAverageWeight": 0.8950819688728193,
    "precision": 0.9717485365232884,
    "precision_alignments": 0.9717485365232884,
    "simplicity": 0.7391304347826086
  }
}