{
  "FULL": {
    "fitness": {
      "average_trace_fitness": 1.0,
      "log_fitness": 1.0,
      "perc_fit_traces": 100.0,
      "percentage_of_fitting_traces": 100.0
    },
    "fitness_alignments": {
      "averageFitness": 1.0,
      "average_trace_fitness": 1.0,
      "percFitTraces": 100.0,
      "percentage_of_fitting_traces": 100.0
    },
    "fscore": 0.9999585251544938,
    "generalization": 0.9693622864524724,
    "metricsAverageWeight": 0.9923198350504107,
    "precision": 0.9999170537491705,
    "precision_alignments": 0.9999170537491705,
    "simplicity": 1.0
  }
}