{
  "FULL": {
    "fitness": {
      "average_trace_fitness": 0.9737777777777794,
      "log_fitness": 0.9746643315820198,
      "perc_fit_traces": 78.3,
      "percentage_of_fitting_traces": 78.3
    },
    "fitness_alignments": {
      "averageFitness": 0.8915,
      "average_trace_fitness": 0.8915,
      "percFitTraces": 78.3,
      "percentage_of_fitting_traces": 78.3
    },
    "fscore": 0.9871696328268196,
    "generalization": 0.9538440044031313,
    "metricsAverageWeight": 0.9337399872220942,
    "precision": 1.0,
    "precision_alignments": 1.0,
    "simplicity": 0.8064516129032256
  }
}