{
  "easy_soundness": true,
  "filename": "/mnt/c/Users/s140511/tue/thesis/thesis_data/process_trees_simple_ws2/predictions/2289_gcn_ep144b_cc.json",
  "full": {
    "fitness": {
      "average_trace_fitness": 0.9727272727272634,
      "log_fitness": 0.9657103668990742,
      "perc_fit_traces": 70.0,
      "percentage_of_fitting_traces": 70.0
    },
    "fitness_alignments": {
      "averageFitness": 0.8999999999999886,
      "average_trace_fitness": 0.8999999999999886,
      "percFitTraces": 70.0,
      "percentage_of_fitting_traces": 70.0
    },
    "fscore": 0.9825561111757181,
    "generalization": 0.9539588071204255,
    "metricsAverageWeight": 0.9315301967306814,
    "precision": 1.0,
    "precision_alignments": 1.0,
    "simplicity": 0.8064516129032256
  },
  "sound": true,
  "top 30": {
    "fitness": {
      "average_trace_fitness": 0.9727272727272634,
      "log_fitness": 0.9657103668990742,
      "perc_fit_traces": 70.0,
      "percentage_of_fitting_traces": 70.0
    },
    "fitness_alignments": {
      "averageFitness": 0.8999999999999886,
      "average_trace_fitness": 0.8999999999999886,
      "percFitTraces": 70.0,
      "percentage_of_fitting_traces": 70.0
    },
    "fscore": 0.9825561111757181,
    "generalization": 0.9539588071204255,
    "metricsAverageWeight": 0.9315301967306814,
    "precision": 1.0,
    "precision_alignments": 1.0,
    "simplicity": 0.8064516129032256
  }
}