{
  "FULL": {
    "fitness": {
      "average_trace_fitness": 0.9658571428571506,
      "log_fitness": 0.9517561566410981,
      "perc_fit_traces": 76.1,
      "percentage_of_fitting_traces": 76.1
    },
    "fitness_alignments": {
      "averageFitness": 0.522,
      "average_trace_fitness": 0.522,
      "percFitTraces": 76.1,
      "percentage_of_fitting_traces": 76.1
    },
    "fscore": 0.9752818285241494,
    "generalization": 0.9450086744945522,
    "metricsAverageWeight": 0.9325245411172458,
    "precision": 1.0,
    "precision_alignments": 1.0,
    "simplicity": 0.8333333333333333
  }
}