{
  "FULL": {
    "fitness": {
      "average_trace_fitness": 0.9555205056405329,
      "log_fitness": 0.9584514775497088,
      "perc_fit_traces": 51.7,
      "percentage_of_fitting_traces": 51.7
    },
    "fitness_alignments": {
      "averageFitness": 0.9463333333333439,
      "average_trace_fitness": 0.9463333333333439,
      "percFitTraces": 51.7,
      "percentage_of_fitting_traces": 51.7
    },
    "fscore": 0.9746766946725884,
    "generalization": 0.963342417790316,
    "metricsAverageWeight": 0.9354565087428687,
    "precision": 0.9914607110600213,
    "precision_alignments": 0.9914607110600213,
    "simplicity": 0.8285714285714286
  }
}