{
  "FULL": {
    "fitness": {
      "average_trace_fitness": 1.0,
      "log_fitness": 1.0,
      "perc_fit_traces": 100.0,
      "percentage_of_fitting_traces": 100.0
    },
    "fitness_alignments": {
      "averageFitness": 1.0,
      "average_trace_fitness": 1.0,
      "percFitTraces": 100.0,
      "percentage_of_fitting_traces": 100.0
    },
    "fscore": 0.9996539073856163,
    "generalization": 0.9630768911813492,
    "metricsAverageWeight": 0.9572629030241407,
    "precision": 0.999308054248547,
    "precision_alignments": 0.999308054248547,
    "simplicity": 0.8666666666666667
  }
}