{
  "FULL": {
    "entropia_precision": 0.9280122886651322,
    "entropia_recall": 1.003288461932481,
    "fitness": {
      "average_trace_fitness": 1.0,
      "log_fitness": 1.0,
      "perc_fit_traces": 100.0,
      "percentage_of_fitting_traces": 100.0
    },
    "fitness_alignments": {
      "averageFitness": 1.0,
      "average_trace_fitness": 1.0,
      "percFitTraces": 100.0,
      "percentage_of_fitting_traces": 100.0
    },
    "fscore": 0.9509135802469136,
    "generalization": 0.9625788898019233,
    "metricsAverageWeight": 0.9217953360996822,
    "precision": 0.9064206364149878,
    "precision_alignments": 0.9064206364149878,
    "simplicity": 0.8181818181818181
  },
  "easy_soundness": true,
  "sound": true
}