{
  "easy_soundness": false,
  "filename": "/mnt/c/Users/s140511/tue/thesis/thesis_data/process_trees_simple_ws2/predictions/2293_gcn_ep144b_cca.json",
  "full": {
    "entropia_precision": "nan",
    "entropia_recall": "nan",
    "fitness": {
      "average_trace_fitness": 0.6165094414938901,
      "log_fitness": 0.6991065235251773,
      "perc_fit_traces": 0.0,
      "percentage_of_fitting_traces": 0.0
    },
    "fscore": 0.822910763799228,
    "generalization": 0.5779995941452813,
    "metricsAverageWeight": 0.6526098627509481,
    "precision": 1.0,
    "simplicity": 0.3333333333333333
  },
  "sound": false,
  "top 30": {
    "fitness": {
      "average_trace_fitness": 0.5720806318584717,
      "log_fitness": 0.6294993497130406,
      "perc_fit_traces": 0.0,
      "percentage_of_fitting_traces": 0.0
    },
    "fscore": 0.7726291511854818,
    "generalization": 0.5675492903304468,
    "metricsAverageWeight": 0.6325954933442052,
    "precision": 1.0,
    "simplicity": 0.3333333333333333
  }
}