{
  "FULL": {
    "entropia_precision": 1.0008256796669626,
    "entropia_recall": 1.007267196127208,
    "fitness": {
      "average_trace_fitness": 1.0,
      "log_fitness": 1.0,
      "perc_fit_traces": 100.0,
      "percentage_of_fitting_traces": 100.0
    },
    "fitness_alignments": {
      "averageFitness": 1.0,
      "average_trace_fitness": 1.0,
      "percFitTraces": 100.0,
      "percentage_of_fitting_traces": 100.0
    },
    "fscore": 0.9998367879875959,
    "generalization": 0.9556019855932699,
    "metricsAverageWeight": 0.9594071390031401,
    "precision": 0.9996736292428199,
    "precision_alignments": 0.9996736292428199,
    "simplicity": 0.8823529411764706
  },
  "easy_soundness": true,
  "sound": true
}