{
  "FULL": {
    "fitness": {
      "average_trace_fitness": 1.0,
      "log_fitness": 1.0,
      "perc_fit_traces": 100.0,
      "percentage_of_fitting_traces": 100.0
    },
    "fitness_alignments": {
      "averageFitness": 1.0,
      "average_trace_fitness": 1.0,
      "percFitTraces": 100.0,
      "percentage_of_fitting_traces": 100.0
    },
    "fscore": 0.9827017225747959,
    "generalization": 0.9515293875358702,
    "metricsAverageWeight": 0.9267487003478354,
    "precision": 0.9659917296449451,
    "precision_alignments": 0.9659917296449451,
    "simplicity": 0.7894736842105263
  }
}