{
  "FULL": {
    "fitness": {
      "average_trace_fitness": 0.9391249999999985,
      "log_fitness": 0.9364035087719298,
      "perc_fit_traces": 47.8,
      "percentage_of_fitting_traces": 47.8
    },
    "fitness_alignments": {
      "averageFitness": 0.9130000000000172,
      "average_trace_fitness": 0.9130000000000172,
      "percFitTraces": 47.8,
      "percentage_of_fitting_traces": 47.8
    },
    "fscore": 0.9521679668586626,
    "generalization": 0.951347275729904,
    "metricsAverageWeight": 0.9186012273598965,
    "precision": 0.9684723067559342,
    "precision_alignments": 0.9684723067559342,
    "simplicity": 0.8181818181818181
  }
}