{
  "FULL": {
    "fitness": {
      "average_trace_fitness": 0.9745299145299203,
      "log_fitness": 0.9569737222061796,
      "perc_fit_traces": 77.07692307692308,
      "percentage_of_fitting_traces": 77.07692307692308
    },
    "fitness_alignments": {
      "averageFitness": 0.5415384615384615,
      "average_trace_fitness": 0.5415384615384615,
      "percFitTraces": 77.07692307692308,
      "percentage_of_fitting_traces": 77.07692307692308
    },
    "fscore": 0.9780138704441493,
    "generalization": 0.9434158738557502,
    "metricsAverageWeight": 0.9750973990154824,
    "precision": 1.0,
    "precision_alignments": 1.0,
    "simplicity": 1.0
  }
}