{
  "FULL": {
    "fitness": {
      "average_trace_fitness": 0.4684615384615369,
      "log_fitness": 0.887496356747304,
      "perc_fit_traces": 40.61538461538461,
      "percentage_of_fitting_traces": 40.61538461538461
    },
    "fitness_alignments": {
      "averageFitness": 0.3925,
      "average_trace_fitness": 0.3925,
      "percFitTraces": 40.61538461538461,
      "percentage_of_fitting_traces": 40.61538461538461
    },
    "fscore": 0.8798466112096657,
    "generalization": 0.8383217667565712,
    "metricsAverageWeight": 0.8757269101076977,
    "precision": 0.8723276121650105,
    "precision_alignments": 0.8723276121650105,
    "simplicity": 0.9047619047619049
  }
}