{
  "FULL": {
    "entropia_precision": 0.9260391516702363,
    "entropia_recall": 0.857956104701121,
    "fitness": {
      "average_trace_fitness": 0.313,
      "log_fitness": 0.8948254745866503,
      "perc_fit_traces": 31.3,
      "percentage_of_fitting_traces": 31.3
    },
    "fitness_alignments": {
      "averageFitness": 0.14125,
      "average_trace_fitness": 0.14125,
      "percFitTraces": 31.3,
      "percentage_of_fitting_traces": 31.3
    },
    "fscore": 0.9033452029618244,
    "generalization": 0.9186350928142153,
    "metricsAverageWeight": 0.866856194146504,
    "precision": 0.9120287253141831,
    "precision_alignments": 0.9120287253141831,
    "simplicity": 0.7419354838709676
  },
  "easy_soundness": true,
  "sound": true
}