{
  "FULL": {
    "entropia_precision": 0.9969727639003243,
    "entropia_recall": 0.952298104101938,
    "fitness": {
      "average_trace_fitness": 0.9856784242500407,
      "log_fitness": 0.9575624082232012,
      "perc_fit_traces": 83.7,
      "percentage_of_fitting_traces": 83.7
    },
    "fitness_alignments": {
      "averageFitness": 0.243,
      "average_trace_fitness": 0.243,
      "percFitTraces": 83.7,
      "percentage_of_fitting_traces": 83.7
    },
    "fscore": 0.972643653037737,
    "generalization": 0.9340569280023847,
    "metricsAverageWeight": 0.9074567208488493,
    "precision": 0.9882075471698113,
    "precision_alignments": 0.9882075471698113,
    "simplicity": 0.7499999999999999
  },
  "easy_soundness": true,
  "sound": true
}