{
  "FULL": {
    "fitness": {
      "average_trace_fitness": 1.0,
      "log_fitness": 1.0,
      "perc_fit_traces": 100.0,
      "percentage_of_fitting_traces": 100.0
    },
    "fitness_alignments": {
      "averageFitness": 1.0,
      "average_trace_fitness": 1.0,
      "percFitTraces": 100.0,
      "percentage_of_fitting_traces": 100.0
    },
    "fscore": 0.9992801121509491,
    "generalization": 0.9568239297038188,
    "metricsAverageWeight": 0.9388462974342842,
    "precision": 0.9985612600333182,
    "precision_alignments": 0.9985612600333182,
    "simplicity": 0.8
  }
}