{
  "FULL": {
    "entropia_precision": 1.0019307717057824,
    "entropia_recall": 1.002297007241404,
    "fitness": {
      "average_trace_fitness": 1.0,
      "log_fitness": 1.0,
      "perc_fit_traces": 100.0,
      "percentage_of_fitting_traces": 100.0
    },
    "fitness_alignments": {
      "averageFitness": 1.0,
      "average_trace_fitness": 1.0,
      "percFitTraces": 100.0,
      "percentage_of_fitting_traces": 100.0
    },
    "fscore": 0.9992801121509491,
    "generalization": 0.9552834905445525,
    "metricsAverageWeight": 0.9329056320889122,
    "precision": 0.9985612600333182,
    "precision_alignments": 0.9985612600333182,
    "simplicity": 0.7777777777777779
  },
  "easy_soundness": true,
  "sound": true
}