{
  "FULL": {
    "entropia_precision": 1.0000000000000002,
    "entropia_recall": 0.863907310451554,
    "fitness": {
      "average_trace_fitness": 0.755,
      "log_fitness": 0.9186316838259714,
      "perc_fit_traces": 75.5,
      "percentage_of_fitting_traces": 75.5
    },
    "fitness_alignments": {
      "averageFitness": 0.6325,
      "average_trace_fitness": 0.6325,
      "percFitTraces": 75.5,
      "percentage_of_fitting_traces": 75.5
    },
    "fscore": 0.9575904448675783,
    "generalization": 0.9395929185711394,
    "metricsAverageWeight": 0.9312228172659444,
    "precision": 1.0,
    "precision_alignments": 1.0,
    "simplicity": 0.8666666666666667
  },
  "easy_soundness": true,
  "sound": true
}