{
  "FULL": {
    "entropia_precision": 0.9755111119548828,
    "entropia_recall": 0.95944435435632,
    "fitness": {
      "average_trace_fitness": 0.9687472527472485,
      "log_fitness": 0.9703316133329426,
      "perc_fit_traces": 67.5,
      "percentage_of_fitting_traces": 67.5
    },
    "fitness_alignments": {
      "averageFitness": 0.959375,
      "average_trace_fitness": 0.959375,
      "percFitTraces": 67.5,
      "percentage_of_fitting_traces": 67.5
    },
    "fscore": 0.982865187352711,
    "generalization": 0.9586482133711489,
    "metricsAverageWeight": 0.920201043318216,
    "precision": 0.9957267855931629,
    "precision_alignments": 0.9957267855931629,
    "simplicity": 0.7560975609756097
  },
  "easy_soundness": true,
  "sound": true
}