{
  "FULL": {
    "entropia_precision": 0.8671848364106557,
    "entropia_recall": 0.789321034082117,
    "fitness": {
      "average_trace_fitness": 0.9268090909090744,
      "log_fitness": 0.9274570982839314,
      "perc_fit_traces": 38.2,
      "percentage_of_fitting_traces": 38.2
    },
    "fitness_alignments": {
      "averageFitness": 0.8588571428571509,
      "average_trace_fitness": 0.8588571428571509,
      "percFitTraces": 38.2,
      "percentage_of_fitting_traces": 38.2
    },
    "fscore": 0.931549983343664,
    "generalization": 0.8913875181259872,
    "metricsAverageWeight": 0.8902438454478471,
    "precision": 0.9356791524782444,
    "precision_alignments": 0.9356791524782444,
    "simplicity": 0.8064516129032256
  },
  "easy_soundness": true,
  "sound": true
}