{
  "FULL": {
    "entropia_precision": 1.0000000002736407,
    "entropia_recall": 1.00000000313871,
    "fitness": {
      "average_trace_fitness": 0.9807692307692264,
      "log_fitness": 0.9807692307692307,
      "perc_fit_traces": 75.0,
      "percentage_of_fitting_traces": 75.0
    },
    "fitness_alignments": {
      "averageFitness": 1.0,
      "average_trace_fitness": 1.0,
      "percFitTraces": 100.0,
      "percentage_of_fitting_traces": 100.0
    },
    "fscore": 0.9902912621359222,
    "generalization": 0.8929250133245988,
    "metricsAverageWeight": 0.9043209969208933,
    "precision": 1.0,
    "precision_alignments": 1.0,
    "simplicity": 0.7435897435897437
  },
  "easy_soundness": true,
  "sound": false
}