{
  "FULL": {
    "fitness": {
      "average_trace_fitness": 0.8944338192014116,
      "log_fitness": 0.8878529855572321,
      "perc_fit_traces": 14.1,
      "percentage_of_fitting_traces": 14.1
    },
    "fitness_alignments": {
      "averageFitness": 0.3063333333333308,
      "average_trace_fitness": 0.3063333333333308,
      "percFitTraces": 14.1,
      "percentage_of_fitting_traces": 14.1
    },
    "fscore": 0.9105051449534048,
    "generalization": 0.9737127015759685,
    "metricsAverageWeight": 0.8837598890648108,
    "precision": 0.9343434343434344,
    "precision_alignments": 0.9343434343434344,
    "simplicity": 0.7391304347826086
  }
}