{
  "FULL": {
    "entropia_precision": 0.950651164051692,
    "entropia_recall": 0.940748181123612,
    "fitness": {
      "average_trace_fitness": 0.9282903747279172,
      "log_fitness": 0.9349557751199098,
      "perc_fit_traces": 40.1,
      "percentage_of_fitting_traces": 40.1
    },
    "fitness_alignments": {
      "averageFitness": 0.7465,
      "average_trace_fitness": 0.7465,
      "percFitTraces": 40.1,
      "percentage_of_fitting_traces": 40.1
    },
    "fscore": 0.9316472009414494,
    "generalization": 0.9741096212871467,
    "metricsAverageWeight": 0.9038012837012148,
    "precision": 0.9283619606200252,
    "precision_alignments": 0.9283619606200252,
    "simplicity": 0.7777777777777779
  },
  "easy_soundness": true,
  "sound": true
}