{
  "FULL": {
    "fitness": {
      "average_trace_fitness": 0.9668336500259109,
      "log_fitness": 0.9428169568153129,
      "perc_fit_traces": 89.48004836759371,
      "percentage_of_fitting_traces": 89.48004836759371
    },
    "fitness_alignments": {
      "averageFitness": 0.8500604594921403,
      "average_trace_fitness": 0.8500604594921403,
      "percFitTraces": 89.48004836759371,
      "percentage_of_fitting_traces": 89.48004836759371
    },
    "fscore": 0.9595080379829662,
    "generalization": 0.9129250555817128,
    "metricsAverageWeight": 0.8867071187614239,
    "precision": 0.976800748362956,
    "precision_alignments": 0.976800748362956,
    "simplicity": 0.7142857142857143
  }
}