{
  "FULL": {
    "entropia_precision": 0.9999999999999997,
    "entropia_recall": 1.0,
    "fitness": {
      "average_trace_fitness": 1.0,
      "log_fitness": 1.0,
      "perc_fit_traces": 100.0,
      "percentage_of_fitting_traces": 100.0
    },
    "fitness_alignments": {
      "averageFitness": 1.0,
      "average_trace_fitness": 1.0,
      "percFitTraces": 100.0,
      "percentage_of_fitting_traces": 100.0
    },
    "fscore": 1.0,
    "generalization": 0.9351609161452059,
    "metricsAverageWeight": 0.938335683581756,
    "precision": 1.0,
    "precision_alignments": 1.0,
    "simplicity": 0.8181818181818181
  },
  "easy_soundness": true,
  "sound": true
}