{
  "FULL": {
    "entropia_precision": 1.0000000000000153,
    "entropia_recall": 0.742302693893271,
    "fitness": {
      "average_trace_fitness": 0.583,
      "log_fitness": 0.8574358974358974,
      "perc_fit_traces": 58.3,
      "percentage_of_fitting_traces": 58.3
    },
    "fitness_alignments": {
      "averageFitness": 0.166,
      "average_trace_fitness": 0.166,
      "percFitTraces": 58.3,
      "percentage_of_fitting_traces": 58.3
    },
    "fscore": 0.9232468249585865,
    "generalization": 0.9103978859437806,
    "metricsAverageWeight": 0.8794584458449195,
    "precision": 1.0,
    "precision_alignments": 1.0,
    "simplicity": 0.7499999999999999
  },
  "easy_soundness": true,
  "sound": true
}