{
  "FULL": {
    "fitness": {
      "average_trace_fitness": 0.9301785714285727,
      "log_fitness": 0.9124659177663867,
      "perc_fit_traces": 48.6,
      "percentage_of_fitting_traces": 48.6
    },
    "fitness_alignments": {
      "averageFitness": -0.491,
      "average_trace_fitness": -0.491,
      "percFitTraces": 48.6,
      "percentage_of_fitting_traces": 48.6
    },
    "fscore": 0.9542297295756014,
    "generalization": 0.7466482882957911,
    "metricsAverageWeight": 0.7952133341242401,
    "precision": 1.0,
    "precision_alignments": 1.0,
    "simplicity": 0.5217391304347826
  },
  "Top 30": {
    "fitness": {
      "average_trace_fitness": 0.9301785714285727,
      "log_fitness": 0.9124659177663867,
      "perc_fit_traces": 48.6,
      "percentage_of_fitting_traces": 48.6
    },
    "fitness_alignments": {
      "averageFitness": -0.491,
      "average_trace_fitness": -0.491,
      "percFitTraces": 48.6,
      "percentage_of_fitting_traces": 48.6
    },
    "fscore": 0.9542297295756014,
    "generalization": 0.7466482882957911,
    "metricsAverageWeight": 0.7952133341242401,
    "precision": 1.0,
    "precision_alignments": 1.0,
    "simplicity": 0.5217391304347826
  }
}