{
  "FULL": {
    "fitness": {
      "average_trace_fitness": 0.9671984126984178,
      "log_fitness": 0.9660125046425562,
      "perc_fit_traces": 50.7,
      "percentage_of_fitting_traces": 50.7
    },
    "fitness_alignments": {
      "averageFitness": 0.7041999999999937,
      "average_trace_fitness": 0.7041999999999937,
      "percFitTraces": 50.7,
      "percentage_of_fitting_traces": 50.7
    },
    "fscore": 0.9729390934172115,
    "generalization": 0.9533385996432586,
    "metricsAverageWeight": 0.9034006373567349,
    "precision": 0.9799657308554106,
    "precision_alignments": 0.9799657308554106,
    "simplicity": 0.7142857142857143
  },
  "Top 30": {
    "fitness": {
      "average_trace_fitness": 0.9671984126984178,
      "log_fitness": 0.9660125046425562,
      "perc_fit_traces": 50.7,
      "percentage_of_fitting_traces": 50.7
    },
    "fitness_alignments": {
      "averageFitness": 0.7041999999999937,
      "average_trace_fitness": 0.7041999999999937,
      "percFitTraces": 50.7,
      "percentage_of_fitting_traces": 50.7
    },
    "fscore": 0.9729390934172115,
    "generalization": 0.9533385996432586,
    "metricsAverageWeight": 0.9034006373567349,
    "precision": 0.9799657308554106,
    "precision_alignments": 0.9799657308554106,
    "simplicity": 0.7142857142857143
  }
}