{
  "easy_soundness": true,
  "filename": "/mnt/c/Users/s140511/tue/thesis/thesis_data/process_trees_simple_ws2/predictions/2340_gcn_ep144b_cca.json",
  "full": {
    "entropia_precision": 0.9971573204934714,
    "entropia_recall": 0.99720293953729,
    "fitness": {
      "average_trace_fitness": 1.0,
      "log_fitness": 1.0,
      "perc_fit_traces": 100.0,
      "percentage_of_fitting_traces": 100.0
    },
    "fitness_alignments": {
      "averageFitness": 1.0,
      "average_trace_fitness": 1.0,
      "log_fitness": 0.9999878943418153,
      "percFitTraces": 100.0,
      "percentage_of_fitting_traces": 100.0
    },
    "fscore": 1.0,
    "generalization": 0.9651735211232239,
    "metricsAverageWeight": 0.9727748617622873,
    "precision": 1.0,
    "precision_alignments": 1.0,
    "simplicity": 0.9259259259259258
  },
  "sound": true,
  "top 30": {
    "fitness": {
      "average_trace_fitness": 1.0,
      "log_fitness": 1.0,
      "perc_fit_traces": 100.0,
      "percentage_of_fitting_traces": 100.0
    },
    "fitness_alignments": {
      "averageFitness": 1.0,
      "average_trace_fitness": 1.0,
      "log_fitness": 0.9999878943418153,
      "percFitTraces": 100.0,
      "percentage_of_fitting_traces": 100.0
    },
    "fscore": 1.0,
    "generalization": 0.9651735211232239,
    "metricsAverageWeight": 0.9727748617622873,
    "precision": 1.0,
    "precision_alignments": 1.0,
    "simplicity": 0.9259259259259258
  }
}