{
  "FULL": {
    "fitness": {
      "average_trace_fitness": 1.0,
      "log_fitness": 1.0,
      "perc_fit_traces": 100.0,
      "percentage_of_fitting_traces": 100.0
    },
    "fitness_alignments": {
      "averageFitness": 1.0,
      "average_trace_fitness": 1.0,
      "percFitTraces": 100.0,
      "percentage_of_fitting_traces": 100.0
    },
    "fscore": 0.9738954809391568,
    "generalization": 0.9497093668371708,
    "metricsAverageWeight": 0.9071395694374638,
    "precision": 0.9491191811829545,
    "precision_alignments": 0.9491191811829545,
    "simplicity": 0.7297297297297298
  }
}