{
  "FULL": {
    "fitness": {
      "average_trace_fitness": 0.9846316910602639,
      "log_fitness": 0.9757019438444925,
      "perc_fit_traces": 76.63690476190476,
      "percentage_of_fitting_traces": 76.63690476190476
    },
    "fitness_alignments": {
      "averageFitness": 0.6800595238095238,
      "average_trace_fitness": 0.6800595238095238,
      "percFitTraces": 76.63690476190476,
      "percentage_of_fitting_traces": 76.63690476190476
    },
    "fscore": 0.9418921359003741,
    "generalization": 0.9482105335526355,
    "metricsAverageWeight": 0.9131103222068735,
    "precision": 0.9103469932485476,
    "precision_alignments": 0.9103469932485476,
    "simplicity": 0.8181818181818181
  },
  "Top 30": {
    "fitness": {
      "average_trace_fitness": 0.9862068965517233,
      "log_fitness": 0.9760479041916168,
      "perc_fit_traces": 83.96551724137932,
      "percentage_of_fitting_traces": 83.96551724137932
    },
    "fitness_alignments": {
      "averageFitness": 0.8224137931034483,
      "average_trace_fitness": 0.8224137931034483,
      "percFitTraces": 83.96551724137932,
      "percentage_of_fitting_traces": 83.96551724137932
    },
    "fscore": 0.947743042454538,
    "generalization": 0.9240497427507653,
    "metricsAverageWeight": 0.9098282579738779,
    "precision": 0.9210335667713113,
    "precision_alignments": 0.9210335667713113,
    "simplicity": 0.8181818181818181
  }
}