{
  "easy_soundness": false,
  "filename": "/mnt/c/Users/s140511/tue/thesis/thesis_data/process_trees_simple_ws2/predictions/2348_gcn_ep144b_cc.json",
  "full": {
    "fitness": {
      "average_trace_fitness": 0.7806141598910126,
      "log_fitness": 0.7843444971108431,
      "perc_fit_traces": 0.0,
      "percentage_of_fitting_traces": 0.0
    },
    "fscore": 0.879140209058094,
    "generalization": 0.6944986807551498,
    "metricsAverageWeight": 0.7982822230379268,
    "precision": 1.0,
    "simplicity": 0.7142857142857143
  },
  "sound": false,
  "top 30": {
    "fitness": {
      "average_trace_fitness": 0.7806141598910126,
      "log_fitness": 0.7843444971108431,
      "perc_fit_traces": 0.0,
      "percentage_of_fitting_traces": 0.0
    },
    "fscore": 0.879140209058094,
    "generalization": 0.6944986807551498,
    "metricsAverageWeight": 0.7982822230379268,
    "precision": 1.0,
    "simplicity": 0.7142857142857143
  }
}