{
  "FULL": {
    "fitness": {
      "average_trace_fitness": 1.0,
      "log_fitness": 1.0,
      "perc_fit_traces": 100.0,
      "percentage_of_fitting_traces": 100.0
    },
    "fitness_alignments": {
      "averageFitness": 1.0,
      "average_trace_fitness": 1.0,
      "percFitTraces": 100.0,
      "percentage_of_fitting_traces": 100.0
    },
    "fscore": 0.886544134331745,
    "generalization": 0.9507983374983027,
    "metricsAverageWeight": 0.8609943827763641,
    "precision": 0.7962094966374567,
    "precision_alignments": 0.7962094966374567,
    "simplicity": 0.6969696969696969
  }
}