{
  "FULL": {
    "entropia_precision": 1.0000000005813372,
    "entropia_recall": 1.000000001577746,
    "fitness": {
      "average_trace_fitness": 1.0,
      "log_fitness": 1.0,
      "perc_fit_traces": 100.0,
      "percentage_of_fitting_traces": 100.0
    },
    "fitness_alignments": {
      "averageFitness": 1.0,
      "average_trace_fitness": 1.0,
      "percFitTraces": 100.0,
      "percentage_of_fitting_traces": 100.0
    },
    "fscore": 1.0,
    "generalization": 0.950342111201883,
    "metricsAverageWeight": 0.9209188611338042,
    "precision": 1.0,
    "precision_alignments": 1.0,
    "simplicity": 0.7333333333333333
  },
  "easy_soundness": true,
  "sound": true
}