{
  "FULL": {
    "fitness": {
      "average_trace_fitness": 1.0,
      "log_fitness": 1.0,
      "perc_fit_traces": 100.0,
      "percentage_of_fitting_traces": 100.0
    },
    "fitness_alignments": {
      "averageFitness": 1.0,
      "average_trace_fitness": 1.0,
      "percFitTraces": 100.0,
      "percentage_of_fitting_traces": 100.0
    },
    "fscore": 0.9999438044394492,
    "generalization": 0.9481341746917213,
    "metricsAverageWeight": 0.9415509020169914,
    "precision": 0.9998876151944257,
    "precision_alignments": 0.9998876151944257,
    "simplicity": 0.8181818181818181
  }
}