{
  "FULL": {
    "fitness": {
      "average_trace_fitness": 1.0,
      "log_fitness": 1.0,
      "perc_fit_traces": 100.0,
      "percentage_of_fitting_traces": 100.0
    },
    "fitness_alignments": {
      "averageFitness": 1.0,
      "average_trace_fitness": 1.0,
      "percFitTraces": 100.0,
      "percentage_of_fitting_traces": 100.0
    },
    "fscore": 0.7123092573753815,
    "generalization": 0.9504867593113598,
    "metricsAverageWeight": 0.8044851076550752,
    "precision": 0.5531679570232264,
    "precision_alignments": 0.5531679570232264,
    "simplicity": 0.7142857142857143
  }
}