{
  "FULL": {
    "fitness": {
      "average_trace_fitness": 1.0,
      "log_fitness": 1.0,
      "perc_fit_traces": 100.0,
      "percentage_of_fitting_traces": 100.0
    },
    "fitness_alignments": {
      "averageFitness": 1.0,
      "average_trace_fitness": 1.0,
      "percFitTraces": 100.0,
      "percentage_of_fitting_traces": 100.0
    },
    "fscore": 0.9996618765849534,
    "generalization": 0.9658141074178352,
    "metricsAverageWeight": 0.9649687328176514,
    "precision": 0.9993239817475071,
    "precision_alignments": 0.9993239817475071,
    "simplicity": 0.8947368421052632
  }
}