{
  "FULL": {
    "fitness": {
      "average_trace_fitness": 1.0,
      "log_fitness": 1.0,
      "perc_fit_traces": 100.0,
      "percentage_of_fitting_traces": 100.0
    },
    "fitness_alignments": {
      "averageFitness": 1.0,
      "average_trace_fitness": 1.0,
      "percFitTraces": 100.0,
      "percentage_of_fitting_traces": 100.0
    },
    "fscore": 0.9982838931110567,
    "generalization": 0.9706962020187276,
    "metricsAverageWeight": 0.9655016775752954,
    "precision": 0.9965736661771905,
    "precision_alignments": 0.9965736661771905,
    "simplicity": 0.8947368421052632
  }
}