{
  "FULL": {
    "fitness": {
      "average_trace_fitness": 0.8941444444444464,
      "log_fitness": 0.8944368204370315,
      "perc_fit_traces": 0.0,
      "percentage_of_fitting_traces": 0.0
    },
    "fitness_alignments": {
      "averageFitness": 0.7999999999999887,
      "average_trace_fitness": 0.7999999999999887,
      "percFitTraces": 0.0,
      "percentage_of_fitting_traces": 0.0
    },
    "fscore": 0.8899394267347235,
    "generalization": 0.8142492766581789,
    "metricsAverageWeight": 0.8468191448958298,
    "precision": 0.8854870342122467,
    "precision_alignments": 0.8854870342122467,
    "simplicity": 0.7931034482758622
  }
}