{
  "FULL": {
    "entropia_precision": 0.8773002854222669,
    "entropia_recall": 0.802562754216377,
    "fitness": {
      "average_trace_fitness": 0.922788888888891,
      "log_fitness": 0.923044442098596,
      "perc_fit_traces": 27.1,
      "percentage_of_fitting_traces": 27.1
    },
    "fitness_alignments": {
      "averageFitness": 0.8851428571428587,
      "average_trace_fitness": 0.8851428571428587,
      "percFitTraces": 27.1,
      "percentage_of_fitting_traces": 27.1
    },
    "fscore": 0.9309131496618748,
    "generalization": 0.8821033830463605,
    "metricsAverageWeight": 0.8975547098191478,
    "precision": 0.938917167977788,
    "precision_alignments": 0.938917167977788,
    "simplicity": 0.8461538461538463
  },
  "easy_soundness": true,
  "sound": true
}