{
  "FULL": {
    "entropia_precision": 1.011357161447941,
    "entropia_recall": 1.011356537231384,
    "fitness": {
      "average_trace_fitness": 1.0,
      "log_fitness": 1.0,
      "perc_fit_traces": 100.0,
      "percentage_of_fitting_traces": 100.0
    },
    "fitness_alignments": {
      "averageFitness": 1.0,
      "average_trace_fitness": 1.0,
      "percFitTraces": 100.0,
      "percentage_of_fitting_traces": 100.0
    },
    "fscore": 1.0,
    "generalization": 0.9622945996869388,
    "metricsAverageWeight": 0.9521121114601963,
    "precision": 1.0,
    "precision_alignments": 1.0,
    "simplicity": 0.8461538461538463
  },
  "easy_soundness": true,
  "sound": true
}