{
  "easy_soundness": true,
  "filename": "/mnt/c/Users/s140511/tue/thesis/thesis_data/process_trees_simple_ws2/predictions/2368_gcn_ep144b_cc.json",
  "full": {
    "fitness": {
      "average_trace_fitness": 0.8906969696969623,
      "log_fitness": 0.9304360095950331,
      "perc_fit_traces": 50.7,
      "percentage_of_fitting_traces": 50.7
    },
    "fitness_alignments": {
      "averageFitness": 0.014,
      "average_trace_fitness": 0.014,
      "percFitTraces": 50.7,
      "percentage_of_fitting_traces": 50.7
    },
    "fscore": 0.9639646224691178,
    "generalization": 0.9567833323057263,
    "metricsAverageWeight": 0.9500657050404072,
    "precision": 1.0,
    "precision_alignments": 1.0,
    "simplicity": 0.9130434782608695
  },
  "sound": true,
  "top 30": {
    "fitness": {
      "average_trace_fitness": 0.8906969696969623,
      "log_fitness": 0.9304360095950331,
      "perc_fit_traces": 50.7,
      "percentage_of_fitting_traces": 50.7
    },
    "fitness_alignments": {
      "averageFitness": 0.014,
      "average_trace_fitness": 0.014,
      "percFitTraces": 50.7,
      "percentage_of_fitting_traces": 50.7
    },
    "fscore": 0.9639646224691178,
    "generalization": 0.9567833323057263,
    "metricsAverageWeight": 0.9500657050404072,
    "precision": 1.0,
    "precision_alignments": 1.0,
    "simplicity": 0.9130434782608695
  }
}