{
  "FULL": {
    "entropia_precision": 1.000000000000159,
    "entropia_recall": 0.971602930435521,
    "fitness": {
      "average_trace_fitness": 0.9772999999999948,
      "log_fitness": 0.9627746802230239,
      "perc_fit_traces": 77.3,
      "percentage_of_fitting_traces": 77.3
    },
    "fitness_alignments": {
      "averageFitness": 0.546,
      "average_trace_fitness": 0.546,
      "percFitTraces": 77.3,
      "percentage_of_fitting_traces": 77.3
    },
    "fscore": 0.9810343387083298,
    "generalization": 0.9529361672998233,
    "metricsAverageWeight": 0.9372610452140451,
    "precision": 1.0,
    "precision_alignments": 1.0,
    "simplicity": 0.8333333333333333
  },
  "easy_soundness": true,
  "sound": true
}