{
  "FULL": {
    "entropia_precision": 1.0000000015388608,
    "entropia_recall": 1.000000000604238,
    "fitness": {
      "average_trace_fitness": 1.0,
      "log_fitness": 1.0,
      "perc_fit_traces": 100.0,
      "percentage_of_fitting_traces": 100.0
    },
    "fitness_alignments": {
      "averageFitness": 1.0,
      "average_trace_fitness": 1.0,
      "percFitTraces": 100.0,
      "percentage_of_fitting_traces": 100.0
    },
    "fscore": 1.0,
    "generalization": 0.9450333211196708,
    "metricsAverageWeight": 0.9105007545223419,
    "precision": 1.0,
    "precision_alignments": 1.0,
    "simplicity": 0.6969696969696969
  },
  "easy_soundness": true,
  "sound": true
}