{
  "FULL": {
    "fitness": {
      "average_trace_fitness": 0.8984692460317488,
      "log_fitness": 0.8983180256825274,
      "perc_fit_traces": 43.8,
      "percentage_of_fitting_traces": 43.8
    },
    "fitness_alignments": {
      "averageFitness": 0.5509999999999964,
      "average_trace_fitness": 0.5509999999999964,
      "percFitTraces": 43.8,
      "percentage_of_fitting_traces": 43.8
    },
    "fscore": 0.9464357536820451,
    "generalization": 0.9448335546234301,
    "metricsAverageWeight": 0.9019643656647247,
    "precision": 1.0,
    "precision_alignments": 1.0,
    "simplicity": 0.7647058823529413
  }
}