{
  "FULL": {
    "fitness": {
      "average_trace_fitness": 0.492,
      "log_fitness": 0.9316837009144702,
      "perc_fit_traces": 49.2,
      "percentage_of_fitting_traces": 49.2
    },
    "fitness_alignments": {
      "averageFitness": 0.40733333333333316,
      "average_trace_fitness": 0.40733333333333316,
      "percFitTraces": 49.2,
      "percentage_of_fitting_traces": 49.2
    },
    "fscore": 0.9557241929510033,
    "generalization": 0.9447146369518316,
    "metricsAverageWeight": 0.914359132610739,
    "precision": 0.9810381925766541,
    "precision_alignments": 0.9810381925766541,
    "simplicity": 0.8
  }
}