{
  "FULL": {
    "fitness": {
      "average_trace_fitness": 1.0,
      "log_fitness": 1.0,
      "perc_fit_traces": 100.0,
      "percentage_of_fitting_traces": 100.0
    },
    "fitness_alignments": {
      "averageFitness": 1.0,
      "average_trace_fitness": 1.0,
      "percFitTraces": 100.0,
      "percentage_of_fitting_traces": 100.0
    },
    "fscore": 0.9915725300340685,
    "generalization": 0.9516847354707685,
    "metricsAverageWeight": 0.923742663241803,
    "precision": 0.9832859174964438,
    "precision_alignments": 0.9832859174964438,
    "simplicity": 0.7599999999999999
  }
}