{
  "FULL": {
    "entropia_precision": "nan",
    "entropia_recall": "nan",
    "fitness": {
      "average_trace_fitness": 0.9500000000000167,
      "log_fitness": 0.95,
      "perc_fit_traces": 0.0,
      "percentage_of_fitting_traces": 0.0
    },
    "fscore": 0.7918610770040344,
    "generalization": 0.9683772233983162,
    "metricsAverageWeight": 0.8993085915638648,
    "precision": 0.6788571428571428,
    "simplicity": 1.0
  },
  "easy_soundness": false,
  "sound": false
}