{
  "easy_soundness": true,
  "filename": "/mnt/c/Users/s140511/tue/thesis/thesis_data/process_trees_simple_ws2/predictions/2377_gcn_ep144b_cc.json",
  "full": {
    "fitness": {
      "average_trace_fitness": 1.0,
      "log_fitness": 1.0,
      "perc_fit_traces": 100.0,
      "percentage_of_fitting_traces": 100.0
    },
    "fitness_alignments": {
      "averageFitness": 1.0,
      "average_trace_fitness": 1.0,
      "percFitTraces": 100.0,
      "percentage_of_fitting_traces": 100.0
    },
    "fscore": 0.9997984886649874,
    "generalization": 0.9462230530435891,
    "metricsAverageWeight": 0.930899472337154,
    "precision": 0.9995970585272489,
    "precision_alignments": 0.9995970585272489,
    "simplicity": 0.7777777777777779
  },
  "sound": true,
  "top 30": {
    "fitness": {
      "average_trace_fitness": 1.0,
      "log_fitness": 1.0,
      "perc_fit_traces": 100.0,
      "percentage_of_fitting_traces": 100.0
    },
    "fitness_alignments": {
      "averageFitness": 1.0,
      "average_trace_fitness": 1.0,
      "percFitTraces": 100.0,
      "percentage_of_fitting_traces": 100.0
    },
    "fscore": 0.9997984886649874,
    "generalization": 0.9462230530435891,
    "metricsAverageWeight": 0.930899472337154,
    "precision": 0.9995970585272489,
    "precision_alignments": 0.9995970585272489,
    "simplicity": 0.7777777777777779
  }
}