{
  "FULL": {
    "fitness": {
      "average_trace_fitness": 1.0,
      "log_fitness": 1.0,
      "perc_fit_traces": 100.0,
      "percentage_of_fitting_traces": 100.0
    },
    "fitness_alignments": {
      "averageFitness": 1.0,
      "average_trace_fitness": 1.0,
      "percFitTraces": 100.0,
      "percentage_of_fitting_traces": 100.0
    },
    "fscore": 0.9992396593673967,
    "generalization": 0.9555321346493583,
    "metricsAverageWeight": 0.9519177863317019,
    "precision": 0.9984804740920833,
    "precision_alignments": 0.9984804740920833,
    "simplicity": 0.853658536585366
  }
}