{
  "easy_soundness": true,
  "filename": "/mnt/c/Users/s140511/tue/thesis/thesis_data/process_trees_simple_ws2/predictions/2383_gcn_ep144b_cc.json",
  "full": {
    "entropia_precision": 0.9757321775477164,
    "entropia_recall": 0.996013040675539,
    "fitness": {
      "average_trace_fitness": 1.0,
      "log_fitness": 1.0,
      "perc_fit_traces": 100.0,
      "percentage_of_fitting_traces": 100.0
    },
    "fitness_alignments": {
      "averageFitness": 1.0,
      "average_trace_fitness": 1.0,
      "percFitTraces": 100.0,
      "percentage_of_fitting_traces": 100.0
    },
    "fscore": 0.9986870897155361,
    "generalization": 0.9619980551869736,
    "metricsAverageWeight": 0.9604321546852667,
    "precision": 0.9973776223776224,
    "precision_alignments": 0.9973776223776224,
    "simplicity": 0.8823529411764706
  },
  "sound": true,
  "top 30": {
    "fitness": {
      "average_trace_fitness": 1.0,
      "log_fitness": 1.0,
      "perc_fit_traces": 100.0,
      "percentage_of_fitting_traces": 100.0
    },
    "fitness_alignments": {
      "averageFitness": 1.0,
      "average_trace_fitness": 1.0,
      "percFitTraces": 100.0,
      "percentage_of_fitting_traces": 100.0
    },
    "fscore": 0.9900289993246734,
    "generalization": 0.9590044594006626,
    "metricsAverageWeight": 0.9554030694646105,
    "precision": 0.980254877281309,
    "precision_alignments": 0.980254877281309,
    "simplicity": 0.8823529411764706
  }
}