{
  "FULL": {
    "fitness": {
      "average_trace_fitness": 1.0,
      "log_fitness": 1.0,
      "perc_fit_traces": 100.0,
      "percentage_of_fitting_traces": 100.0
    },
    "fitness_alignments": {
      "averageFitness": 1.0,
      "average_trace_fitness": 1.0,
      "percFitTraces": 100.0,
      "percentage_of_fitting_traces": 100.0
    },
    "fscore": 0.8873268925911525,
    "generalization": 0.9605633228992602,
    "metricsAverageWeight": 0.8839535547391519,
    "precision": 0.7974731182795699,
    "precision_alignments": 0.7974731182795699,
    "simplicity": 0.7777777777777779
  }
}