{
  "FULL": {
    "entropia_precision": 0.9999999997216658,
    "entropia_recall": 0.848666363070095,
    "fitness": {
      "average_trace_fitness": 0.645,
      "log_fitness": 0.9013614893025841,
      "perc_fit_traces": 64.5,
      "percentage_of_fitting_traces": 64.5
    },
    "fitness_alignments": {
      "averageFitness": 0.5266666666666672,
      "average_trace_fitness": 0.5266666666666672,
      "percFitTraces": 64.5,
      "percentage_of_fitting_traces": 64.5
    },
    "fscore": 0.9481221686394856,
    "generalization": 0.9445024155428134,
    "metricsAverageWeight": 0.9614659762113493,
    "precision": 1.0,
    "precision_alignments": 1.0,
    "simplicity": 1.0
  },
  "easy_soundness": true,
  "sound": true
}