{
  "FULL": {
    "fitness": {
      "average_trace_fitness": 0.9583333333333469,
      "log_fitness": 0.9583333333333333,
      "perc_fit_traces": 0.0,
      "percentage_of_fitting_traces": 0.0
    },
    "fscore": 0.9194589063979064,
    "generalization": 0.9683772233983162,
    "metricsAverageWeight": 0.9298542126094858,
    "precision": 0.8836153846153846,
    "simplicity": 0.9090909090909091
  }
}