{
  "FULL": {
    "entropia_precision": "nan",
    "entropia_recall": "nan",
    "fitness": {
      "average_trace_fitness": 0.8719924686424713,
      "log_fitness": 0.8756915475209561,
      "perc_fit_traces": 0.0,
      "percentage_of_fitting_traces": 0.0
    },
    "fscore": 0.839277753420664,
    "generalization": 0.9606917123576513,
    "metricsAverageWeight": 0.8429711074412815,
    "precision": 0.8057714401567886,
    "simplicity": 0.7297297297297298
  },
  "easy_soundness": false,
  "sound": false
}