{
  "FULL": {
    "fitness": {
      "average_trace_fitness": 1.0,
      "log_fitness": 1.0,
      "perc_fit_traces": 100.0,
      "percentage_of_fitting_traces": 100.0
    },
    "fitness_alignments": {
      "averageFitness": 1.0,
      "average_trace_fitness": 1.0,
      "percFitTraces": 100.0,
      "percentage_of_fitting_traces": 100.0
    },
    "fscore": 0.9997470915528579,
    "generalization": 0.9550634826565397,
    "metricsAverageWeight": 0.9431849029592734,
    "precision": 0.9994943109987358,
    "precision_alignments": 0.9994943109987358,
    "simplicity": 0.8181818181818181
  }
}