{
  "FULL": {
    "fitness": {
      "average_trace_fitness": 1.0,
      "log_fitness": 1.0,
      "perc_fit_traces": 100.0,
      "percentage_of_fitting_traces": 100.0
    },
    "fitness_alignments": {
      "averageFitness": 1.0,
      "average_trace_fitness": 1.0,
      "percFitTraces": 100.0,
      "percentage_of_fitting_traces": 100.0
    },
    "fscore": 0.9734786917740336,
    "generalization": 0.9679261687171455,
    "metricsAverageWeight": 0.9273393537346194,
    "precision": 0.94832779794547,
    "precision_alignments": 0.94832779794547,
    "simplicity": 0.7931034482758622
  }
}