{
  "FULL": {
    "entropia_precision": 0.9232638647713083,
    "entropia_recall": 0.882948426067283,
    "fitness": {
      "average_trace_fitness": 0.9581777777777761,
      "log_fitness": 0.9317562968005446,
      "perc_fit_traces": 64.6,
      "percentage_of_fitting_traces": 64.6
    },
    "fitness_alignments": {
      "averageFitness": 0.599,
      "average_trace_fitness": 0.599,
      "percFitTraces": 64.6,
      "percentage_of_fitting_traces": 64.6
    },
    "fscore": 0.9578519112577183,
    "generalization": 0.9469042269511675,
    "metricsAverageWeight": 0.9104724149967458,
    "precision": 0.9854513584574934,
    "precision_alignments": 0.9854513584574934,
    "simplicity": 0.7777777777777779
  },
  "easy_soundness": true,
  "sound": true
}