{
  "FULL": {
    "entropia_precision": 0.9956147757838635,
    "entropia_recall": 0.895060534235503,
    "fitness": {
      "average_trace_fitness": 0.9307036153420117,
      "log_fitness": 0.9439451277199622,
      "perc_fit_traces": 52.6,
      "percentage_of_fitting_traces": 52.6
    },
    "fitness_alignments": {
      "averageFitness": 0.526,
      "average_trace_fitness": 0.526,
      "percFitTraces": 52.6,
      "percentage_of_fitting_traces": 52.6
    },
    "fscore": 0.9704679585468682,
    "generalization": 0.951048979442236,
    "metricsAverageWeight": 0.9145560844422378,
    "precision": 0.9985243482538121,
    "precision_alignments": 0.9985243482538121,
    "simplicity": 0.7647058823529413
  },
  "easy_soundness": true,
  "sound": true
}