{
  "easy_soundness": true,
  "filename": "/mnt/c/Users/s140511/tue/thesis/thesis_data/process_trees_simple_ws2/predictions/2396_gcn_ep144b_cc.json",
  "full": {
    "entropia_precision": 0.9985297686808874,
    "entropia_recall": 0.9996848664684,
    "fitness": {
      "average_trace_fitness": 1.0,
      "log_fitness": 1.0,
      "perc_fit_traces": 100.0,
      "percentage_of_fitting_traces": 100.0
    },
    "fitness_alignments": {
      "averageFitness": 1.0,
      "average_trace_fitness": 1.0,
      "percFitTraces": 100.0,
      "percentage_of_fitting_traces": 100.0
    },
    "fscore": 0.9980882062100336,
    "generalization": 0.9552764330402569,
    "metricsAverageWeight": 0.9226476440513869,
    "precision": 0.9961837083826819,
    "precision_alignments": 0.9961837083826819,
    "simplicity": 0.7391304347826086
  },
  "sound": true,
  "top 30": {
    "fitness": {
      "average_trace_fitness": 1.0,
      "log_fitness": 1.0,
      "perc_fit_traces": 100.0,
      "percentage_of_fitting_traces": 100.0
    },
    "fitness_alignments": {
      "averageFitness": 1.0,
      "average_trace_fitness": 1.0,
      "percFitTraces": 100.0,
      "percentage_of_fitting_traces": 100.0
    },
    "fscore": 0.9642937598558234,
    "generalization": 0.9338184517189161,
    "metricsAverageWeight": 0.9009995924791061,
    "precision": 0.9310494834148995,
    "precision_alignments": 0.9310494834148995,
    "simplicity": 0.7391304347826086
  }
}