{
  "FULL": {
    "entropia_precision": 0.9529208150931918,
    "entropia_recall": 1.003431333667898,
    "fitness": {
      "average_trace_fitness": 1.0,
      "log_fitness": 1.0,
      "perc_fit_traces": 100.0,
      "percentage_of_fitting_traces": 100.0
    },
    "fitness_alignments": {
      "averageFitness": 1.0,
      "average_trace_fitness": 1.0,
      "percFitTraces": 100.0,
      "percentage_of_fitting_traces": 100.0
    },
    "fscore": 0.9921956406166933,
    "generalization": 0.969320023891603,
    "metricsAverageWeight": 0.9456009016032664,
    "precision": 0.9845121539500338,
    "precision_alignments": 0.9845121539500338,
    "simplicity": 0.8285714285714286
  },
  "easy_soundness": true,
  "sound": true
}