{
  "FULL": {
    "entropia_precision": 0.8699864739656243,
    "entropia_recall": 0.996076611557215,
    "fitness": {
      "average_trace_fitness": 1.0,
      "log_fitness": 1.0,
      "perc_fit_traces": 100.0,
      "percentage_of_fitting_traces": 100.0
    },
    "fitness_alignments": {
      "averageFitness": 1.0,
      "average_trace_fitness": 1.0,
      "percFitTraces": 100.0,
      "percentage_of_fitting_traces": 100.0
    },
    "fscore": 0.9363834546020781,
    "generalization": 0.9569739488771609,
    "metricsAverageWeight": 0.8968377163504657,
    "precision": 0.8803769165247018,
    "precision_alignments": 0.8803769165247018,
    "simplicity": 0.7499999999999999
  },
  "easy_soundness": true,
  "sound": true
}