{
  "FULL": {
    "entropia_precision": 0.9979381854672147,
    "entropia_recall": 0.982978470387241,
    "fitness": {
      "average_trace_fitness": 1.0,
      "log_fitness": 1.0,
      "perc_fit_traces": 100.0,
      "percentage_of_fitting_traces": 100.0
    },
    "fitness_alignments": {
      "averageFitness": 1.0,
      "average_trace_fitness": 1.0,
      "percFitTraces": 100.0,
      "percentage_of_fitting_traces": 100.0
    },
    "fscore": 0.9995997545161032,
    "generalization": 0.9661943639346442,
    "metricsAverageWeight": 0.9580152149745569,
    "precision": 0.9991998292969166,
    "precision_alignments": 0.9991998292969166,
    "simplicity": 0.8666666666666667
  },
  "easy_soundness": true,
  "sound": true
}