{
  "FULL": {
    "fitness": {
      "average_trace_fitness": 1.0,
      "log_fitness": 1.0,
      "perc_fit_traces": 100.0,
      "percentage_of_fitting_traces": 100.0
    },
    "fitness_alignments": {
      "averageFitness": 1.0,
      "average_trace_fitness": 1.0,
      "percFitTraces": 100.0,
      "percentage_of_fitting_traces": 100.0
    },
    "fscore": 0.9614515963453445,
    "generalization": 0.9655046677677456,
    "metricsAverageWeight": 0.9273628313920022,
    "precision": 0.9257648396184451,
    "precision_alignments": 0.9257648396184451,
    "simplicity": 0.8181818181818181
  }
}