{
  "FULL": {
    "entropia_precision": 1.0000000027845908,
    "entropia_recall": 0.85019328005575,
    "fitness": {
      "average_trace_fitness": 0.879,
      "log_fitness": 0.9264437689969605,
      "perc_fit_traces": 51.6,
      "percentage_of_fitting_traces": 51.6
    },
    "fitness_alignments": {
      "averageFitness": 0.6975,
      "average_trace_fitness": 0.6975,
      "percFitTraces": 51.6,
      "percentage_of_fitting_traces": 51.6
    },
    "fscore": 0.9618176080782581,
    "generalization": 0.9555933187766597,
    "metricsAverageWeight": 0.970509271943405,
    "precision": 1.0,
    "precision_alignments": 1.0,
    "simplicity": 1.0
  },
  "easy_soundness": true,
  "sound": true
}