{
  "FULL": {
    "fitness": {
      "average_trace_fitness": 0.8736746031746043,
      "log_fitness": 0.8815987811804356,
      "perc_fit_traces": 0.0,
      "percentage_of_fitting_traces": 0.0
    },
    "fscore": 0.9370741414143112,
    "generalization": 0.9607640593121607,
    "metricsAverageWeight": 0.910590710123149,
    "precision": 1.0,
    "simplicity": 0.8
  },
  "Top 30": {
    "fitness": {
      "average_trace_fitness": 0.8737900608961549,
      "log_fitness": 0.8822642743252964,
      "perc_fit_traces": 0.0,
      "percentage_of_fitting_traces": 0.0
    },
    "fscore": 0.9350751815140763,
    "generalization": 0.959296333370439,
    "metricsAverageWeight": 0.9090428969559312,
    "precision": 0.9946109801279892,
    "simplicity": 0.8
  }
}