{
  "FULL": {
    "fitness": {
      "average_trace_fitness": 0.9753137065637091,
      "log_fitness": 0.9620566400879846,
      "perc_fit_traces": 81.35135135135135,
      "percentage_of_fitting_traces": 81.35135135135135
    },
    "fitness_alignments": {
      "averageFitness": 0.8135135135135135,
      "average_trace_fitness": 0.8135135135135135,
      "percFitTraces": 81.35135135135135,
      "percentage_of_fitting_traces": 81.35135135135135
    },
    "fscore": 0.9806614349775785,
    "generalization": 0.9278010251742689,
    "metricsAverageWeight": 0.9207402783845289,
    "precision": 1.0,
    "precision_alignments": 1.0,
    "simplicity": 0.7931034482758622
  },
  "Top 30": {
    "fitness": {
      "average_trace_fitness": 0.9753137065637091,
      "log_fitness": 0.9620566400879846,
      "perc_fit_traces": 81.35135135135135,
      "percentage_of_fitting_traces": 81.35135135135135
    },
    "fitness_alignments": {
      "averageFitness": 0.8135135135135135,
      "average_trace_fitness": 0.8135135135135135,
      "percFitTraces": 81.35135135135135,
      "percentage_of_fitting_traces": 81.35135135135135
    },
    "fscore": 0.9806614349775785,
    "generalization": 0.9278010251742689,
    "metricsAverageWeight": 0.9207402783845289,
    "precision": 1.0,
    "precision_alignments": 1.0,
    "simplicity": 0.7931034482758622
  }
}