{
  "FULL": {
    "entropia_precision": 0.9545901045098282,
    "entropia_recall": 1.00204696859977,
    "fitness": {
      "average_trace_fitness": 1.0,
      "log_fitness": 1.0,
      "perc_fit_traces": 100.0,
      "percentage_of_fitting_traces": 100.0
    },
    "fitness_alignments": {
      "averageFitness": 1.0,
      "average_trace_fitness": 1.0,
      "percFitTraces": 100.0,
      "percentage_of_fitting_traces": 100.0
    },
    "fscore": 0.9865992267666637,
    "generalization": 0.9606828950256515,
    "metricsAverageWeight": 0.9280033845969333,
    "precision": 0.9735528655843039,
    "precision_alignments": 0.9735528655843039,
    "simplicity": 0.7777777777777779
  },
  "easy_soundness": true,
  "sound": true
}