{
  "FULL": {
    "fitness": {
      "average_trace_fitness": 1.0,
      "log_fitness": 1.0,
      "perc_fit_traces": 100.0,
      "percentage_of_fitting_traces": 100.0
    },
    "fitness_alignments": {
      "averageFitness": 1.0,
      "average_trace_fitness": 1.0,
      "percFitTraces": 100.0,
      "percentage_of_fitting_traces": 100.0
    },
    "fscore": 1.0,
    "generalization": 0.966505958929802,
    "metricsAverageWeight": 0.975497457474386,
    "precision": 1.0,
    "precision_alignments": 1.0,
    "simplicity": 0.9354838709677418
  },
  "Top 30": {
    "fitness": {
      "average_trace_fitness": 1.0,
      "log_fitness": 1.0,
      "perc_fit_traces": 100.0,
      "percentage_of_fitting_traces": 100.0
    },
    "fitness_alignments": {
      "averageFitness": 1.0,
      "average_trace_fitness": 1.0,
      "percFitTraces": 100.0,
      "percentage_of_fitting_traces": 100.0
    },
    "fscore": 0.9817864619678994,
    "generalization": 0.9610370603248461,
    "metricsAverageWeight": 0.9651863633145459,
    "precision": 0.9642245219655953,
    "precision_alignments": 0.9642245219655953,
    "simplicity": 0.9354838709677418
  }
}