{
  "FULL": {
    "fitness": {
      "average_trace_fitness": 0.9342765231092464,
      "log_fitness": 0.9351179327013418,
      "perc_fit_traces": 0.0,
      "percentage_of_fitting_traces": 0.0
    },
    "fscore": 0.873448714901679,
    "generalization": 0.9645134091259779,
    "metricsAverageWeight": 0.8902867008074042,
    "precision": 0.8194101982444029,
    "simplicity": 0.8421052631578947
  }
}