{
  "FULL": {
    "fitness": {
      "average_trace_fitness": 0.9472388888889006,
      "log_fitness": 0.947385036304325,
      "perc_fit_traces": 0.0,
      "percentage_of_fitting_traces": 0.0
    },
    "fscore": 0.8208898028434853,
    "generalization": 0.961838213917967,
    "metricsAverageWeight": 0.8483545610903589,
    "precision": 0.7241949941391437,
    "simplicity": 0.7599999999999999
  }
}