{
  "FULL": {
    "fitness": {
      "average_trace_fitness": 0.9427777777777839,
      "log_fitness": 0.9429613077737269,
      "perc_fit_traces": 51.5,
      "percentage_of_fitting_traces": 51.5
    },
    "fitness_alignments": {
      "averageFitness": 0.9307142857142968,
      "average_trace_fitness": 0.9307142857142968,
      "percFitTraces": 51.5,
      "percentage_of_fitting_traces": 51.5
    },
    "fscore": 0.9706434235215786,
    "generalization": 0.961838213917967,
    "metricsAverageWeight": 0.9523903566133998,
    "precision": 1.0,
    "precision_alignments": 1.0,
    "simplicity": 0.9047619047619049
  }
}