{
  "FULL": {
    "entropia_precision": NaN,
    "entropia_recall": 0.0,
    "fitness": {
      "average_trace_fitness": 1.0,
      "log_fitness": 1.0,
      "perc_fit_traces": 100.0,
      "percentage_of_fitting_traces": 100.0
    },
    "fitness_alignments": {
      "averageFitness": 1.0,
      "average_trace_fitness": 1.0,
      "percFitTraces": 100.0,
      "percentage_of_fitting_traces": 100.0
    },
    "fscore": 0.9916917274071054,
    "generalization": 0.9657671097480287,
    "metricsAverageWeight": 0.9248218704508582,
    "precision": 0.9835203720554039,
    "precision_alignments": 0.9835203720554039,
    "simplicity": 0.7499999999999999
  },
  "easy_soundness": true,
  "sound": false
}