{
  "FULL": {
    "fitness": {
      "average_trace_fitness": 1.0,
      "log_fitness": 1.0,
      "perc_fit_traces": 100.0,
      "percentage_of_fitting_traces": 100.0
    },
    "fitness_alignments": {
      "averageFitness": 1.0,
      "average_trace_fitness": 1.0,
      "percFitTraces": 100.0,
      "percentage_of_fitting_traces": 100.0
    },
    "fscore": 0.9916917274071054,
    "generalization": 0.9624097561158105,
    "metricsAverageWeight": 0.9309269764872481,
    "precision": 0.9835203720554039,
    "precision_alignments": 0.9835203720554039,
    "simplicity": 0.7777777777777779
  }
}