{
  "easy_soundness": false,
  "filename": "/mnt/c/Users/s140511/tue/thesis/thesis_data/process_trees_simple_ws2/predictions/2418_gcn_ep144b_cca.json",
  "full": {
    "entropia_precision": "nan",
    "entropia_recall": "nan",
    "fitness": {
      "average_trace_fitness": 0.8417743531878221,
      "log_fitness": 0.8336134453781513,
      "perc_fit_traces": 0.0,
      "percentage_of_fitting_traces": 0.0
    },
    "fscore": 0.9092575618698442,
    "generalization": 0.8697124215032833,
    "metricsAverageWeight": 0.8517573926462846,
    "precision": 1.0,
    "simplicity": 0.7037037037037037
  },
  "sound": false,
  "top 30": {
    "fitness": {
      "average_trace_fitness": 0.8452078179326693,
      "log_fitness": 0.840219128052956,
      "perc_fit_traces": 0.0,
      "percentage_of_fitting_traces": 0.0
    },
    "fscore": 0.9131729099479037,
    "generalization": 0.8642061563784146,
    "metricsAverageWeight": 0.8520322470337686,
    "precision": 1.0,
    "simplicity": 0.7037037037037037
  }
}