{
  "easy_soundness": true,
  "filename": "/mnt/c/Users/s140511/tue/thesis/thesis_data/process_trees_simple_ws2/predictions/2419_gcn_ep144b_cca.json",
  "full": {
    "entropia_precision": 0.9989221480886231,
    "entropia_recall": 0.999906064070809,
    "fitness": {
      "average_trace_fitness": 1.0,
      "log_fitness": 1.0,
      "perc_fit_traces": 100.0,
      "percentage_of_fitting_traces": 100.0
    },
    "fitness_alignments": {
      "averageFitness": 1.0,
      "average_trace_fitness": 1.0,
      "log_fitness": 0.9999840028155045,
      "percFitTraces": 100.0,
      "percentage_of_fitting_traces": 100.0
    },
    "fscore": 0.9997143673236218,
    "generalization": 0.9653548367675644,
    "metricsAverageWeight": 0.9673864098255427,
    "precision": 0.9994288977727013,
    "precision_alignments": 0.9994288977727013,
    "simplicity": 0.9047619047619049
  },
  "sound": true,
  "top 30": {
    "fitness": {
      "average_trace_fitness": 1.0,
      "log_fitness": 1.0,
      "perc_fit_traces": 100.0,
      "percentage_of_fitting_traces": 100.0
    },
    "fitness_alignments": {
      "averageFitness": 1.0,
      "average_trace_fitness": 1.0,
      "log_fitness": 0.9999840028155045,
      "percFitTraces": 100.0,
      "percentage_of_fitting_traces": 100.0
    },
    "fscore": 0.9997143673236218,
    "generalization": 0.9653548367675644,
    "metricsAverageWeight": 0.9673864098255427,
    "precision": 0.9994288977727013,
    "precision_alignments": 0.9994288977727013,
    "simplicity": 0.9047619047619049
  }
}