{
  "FULL": {
    "entropia_precision": 0.9895311130706017,
    "entropia_recall": 0.991768328468399,
    "fitness": {
      "average_trace_fitness": 1.0,
      "log_fitness": 1.0,
      "perc_fit_traces": 100.0,
      "percentage_of_fitting_traces": 100.0
    },
    "fitness_alignments": {
      "averageFitness": 1.0,
      "average_trace_fitness": 1.0,
      "percFitTraces": 100.0,
      "percentage_of_fitting_traces": 100.0
    },
    "fscore": 0.9995567224741705,
    "generalization": 0.966942761882841,
    "metricsAverageWeight": 0.9530526114502079,
    "precision": 0.9991138377641445,
    "precision_alignments": 0.9991138377641445,
    "simplicity": 0.8461538461538463
  },
  "easy_soundness": true,
  "sound": true
}