{
  "FULL": {
    "fitness": {
      "average_trace_fitness": 0.9618178039851797,
      "log_fitness": 0.9632542073932535,
      "perc_fit_traces": 0.0,
      "percentage_of_fitting_traces": 0.0
    },
    "fscore": 0.9812832222804522,
    "generalization": 0.9659519769344752,
    "metricsAverageWeight": 0.9287301175105036,
    "precision": 1.0,
    "simplicity": 0.7857142857142856
  },
  "Top 30": {
    "fitness": {
      "average_trace_fitness": 0.9617562991103058,
      "log_fitness": 0.9631314251904445,
      "perc_fit_traces": 0.0,
      "percentage_of_fitting_traces": 0.0
    },
    "fscore": 0.981219507600731,
    "generalization": 0.9658640045504157,
    "metricsAverageWeight": 0.9286774288637865,
    "precision": 1.0,
    "simplicity": 0.7857142857142856
  }
}