{
  "FULL": {
    "fitness": {
      "average_trace_fitness": 0.9642959595959543,
      "log_fitness": 0.9645247431658572,
      "perc_fit_traces": 50.8,
      "percentage_of_fitting_traces": 50.8
    },
    "fitness_alignments": {
      "averageFitness": 0.8359999999999925,
      "average_trace_fitness": 0.8359999999999925,
      "percFitTraces": 50.8,
      "percentage_of_fitting_traces": 50.8
    },
    "fscore": 0.9819420666715687,
    "generalization": 0.9602324239401143,
    "metricsAverageWeight": 0.9311892917764928,
    "precision": 1.0,
    "precision_alignments": 1.0,
    "simplicity": 0.8
  }
}