{
  "FULL": {
    "entropia_precision": 0.9999999999999994,
    "entropia_recall": 0.999999999999999,
    "fitness": {
      "average_trace_fitness": 1.0,
      "log_fitness": 1.0,
      "perc_fit_traces": 100.0,
      "percentage_of_fitting_traces": 100.0
    },
    "fitness_alignments": {
      "averageFitness": 1.0,
      "average_trace_fitness": 1.0,
      "percFitTraces": 100.0,
      "percentage_of_fitting_traces": 100.0
    },
    "fscore": 1.0,
    "generalization": 0.961013994462635,
    "metricsAverageWeight": 0.9447989531611134,
    "precision": 1.0,
    "precision_alignments": 1.0,
    "simplicity": 0.8181818181818181
  },
  "easy_soundness": true,
  "sound": true
}