{
  "FULL": {
    "entropia_precision": 1.0092197282464905,
    "entropia_recall": 0.997161854725046,
    "fitness": {
      "average_trace_fitness": 1.0,
      "log_fitness": 1.0,
      "perc_fit_traces": 100.0,
      "percentage_of_fitting_traces": 100.0
    },
    "fitness_alignments": {
      "averageFitness": 1.0,
      "average_trace_fitness": 1.0,
      "percFitTraces": 100.0,
      "percentage_of_fitting_traces": 100.0
    },
    "fscore": 0.9958187175529676,
    "generalization": 0.968410263891085,
    "metricsAverageWeight": 0.9566872965786286,
    "precision": 0.9916722557567628,
    "precision_alignments": 0.9916722557567628,
    "simplicity": 0.8666666666666667
  },
  "easy_soundness": true,
  "sound": true
}