{
  "easy_soundness": true,
  "filename": "/mnt/c/Users/s140511/tue/thesis/thesis_data/process_trees_simple_ws2/predictions/2423_gcn_ep144b_cc.json",
  "full": {
    "fitness": {
      "average_trace_fitness": 0.9763636363636299,
      "log_fitness": 0.9705349048050771,
      "perc_fit_traces": 74.0,
      "percentage_of_fitting_traces": 74.0
    },
    "fitness_alignments": {
      "averageFitness": 0.9133333333333257,
      "average_trace_fitness": 0.9133333333333257,
      "percFitTraces": 74.0,
      "percentage_of_fitting_traces": 74.0
    },
    "fscore": 0.9823627429107068,
    "generalization": 0.9561064539966769,
    "metricsAverageWeight": 0.9469476133000546,
    "precision": 0.994482427731798,
    "precision_alignments": 0.994482427731798,
    "simplicity": 0.8666666666666667
  },
  "sound": true,
  "top 30": {
    "fitness": {
      "average_trace_fitness": 0.9763636363636299,
      "log_fitness": 0.9705349048050771,
      "perc_fit_traces": 74.0,
      "percentage_of_fitting_traces": 74.0
    },
    "fitness_alignments": {
      "averageFitness": 0.9133333333333257,
      "average_trace_fitness": 0.9133333333333257,
      "percFitTraces": 74.0,
      "percentage_of_fitting_traces": 74.0
    },
    "fscore": 0.9823627429107068,
    "generalization": 0.9561064539966769,
    "metricsAverageWeight": 0.9469476133000546,
    "precision": 0.994482427731798,
    "precision_alignments": 0.994482427731798,
    "simplicity": 0.8666666666666667
  }
}