{
  "FULL": {
    "entropia_precision": 0.8848949000430096,
    "entropia_recall": 0.994032207042086,
    "fitness": {
      "average_trace_fitness": 1.0,
      "log_fitness": 1.0,
      "perc_fit_traces": 100.0,
      "percentage_of_fitting_traces": 100.0
    },
    "fitness_alignments": {
      "averageFitness": 1.0,
      "average_trace_fitness": 1.0,
      "percFitTraces": 100.0,
      "percentage_of_fitting_traces": 100.0
    },
    "fscore": 0.8794145720649061,
    "generalization": 0.9438416580417051,
    "metricsAverageWeight": 0.8669383667608768,
    "precision": 0.7847813742191936,
    "precision_alignments": 0.7847813742191936,
    "simplicity": 0.7391304347826086
  },
  "easy_soundness": true,
  "sound": true
}