{
  "easy_soundness": true,
  "filename": "/mnt/c/Users/s140511/tue/thesis/thesis_data/process_trees_simple_ws2/predictions/2428_gcn_ep144b_cca.json",
  "full": {
    "entropia_precision": 0.9983727316166939,
    "entropia_recall": 0.987617691989031,
    "fitness": {
      "average_trace_fitness": 0.991450360750359,
      "log_fitness": 0.9898034268895196,
      "perc_fit_traces": 90.3,
      "percentage_of_fitting_traces": 90.3
    },
    "fitness_alignments": {
      "averageFitness": 0.9905933960017661,
      "average_trace_fitness": 0.9905933960017661,
      "log_fitness": 0.9893741925611795,
      "percFitTraces": 90.3,
      "percentage_of_fitting_traces": 90.3
    },
    "fscore": 0.994236111878128,
    "generalization": 0.9429972611660108,
    "metricsAverageWeight": 0.9114487700067988,
    "precision": 0.9987086776859504,
    "precision_alignments": 0.9987086776859504,
    "simplicity": 0.7142857142857143
  },
  "sound": true,
  "top 30": {
    "fitness": {
      "average_trace_fitness": 0.9914625147579673,
      "log_fitness": 0.9897879025923016,
      "perc_fit_traces": 90.59917355371901,
      "percentage_of_fitting_traces": 90.59917355371901
    },
    "fitness_alignments": {
      "averageFitness": 0.9905923507163179,
      "average_trace_fitness": 0.9905923507163179,
      "log_fitness": 0.9893547375565142,
      "percFitTraces": 90.59917355371901,
      "percentage_of_fitting_traces": 90.59917355371901
    },
    "fscore": 0.9929611961371154,
    "generalization": 0.9411004717896795,
    "metricsAverageWeight": 0.9103322477917523,
    "precision": 0.9961549024993134,
    "precision_alignments": 0.9961549024993134,
    "simplicity": 0.7142857142857143
  }
}