{
  "easy_soundness": true,
  "filename": "/mnt/c/Users/s140511/tue/thesis/thesis_data/process_trees_simple_ws2/predictions/2429_gcn_ep144b_cca.json",
  "full": {
    "entropia_precision": 0.999999991113275,
    "entropia_recall": 0.961560177086572,
    "fitness": {
      "average_trace_fitness": 0.9541818181818232,
      "log_fitness": 0.9561586638830898,
      "perc_fit_traces": 49.6,
      "percentage_of_fitting_traces": 49.6
    },
    "fitness_alignments": {
      "averageFitness": 0.9664000000000015,
      "average_trace_fitness": 0.9664000000000015,
      "log_fitness": 0.9674629909268079,
      "percFitTraces": 49.6,
      "percentage_of_fitting_traces": 49.6
    },
    "fscore": 0.9775880469583779,
    "generalization": 0.9647875338837627,
    "metricsAverageWeight": 0.9602365494417131,
    "precision": 1.0,
    "precision_alignments": 1.0,
    "simplicity": 0.92
  },
  "sound": true,
  "top 30": {
    "fitness": {
      "average_trace_fitness": 0.9541818181818232,
      "log_fitness": 0.9561586638830898,
      "perc_fit_traces": 49.6,
      "percentage_of_fitting_traces": 49.6
    },
    "fitness_alignments": {
      "averageFitness": 0.9664000000000015,
      "average_trace_fitness": 0.9664000000000015,
      "log_fitness": 0.9674629909268079,
      "percFitTraces": 49.6,
      "percentage_of_fitting_traces": 49.6
    },
    "fscore": 0.9775880469583779,
    "generalization": 0.9647875338837627,
    "metricsAverageWeight": 0.9602365494417131,
    "precision": 1.0,
    "precision_alignments": 1.0,
    "simplicity": 0.92
  }
}