{
  "FULL": {
    "fitness": {
      "average_trace_fitness": 1.0,
      "log_fitness": 1.0,
      "perc_fit_traces": 100.0,
      "percentage_of_fitting_traces": 100.0
    },
    "fitness_alignments": {
      "averageFitness": 1.0,
      "average_trace_fitness": 1.0,
      "percFitTraces": 100.0,
      "percentage_of_fitting_traces": 100.0
    },
    "fscore": 0.9911931818181818,
    "generalization": 0.9518130282073167,
    "metricsAverageWeight": 0.9121597180085014,
    "precision": 0.9825401295409744,
    "precision_alignments": 0.9825401295409744,
    "simplicity": 0.7142857142857143
  }
}