{
  "easy_soundness": true,
  "filename": "/mnt/c/Users/s140511/tue/thesis/thesis_data/process_trees_simple_ws2/predictions/2434_gcn_ep144b_cca.json",
  "full": {
    "entropia_precision": 0.9985816389145316,
    "entropia_recall": 0.999970920225877,
    "fitness": {
      "average_trace_fitness": 1.0,
      "log_fitness": 1.0,
      "perc_fit_traces": 100.0,
      "percentage_of_fitting_traces": 100.0
    },
    "fitness_alignments": {
      "averageFitness": 1.0,
      "average_trace_fitness": 1.0,
      "log_fitness": 0.9999814514259217,
      "percFitTraces": 100.0,
      "percentage_of_fitting_traces": 100.0
    },
    "fscore": 0.9995531906251268,
    "generalization": 0.9628001151857754,
    "metricsAverageWeight": 0.9547624381694501,
    "precision": 0.9991067803491677,
    "precision_alignments": 0.9991067803491677,
    "simplicity": 0.8571428571428572
  },
  "sound": true,
  "top 30": {
    "fitness": {
      "average_trace_fitness": 1.0,
      "log_fitness": 1.0,
      "perc_fit_traces": 100.0,
      "percentage_of_fitting_traces": 100.0
    },
    "fitness_alignments": {
      "averageFitness": 1.0,
      "average_trace_fitness": 1.0,
      "log_fitness": 0.999981406773857,
      "percFitTraces": 100.0,
      "percentage_of_fitting_traces": 100.0
    },
    "fscore": 0.9996323078808678,
    "generalization": 0.9627276121769989,
    "metricsAverageWeight": 0.9547838388442987,
    "precision": 0.9992648860573389,
    "precision_alignments": 0.9992648860573389,
    "simplicity": 0.8571428571428572
  }
}