{
  "FULL": {
    "entropia_precision": 0.9878994750913914,
    "entropia_recall": 0.918753162125026,
    "fitness": {
      "average_trace_fitness": 0.9411305375180353,
      "log_fitness": 0.9487726787620064,
      "perc_fit_traces": 52.0,
      "percentage_of_fitting_traces": 52.0
    },
    "fitness_alignments": {
      "averageFitness": 0.9200000000000079,
      "average_trace_fitness": 0.9200000000000079,
      "percFitTraces": 52.0,
      "percentage_of_fitting_traces": 52.0
    },
    "fscore": 0.9734773582722452,
    "generalization": 0.9625290597077211,
    "metricsAverageWeight": 0.953891656334747,
    "precision": 0.9995029821073559,
    "precision_alignments": 0.9995029821073559,
    "simplicity": 0.9047619047619049
  },
  "easy_soundness": true,
  "sound": true
}