{
  "FULL": {
    "entropia_precision": "nan",
    "entropia_recall": "nan",
    "fitness": {
      "average_trace_fitness": 0.9520881410256278,
      "log_fitness": 0.9545991101425588,
      "perc_fit_traces": 0.0,
      "percentage_of_fitting_traces": 0.0
    },
    "fscore": 0.9207324325792399,
    "generalization": 0.9549780929003282,
    "metricsAverageWeight": 0.8956368531626783,
    "precision": 0.8891864258240421,
    "simplicity": 0.7837837837837838
  },
  "easy_soundness": false,
  "sound": false
}