{
  "easy_soundness": true,
  "filename": "/mnt/c/Users/s140511/tue/thesis/thesis_data/process_trees_simple_ws2/predictions/2438_gcn_ep144b_cc.json",
  "full": {
    "entropia_precision": 1.0045631050681039,
    "entropia_recall": 0.998240016400196,
    "fitness": {
      "average_trace_fitness": 1.0,
      "log_fitness": 1.0,
      "perc_fit_traces": 100.0,
      "percentage_of_fitting_traces": 100.0
    },
    "fitness_alignments": {
      "averageFitness": 1.0,
      "average_trace_fitness": 1.0,
      "percFitTraces": 100.0,
      "percentage_of_fitting_traces": 100.0
    },
    "fscore": 0.9999169642115753,
    "generalization": 0.9594503369332897,
    "metricsAverageWeight": 0.9604093050804124,
    "precision": 0.9998339422118897,
    "precision_alignments": 0.9998339422118897,
    "simplicity": 0.8823529411764706
  },
  "sound": true,
  "top 30": {
    "fitness": {
      "average_trace_fitness": 1.0,
      "log_fitness": 1.0,
      "perc_fit_traces": 100.0,
      "percentage_of_fitting_traces": 100.0
    },
    "fitness_alignments": {
      "averageFitness": 1.0,
      "average_trace_fitness": 1.0,
      "percFitTraces": 100.0,
      "percentage_of_fitting_traces": 100.0
    },
    "fscore": 0.9999169642115753,
    "generalization": 0.9594503369332897,
    "metricsAverageWeight": 0.9604093050804124,
    "precision": 0.9998339422118897,
    "precision_alignments": 0.9998339422118897,
    "simplicity": 0.8823529411764706
  }
}