{
  "FULL": {
    "fitness": {
      "average_trace_fitness": 0.767,
      "log_fitness": 0.9734200319415925,
      "perc_fit_traces": 76.7,
      "percentage_of_fitting_traces": 76.7
    },
    "fitness_alignments": {
      "averageFitness": 0.6893333333333334,
      "average_trace_fitness": 0.6893333333333334,
      "percFitTraces": 76.7,
      "percentage_of_fitting_traces": 76.7
    },
    "fscore": 0.9634967006057248,
    "generalization": 0.9580500123583583,
    "metricsAverageWeight": 0.8998823522183201,
    "precision": 0.9537736502876152,
    "precision_alignments": 0.9537736502876152,
    "simplicity": 0.7142857142857143
  }
}