{
  "FULL": {
    "fitness": {
      "average_trace_fitness": 1.0,
      "log_fitness": 1.0,
      "perc_fit_traces": 100.0,
      "percentage_of_fitting_traces": 100.0
    },
    "fitness_alignments": {
      "averageFitness": 1.0,
      "average_trace_fitness": 1.0,
      "percFitTraces": 100.0,
      "percentage_of_fitting_traces": 100.0
    },
    "fscore": 0.9002991026919243,
    "generalization": 0.9575610177982078,
    "metricsAverageWeight": 0.9055978003035167,
    "precision": 0.8186763372620127,
    "precision_alignments": 0.8186763372620127,
    "simplicity": 0.8461538461538463
  }
}