{
  "easy_soundness": true,
  "filename": "/mnt/c/Users/s140511/tue/thesis/thesis_data/process_trees_simple_ws2/predictions/2445_gcn_ep144b_cc.json",
  "full": {
    "entropia_precision": 1.00000000383494,
    "entropia_recall": 0.881039888644462,
    "fitness": {
      "average_trace_fitness": 0.8966060606060512,
      "log_fitness": 0.9201940035273368,
      "perc_fit_traces": 27.6,
      "percentage_of_fitting_traces": 27.6
    },
    "fitness_alignments": {
      "averageFitness": 0.699111111111119,
      "average_trace_fitness": 0.699111111111119,
      "percFitTraces": 27.6,
      "percentage_of_fitting_traces": 27.6
    },
    "fscore": 0.9584385763490241,
    "generalization": 0.9584841911482602,
    "metricsAverageWeight": 0.9696695486688993,
    "precision": 1.0,
    "precision_alignments": 1.0,
    "simplicity": 1.0
  },
  "sound": true,
  "top 30": {
    "fitness": {
      "average_trace_fitness": 0.8966060606060512,
      "log_fitness": 0.9201940035273368,
      "perc_fit_traces": 27.6,
      "percentage_of_fitting_traces": 27.6
    },
    "fitness_alignments": {
      "averageFitness": 0.699111111111119,
      "average_trace_fitness": 0.699111111111119,
      "percFitTraces": 27.6,
      "percentage_of_fitting_traces": 27.6
    },
    "fscore": 0.9584385763490241,
    "generalization": 0.9584841911482602,
    "metricsAverageWeight": 0.9696695486688993,
    "precision": 1.0,
    "precision_alignments": 1.0,
    "simplicity": 1.0
  }
}