{
  "FULL": {
    "entropia_precision": 0.9924977128285943,
    "entropia_recall": 0.99467279885356,
    "fitness": {
      "average_trace_fitness": 1.0,
      "log_fitness": 1.0,
      "perc_fit_traces": 100.0,
      "percentage_of_fitting_traces": 100.0
    },
    "fitness_alignments": {
      "averageFitness": 1.0,
      "average_trace_fitness": 1.0,
      "percFitTraces": 100.0,
      "percentage_of_fitting_traces": 100.0
    },
    "fscore": 0.999729070712544,
    "generalization": 0.9636607038525746,
    "metricsAverageWeight": 0.9644639585371301,
    "precision": 0.9994582881906826,
    "precision_alignments": 0.9994582881906826,
    "simplicity": 0.8947368421052632
  },
  "easy_soundness": true,
  "sound": true
}