{
  "easy_soundness": true,
  "filename": "/mnt/c/Users/s140511/tue/thesis/thesis_data/process_trees_simple_ws2/predictions/2451_gcn_ep144b_cc.json",
  "full": {
    "fitness": {
      "average_trace_fitness": 0.9174559104275528,
      "log_fitness": 0.889210233592881,
      "perc_fit_traces": 50.1,
      "percentage_of_fitting_traces": 50.1
    },
    "fitness_alignments": {
      "averageFitness": 0.2525,
      "average_trace_fitness": 0.2525,
      "percFitTraces": 50.1,
      "percentage_of_fitting_traces": 50.1
    },
    "fscore": 0.9413565708902497,
    "generalization": 0.9625385546933418,
    "metricsAverageWeight": 0.939127673262032,
    "precision": 1.0,
    "precision_alignments": 1.0,
    "simplicity": 0.9047619047619049
  },
  "sound": false,
  "top 30": {
    "fitness": {
      "average_trace_fitness": 0.9174559104275528,
      "log_fitness": 0.889210233592881,
      "perc_fit_traces": 50.1,
      "percentage_of_fitting_traces": 50.1
    },
    "fitness_alignments": {
      "averageFitness": 0.2525,
      "average_trace_fitness": 0.2525,
      "percFitTraces": 50.1,
      "percentage_of_fitting_traces": 50.1
    },
    "fscore": 0.9413565708902497,
    "generalization": 0.9625385546933418,
    "metricsAverageWeight": 0.939127673262032,
    "precision": 1.0,
    "precision_alignments": 1.0,
    "simplicity": 0.9047619047619049
  }
}