{
  "FULL": {
    "entropia_precision": 0.9902821944713496,
    "entropia_recall": 0.994506707102743,
    "fitness": {
      "average_trace_fitness": 1.0,
      "log_fitness": 1.0,
      "perc_fit_traces": 100.0,
      "percentage_of_fitting_traces": 100.0
    },
    "fitness_alignments": {
      "averageFitness": 1.0,
      "average_trace_fitness": 1.0,
      "percFitTraces": 100.0,
      "percentage_of_fitting_traces": 100.0
    },
    "fscore": 0.9995061457418788,
    "generalization": 0.9687653993346588,
    "metricsAverageWeight": 0.9562302588761388,
    "precision": 0.9990127790270389,
    "precision_alignments": 0.9990127790270389,
    "simplicity": 0.8571428571428572
  },
  "easy_soundness": true,
  "sound": true
}