{
  "easy_soundness": true,
  "filename": "/mnt/c/Users/s140511/tue/thesis/thesis_data/process_trees_simple_ws2/predictions/2454_gcn_ep144b_cca.json",
  "full": {
    "entropia_precision": 0.9999911666786101,
    "entropia_recall": 1.00000000002142,
    "fitness": {
      "average_trace_fitness": 1.0,
      "log_fitness": 1.0,
      "perc_fit_traces": 100.0,
      "percentage_of_fitting_traces": 100.0
    },
    "fitness_alignments": {
      "averageFitness": 1.0,
      "average_trace_fitness": 1.0,
      "log_fitness": 0.999968590730163,
      "percFitTraces": 100.0,
      "percentage_of_fitting_traces": 100.0
    },
    "fscore": 1.0,
    "generalization": 0.9270648846464069,
    "metricsAverageWeight": 0.9236266862778808,
    "precision": 1.0,
    "precision_alignments": 1.0,
    "simplicity": 0.7674418604651162
  },
  "sound": true,
  "top 30": {
    "fitness": {
      "average_trace_fitness": 1.0,
      "log_fitness": 1.0,
      "perc_fit_traces": 100.0,
      "percentage_of_fitting_traces": 100.0
    },
    "fitness_alignments": {
      "averageFitness": 1.0,
      "average_trace_fitness": 1.0,
      "log_fitness": 0.999968590730163,
      "percFitTraces": 100.0,
      "percentage_of_fitting_traces": 100.0
    },
    "fscore": 1.0,
    "generalization": 0.9270648846464069,
    "metricsAverageWeight": 0.9236266862778808,
    "precision": 1.0,
    "precision_alignments": 1.0,
    "simplicity": 0.7674418604651162
  }
}