{
  "FULL": {
    "fitness": {
      "average_trace_fitness": 1.0,
      "log_fitness": 1.0,
      "perc_fit_traces": 100.0,
      "percentage_of_fitting_traces": 100.0
    },
    "fitness_alignments": {
      "averageFitness": 1.0,
      "average_trace_fitness": 1.0,
      "percFitTraces": 100.0,
      "percentage_of_fitting_traces": 100.0
    },
    "fscore": 0.9959004885719099,
    "generalization": 0.9545613961070806,
    "metricsAverageWeight": 0.9277754325903971,
    "precision": 0.991834451901566,
    "precision_alignments": 0.991834451901566,
    "simplicity": 0.7647058823529413
  }
}