{
  "FULL": {
    "entropia_precision": 0.9889029168906346,
    "entropia_recall": 0.99993978891702,
    "fitness": {
      "average_trace_fitness": 1.0,
      "log_fitness": 1.0,
      "perc_fit_traces": 100.0,
      "percentage_of_fitting_traces": 100.0
    },
    "fitness_alignments": {
      "averageFitness": 1.0,
      "average_trace_fitness": 1.0,
      "percFitTraces": 100.0,
      "percentage_of_fitting_traces": 100.0
    },
    "fscore": 0.9959004885719099,
    "generalization": 0.9555482409135975,
    "metricsAverageWeight": 0.9312901176482353,
    "precision": 0.991834451901566,
    "precision_alignments": 0.991834451901566,
    "simplicity": 0.7777777777777779
  },
  "easy_soundness": true,
  "sound": true
}