{
  "FULL": {
    "entropia_precision": 0.9408834197284425,
    "entropia_recall": 1.00662099698839,
    "fitness": {
      "average_trace_fitness": 1.0,
      "log_fitness": 1.0,
      "perc_fit_traces": 100.0,
      "percentage_of_fitting_traces": 100.0
    },
    "fitness_alignments": {
      "averageFitness": 1.0,
      "average_trace_fitness": 1.0,
      "percFitTraces": 100.0,
      "percentage_of_fitting_traces": 100.0
    },
    "fscore": 0.9956523839428046,
    "generalization": 0.9669883789403293,
    "metricsAverageWeight": 0.9441281512236854,
    "precision": 0.9913424077725939,
    "precision_alignments": 0.9913424077725939,
    "simplicity": 0.8181818181818181
  },
  "easy_soundness": true,
  "sound": true
}