{
  "FULL": {
    "entropia_precision": "nan",
    "entropia_recall": "nan",
    "fitness": {
      "average_trace_fitness": 0.9357945533633121,
      "log_fitness": 0.9371227364185111,
      "perc_fit_traces": 0.0,
      "percentage_of_fitting_traces": 0.0
    },
    "fscore": 0.898299685231389,
    "generalization": 0.8979177804445915,
    "metricsAverageWeight": 0.8802838297192035,
    "precision": 0.862565390249006,
    "simplicity": 0.8235294117647058
  },
  "easy_soundness": false,
  "sound": false
}