{
  "FULL": {
    "entropia_precision": 1.0032857067940235,
    "entropia_recall": 0.877441434788739,
    "fitness": {
      "average_trace_fitness": 0.9288696797655933,
      "log_fitness": 0.9328054298642534,
      "perc_fit_traces": 32.8,
      "percentage_of_fitting_traces": 32.8
    },
    "fitness_alignments": {
      "averageFitness": 0.8621818181818305,
      "average_trace_fitness": 0.8621818181818305,
      "percFitTraces": 32.8,
      "percentage_of_fitting_traces": 32.8
    },
    "fscore": 0.9650008576723403,
    "generalization": 0.9654023687990613,
    "metricsAverageWeight": 0.9431764896457551,
    "precision": 0.9994981599197056,
    "precision_alignments": 0.9994981599197056,
    "simplicity": 0.875
  },
  "easy_soundness": true,
  "sound": true
}