{
  "FULL": {
    "entropia_precision": 1.0093864371854895,
    "entropia_recall": 0.890760093443214,
    "fitness": {
      "average_trace_fitness": 0.9589166666666483,
      "log_fitness": 0.9589166666666666,
      "perc_fit_traces": 50.7,
      "percentage_of_fitting_traces": 50.7
    },
    "fitness_alignments": {
      "averageFitness": 0.9103636363636615,
      "average_trace_fitness": 0.9103636363636615,
      "percFitTraces": 50.7,
      "percentage_of_fitting_traces": 50.7
    },
    "fscore": 0.9790275237163398,
    "generalization": 0.9643236866218386,
    "metricsAverageWeight": 0.9622915698036079,
    "precision": 1.0,
    "precision_alignments": 1.0,
    "simplicity": 0.9259259259259258
  },
  "easy_soundness": true,
  "sound": true
}