{
  "easy_soundness": true,
  "filename": "/mnt/c/Users/s140511/tue/thesis/thesis_data/process_trees_simple_ws2/predictions/2467_gcn_ep144b_cca.json",
  "full": {
    "entropia_precision": 1.000000002362608,
    "entropia_recall": 0.862881677554729,
    "fitness": {
      "average_trace_fitness": 0.9461102217359881,
      "log_fitness": 0.9221301486717036,
      "perc_fit_traces": 67.8,
      "percentage_of_fitting_traces": 67.8
    },
    "fitness_alignments": {
      "averageFitness": 0.8826783983326206,
      "average_trace_fitness": 0.8826783983326206,
      "log_fitness": 0.8375663714587631,
      "percFitTraces": 67.8,
      "percentage_of_fitting_traces": 67.8
    },
    "fscore": 0.959487732200596,
    "generalization": 0.9568829272987096,
    "metricsAverageWeight": 0.9312917305310648,
    "precision": 1.0,
    "precision_alignments": 1.0,
    "simplicity": 0.8461538461538463
  },
  "sound": true,
  "top 30": {
    "fitness": {
      "average_trace_fitness": 0.9560838445087979,
      "log_fitness": 0.9431456633005948,
      "perc_fit_traces": 71.67019027484143,
      "percentage_of_fitting_traces": 71.67019027484143
    },
    "fitness_alignments": {
      "averageFitness": 0.9016219344225764,
      "average_trace_fitness": 0.9016219344225764,
      "log_fitness": 0.8794935829375601,
      "percFitTraces": 71.67019027484143,
      "percentage_of_fitting_traces": 71.67019027484143
    },
    "fscore": 0.9707410835053748,
    "generalization": 0.9525819189447898,
    "metricsAverageWeight": 0.9354703570998077,
    "precision": 1.0,
    "precision_alignments": 1.0,
    "simplicity": 0.8461538461538463
  }
}