{
  "FULL": {
    "entropia_precision": 0.9975316575002503,
    "entropia_recall": 0.999999999999998,
    "fitness": {
      "average_trace_fitness": 1.0,
      "log_fitness": 1.0,
      "perc_fit_traces": 100.0,
      "percentage_of_fitting_traces": 100.0
    },
    "fitness_alignments": {
      "averageFitness": 1.0,
      "average_trace_fitness": 1.0,
      "percFitTraces": 100.0,
      "percentage_of_fitting_traces": 100.0
    },
    "fscore": 0.9999360777294809,
    "generalization": 0.9522558372106168,
    "metricsAverageWeight": 0.9324764446547369,
    "precision": 0.9998721636305529,
    "precision_alignments": 0.9998721636305529,
    "simplicity": 0.7777777777777779
  },
  "easy_soundness": true,
  "sound": true
}