{
  "FULL": {
    "fitness": {
      "average_trace_fitness": 0.9483300158645966,
      "log_fitness": 0.9637595757218621,
      "perc_fit_traces": 67.71653543307086,
      "percentage_of_fitting_traces": 67.71653543307086
    },
    "fitness_alignments": {
      "averageFitness": 0.6771653543307087,
      "average_trace_fitness": 0.6771653543307087,
      "percFitTraces": 67.71653543307086,
      "percentage_of_fitting_traces": 67.71653543307086
    },
    "fscore": 0.9344960004995693,
    "generalization": 0.9477086600428039,
    "metricsAverageWeight": 0.8879396853360297,
    "precision": 0.9069571722461194,
    "precision_alignments": 0.9069571722461194,
    "simplicity": 0.7333333333333333
  }
}