{
  "FULL": {
    "fitness": {
      "average_trace_fitness": 0.90526078178418,
      "log_fitness": 0.8991109550474292,
      "perc_fit_traces": 39.8,
      "percentage_of_fitting_traces": 39.8
    },
    "fitness_alignments": {
      "averageFitness": 0.83675,
      "average_trace_fitness": 0.83675,
      "percFitTraces": 41.2,
      "percentage_of_fitting_traces": 41.2
    },
    "fscore": 0.9239519776731885,
    "generalization": 0.9309964227669675,
    "metricsAverageWeight": 0.863682655234398,
    "precision": 0.9502046384720327,
    "precision_alignments": 0.9488605534454694,
    "simplicity": 0.6744186046511628
  }
}