{
  "FULL": {
    "fitness": {
      "average_trace_fitness": 0.9755999999999945,
      "log_fitness": 0.9736045002163566,
      "perc_fit_traces": 75.6,
      "percentage_of_fitting_traces": 75.6
    },
    "fitness_alignments": {
      "averageFitness": 0.8954285714285675,
      "average_trace_fitness": 0.8954285714285675,
      "percFitTraces": 75.6,
      "percentage_of_fitting_traces": 75.6
    },
    "fscore": 0.9866257399693049,
    "generalization": 0.9591537231994923,
    "metricsAverageWeight": 0.9631895558539623,
    "precision": 1.0,
    "precision_alignments": 1.0,
    "simplicity": 0.92
  }
}