{
  "FULL": {
    "entropia_precision": 0.947506378849266,
    "entropia_recall": 0.997422101227309,
    "fitness": {
      "average_trace_fitness": 1.0,
      "log_fitness": 1.0,
      "perc_fit_traces": 100.0,
      "percentage_of_fitting_traces": 100.0
    },
    "fitness_alignments": {
      "averageFitness": 1.0,
      "average_trace_fitness": 1.0,
      "percFitTraces": 100.0,
      "percentage_of_fitting_traces": 100.0
    },
    "fscore": 0.9736043962643764,
    "generalization": 0.9670320352410235,
    "metricsAverageWeight": 0.9305125153128323,
    "precision": 0.9485664131070801,
    "precision_alignments": 0.9485664131070801,
    "simplicity": 0.8064516129032256
  },
  "easy_soundness": true,
  "sound": true
}