{
  "FULL": {
    "fitness": {
      "average_trace_fitness": 1.0,
      "log_fitness": 1.0,
      "perc_fit_traces": 100.0,
      "percentage_of_fitting_traces": 100.0
    },
    "fitness_alignments": {
      "averageFitness": 1.0,
      "average_trace_fitness": 1.0,
      "percFitTraces": 100.0,
      "percentage_of_fitting_traces": 100.0
    },
    "fscore": 0.9736043962643764,
    "generalization": 0.9668968954903009,
    "metricsAverageWeight": 0.9271416892183107,
    "precision": 0.9485664131070801,
    "precision_alignments": 0.9485664131070801,
    "simplicity": 0.7931034482758622
  }
}