{
  "FULL": {
    "entropia_precision": 0.7255626302463263,
    "entropia_recall": 1.0,
    "fitness": {
      "average_trace_fitness": 1.0,
      "log_fitness": 1.0,
      "perc_fit_traces": 100.0,
      "percentage_of_fitting_traces": 100.0
    },
    "fitness_alignments": {
      "averageFitness": 1.0,
      "average_trace_fitness": 1.0,
      "percFitTraces": 100.0,
      "percentage_of_fitting_traces": 100.0
    },
    "fscore": 0.7198086887206059,
    "generalization": 0.9585520283071236,
    "metricsAverageWeight": 0.8246490766768917,
    "precision": 0.562266500622665,
    "precision_alignments": 0.562266500622665,
    "simplicity": 0.7777777777777779
  },
  "easy_soundness": true,
  "sound": true
}