{
  "FULL": {
    "fitness": {
      "average_trace_fitness": 1.0,
      "log_fitness": 1.0,
      "perc_fit_traces": 100.0,
      "percentage_of_fitting_traces": 100.0
    },
    "fitness_alignments": {
      "averageFitness": 1.0,
      "average_trace_fitness": 1.0,
      "percFitTraces": 100.0,
      "percentage_of_fitting_traces": 100.0
    },
    "fscore": 0.9994212962962963,
    "generalization": 0.9627902193391373,
    "metricsAverageWeight": 0.9487417036684067,
    "precision": 0.9988432620011567,
    "precision_alignments": 0.9988432620011567,
    "simplicity": 0.8333333333333333
  }
}