{
  "FULL": {
    "fitness": {
      "average_trace_fitness": 1.0,
      "log_fitness": 1.0,
      "perc_fit_traces": 100.0,
      "percentage_of_fitting_traces": 100.0
    },
    "fitness_alignments": {
      "averageFitness": 1.0,
      "average_trace_fitness": 1.0,
      "percFitTraces": 100.0,
      "percentage_of_fitting_traces": 100.0
    },
    "fscore": 0.9735593522375425,
    "generalization": 0.9645855374445753,
    "metricsAverageWeight": 0.929247002212451,
    "precision": 0.9484809027777777,
    "precision_alignments": 0.9484809027777777,
    "simplicity": 0.8039215686274508
  }
}