{
  "FULL": {
    "fitness": {
      "average_trace_fitness": 1.0,
      "log_fitness": 1.0,
      "perc_fit_traces": 100.0,
      "percentage_of_fitting_traces": 100.0
    },
    "fitness_alignments": {
      "averageFitness": 1.0,
      "average_trace_fitness": 1.0,
      "percFitTraces": 100.0,
      "percentage_of_fitting_traces": 100.0
    },
    "fscore": 0.9999221910986618,
    "generalization": 0.9691950829063921,
    "metricsAverageWeight": 0.9922598693028059,
    "precision": 0.9998443943048315,
    "precision_alignments": 0.9998443943048315,
    "simplicity": 1.0
  }
}