{
  "FULL": {
    "entropia_precision": 1.0000000000000002,
    "entropia_recall": 0.86100100333475,
    "fitness": {
      "average_trace_fitness": 0.9055439199689189,
      "log_fitness": 0.9070618998096838,
      "perc_fit_traces": 39.1,
      "percentage_of_fitting_traces": 39.1
    },
    "fitness_alignments": {
      "averageFitness": 0.8421666666666634,
      "average_trace_fitness": 0.8421666666666634,
      "percFitTraces": 39.1,
      "percentage_of_fitting_traces": 39.1
    },
    "fscore": 0.95126634316401,
    "generalization": 0.9489678938497939,
    "metricsAverageWeight": 0.9211503055577266,
    "precision": 1.0,
    "precision_alignments": 1.0,
    "simplicity": 0.8285714285714286
  },
  "easy_soundness": true,
  "sound": true
}