{
  "FULL": {
    "entropia_precision": 1.0000000000470128,
    "entropia_recall": 1.000000000051277,
    "fitness": {
      "average_trace_fitness": 1.0,
      "log_fitness": 1.0,
      "perc_fit_traces": 100.0,
      "percentage_of_fitting_traces": 100.0
    },
    "fitness_alignments": {
      "averageFitness": 1.0,
      "average_trace_fitness": 1.0,
      "percFitTraces": 100.0,
      "percentage_of_fitting_traces": 100.0
    },
    "fscore": 1.0,
    "generalization": 0.95700858677581,
    "metricsAverageWeight": 0.96751301625917,
    "precision": 1.0,
    "precision_alignments": 1.0,
    "simplicity": 0.9130434782608695
  },
  "easy_soundness": true,
  "sound": true
}