{
  "FULL": {
    "entropia_precision": 1.0000000000000009,
    "entropia_recall": 0.968605062884923,
    "fitness": {
      "average_trace_fitness": 0.9892361111111126,
      "log_fitness": 0.9795205806420186,
      "perc_fit_traces": 93.8,
      "percentage_of_fitting_traces": 93.8
    },
    "fitness_alignments": {
      "averageFitness": 0.876,
      "average_trace_fitness": 0.876,
      "percFitTraces": 93.8,
      "percentage_of_fitting_traces": 93.8
    },
    "fscore": 0.9896543539085917,
    "generalization": 0.944299565514952,
    "metricsAverageWeight": 0.939288369872576,
    "precision": 1.0,
    "precision_alignments": 1.0,
    "simplicity": 0.8333333333333333
  },
  "easy_soundness": true,
  "sound": true
}