{
  "easy_soundness": false,
  "filename": "/mnt/c/Users/s140511/tue/thesis/thesis_data/process_trees_simple_ws2/predictions/2497_gcn_ep144b_cca.json",
  "full": {
    "entropia_precision": "nan",
    "entropia_recall": "nan",
    "fitness": {
      "average_trace_fitness": 0.8331664835990013,
      "log_fitness": 0.8276448409245689,
      "perc_fit_traces": 0.0,
      "percentage_of_fitting_traces": 0.0
    },
    "fscore": 0.905695485678585,
    "generalization": 0.9665931501728551,
    "metricsAverageWeight": 0.8346354471414446,
    "precision": 1.0,
    "simplicity": 0.5443037974683543
  },
  "sound": false,
  "top 30": {
    "fitness": {
      "average_trace_fitness": 0.8353580772922649,
      "log_fitness": 0.8320341796393151,
      "perc_fit_traces": 0.0,
      "percentage_of_fitting_traces": 0.0
    },
    "fscore": 0.9083173107645004,
    "generalization": 0.9608787350118843,
    "metricsAverageWeight": 0.8343041780298884,
    "precision": 1.0,
    "simplicity": 0.5443037974683543
  }
}