{
  "FULL": {
    "entropia_precision": "nan",
    "entropia_recall": "nan",
    "fitness": {
      "average_trace_fitness": 0.961056474358982,
      "log_fitness": 0.9660902000678195,
      "perc_fit_traces": 0.0,
      "percentage_of_fitting_traces": 0.0
    },
    "fscore": 0.7496400904992753,
    "generalization": 0.8874710806912915,
    "metricsAverageWeight": 0.8294601030868545,
    "precision": 0.6124272797364547,
    "simplicity": 0.851851851851852
  },
  "easy_soundness": false,
  "sound": false
}