{
  "FULL": {
    "entropia_precision": 0.9999999999410237,
    "entropia_recall": 0.903026321081565,
    "fitness": {
      "average_trace_fitness": 0.9270833333333314,
      "log_fitness": 0.9352746342809826,
      "perc_fit_traces": 53.1,
      "percentage_of_fitting_traces": 53.1
    },
    "fitness_alignments": {
      "averageFitness": 0.8124000000000067,
      "average_trace_fitness": 0.8124000000000067,
      "percFitTraces": 53.1,
      "percentage_of_fitting_traces": 53.1
    },
    "fscore": 0.966554945446766,
    "generalization": 0.9376021168992122,
    "metricsAverageWeight": 0.8932191877950487,
    "precision": 1.0,
    "precision_alignments": 1.0,
    "simplicity": 0.7000000000000001
  },
  "easy_soundness": true,
  "sound": true
}