{
  "FULL": {
    "fitness": {
      "average_trace_fitness": 0.9773333333333231,
      "log_fitness": 0.9559585492227979,
      "perc_fit_traces": 72.8,
      "percentage_of_fitting_traces": 72.8
    },
    "fitness_alignments": {
      "averageFitness": 0.728,
      "average_trace_fitness": 0.728,
      "percFitTraces": 72.8,
      "percentage_of_fitting_traces": 72.8
    },
    "fscore": 0.9760307250348493,
    "generalization": 0.8756207380921263,
    "metricsAverageWeight": 0.8876913489406943,
    "precision": 0.9969638862256311,
    "precision_alignments": 0.9969638862256311,
    "simplicity": 0.7222222222222222
  }
}