{
  "FULL": {
    "fitness": {
      "average_trace_fitness": 1.0,
      "log_fitness": 1.0,
      "perc_fit_traces": 100.0,
      "percentage_of_fitting_traces": 100.0
    },
    "fitness_alignments": {
      "averageFitness": 1.0,
      "average_trace_fitness": 1.0,
      "percFitTraces": 100.0,
      "percentage_of_fitting_traces": 100.0
    },
    "fscore": 0.9196704428424305,
    "generalization": 0.9581013466988112,
    "metricsAverageWeight": 0.906892526205858,
    "precision": 0.8512869399428027,
    "precision_alignments": 0.8512869399428027,
    "simplicity": 0.8181818181818181
  }
}