{
  "easy_soundness": true,
  "filename": "/mnt/c/Users/s140511/tue/thesis/thesis_data/process_trees_simple_ws2/predictions/2513_gcn_ep144b_cca.json",
  "full": {
    "entropia_precision": 1.0000095391719268,
    "entropia_recall": 0.999993586474343,
    "fitness": {
      "average_trace_fitness": 1.0,
      "log_fitness": 1.0,
      "perc_fit_traces": 100.0,
      "percentage_of_fitting_traces": 100.0
    },
    "fitness_alignments": {
      "averageFitness": 1.0,
      "average_trace_fitness": 1.0,
      "log_fitness": 0.999982695074752,
      "percFitTraces": 100.0,
      "percentage_of_fitting_traces": 100.0
    },
    "fscore": 1.0,
    "generalization": 0.955220488263619,
    "metricsAverageWeight": 0.9482645815253643,
    "precision": 1.0,
    "precision_alignments": 1.0,
    "simplicity": 0.8378378378378379
  },
  "sound": true,
  "top 30": {
    "fitness": {
      "average_trace_fitness": 1.0,
      "log_fitness": 1.0,
      "perc_fit_traces": 100.0,
      "percentage_of_fitting_traces": 100.0
    },
    "fitness_alignments": {
      "averageFitness": 1.0,
      "average_trace_fitness": 1.0,
      "log_fitness": 0.999982695074752,
      "percFitTraces": 100.0,
      "percentage_of_fitting_traces": 100.0
    },
    "fscore": 1.0,
    "generalization": 0.955220488263619,
    "metricsAverageWeight": 0.9482645815253643,
    "precision": 1.0,
    "precision_alignments": 1.0,
    "simplicity": 0.8378378378378379
  }
}