{
  "FULL": {
    "fitness": {
      "average_trace_fitness": 0.9500000000000167,
      "log_fitness": 0.95,
      "perc_fit_traces": 0.0,
      "percentage_of_fitting_traces": 0.0
    },
    "fscore": 0.9115456578286861,
    "generalization": 0.9654660544824073,
    "metricsAverageWeight": 0.9228873469539352,
    "precision": 0.8760833333333333,
    "simplicity": 0.8999999999999999
  }
}