{
  "FULL": {
    "entropia_precision": 1.000000000000003,
    "entropia_recall": 0.999999999999999,
    "fitness": {
      "average_trace_fitness": 1.0,
      "log_fitness": 1.0,
      "perc_fit_traces": 100.0,
      "percentage_of_fitting_traces": 100.0
    },
    "fitness_alignments": {
      "averageFitness": 1.0,
      "average_trace_fitness": 1.0,
      "percFitTraces": 100.0,
      "percentage_of_fitting_traces": 100.0
    },
    "fscore": 1.0,
    "generalization": 0.9450544888931506,
    "metricsAverageWeight": 0.9362636222232876,
    "precision": 1.0,
    "precision_alignments": 1.0,
    "simplicity": 0.8
  },
  "easy_soundness": true,
  "sound": true
}