{
  "FULL": {
    "entropia_precision": 0.9635293029467049,
    "entropia_recall": 0.999836784138001,
    "fitness": {
      "average_trace_fitness": 1.0,
      "log_fitness": 1.0,
      "perc_fit_traces": 100.0,
      "percentage_of_fitting_traces": 100.0
    },
    "fitness_alignments": {
      "averageFitness": 1.0,
      "average_trace_fitness": 1.0,
      "percFitTraces": 100.0,
      "percentage_of_fitting_traces": 100.0
    },
    "fscore": 0.9824019961914767,
    "generalization": 0.9629266979961473,
    "metricsAverageWeight": 0.9220848396277714,
    "precision": 0.9654126605149383,
    "precision_alignments": 0.9654126605149383,
    "simplicity": 0.7599999999999999
  },
  "easy_soundness": true,
  "sound": true
}