{
  "FULL": {
    "fitness": {
      "average_trace_fitness": 0.9730000000000062,
      "log_fitness": 0.9737524303305249,
      "perc_fit_traces": 75.7,
      "percentage_of_fitting_traces": 75.7
    },
    "fitness_alignments": {
      "averageFitness": 0.9189999999999979,
      "average_trace_fitness": 0.9189999999999979,
      "percFitTraces": 75.7,
      "percentage_of_fitting_traces": 75.7
    },
    "fscore": 0.986701691019537,
    "generalization": 0.9549535476385989,
    "metricsAverageWeight": 0.9393193516351381,
    "precision": 1.0,
    "precision_alignments": 1.0,
    "simplicity": 0.8285714285714286
  }
}