{
  "FULL": {
    "fitness": {
      "average_trace_fitness": 0.736200105450103,
      "log_fitness": 0.9358080307230865,
      "perc_fit_traces": 27.7,
      "percentage_of_fitting_traces": 27.7
    },
    "fitness_alignments": {
      "averageFitness": -0.742,
      "average_trace_fitness": -0.742,
      "percFitTraces": 27.7,
      "percentage_of_fitting_traces": 27.7
    },
    "fscore": 0.8269078959567943,
    "generalization": 0.8888389624240056,
    "metricsAverageWeight": 0.821572109009628,
    "precision": 0.7407112103332802,
    "precision_alignments": 0.7407112103332802,
    "simplicity": 0.7209302325581395
  }
}