{
  "FULL": {
    "fitness": {
      "average_trace_fitness": 0.9013568181818058,
      "log_fitness": 0.909195167127048,
      "perc_fit_traces": 46.7,
      "percentage_of_fitting_traces": 46.7
    },
    "fitness_alignments": {
      "averageFitness": 0.7971428571428462,
      "average_trace_fitness": 0.7971428571428462,
      "percFitTraces": 46.7,
      "percentage_of_fitting_traces": 46.7
    },
    "fscore": 0.9524381611495514,
    "generalization": 0.9677687556912216,
    "metricsAverageWeight": 0.9454314568950437,
    "precision": 1.0,
    "precision_alignments": 1.0,
    "simplicity": 0.9047619047619049
  }
}