{
  "FULL": {
    "entropia_precision": "nan",
    "entropia_recall": "nan",
    "fitness": {
      "average_trace_fitness": 1.0,
      "log_fitness": 1.0,
      "perc_fit_traces": 100.0,
      "percentage_of_fitting_traces": 100.0
    },
    "fitness_alignments": {
      "averageFitness": 1.0,
      "average_trace_fitness": 1.0,
      "percFitTraces": 100.0,
      "percentage_of_fitting_traces": 100.0
    },
    "fscore": 0.9983221988346908,
    "generalization": 0.9714339760437333,
    "metricsAverageWeight": 0.9682114747695665,
    "precision": 0.9966500182726276,
    "precision_alignments": 0.9966500182726276,
    "simplicity": 0.9047619047619049
  },
  "easy_soundness": true,
  "sound": true
}