{
  "easy_soundness": true,
  "filename": "/mnt/c/Users/s140511/tue/thesis/thesis_data/process_trees_simple_ws2/predictions/2531_gcn_ep144b_cca.json",
  "full": {
    "entropia_precision": 0.9999999999999967,
    "entropia_recall": 0.999999999999995,
    "fitness": {
      "average_trace_fitness": 1.0,
      "log_fitness": 1.0,
      "perc_fit_traces": 100.0,
      "percentage_of_fitting_traces": 100.0
    },
    "fitness_alignments": {
      "averageFitness": 1.0,
      "average_trace_fitness": 1.0,
      "log_fitness": 0.999977802934452,
      "percFitTraces": 100.0,
      "percentage_of_fitting_traces": 100.0
    },
    "fscore": 1.0,
    "generalization": 0.9545075624622303,
    "metricsAverageWeight": 0.9701083720970389,
    "precision": 1.0,
    "precision_alignments": 1.0,
    "simplicity": 0.9259259259259258
  },
  "sound": true,
  "top 30": {
    "fitness": {
      "average_trace_fitness": 1.0,
      "log_fitness": 1.0,
      "perc_fit_traces": 100.0,
      "percentage_of_fitting_traces": 100.0
    },
    "fitness_alignments": {
      "averageFitness": 1.0,
      "average_trace_fitness": 1.0,
      "log_fitness": 0.999977802934452,
      "percFitTraces": 100.0,
      "percentage_of_fitting_traces": 100.0
    },
    "fscore": 1.0,
    "generalization": 0.9545075624622303,
    "metricsAverageWeight": 0.9701083720970389,
    "precision": 1.0,
    "precision_alignments": 1.0,
    "simplicity": 0.9259259259259258
  }
}