{
  "FULL": {
    "entropia_precision": 0.9999999999999987,
    "entropia_recall": 1.000000000000001,
    "fitness": {
      "average_trace_fitness": 1.0,
      "log_fitness": 1.0,
      "perc_fit_traces": 100.0,
      "percentage_of_fitting_traces": 100.0
    },
    "fitness_alignments": {
      "averageFitness": 1.0,
      "average_trace_fitness": 1.0,
      "percFitTraces": 100.0,
      "percentage_of_fitting_traces": 100.0
    },
    "fscore": 1.0,
    "generalization": 0.953643833499082,
    "metricsAverageWeight": 0.9478704178342299,
    "precision": 1.0,
    "precision_alignments": 1.0,
    "simplicity": 0.8378378378378379
  },
  "easy_soundness": true,
  "sound": true
}