{
  "FULL": {
    "entropia_precision": 0.8418887451611635,
    "entropia_recall": 0.6781502926659,
    "fitness": {
      "average_trace_fitness": 0.4101666666666643,
      "log_fitness": 0.7319784058431248,
      "perc_fit_traces": 15.6,
      "percentage_of_fitting_traces": 15.6
    },
    "fitness_alignments": {
      "averageFitness": 0.1796666666666656,
      "average_trace_fitness": 0.1796666666666656,
      "percFitTraces": 15.6,
      "percentage_of_fitting_traces": 15.6
    },
    "fscore": 0.829624646467482,
    "generalization": 0.9380431045993888,
    "metricsAverageWeight": 0.8443387109439617,
    "precision": 0.9573333333333334,
    "precision_alignments": 0.9573333333333334,
    "simplicity": 0.7499999999999999
  },
  "easy_soundness": true,
  "sound": true
}