{
  "FULL": {
    "fitness": {
      "average_trace_fitness": 0.9770000000000052,
      "log_fitness": 0.9598002496878901,
      "perc_fit_traces": 83.9,
      "percentage_of_fitting_traces": 83.9
    },
    "fitness_alignments": {
      "averageFitness": 0.839,
      "average_trace_fitness": 0.839,
      "percFitTraces": 83.9,
      "percentage_of_fitting_traces": 83.9
    },
    "fscore": 0.9794878328449484,
    "generalization": 0.9407847874822393,
    "metricsAverageWeight": 0.903717687863961,
    "precision": 1.0,
    "precision_alignments": 1.0,
    "simplicity": 0.7142857142857143
  }
}