{
  "FULL": {
    "fitness": {
      "average_trace_fitness": 0.9668807029175969,
      "log_fitness": 0.920513611854629,
      "perc_fit_traces": 81.6,
      "percentage_of_fitting_traces": 81.6
    },
    "fitness_alignments": {
      "averageFitness": 0.676,
      "average_trace_fitness": 0.676,
      "percFitTraces": 81.6,
      "percentage_of_fitting_traces": 81.6
    },
    "fscore": 0.9555935043700856,
    "generalization": 0.9094164529321619,
    "metricsAverageWeight": 0.8803740803356414,
    "precision": 0.9934530490086045,
    "precision_alignments": 0.9934530490086045,
    "simplicity": 0.6981132075471698
  }
}