{
  "easy_soundness": true,
  "filename": "/mnt/c/Users/s140511/tue/thesis/thesis_data/process_trees_simple_ws2/predictions/2541_gcn_ep144b_cc.json",
  "full": {
    "fitness": {
      "average_trace_fitness": 0.9842999999999964,
      "log_fitness": 0.9810752169720347,
      "perc_fit_traces": 84.3,
      "percentage_of_fitting_traces": 84.3
    },
    "fitness_alignments": {
      "averageFitness": 0.9215,
      "average_trace_fitness": 0.9215,
      "percFitTraces": 84.3,
      "percentage_of_fitting_traces": 84.3
    },
    "fscore": 0.9904472163066627,
    "generalization": 0.9504879970954737,
    "metricsAverageWeight": 0.9495574701835438,
    "precision": 1.0,
    "precision_alignments": 1.0,
    "simplicity": 0.8666666666666667
  },
  "sound": true,
  "top 30": {
    "fitness": {
      "average_trace_fitness": 0.9842999999999964,
      "log_fitness": 0.9810752169720347,
      "perc_fit_traces": 84.3,
      "percentage_of_fitting_traces": 84.3
    },
    "fitness_alignments": {
      "averageFitness": 0.9215,
      "average_trace_fitness": 0.9215,
      "percFitTraces": 84.3,
      "percentage_of_fitting_traces": 84.3
    },
    "fscore": 0.9904472163066627,
    "generalization": 0.9504879970954737,
    "metricsAverageWeight": 0.9495574701835438,
    "precision": 1.0,
    "precision_alignments": 1.0,
    "simplicity": 0.8666666666666667
  }
}