{
  "easy_soundness": true,
  "filename": "/mnt/c/Users/s140511/tue/thesis/thesis_data/process_trees_simple_ws2/predictions/2544_gcn_ep144b_cca.json",
  "full": {
    "entropia_precision": 0.9999999999999979,
    "entropia_recall": 0.999999999999999,
    "fitness": {
      "average_trace_fitness": 1.0,
      "log_fitness": 1.0,
      "perc_fit_traces": 100.0,
      "percentage_of_fitting_traces": 100.0
    },
    "fitness_alignments": {
      "averageFitness": 1.0,
      "average_trace_fitness": 1.0,
      "log_fitness": 0.9999765043114589,
      "percFitTraces": 100.0,
      "percentage_of_fitting_traces": 100.0
    },
    "fscore": 1.0,
    "generalization": 0.9611554537739156,
    "metricsAverageWeight": 0.9639730739697947,
    "precision": 1.0,
    "precision_alignments": 1.0,
    "simplicity": 0.8947368421052632
  },
  "sound": true,
  "top 30": {
    "fitness": {
      "average_trace_fitness": 1.0,
      "log_fitness": 1.0,
      "perc_fit_traces": 100.0,
      "percentage_of_fitting_traces": 100.0
    },
    "fitness_alignments": {
      "averageFitness": 1.0,
      "average_trace_fitness": 1.0,
      "log_fitness": 0.9999765043114589,
      "percFitTraces": 100.0,
      "percentage_of_fitting_traces": 100.0
    },
    "fscore": 1.0,
    "generalization": 0.9611554537739156,
    "metricsAverageWeight": 0.9639730739697947,
    "precision": 1.0,
    "precision_alignments": 1.0,
    "simplicity": 0.8947368421052632
  }
}