{
  "easy_soundness": true,
  "filename": "/mnt/c/Users/s140511/tue/thesis/thesis_data/process_trees_simple_ws2/predictions/2547_gcn_ep144b_cca.json",
  "full": {
    "entropia_precision": 0.9999999999999817,
    "entropia_recall": 0.999999999999973,
    "fitness": {
      "average_trace_fitness": 1.0,
      "log_fitness": 1.0,
      "perc_fit_traces": 100.0,
      "percentage_of_fitting_traces": 100.0
    },
    "fitness_alignments": {
      "averageFitness": 1.0,
      "average_trace_fitness": 1.0,
      "log_fitness": 0.9999911147441934,
      "percFitTraces": 100.0,
      "percentage_of_fitting_traces": 100.0
    },
    "fscore": 1.0,
    "generalization": 0.9591707068366945,
    "metricsAverageWeight": 0.9421736290901259,
    "precision": 1.0,
    "precision_alignments": 1.0,
    "simplicity": 0.8095238095238095
  },
  "sound": true,
  "top 30": {
    "fitness": {
      "average_trace_fitness": 1.0,
      "log_fitness": 1.0,
      "perc_fit_traces": 100.0,
      "percentage_of_fitting_traces": 100.0
    },
    "fitness_alignments": {
      "averageFitness": 1.0,
      "average_trace_fitness": 1.0,
      "log_fitness": 0.9999911147441934,
      "percFitTraces": 100.0,
      "percentage_of_fitting_traces": 100.0
    },
    "fscore": 1.0,
    "generalization": 0.9591707068366945,
    "metricsAverageWeight": 0.9421736290901259,
    "precision": 1.0,
    "precision_alignments": 1.0,
    "simplicity": 0.8095238095238095
  }
}