{
  "FULL": {
    "fitness": {
      "average_trace_fitness": 1.0,
      "log_fitness": 1.0,
      "perc_fit_traces": 100.0,
      "percentage_of_fitting_traces": 100.0
    },
    "fitness_alignments": {
      "averageFitness": 1.0,
      "average_trace_fitness": 1.0,
      "percFitTraces": 100.0,
      "percentage_of_fitting_traces": 100.0
    },
    "fscore": 0.9234303215926493,
    "generalization": 0.958709758157955,
    "metricsAverageWeight": 0.9247037971664656,
    "precision": 0.8577524893314367,
    "precision_alignments": 0.8577524893314367,
    "simplicity": 0.8823529411764706
  }
}