{
  "easy_soundness": true,
  "filename": "/mnt/c/Users/s140511/tue/thesis/thesis_data/process_trees_simple_ws2/predictions/2548_gcn_ep144b_cca.json",
  "full": {
    "entropia_precision": 0.9999999999999992,
    "entropia_recall": 1.000000000000001,
    "fitness": {
      "average_trace_fitness": 1.0,
      "log_fitness": 1.0,
      "perc_fit_traces": 100.0,
      "percentage_of_fitting_traces": 100.0
    },
    "fitness_alignments": {
      "averageFitness": 1.0,
      "average_trace_fitness": 1.0,
      "log_fitness": 0.9999778520962991,
      "percFitTraces": 100.0,
      "percentage_of_fitting_traces": 100.0
    },
    "fscore": 1.0,
    "generalization": 0.9606432512060272,
    "metricsAverageWeight": 0.9901608128015068,
    "precision": 1.0,
    "precision_alignments": 1.0,
    "simplicity": 1.0
  },
  "sound": true,
  "top 30": {
    "fitness": {
      "average_trace_fitness": 1.0,
      "log_fitness": 1.0,
      "perc_fit_traces": 100.0,
      "percentage_of_fitting_traces": 100.0
    },
    "fitness_alignments": {
      "averageFitness": 1.0,
      "average_trace_fitness": 1.0,
      "log_fitness": 0.9999778520962991,
      "percFitTraces": 100.0,
      "percentage_of_fitting_traces": 100.0
    },
    "fscore": 1.0,
    "generalization": 0.9606432512060272,
    "metricsAverageWeight": 0.9901608128015068,
    "precision": 1.0,
    "precision_alignments": 1.0,
    "simplicity": 1.0
  }
}