{
  "FULL": {
    "entropia_precision": "nan",
    "entropia_recall": "nan",
    "fitness": {
      "average_trace_fitness": 0.9202969946719863,
      "log_fitness": 0.9207960066262817,
      "perc_fit_traces": 0.0,
      "percentage_of_fitting_traces": 0.0
    },
    "fscore": 0.9587650155974483,
    "generalization": 0.8997527856967636,
    "metricsAverageWeight": 0.9063567102758834,
    "precision": 1.0,
    "simplicity": 0.804878048780488
  },
  "easy_soundness": false,
  "sound": false
}