{
  "FULL": {
    "entropia_precision": 0.9766568317730752,
    "entropia_recall": 0.999627852840651,
    "fitness": {
      "average_trace_fitness": 1.0,
      "log_fitness": 1.0,
      "perc_fit_traces": 100.0,
      "percentage_of_fitting_traces": 100.0
    },
    "fitness_alignments": {
      "averageFitness": 1.0,
      "average_trace_fitness": 1.0,
      "percFitTraces": 100.0,
      "percentage_of_fitting_traces": 100.0
    },
    "fscore": 0.9970720281085301,
    "generalization": 0.9607156566069017,
    "metricsAverageWeight": 0.9403321054273567,
    "precision": 0.9941611521992993,
    "precision_alignments": 0.9941611521992993,
    "simplicity": 0.8064516129032256
  },
  "easy_soundness": true,
  "sound": true
}