{
  "FULL": {
    "fitness": {
      "average_trace_fitness": 1.0,
      "log_fitness": 1.0,
      "perc_fit_traces": 100.0,
      "percentage_of_fitting_traces": 100.0
    },
    "fitness_alignments": {
      "averageFitness": 1.0,
      "average_trace_fitness": 1.0,
      "percFitTraces": 100.0,
      "percentage_of_fitting_traces": 100.0
    },
    "fscore": 0.9999029973809292,
    "generalization": 0.9692055505274165,
    "metricsAverageWeight": 0.9722528910266165,
    "precision": 0.9998060135790494,
    "precision_alignments": 0.9998060135790494,
    "simplicity": 0.92
  }
}