{
  "easy_soundness": true,
  "filename": "/mnt/c/Users/s140511/tue/thesis/thesis_data/process_trees_simple_ws2/predictions/2553_gcn_ep144b_cc.json",
  "full": {
    "entropia_precision": 0.9925861392772817,
    "entropia_recall": 0.994716363132625,
    "fitness": {
      "average_trace_fitness": 1.0,
      "log_fitness": 1.0,
      "perc_fit_traces": 100.0,
      "percentage_of_fitting_traces": 100.0
    },
    "fitness_alignments": {
      "averageFitness": 1.0,
      "average_trace_fitness": 1.0,
      "percFitTraces": 100.0,
      "percentage_of_fitting_traces": 100.0
    },
    "fscore": 0.9999029973809292,
    "generalization": 0.969078115584478,
    "metricsAverageWeight": 0.974979652980537,
    "precision": 0.9998060135790494,
    "precision_alignments": 0.9998060135790494,
    "simplicity": 0.9310344827586208
  },
  "sound": true,
  "top 30": {
    "fitness": {
      "average_trace_fitness": 1.0,
      "log_fitness": 1.0,
      "perc_fit_traces": 100.0,
      "percentage_of_fitting_traces": 100.0
    },
    "fitness_alignments": {
      "averageFitness": 1.0,
      "average_trace_fitness": 1.0,
      "percFitTraces": 100.0,
      "percentage_of_fitting_traces": 100.0
    },
    "fscore": 0.9999029973809292,
    "generalization": 0.969078115584478,
    "metricsAverageWeight": 0.974979652980537,
    "precision": 0.9998060135790494,
    "precision_alignments": 0.9998060135790494,
    "simplicity": 0.9310344827586208
  }
}