{
  "FULL": {
    "entropia_precision": 0.9876597589022097,
    "entropia_recall": 0.989073636955522,
    "fitness": {
      "average_trace_fitness": 1.0,
      "log_fitness": 1.0,
      "perc_fit_traces": 100.0,
      "percentage_of_fitting_traces": 100.0
    },
    "fitness_alignments": {
      "averageFitness": 1.0,
      "average_trace_fitness": 1.0,
      "percFitTraces": 100.0,
      "percentage_of_fitting_traces": 100.0
    },
    "fscore": 0.9996744438415627,
    "generalization": 0.9600851901326461,
    "metricsAverageWeight": 0.9660490486205786,
    "precision": 0.9993490995877631,
    "precision_alignments": 0.9993490995877631,
    "simplicity": 0.9047619047619049
  },
  "easy_soundness": true,
  "sound": true
}