{
  "FULL": {
    "fitness": {
      "average_trace_fitness": 1.0,
      "log_fitness": 1.0,
      "perc_fit_traces": 100.0,
      "percentage_of_fitting_traces": 100.0
    },
    "fitness_alignments": {
      "averageFitness": 1.0,
      "average_trace_fitness": 1.0,
      "percFitTraces": 100.0,
      "percentage_of_fitting_traces": 100.0
    },
    "fscore": 0.9655172413793104,
    "generalization": 0.9605175905879259,
    "metricsAverageWeight": 0.9280081855257694,
    "precision": 0.9333333333333333,
    "precision_alignments": 0.9333333333333333,
    "simplicity": 0.8181818181818181
  }
}