{
  "FULL": {
    "entropia_precision": 0.8972250009461107,
    "entropia_recall": 0.98934703702223,
    "fitness": {
      "average_trace_fitness": 1.0,
      "log_fitness": 1.0,
      "perc_fit_traces": 100.0,
      "percentage_of_fitting_traces": 100.0
    },
    "fitness_alignments": {
      "averageFitness": 1.0,
      "average_trace_fitness": 1.0,
      "percFitTraces": 100.0,
      "percentage_of_fitting_traces": 100.0
    },
    "fscore": 1.0,
    "generalization": 0.9589288496925581,
    "metricsAverageWeight": 0.9754464981374253,
    "precision": 1.0,
    "precision_alignments": 1.0,
    "simplicity": 0.942857142857143
  },
  "easy_soundness": true,
  "sound": true
}