{
  "easy_soundness": true,
  "filename": "/mnt/c/Users/s140511/tue/thesis/thesis_data/process_trees_simple_ws2/predictions/2564_gcn_ep144b_cca.json",
  "full": {
    "entropia_precision": 0.9986885015549183,
    "entropia_recall": 0.996503869646711,
    "fitness": {
      "average_trace_fitness": 1.0,
      "log_fitness": 1.0,
      "perc_fit_traces": 100.0,
      "percentage_of_fitting_traces": 100.0
    },
    "fitness_alignments": {
      "averageFitness": 1.0,
      "average_trace_fitness": 1.0,
      "log_fitness": 0.9999928571938772,
      "percFitTraces": 100.0,
      "percentage_of_fitting_traces": 100.0
    },
    "fscore": 1.0,
    "generalization": 0.9590481267416928,
    "metricsAverageWeight": 0.9762485181719097,
    "precision": 1.0,
    "precision_alignments": 1.0,
    "simplicity": 0.9459459459459462
  },
  "sound": true,
  "top 30": {
    "fitness": {
      "average_trace_fitness": 1.0,
      "log_fitness": 1.0,
      "perc_fit_traces": 100.0,
      "percentage_of_fitting_traces": 100.0
    },
    "fitness_alignments": {
      "averageFitness": 1.0,
      "average_trace_fitness": 1.0,
      "log_fitness": 0.9999928571938772,
      "percFitTraces": 100.0,
      "percentage_of_fitting_traces": 100.0
    },
    "fscore": 1.0,
    "generalization": 0.9590481267416928,
    "metricsAverageWeight": 0.9762485181719097,
    "precision": 1.0,
    "precision_alignments": 1.0,
    "simplicity": 0.9459459459459462
  }
}