{
  "FULL": {
    "fitness": {
      "average_trace_fitness": 0.941625,
      "log_fitness": 0.9484888594749614,
      "perc_fit_traces": 53.3,
      "percentage_of_fitting_traces": 53.3
    },
    "fitness_alignments": {
      "averageFitness": 0.8962222222222458,
      "average_trace_fitness": 0.8962222222222458,
      "percFitTraces": 53.3,
      "percentage_of_fitting_traces": 53.3
    },
    "fscore": 0.9735635437305407,
    "generalization": 0.9634177584602788,
    "metricsAverageWeight": 0.97797665448381,
    "precision": 1.0,
    "precision_alignments": 1.0,
    "simplicity": 1.0
  }
}