{
  "FULL": {
    "entropia_precision": 0.9905909241031047,
    "entropia_recall": 1.001861536474921,
    "fitness": {
      "average_trace_fitness": 1.0,
      "log_fitness": 1.0,
      "perc_fit_traces": 100.0,
      "percentage_of_fitting_traces": 100.0
    },
    "fitness_alignments": {
      "averageFitness": 1.0,
      "average_trace_fitness": 1.0,
      "percFitTraces": 100.0,
      "percentage_of_fitting_traces": 100.0
    },
    "fscore": 0.9997920046590957,
    "generalization": 0.9585888775552515,
    "metricsAverageWeight": 0.960131478639011,
    "precision": 0.9995840958243221,
    "precision_alignments": 0.9995840958243221,
    "simplicity": 0.8823529411764706
  },
  "easy_soundness": true,
  "sound": true
}