{
  "FULL": {
    "entropia_precision": 0.8636330388673809,
    "entropia_recall": 0.9999830619862,
    "fitness": {
      "average_trace_fitness": 1.0,
      "log_fitness": 1.0,
      "perc_fit_traces": 100.0,
      "percentage_of_fitting_traces": 100.0
    },
    "fitness_alignments": {
      "averageFitness": 1.0,
      "average_trace_fitness": 1.0,
      "percFitTraces": 100.0,
      "percentage_of_fitting_traces": 100.0
    },
    "fscore": 0.9053377029419519,
    "generalization": 0.9583728564206266,
    "metricsAverageWeight": 0.8937235071467766,
    "precision": 0.8270474879559532,
    "precision_alignments": 0.8270474879559532,
    "simplicity": 0.7894736842105263
  },
  "easy_soundness": true,
  "sound": true
}