{
  "easy_soundness": true,
  "filename": "/mnt/c/Users/s140511/tue/thesis/thesis_data/process_trees_simple_ws2/predictions/2571_gcn_ep144b_cca.json",
  "full": {
    "entropia_precision": 0.8812874027411335,
    "entropia_recall": 0.832683177655603,
    "fitness": {
      "average_trace_fitness": 0.9490999999999884,
      "log_fitness": 0.9435573297848747,
      "perc_fit_traces": 49.1,
      "percentage_of_fitting_traces": 49.1
    },
    "fitness_alignments": {
      "averageFitness": 0.9434444444444573,
      "average_trace_fitness": 0.9434444444444573,
      "log_fitness": 0.9434234794782338,
      "percFitTraces": 49.1,
      "percentage_of_fitting_traces": 49.1
    },
    "fscore": 0.9489458183255466,
    "generalization": 0.9574572085003669,
    "metricsAverageWeight": 0.9154655892381967,
    "precision": 0.9543962057643196,
    "precision_alignments": 0.9543962057643196,
    "simplicity": 0.8064516129032256
  },
  "sound": false,
  "top 30": {
    "fitness": {
      "average_trace_fitness": 0.9490999999999884,
      "log_fitness": 0.9435573297848747,
      "perc_fit_traces": 49.1,
      "percentage_of_fitting_traces": 49.1
    },
    "fitness_alignments": {
      "averageFitness": 0.9434444444444573,
      "average_trace_fitness": 0.9434444444444573,
      "log_fitness": 0.9434234794782338,
      "percFitTraces": 49.1,
      "percentage_of_fitting_traces": 49.1
    },
    "fscore": 0.9489458183255466,
    "generalization": 0.9574572085003669,
    "metricsAverageWeight": 0.9154655892381967,
    "precision": 0.9543962057643196,
    "precision_alignments": 0.9543962057643196,
    "simplicity": 0.8064516129032256
  }
}