{
  "easy_soundness": true,
  "filename": "/mnt/c/Users/s140511/tue/thesis/thesis_data/process_trees_simple_ws2/predictions/2575_gcn_ep144b_cca.json",
  "full": {
    "entropia_precision": 1.0007845023664892,
    "entropia_recall": 1.031566723315209,
    "fitness": {
      "average_trace_fitness": 1.0,
      "log_fitness": 1.0,
      "perc_fit_traces": 100.0,
      "percentage_of_fitting_traces": 100.0
    },
    "fitness_alignments": {
      "averageFitness": 1.0,
      "average_trace_fitness": 1.0,
      "log_fitness": 0.999990000099999,
      "percFitTraces": 100.0,
      "percentage_of_fitting_traces": 100.0
    },
    "fscore": 0.9994587646302686,
    "generalization": 0.9663527440541329,
    "metricsAverageWeight": 0.9740763354069548,
    "precision": 0.9989181148150652,
    "precision_alignments": 0.9989181148150652,
    "simplicity": 0.9310344827586208
  },
  "sound": true,
  "top 30": {
    "fitness": {
      "average_trace_fitness": 1.0,
      "log_fitness": 1.0,
      "perc_fit_traces": 100.0,
      "percentage_of_fitting_traces": 100.0
    },
    "fitness_alignments": {
      "averageFitness": 1.0,
      "average_trace_fitness": 1.0,
      "log_fitness": 0.999990000099999,
      "percFitTraces": 100.0,
      "percentage_of_fitting_traces": 100.0
    },
    "fscore": 0.9949414454992724,
    "generalization": 0.9660779405359256,
    "metricsAverageWeight": 0.9717615586642323,
    "precision": 0.9899338113623828,
    "precision_alignments": 0.9899338113623828,
    "simplicity": 0.9310344827586208
  }
}