{
  "easy_soundness": true,
  "filename": "/mnt/c/Users/s140511/tue/thesis/thesis_data/process_trees_simple_ws2/predictions/2577_gcn_ep144b_cc.json",
  "full": {
    "fitness": {
      "average_trace_fitness": 0.9719065439709963,
      "log_fitness": 0.9547698818550521,
      "perc_fit_traces": 65.0,
      "percentage_of_fitting_traces": 65.0
    },
    "fitness_alignments": {
      "averageFitness": -0.901,
      "average_trace_fitness": -0.901,
      "percFitTraces": 65.0,
      "percentage_of_fitting_traces": 65.0
    },
    "fscore": 0.975287441231651,
    "generalization": 0.871128683424018,
    "metricsAverageWeight": 0.8904337981050112,
    "precision": 0.9967061923583662,
    "precision_alignments": 0.9967061923583662,
    "simplicity": 0.7391304347826086
  },
  "sound": true,
  "top 30": {
    "fitness": {
      "average_trace_fitness": 0.9828730230687868,
      "log_fitness": 0.974411951684679,
      "perc_fit_traces": 80.3594351732991,
      "percentage_of_fitting_traces": 80.3594351732991
    },
    "fitness_alignments": {
      "averageFitness": 0.4313222079589217,
      "average_trace_fitness": 0.4313222079589217,
      "percFitTraces": 80.3594351732991,
      "percentage_of_fitting_traces": 80.3594351732991
    },
    "fscore": 0.9844086130669165,
    "generalization": 0.8612841769954054,
    "metricsAverageWeight": 0.8923597697508783,
    "precision": 0.9946125155408205,
    "precision_alignments": 0.9946125155408205,
    "simplicity": 0.7391304347826086
  }
}