{
  "FULL": {
    "fitness": {
      "average_trace_fitness": 1.0,
      "log_fitness": 1.0,
      "perc_fit_traces": 100.0,
      "percentage_of_fitting_traces": 100.0
    },
    "fitness_alignments": {
      "averageFitness": 1.0,
      "average_trace_fitness": 1.0,
      "percFitTraces": 100.0,
      "percentage_of_fitting_traces": 100.0
    },
    "fscore": 0.9792055678153115,
    "generalization": 0.9657452980140883,
    "metricsAverageWeight": 0.9212509083565195,
    "precision": 0.9592583354119897,
    "precision_alignments": 0.9592583354119897,
    "simplicity": 0.7599999999999999
  }
}