{
  "FULL": {
    "fitness": {
      "average_trace_fitness": 0.8819685112629959,
      "log_fitness": 0.9213885128601818,
      "perc_fit_traces": 35.0,
      "percentage_of_fitting_traces": 35.0
    },
    "fitness_alignments": {
      "averageFitness": 0.291,
      "average_trace_fitness": 0.291,
      "percFitTraces": 35.0,
      "percentage_of_fitting_traces": 35.0
    },
    "fscore": 0.9575686058014241,
    "generalization": 0.9715651707257641,
    "metricsAverageWeight": 0.9390816356527447,
    "precision": 0.9967061923583662,
    "precision_alignments": 0.9967061923583662,
    "simplicity": 0.8666666666666667
  }
}