{
  "FULL": {
    "entropia_precision": 0.993149669788321,
    "entropia_recall": 0.999879153613422,
    "fitness": {
      "average_trace_fitness": 1.0,
      "log_fitness": 1.0,
      "perc_fit_traces": 100.0,
      "percentage_of_fitting_traces": 100.0
    },
    "fitness_alignments": {
      "averageFitness": 1.0,
      "average_trace_fitness": 1.0,
      "percFitTraces": 100.0,
      "percentage_of_fitting_traces": 100.0
    },
    "fscore": 0.9998351195383346,
    "generalization": 0.9700361446532543,
    "metricsAverageWeight": 0.9924266095230234,
    "precision": 0.9996702934388394,
    "precision_alignments": 0.9996702934388394,
    "simplicity": 1.0
  },
  "easy_soundness": true,
  "sound": true
}