{
  "FULL": {
    "entropia_precision": 0.0,
    "entropia_recall": 0.0,
    "fitness": {
      "average_trace_fitness": 0.9230769230769116,
      "log_fitness": 0.9230769230769231,
      "perc_fit_traces": 0.0,
      "percentage_of_fitting_traces": 0.0
    },
    "fitness_alignments": {
      "averageFitness": 0.8571428571428638,
      "average_trace_fitness": 0.8571428571428638,
      "percFitTraces": 0.0,
      "percentage_of_fitting_traces": 0.0
    },
    "fscore": 0.9548850153801085,
    "generalization": 0.9659010339091076,
    "metricsAverageWeight": 0.9350025998942217,
    "precision": 0.9889634770736148,
    "precision_alignments": 0.9889634770736148,
    "simplicity": 0.8620689655172413
  },
  "easy_soundness": true,
  "sound": true
}