{
  "FULL": {
    "entropia_precision": 0.7918467314479211,
    "entropia_recall": 1.000000000004695,
    "fitness": {
      "average_trace_fitness": 1.0,
      "log_fitness": 1.0,
      "perc_fit_traces": 100.0,
      "percentage_of_fitting_traces": 100.0
    },
    "fitness_alignments": {
      "averageFitness": 0.0,
      "average_trace_fitness": 0.0,
      "percFitTraces": 0.0,
      "percentage_of_fitting_traces": 0.0
    },
    "fscore": 1.0,
    "generalization": 0.840313977835398,
    "metricsAverageWeight": 0.9100784944588496,
    "precision": 1.0,
    "precision_alignments": 1.0,
    "simplicity": 0.8
  },
  "easy_soundness": true,
  "sound": true
}