{
  "easy_soundness": true,
  "filename": "/mnt/c/Users/s140511/tue/thesis/thesis_data/process_trees_simple_ws2/predictions/2582_gcn_ep144b_cca.json",
  "full": {
    "entropia_precision": 0.9113830456543601,
    "entropia_recall": 1.013117018029107,
    "fitness": {
      "average_trace_fitness": 1.0,
      "log_fitness": 1.0,
      "perc_fit_traces": 100.0,
      "percentage_of_fitting_traces": 100.0
    },
    "fitness_alignments": {
      "averageFitness": 1.0,
      "average_trace_fitness": 1.0,
      "log_fitness": 0.9999874262866052,
      "percFitTraces": 100.0,
      "percentage_of_fitting_traces": 100.0
    },
    "fscore": 0.9952160614853737,
    "generalization": 0.9682342759757205,
    "metricsAverageWeight": 0.967938857853559,
    "precision": 0.990477677177646,
    "precision_alignments": 0.990477677177646,
    "simplicity": 0.9130434782608695
  },
  "sound": true,
  "top 30": {
    "fitness": {
      "average_trace_fitness": 1.0,
      "log_fitness": 1.0,
      "perc_fit_traces": 100.0,
      "percentage_of_fitting_traces": 100.0
    },
    "fitness_alignments": {
      "averageFitness": 1.0,
      "average_trace_fitness": 1.0,
      "log_fitness": 0.9999871213779823,
      "percFitTraces": 100.0,
      "percentage_of_fitting_traces": 100.0
    },
    "fscore": 0.9959769109672906,
    "generalization": 0.9667822277922206,
    "metricsAverageWeight": 0.967952942192715,
    "precision": 0.99198606271777,
    "precision_alignments": 0.99198606271777,
    "simplicity": 0.9130434782608695
  }
}