{
  "FULL": {
    "entropia_precision": null,
    "entropia_recall": null,
    "fitness": {
      "average_trace_fitness": 0.9825284090909149,
      "log_fitness": 0.9682824655894674,
      "perc_fit_traces": 68.2,
      "percentage_of_fitting_traces": 68.2
    },
    "fitness_alignments": {
      "averageFitness": -0.1655,
      "average_trace_fitness": -0.1655,
      "percFitTraces": 68.2,
      "percentage_of_fitting_traces": 68.2
    },
    "fscore": 0.8648747337588689,
    "generalization": 0.8016890970363992,
    "metricsAverageWeight": 0.8272425031838571,
    "precision": 0.7814226925338037,
    "precision_alignments": 0.7814226925338037,
    "simplicity": 0.7575757575757577
  },
  "easy_soundness": true,
  "sound": false
}