{
  "FULL": {
    "entropia_precision": 0.9831790865059715,
    "entropia_recall": 1.001558052219186,
    "fitness": {
      "average_trace_fitness": 1.0,
      "log_fitness": 1.0,
      "perc_fit_traces": 100.0,
      "percentage_of_fitting_traces": 100.0
    },
    "fitness_alignments": {
      "averageFitness": 1.0,
      "average_trace_fitness": 1.0,
      "percFitTraces": 100.0,
      "percentage_of_fitting_traces": 100.0
    },
    "fscore": 0.9949371835739734,
    "generalization": 0.9554694126732413,
    "metricsAverageWeight": 0.9458081559113518,
    "precision": 0.9899253731343284,
    "precision_alignments": 0.9899253731343284,
    "simplicity": 0.8378378378378379
  },
  "easy_soundness": true,
  "sound": true
}