{
  "FULL": {
    "fitness": {
      "average_trace_fitness": 1.0,
      "log_fitness": 1.0,
      "perc_fit_traces": 100.0,
      "percentage_of_fitting_traces": 100.0
    },
    "fitness_alignments": {
      "averageFitness": 1.0,
      "average_trace_fitness": 1.0,
      "percFitTraces": 100.0,
      "percentage_of_fitting_traces": 100.0
    },
    "fscore": 0.9090909090909091,
    "generalization": 0.9514175590092698,
    "metricsAverageWeight": 0.8747591516570794,
    "precision": 0.8333333333333334,
    "precision_alignments": 0.8333333333333334,
    "simplicity": 0.7142857142857143
  }
}