{
  "FULL": {
    "entropia_precision": 1.0000000000000075,
    "entropia_recall": 1.00000000000012,
    "fitness": {
      "average_trace_fitness": 1.0,
      "log_fitness": 1.0,
      "perc_fit_traces": 100.0,
      "percentage_of_fitting_traces": 100.0
    },
    "fitness_alignments": {
      "averageFitness": 1.0,
      "average_trace_fitness": 1.0,
      "percFitTraces": 100.0,
      "percentage_of_fitting_traces": 100.0
    },
    "fscore": 1.0,
    "generalization": 0.957279699150531,
    "metricsAverageWeight": 0.9464627819304899,
    "precision": 1.0,
    "precision_alignments": 1.0,
    "simplicity": 0.8285714285714286
  },
  "easy_soundness": true,
  "sound": true
}