{
  "FULL": {
    "fitness": {
      "average_trace_fitness": 0.9372235294117627,
      "log_fitness": 0.9374687343671836,
      "perc_fit_traces": 0.0,
      "percentage_of_fitting_traces": 0.0
    },
    "fitness_alignments": {
      "averageFitness": 0.888888888888906,
      "average_trace_fitness": 0.888888888888906,
      "percFitTraces": 0.0,
      "percentage_of_fitting_traces": 0.0
    },
    "fscore": 0.9500820637163151,
    "generalization": 0.8626003163142004,
    "metricsAverageWeight": 0.869348550832937,
    "precision": 0.96303943836465,
    "precision_alignments": 0.9548715273248989,
    "simplicity": 0.7142857142857143
  }
}