{
  "easy_soundness": true,
  "filename": "/mnt/c/Users/s140511/tue/thesis/thesis_data/process_trees_simple_ws2/predictions/2600_gcn_ep144b_cca.json",
  "full": {
    "entropia_precision": 0.9999999999999659,
    "entropia_recall": 0.999999999999997,
    "fitness": {
      "average_trace_fitness": 1.0,
      "log_fitness": 1.0,
      "perc_fit_traces": 100.0,
      "percentage_of_fitting_traces": 100.0
    },
    "fitness_alignments": {
      "averageFitness": 1.0,
      "average_trace_fitness": 1.0,
      "log_fitness": 0.9999904726517468,
      "percFitTraces": 100.0,
      "percentage_of_fitting_traces": 100.0
    },
    "fscore": 1.0,
    "generalization": 0.9634425494084967,
    "metricsAverageWeight": 0.9432415897330766,
    "precision": 1.0,
    "precision_alignments": 1.0,
    "simplicity": 0.8095238095238095
  },
  "sound": true,
  "top 30": {
    "fitness": {
      "average_trace_fitness": 1.0,
      "log_fitness": 1.0,
      "perc_fit_traces": 100.0,
      "percentage_of_fitting_traces": 100.0
    },
    "fitness_alignments": {
      "averageFitness": 1.0,
      "average_trace_fitness": 1.0,
      "log_fitness": 0.9999904730545798,
      "percFitTraces": 100.0,
      "percentage_of_fitting_traces": 100.0
    },
    "fscore": 0.9661980986430486,
    "generalization": 0.9563925570385341,
    "metricsAverageWeight": 0.9251307461245912,
    "precision": 0.9346066179360214,
    "precision_alignments": 0.9346066179360214,
    "simplicity": 0.8095238095238095
  }
}