{
  "FULL": {
    "entropia_precision": 0.9999999999985408,
    "entropia_recall": 1.000000000275703,
    "fitness": {
      "average_trace_fitness": 1.0,
      "log_fitness": 1.0,
      "perc_fit_traces": 100.0,
      "percentage_of_fitting_traces": 100.0
    },
    "fitness_alignments": {
      "averageFitness": 1.0,
      "average_trace_fitness": 1.0,
      "percFitTraces": 100.0,
      "percentage_of_fitting_traces": 100.0
    },
    "fscore": 1.0,
    "generalization": 0.950782344905627,
    "metricsAverageWeight": 0.9321400306708512,
    "precision": 1.0,
    "precision_alignments": 1.0,
    "simplicity": 0.7777777777777779
  },
  "easy_soundness": true,
  "sound": true
}