{
  "easy_soundness": false,
  "filename": "/mnt/c/Users/s140511/tue/thesis/thesis_data/process_trees_simple_ws2/predictions/2606_gcn_ep144b_cc.json",
  "full": {
    "fitness": {
      "average_trace_fitness": 0.9099358974359072,
      "log_fitness": 0.9099358974358975,
      "perc_fit_traces": 0.0,
      "percentage_of_fitting_traces": 0.0
    },
    "fscore": 0.9528444369860716,
    "generalization": 0.9683772233983162,
    "metricsAverageWeight": 0.94874494687522,
    "precision": 1.0,
    "simplicity": 0.9166666666666667
  },
  "sound": false,
  "top 30": {
    "fitness": {
      "average_trace_fitness": 0.9099358974359072,
      "log_fitness": 0.9099358974358975,
      "perc_fit_traces": 0.0,
      "percentage_of_fitting_traces": 0.0
    },
    "fscore": 0.9528444369860716,
    "generalization": 0.9683772233983162,
    "metricsAverageWeight": 0.94874494687522,
    "precision": 1.0,
    "simplicity": 0.9166666666666667
  }
}