{
  "FULL": {
    "entropia_precision": 1.0000000000000022,
    "entropia_recall": 1.0,
    "fitness": {
      "average_trace_fitness": 1.0,
      "log_fitness": 1.0,
      "perc_fit_traces": 100.0,
      "percentage_of_fitting_traces": 100.0
    },
    "fitness_alignments": {
      "averageFitness": 1.0,
      "average_trace_fitness": 1.0,
      "percFitTraces": 100.0,
      "percentage_of_fitting_traces": 100.0
    },
    "fscore": 1.0,
    "generalization": 0.9450239961903805,
    "metricsAverageWeight": 0.9477944605860567,
    "precision": 1.0,
    "precision_alignments": 1.0,
    "simplicity": 0.8461538461538463
  },
  "easy_soundness": true,
  "sound": true
}