{
  "easy_soundness": true,
  "filename": "/mnt/c/Users/s140511/tue/thesis/thesis_data/process_trees_simple_ws2/predictions/2611_gcn_ep144b_cc.json",
  "full": {
    "entropia_precision": 0.0,
    "entropia_recall": 0.0,
    "fitness": {
      "average_trace_fitness": 0.9195715627139097,
      "log_fitness": 0.9221668742216688,
      "perc_fit_traces": 0.0,
      "percentage_of_fitting_traces": 0.0
    },
    "fitness_alignments": {
      "averageFitness": 0.8571428571428638,
      "average_trace_fitness": 0.8571428571428638,
      "percFitTraces": 0.0,
      "percentage_of_fitting_traces": 0.0
    },
    "fscore": 0.8424325231901614,
    "generalization": 0.9690635807461345,
    "metricsAverageWeight": 0.8949157775992365,
    "precision": 0.7753891771682728,
    "precision_alignments": 0.7753891771682728,
    "simplicity": 0.9130434782608695
  },
  "sound": true,
  "top 30": {
    "fitness": {
      "average_trace_fitness": 0.919525571043574,
      "log_fitness": 0.922068804118886,
      "perc_fit_traces": 0.0,
      "percentage_of_fitting_traces": 0.0
    },
    "fitness_alignments": {
      "averageFitness": 0.8571428571428636,
      "average_trace_fitness": 0.8571428571428636,
      "percFitTraces": 0.0,
      "percentage_of_fitting_traces": 0.0
    },
    "fscore": 0.8424875875036213,
    "generalization": 0.9690305549986147,
    "metricsAverageWeight": 0.8949236707617694,
    "precision": 0.7755518456687072,
    "precision_alignments": 0.7755518456687072,
    "simplicity": 0.9130434782608695
  }
}