{
  "FULL": {
    "fitness": {
      "average_trace_fitness": 1.0,
      "log_fitness": 1.0,
      "perc_fit_traces": 100.0,
      "percentage_of_fitting_traces": 100.0
    },
    "fitness_alignments": {
      "averageFitness": 1.0,
      "average_trace_fitness": 1.0,
      "percFitTraces": 100.0,
      "percentage_of_fitting_traces": 100.0
    },
    "fscore": 0.949874686716792,
    "generalization": 0.957379078757669,
    "metricsAverageWeight": 0.9137542833096954,
    "precision": 0.9045346062052506,
    "precision_alignments": 0.9045346062052506,
    "simplicity": 0.7931034482758622
  }
}