{
  "FULL": {
    "fitness": {
      "average_trace_fitness": 0.9442249999999963,
      "log_fitness": 0.9447520184544406,
      "perc_fit_traces": 52.1,
      "percentage_of_fitting_traces": 52.1
    },
    "fitness_alignments": {
      "averageFitness": 0.8631428571428338,
      "average_trace_fitness": 0.8631428571428338,
      "percFitTraces": 52.1,
      "percentage_of_fitting_traces": 52.1
    },
    "fscore": 0.9715912460708144,
    "generalization": 0.9565696353472506,
    "metricsAverageWeight": 0.9553304134504228,
    "precision": 1.0,
    "precision_alignments": 1.0,
    "simplicity": 0.92
  }
}