{
  "FULL": {
    "entropia_precision": 0.997080912210163,
    "entropia_recall": 0.99845380518531,
    "fitness": {
      "average_trace_fitness": 1.0,
      "log_fitness": 1.0,
      "perc_fit_traces": 100.0,
      "percentage_of_fitting_traces": 100.0
    },
    "fitness_alignments": {
      "averageFitness": 1.0,
      "average_trace_fitness": 1.0,
      "percFitTraces": 100.0,
      "percentage_of_fitting_traces": 100.0
    },
    "fscore": 0.9998315931289997,
    "generalization": 0.9506414371180795,
    "metricsAverageWeight": 0.9459095033554024,
    "precision": 0.999663242970197,
    "precision_alignments": 0.999663242970197,
    "simplicity": 0.8333333333333333
  },
  "easy_soundness": true,
  "sound": true
}