{
  "FULL": {
    "fitness": {
      "average_trace_fitness": 0.9526530784025042,
      "log_fitness": 0.950942399154483,
      "perc_fit_traces": 51.6,
      "percentage_of_fitting_traces": 51.6
    },
    "fitness_alignments": {
      "averageFitness": 0.8680000000000003,
      "average_trace_fitness": 0.8680000000000003,
      "percFitTraces": 51.6,
      "percentage_of_fitting_traces": 51.6
    },
    "fscore": 0.9746378051733495,
    "generalization": 0.9582732178683818,
    "metricsAverageWeight": 0.9477782054037702,
    "precision": 0.9995442634157456,
    "precision_alignments": 0.9995442634157456,
    "simplicity": 0.8823529411764706
  }
}