{
  "easy_soundness": true,
  "filename": "/mnt/c/Users/s140511/tue/thesis/thesis_data/process_trees_simple_ws2/predictions/2623_gcn_ep144b_cca.json",
  "full": {
    "entropia_precision": 1.0000000019687822,
    "entropia_recall": 1.000000000610986,
    "fitness": {
      "average_trace_fitness": 1.0,
      "log_fitness": 1.0,
      "perc_fit_traces": 100.0,
      "percentage_of_fitting_traces": 100.0
    },
    "fitness_alignments": {
      "averageFitness": 1.0,
      "average_trace_fitness": 1.0,
      "log_fitness": 0.9999839951345209,
      "percFitTraces": 100.0,
      "percentage_of_fitting_traces": 100.0
    },
    "fscore": 1.0,
    "generalization": 0.9570122617558234,
    "metricsAverageWeight": 0.9614752876611781,
    "precision": 1.0,
    "precision_alignments": 1.0,
    "simplicity": 0.8888888888888888
  },
  "sound": true,
  "top 30": {
    "fitness": {
      "average_trace_fitness": 1.0,
      "log_fitness": 1.0,
      "perc_fit_traces": 100.0,
      "percentage_of_fitting_traces": 100.0
    },
    "fitness_alignments": {
      "averageFitness": 1.0,
      "average_trace_fitness": 1.0,
      "log_fitness": 0.9999839951345209,
      "percFitTraces": 100.0,
      "percentage_of_fitting_traces": 100.0
    },
    "fscore": 1.0,
    "generalization": 0.9570122617558234,
    "metricsAverageWeight": 0.9614752876611781,
    "precision": 1.0,
    "precision_alignments": 1.0,
    "simplicity": 0.8888888888888888
  }
}