{
  "FULL": {
    "fitness": {
      "average_trace_fitness": 0.9516666666666661,
      "log_fitness": 0.9889186090943829,
      "perc_fit_traces": 85.5,
      "percentage_of_fitting_traces": 85.5
    },
    "fitness_alignments": {
      "averageFitness": 0.855,
      "average_trace_fitness": 0.855,
      "percFitTraces": 85.5,
      "percentage_of_fitting_traces": 85.5
    },
    "fscore": 0.9691511366149193,
    "generalization": 0.9599865900210108,
    "metricsAverageWeight": 0.9122659098545776,
    "precision": 0.9501584403029164,
    "precision_alignments": 0.9501584403029164,
    "simplicity": 0.7499999999999999
  }
}