{
  "easy_soundness": true,
  "filename": "/mnt/c/Users/s140511/tue/thesis/thesis_data/process_trees_simple_ws2/predictions/2624_gcn_ep144b_cc.json",
  "full": {
    "fitness": {
      "average_trace_fitness": 1.0,
      "log_fitness": 1.0,
      "perc_fit_traces": 100.0,
      "percentage_of_fitting_traces": 100.0
    },
    "fitness_alignments": {
      "averageFitness": 1.0,
      "average_trace_fitness": 1.0,
      "percFitTraces": 100.0,
      "percentage_of_fitting_traces": 100.0
    },
    "fscore": 0.974887698219408,
    "generalization": 0.9620586167833428,
    "metricsAverageWeight": 0.9194425634620711,
    "precision": 0.9510057547120004,
    "precision_alignments": 0.9510057547120004,
    "simplicity": 0.7647058823529413
  },
  "sound": true,
  "top 30": {
    "fitness": {
      "average_trace_fitness": 1.0,
      "log_fitness": 1.0,
      "perc_fit_traces": 100.0,
      "percentage_of_fitting_traces": 100.0
    },
    "fitness_alignments": {
      "averageFitness": 1.0,
      "average_trace_fitness": 1.0,
      "percFitTraces": 100.0,
      "percentage_of_fitting_traces": 100.0
    },
    "fscore": 0.9832751774756346,
    "generalization": 0.9459886885106246,
    "metricsAverageWeight": 0.9194487906448856,
    "precision": 0.9671005917159763,
    "precision_alignments": 0.9671005917159763,
    "simplicity": 0.7647058823529413
  }
}