{
  "easy_soundness": false,
  "filename": "/mnt/c/Users/s140511/tue/thesis/thesis_data/evaluation_data/sepsis/predictions/data_gcn_simpleep144_11_cca.json",
  "full": {
    "entropia_precision": "nan",
    "entropia_recall": "nan",
    "fitness": {
      "average_trace_fitness": 0.7183636891873644,
      "log_fitness": 0.653857243241701,
      "perc_fit_traces": 0.0,
      "percentage_of_fitting_traces": 0.0
    },
    "fscore": 0.7763682455598998,
    "generalization": 0.9555688185248009,
    "metricsAverageWeight": 0.8608968050329369,
    "precision": 0.9553732795773668,
    "simplicity": 0.8787878787878789
  },
  "sound": false,
  "top 8": {
    "fitness": {
      "average_trace_fitness": 0.9400342712842723,
      "log_fitness": 0.9393040477408734,
      "perc_fit_traces": 0.0,
      "percentage_of_fitting_traces": 0.0
    },
    "fscore": 0.9245370999399501,
    "generalization": 0.8304385830727253,
    "metricsAverageWeight": 0.8896894455821875,
    "precision": 0.9102272727272728,
    "simplicity": 0.8787878787878789
  }
}