{
  "easy_soundness": true,
  "filename": "/home/dominique/TUe/thesis/git_data/evaluation_data/sepsis/predictions/data_heuristics_reduced_cc.txt",
  "full": {
    "fitness                         ": "0.88633",
    "fscore                          ": "0.79465",
    "generalization                  ": "0.78599",
    "metricsAverageWeight            ": "0.72948",
    "precision                       ": "0.72016",
    "simplicity                      ": "0.52542",
    "entropia_precision              ": "None",
    "entropia_recall                 ": "None"
  },
  "s_components": [],
  "sound": false,
  "uncovered_places_s_component": [
    "n56",
    "n32",
    "n3",
    "n49",
    "n28",
    "n23",
    "n35",
    "n42",
    "n38",
    "n13",
    "n20",
    "n12",
    "n45",
    "n2",
    "n18",
    "n9",
    "n16",
    "n15",
    "n29",
    "n24",
    "n52",
    "n44",
    "n7",
    "n25",
    "n11",
    "n47",
    "n10",
    "n30",
    "n36",
    "n43",
    "n41",
    "n17",
    "n4",
    "n6",
    "n31",
    "n5",
    "n1",
    "n26",
    "n34",
    "n53",
    "n22",
    "n19",
    "n46",
    "n50",
    "n54",
    "source",
    "n8",
    "n40",
    "n37",
    "n51",
    "n48",
    "n14",
    "n33",
    "n21",
    "n55",
    "n39",
    "n27"
  ]
}