{
  "easy_soundness": true,
  "filename": "/home/dominique/TUe/thesis/git_data/evaluation_data/sepsis/predictions/data_inductive_reduced_cc.txt",
  "full": {
    "fitness                         ": "0.84638",
    "fitness_alignments              ": "0.78217",
    "fitness_alignments_percFitTraces": "2.00000",
    "fscore                          ": "0.61480",
    "fscore_alignments               ": "0.59700",
    "generalization                  ": "0.93705",
    "metricsAverageWeight            ": "0.71654",
    "precision                       ": "0.48273",
    "precision_alignments            ": "0.48273",
    "simplicity                      ": "0.60000"
  },
  "s_components": [
    [
      "Admission NC",
      "n53",
      "source",
      "n28",
      "n8",
      "n26",
      "n35",
      "n10",
      "n15",
      "n29",
      "Release E",
      "n1",
      "n19",
      "n31",
      "n37",
      "Return ER",
      "Release A",
      "n4",
      "Release C",
      "n51",
      "n42",
      "Release D",
      "n5",
      "n20",
      "short_circuited_transition",
      "start",
      "CRP",
      "n40",
      "n47",
      "n49",
      "n7",
      "n56",
      "n61"
    ],
    [
      "Admission NC",
      "source",
      "n28",
      "n23",
      "n26",
      "n8",
      "n35",
      "n17",
      "n39",
      "n10",
      "n15",
      "n29",
      "n62",
      "Release E",
      "n31",
      "n37",
      "Return ER",
      "Admission IC",
      "Release A",
      "n4",
      "n12",
      "Release C",
      "n51",
      "n18",
      "n42",
      "Release D",
      "n3",
      "n45",
      "n5",
      "n20",
      "short_circuited_transition",
      "start",
      "n40",
      "n47",
      "n33",
      "n49",
      "n7",
      "IV Liquid",
      "n56",
      "n61"
    ],
    [
      "Admission NC",
      "source",
      "n28",
      "n24",
      "n26",
      "n8",
      "n35",
      "n10",
      "n15",
      "n29",
      "Release E",
      "n31",
      "ER Sepsis Triage",
      "n37",
      "Return ER",
      "Release A",
      "n4",
      "Release C",
      "n51",
      "n42",
      "Release D",
      "n27",
      "n5",
      "n20",
      "short_circuited_transition",
      "start",
      "n40",
      "n47",
      "n49",
      "n7",
      "n56",
      "n61"
    ],
    [
      "Admission NC",
      "source",
      "n28",
      "n8",
      "n26",
      "n35",
      "n10",
      "n15",
      "n29",
      "Release E",
      "n43",
      "Leucocytes",
      "n31",
      "n37",
      "Return ER",
      "Release A",
      "n4",
      "n25",
      "Release C",
      "n51",
      "n42",
      "Release D",
      "n5",
      "n20",
      "short_circuited_transition",
      "n14",
      "start",
      "n40",
      "n47",
      "n49",
      "n7",
      "n56",
      "n61"
    ],
    [
      "n53",
      "source",
      "n28",
      "n26",
      "Release B",
      "n35",
      "n10",
      "n15",
      "n29",
      "IV Antibiotics",
      "Release E",
      "n44",
      "n1",
      "n19",
      "n31",
      "Return ER",
      "n9",
      "Release A",
      "n4",
      "Release C",
      "n51",
      "n42",
      "Release D",
      "n11",
      "n13",
      "n5",
      "short_circuited_transition",
      "start",
      "LacticAcid",
      "n21",
      "CRP",
      "n40",
      "n47",
      "n49",
      "n7",
      "n32",
      "n63",
      "n56",
      "n61"
    ],
    [
      "Admission NC",
      "source",
      "n28",
      "n23",
      "n26",
      "n8",
      "n35",
      "n39",
      "n10",
      "n15",
      "n29",
      "n62",
      "Release E",
      "n31",
      "n37",
      "Return ER",
      "Admission IC",
      "Release A",
      "n4",
      "n12",
      "ER Registration",
      "Release C",
      "n51",
      "n18",
      "n42",
      "Release D",
      "n45",
      "n5",
      "n20",
      "short_circuited_transition",
      "start",
      "n40",
      "n47",
      "n33",
      "n49",
      "n16",
      "n7",
      "n22",
      "n56",
      "n61"
    ],
    [
      "Admission NC",
      "source",
      "n28",
      "n23",
      "n26",
      "n8",
      "n35",
      "n39",
      "n10",
      "n15",
      "n29",
      "n62",
      "Release E",
      "n31",
      "n37",
      "Return ER",
      "Admission IC",
      "Release A",
      "n4",
      "n12",
      "Release C",
      "n51",
      "n18",
      "n42",
      "Release D",
      "n45",
      "n5",
      "n20",
      "ER Triage",
      "short_circuited_transition",
      "start",
      "n40",
      "n47",
      "n33",
      "n49",
      "n7",
      "n2",
      "n56",
      "n61",
      "n6"
    ]
  ],
  "sound": true,
  "uncovered_places_s_component": []
}