{
  "FULL": {
    "fitness": {
      "average_trace_fitness": 1.0,
      "log_fitness": 1.0,
      "perc_fit_traces": 100.0,
      "percentage_of_fitting_traces": 100.0
    },
    "fitness_alignments": {
      "averageFitness": 1.0,
      "average_trace_fitness": 1.0,
      "percFitTraces": 100.0,
      "percentage_of_fitting_traces": 100.0
    },
    "fscore": 0.995017320742182,
    "generalization": 0.95844027064984,
    "metricsAverageWeight": 0.9416765345792433,
    "precision": 0.9900840494853149,
    "precision_alignments": 0.9900840494853149,
    "simplicity": 0.8181818181818181
  }
}