{
  "FULL": {
    "fitness": {
      "average_trace_fitness": 0.7855660056246551,
      "log_fitness": 0.8181651914956521,
      "perc_fit_traces": 12.2,
      "percentage_of_fitting_traces": 12.2
    },
    "fitness_alignments": {
      "averageFitness": 0.6045,
      "average_trace_fitness": 0.6045,
      "percFitTraces": 12.2,
      "percentage_of_fitting_traces": 12.2
    },
    "fscore": 0.8540821409907201,
    "generalization": 0.9533254060888532,
    "metricsAverageWeight": 0.8573734564665929,
    "precision": 0.8932973459289248,
    "precision_alignments": 0.8932973459289248,
    "simplicity": 0.7647058823529413
  }
}