{
  "FULL": {
    "fitness": {
      "average_trace_fitness": 0.8627755251482515,
      "log_fitness": 0.8649026247876979,
      "perc_fit_traces": 0.0,
      "percentage_of_fitting_traces": 0.0
    },
    "fitness_alignments": {
      "averageFitness": 0.62975,
      "average_trace_fitness": 0.62975,
      "percFitTraces": 0.0,
      "percentage_of_fitting_traces": 0.0
    },
    "fscore": 0.8481993940086198,
    "generalization": 0.8696346150220605,
    "metricsAverageWeight": 0.804710061816392,
    "precision": 0.8321290944123314,
    "precision_alignments": 0.8321290944123314,
    "simplicity": 0.6521739130434783
  }
}