{
  "FULL": {
    "fitness": {
      "average_trace_fitness": 0.9998755509094981,
      "log_fitness": 0.999784583190255,
      "perc_fit_traces": 99.7,
      "percentage_of_fitting_traces": 99.7
    },
    "fitness_alignments": {
      "averageFitness": 0.9970000000000001,
      "average_trace_fitness": 0.9970000000000001,
      "percFitTraces": 99.7,
      "percentage_of_fitting_traces": 99.7
    },
    "fscore": 0.8759900038224456,
    "generalization": 0.9678602792188703,
    "metricsAverageWeight": 0.861022263711071,
    "precision": 0.7794744954654622,
    "precision_alignments": 0.7794744954654622,
    "simplicity": 0.6969696969696969
  }
}