{
  "FULL": {
    "fitness": {
      "average_trace_fitness": 1.0,
      "log_fitness": 1.0,
      "perc_fit_traces": 100.0,
      "percentage_of_fitting_traces": 100.0
    },
    "fitness_alignments": {
      "averageFitness": 1.0,
      "average_trace_fitness": 1.0,
      "percFitTraces": 100.0,
      "percentage_of_fitting_traces": 100.0
    },
    "fscore": 0.9960487057495364,
    "generalization": 0.9664560071027128,
    "metricsAverageWeight": 0.956312796956401,
    "precision": 0.9921285140562249,
    "precision_alignments": 0.9921285140562249,
    "simplicity": 0.8666666666666667
  }
}