{
  "FULL": {
    "fitness": {
      "average_trace_fitness": 0.9258532955045746,
      "log_fitness": 0.951137660245654,
      "perc_fit_traces": 27.2,
      "percentage_of_fitting_traces": 27.2
    },
    "fitness_alignments": {
      "averageFitness": 0.6657777777777802,
      "average_trace_fitness": 0.6657777777777802,
      "percFitTraces": 27.2,
      "percentage_of_fitting_traces": 27.2
    },
    "fscore": 0.950075760202529,
    "generalization": 0.9653354429263263,
    "metricsAverageWeight": 0.9209177874977201,
    "precision": 0.9490162286370817,
    "precision_alignments": 0.9490162286370817,
    "simplicity": 0.8181818181818181
  }
}