{
  "FULL": {
    "fitness": {
      "average_trace_fitness": 0.45499999999999435,
      "log_fitness": 0.7449324324324325,
      "perc_fit_traces": 24.5,
      "percentage_of_fitting_traces": 24.5
    },
    "fitness_alignments": {
      "averageFitness": 0.1125,
      "average_trace_fitness": 0.1125,
      "percFitTraces": 24.5,
      "percentage_of_fitting_traces": 24.5
    },
    "fscore": 0.83438288517109,
    "generalization": 0.9318241512029155,
    "metricsAverageWeight": 0.8506953599693081,
    "precision": 0.9482470784641068,
    "precision_alignments": 0.9482470784641068,
    "simplicity": 0.7777777777777779
  }
}