{
  "FULL": {
    "fitness": {
      "average_trace_fitness": 0.9750177222460495,
      "log_fitness": 0.95655888940025,
      "perc_fit_traces": 67.1,
      "percentage_of_fitting_traces": 67.1
    },
    "fitness_alignments": {
      "averageFitness": -0.036,
      "average_trace_fitness": -0.036,
      "percFitTraces": 67.1,
      "percentage_of_fitting_traces": 67.1
    },
    "fscore": 0.952492176833463,
    "generalization": 0.9633673437937008,
    "metricsAverageWeight": 0.9135251038045218,
    "precision": 0.9484598963098506,
    "precision_alignments": 0.921522756273926,
    "simplicity": 0.7857142857142856
  }
}