{
  "FULL": {
    "fitness": {
      "average_trace_fitness": 1.0,
      "log_fitness": 1.0,
      "perc_fit_traces": 100.0,
      "percentage_of_fitting_traces": 100.0
    },
    "fitness_alignments": {
      "averageFitness": 1.0,
      "average_trace_fitness": 1.0,
      "percFitTraces": 100.0,
      "percentage_of_fitting_traces": 100.0
    },
    "fscore": 0.9903846153846153,
    "generalization": 0.9719852664685145,
    "metricsAverageWeight": 0.9549010785218905,
    "precision": 0.9809523809523809,
    "precision_alignments": 0.9809523809523809,
    "simplicity": 0.8666666666666667
  }
}