{
  "FULL": {
    "fitness": {
      "average_trace_fitness": 1.0,
      "log_fitness": 1.0,
      "perc_fit_traces": 100.0,
      "percentage_of_fitting_traces": 100.0
    },
    "fitness_alignments": {
      "averageFitness": 1.0,
      "average_trace_fitness": 1.0,
      "percFitTraces": 100.0,
      "percentage_of_fitting_traces": 100.0
    },
    "fscore": 0.9996543977881458,
    "generalization": 0.9534430580954099,
    "metricsAverageWeight": 0.9167594516891661,
    "precision": 0.9993090343755399,
    "precision_alignments": 0.9993090343755399,
    "simplicity": 0.7142857142857143
  },
  "Top 30": {
    "fitness": {
      "average_trace_fitness": 1.0,
      "log_fitness": 1.0,
      "perc_fit_traces": 100.0,
      "percentage_of_fitting_traces": 100.0
    },
    "fitness_alignments": {
      "averageFitness": 1.0,
      "average_trace_fitness": 1.0,
      "percFitTraces": 100.0,
      "percentage_of_fitting_traces": 100.0
    },
    "fscore": 0.9965484180249281,
    "generalization": 0.9510809426239285,
    "metricsAverageWeight": 0.9146218094595912,
    "precision": 0.9931205809287216,
    "precision_alignments": 0.9931205809287216,
    "simplicity": 0.7142857142857143
  }
}