{
  "FULL": {
    "fitness": {
      "average_trace_fitness": 1.0,
      "log_fitness": 1.0,
      "perc_fit_traces": 100.0,
      "percentage_of_fitting_traces": 100.0
    },
    "fitness_alignments": {
      "averageFitness": 1.0,
      "average_trace_fitness": 1.0,
      "percFitTraces": 100.0,
      "percentage_of_fitting_traces": 100.0
    },
    "fscore": 0.9996543977881458,
    "generalization": 0.9555765102815393,
    "metricsAverageWeight": 0.9246188220617058,
    "precision": 0.9993090343755399,
    "precision_alignments": 0.9993090343755399,
    "simplicity": 0.7435897435897437
  }
}