{
  "FULL": {
    "fitness": {
      "average_trace_fitness": 0.933295728210442,
      "log_fitness": 0.9468765886414507,
      "perc_fit_traces": 50.2,
      "percentage_of_fitting_traces": 50.2
    },
    "fitness_alignments": {
      "averageFitness": -1.29,
      "average_trace_fitness": -1.29,
      "percFitTraces": 50.2,
      "percentage_of_fitting_traces": 50.2
    },
    "fscore": 0.9724601234175743,
    "generalization": 0.8742238677711544,
    "metricsAverageWeight": 0.8740601642135026,
    "precision": 0.9994645247657296,
    "precision_alignments": 0.9994645247657296,
    "simplicity": 0.6756756756756757
  },
  "Top 30": {
    "fitness": {
      "average_trace_fitness": 0.933295728210442,
      "log_fitness": 0.9468765886414507,
      "perc_fit_traces": 50.2,
      "percentage_of_fitting_traces": 50.2
    },
    "fitness_alignments": {
      "averageFitness": -1.29,
      "average_trace_fitness": -1.29,
      "percFitTraces": 50.2,
      "percentage_of_fitting_traces": 50.2
    },
    "fscore": 0.9724601234175743,
    "generalization": 0.8742238677711544,
    "metricsAverageWeight": 0.8740601642135026,
    "precision": 0.9994645247657296,
    "precision_alignments": 0.9994645247657296,
    "simplicity": 0.6756756756756757
  }
}