{
  "FULL": {
    "fitness": {
      "average_trace_fitness": 0.9493145611691879,
      "log_fitness": 0.9370860137747095,
      "perc_fit_traces": 38.84657236126224,
      "percentage_of_fitting_traces": 38.84657236126224
    },
    "fitness_alignments": {
      "averageFitness": -3.6974972796517953,
      "average_trace_fitness": -3.6974972796517953,
      "percFitTraces": 38.84657236126224,
      "percentage_of_fitting_traces": 38.84657236126224
    },
    "fscore": 0.9132871291307892,
    "generalization": 0.9433621494434017,
    "metricsAverageWeight": 0.8365288234434771,
    "precision": 0.8906671305557972,
    "precision_alignments": 0.8906671305557972,
    "simplicity": 0.575
  }
}