{
  "FULL": {
    "fitness": {
      "average_trace_fitness": 1.0,
      "log_fitness": 1.0,
      "perc_fit_traces": 100.0,
      "percentage_of_fitting_traces": 100.0
    },
    "fitness_alignments": {
      "averageFitness": 1.0,
      "average_trace_fitness": 1.0,
      "percFitTraces": 100.0,
      "percentage_of_fitting_traces": 100.0
    },
    "fscore": 0.9729648864097796,
    "generalization": 0.9666626552475847,
    "metricsAverageWeight": 0.922948380272322,
    "precision": 0.9473530880639254,
    "precision_alignments": 0.9473530880639254,
    "simplicity": 0.7777777777777779
  }
}