{
  "FULL": {
    "fitness": {
      "average_trace_fitness": 1.0,
      "log_fitness": 1.0,
      "perc_fit_traces": 100.0,
      "percentage_of_fitting_traces": 100.0
    },
    "fitness_alignments": {
      "averageFitness": 1.0,
      "average_trace_fitness": 1.0,
      "percFitTraces": 100.0,
      "percentage_of_fitting_traces": 100.0
    },
    "fscore": 0.9781829833095453,
    "generalization": 0.9732100339086703,
    "metricsAverageWeight": 0.940960243178802,
    "precision": 0.9572976054732041,
    "precision_alignments": 0.9572976054732041,
    "simplicity": 0.8333333333333333
  }
}