{
  "FULL": {
    "fitness": {
      "average_trace_fitness": 0.8712999999999984,
      "log_fitness": 0.8514109493949902,
      "perc_fit_traces": 28.5,
      "percentage_of_fitting_traces": 28.5
    },
    "fitness_alignments": {
      "averageFitness": -1.16,
      "average_trace_fitness": -1.16,
      "percFitTraces": 28.5,
      "percentage_of_fitting_traces": 28.5
    },
    "fscore": 0.9197428044521578,
    "generalization": 0.6987015681902098,
    "metricsAverageWeight": 0.7589567008248714,
    "precision": 1.0,
    "precision_alignments": 1.0,
    "simplicity": 0.48571428571428577
  },
  "Top 30": {
    "fitness": {
      "average_trace_fitness": 0.8712999999999984,
      "log_fitness": 0.8514109493949902,
      "perc_fit_traces": 28.5,
      "percentage_of_fitting_traces": 28.5
    },
    "fitness_alignments": {
      "averageFitness": -1.16,
      "average_trace_fitness": -1.16,
      "percFitTraces": 28.5,
      "percentage_of_fitting_traces": 28.5
    },
    "fscore": 0.9197428044521578,
    "generalization": 0.6987015681902098,
    "metricsAverageWeight": 0.7589567008248714,
    "precision": 1.0,
    "precision_alignments": 1.0,
    "simplicity": 0.48571428571428577
  }
}