{
  "FULL": {
    "fitness": {
      "average_trace_fitness": 0.9999822190611665,
      "log_fitness": 0.9998524638536441,
      "perc_fit_traces": 99.8,
      "percentage_of_fitting_traces": 99.8
    },
    "fitness_alignments": {
      "averageFitness": 0.993,
      "average_trace_fitness": 0.993,
      "percFitTraces": 99.8,
      "percentage_of_fitting_traces": 99.8
    },
    "fscore": 0.9192084899989222,
    "generalization": 0.9589886017555878,
    "metricsAverageWeight": 0.8809322973833751,
    "precision": 0.8506024096385543,
    "precision_alignments": 0.8506024096385543,
    "simplicity": 0.7142857142857143
  }
}