{
  "FULL": {
    "fitness": {
      "average_trace_fitness": 1.0,
      "log_fitness": 1.0,
      "perc_fit_traces": 100.0,
      "percentage_of_fitting_traces": 100.0
    },
    "fitness_alignments": {
      "averageFitness": 1.0,
      "average_trace_fitness": 1.0,
      "percFitTraces": 100.0,
      "percentage_of_fitting_traces": 100.0
    },
    "fscore": 0.9996755704552828,
    "generalization": 0.9459425172072902,
    "metricsAverageWeight": 0.914894895711089,
    "precision": 0.9993513513513513,
    "precision_alignments": 0.9993513513513513,
    "simplicity": 0.7142857142857143
  }
}