{
  "FULL": {
    "fitness": {
      "average_trace_fitness": 0.9713166456027074,
      "log_fitness": 0.952316076294278,
      "perc_fit_traces": 51.0,
      "percentage_of_fitting_traces": 51.0
    },
    "fitness_alignments": {
      "averageFitness": -6.786,
      "average_trace_fitness": -6.786,
      "percFitTraces": 51.0,
      "percentage_of_fitting_traces": 51.0
    },
    "fscore": 0.7424828959970032,
    "generalization": 0.8907946043373898,
    "metricsAverageWeight": 0.7814880844619362,
    "precision": 0.6084230525649146,
    "precision_alignments": 0.6084230525649146,
    "simplicity": 0.6744186046511628
  },
  "Top 30": {
    "fitness": {
      "average_trace_fitness": 0.9816653390987674,
      "log_fitness": 0.949017199017199,
      "perc_fit_traces": 75.44378698224853,
      "percentage_of_fitting_traces": 75.44378698224853
    },
    "fitness_alignments": {
      "averageFitness": -1.5710059171597632,
      "average_trace_fitness": -1.5710059171597632,
      "percFitTraces": 75.44378698224853,
      "percentage_of_fitting_traces": 75.44378698224853
    },
    "fscore": 0.8087910167068332,
    "generalization": 0.8139956665174952,
    "metricsAverageWeight": 0.7855252417126255,
    "precision": 0.7046694966646452,
    "precision_alignments": 0.7046694966646452,
    "simplicity": 0.6744186046511628
  }
}