{
  "FULL": {
    "fitness": {
      "average_trace_fitness": 0.9978226344788976,
      "log_fitness": 0.9942318565192252,
      "perc_fit_traces": 91.8,
      "percentage_of_fitting_traces": 91.8
    },
    "fitness_alignments": {
      "averageFitness": 0.754,
      "average_trace_fitness": 0.754,
      "percFitTraces": 91.8,
      "percentage_of_fitting_traces": 91.8
    },
    "fscore": 0.928819217193384,
    "generalization": 0.970736841822893,
    "metricsAverageWeight": 0.8991128043820942,
    "precision": 0.871482519186259,
    "precision_alignments": 0.871482519186259,
    "simplicity": 0.7599999999999999
  }
}