{
  "FULL": {
    "fitness": {
      "average_trace_fitness": 0.9606936852126267,
      "log_fitness": 0.9538107141553844,
      "perc_fit_traces": 35.0,
      "percentage_of_fitting_traces": 35.0
    },
    "fscore": 0.8254581699460001,
    "generalization": 0.9635872931220091,
    "metricsAverageWeight": 0.8517138779495472,
    "precision": 0.7275527426160338,
    "simplicity": 0.7619047619047619
  }
}