{
  "easy_soundness": false,
  "filename": "/mnt/c/Users/s140511/tue/thesis/thesis_data/process_trees_complex_ws/predictions/1540_gcn_ep100b_cc.json",
  "full": {
    "fitness": {
      "average_trace_fitness": 0.8704148488856223,
      "log_fitness": 0.8169552475301047,
      "perc_fit_traces": 0.0,
      "percentage_of_fitting_traces": 0.0
    },
    "fscore": 0.8992574238035203,
    "generalization": 0.9716308862623921,
    "metricsAverageWeight": 0.8301252568523795,
    "precision": 1.0,
    "simplicity": 0.5319148936170213
  },
  "sound": false,
  "top 30": {
    "fitness": {
      "average_trace_fitness": 0.8704148488856223,
      "log_fitness": 0.8169552475301047,
      "perc_fit_traces": 0.0,
      "percentage_of_fitting_traces": 0.0
    },
    "fscore": 0.8992574238035203,
    "generalization": 0.9716308862623921,
    "metricsAverageWeight": 0.8301252568523795,
    "precision": 1.0,
    "simplicity": 0.5319148936170213
  }
}