{
  "FULL": {
    "fitness": {
      "average_trace_fitness": 0.6411875,
      "log_fitness": 0.8696683247639981,
      "perc_fit_traces": 32.9,
      "percentage_of_fitting_traces": 32.9
    },
    "fitness_alignments": {
      "averageFitness": -0.839,
      "average_trace_fitness": -0.839,
      "percFitTraces": 32.9,
      "percentage_of_fitting_traces": 32.9
    },
    "fscore": 0.8619620939605953,
    "generalization": 0.9400809067414478,
    "metricsAverageWeight": 0.8684160690574552,
    "precision": 0.8543912352005655,
    "precision_alignments": 0.8543912352005655,
    "simplicity": 0.8095238095238095
  }
}