{
  "FULL": {
    "fitness": {
      "average_trace_fitness": 1.0,
      "log_fitness": 1.0,
      "perc_fit_traces": 100.0,
      "percentage_of_fitting_traces": 100.0
    },
    "fitness_alignments": {
      "averageFitness": 1.0,
      "average_trace_fitness": 1.0,
      "percFitTraces": 100.0,
      "percentage_of_fitting_traces": 100.0
    },
    "fscore": 0.9954830445627992,
    "generalization": 0.9696571819690567,
    "metricsAverageWeight": 0.940165973344613,
    "precision": 0.991006711409396,
    "precision_alignments": 0.991006711409396,
    "simplicity": 0.8
  }
}