{
  "FULL": {
    "fitness": {
      "average_trace_fitness": 1.0,
      "log_fitness": 1.0,
      "perc_fit_traces": 100.0,
      "percentage_of_fitting_traces": 100.0
    },
    "fitness_alignments": {
      "averageFitness": 1.0,
      "average_trace_fitness": 1.0,
      "percFitTraces": 100.0,
      "percentage_of_fitting_traces": 100.0
    },
    "fscore": 0.9801955377287541,
    "generalization": 0.958477231987354,
    "metricsAverageWeight": 0.9267178874650283,
    "precision": 0.9611602753195674,
    "precision_alignments": 0.9611602753195674,
    "simplicity": 0.7872340425531915
  }
}