{
  "FULL": {
    "fitness": {
      "average_trace_fitness": 1.0,
      "log_fitness": 1.0,
      "perc_fit_traces": 100.0,
      "percentage_of_fitting_traces": 100.0
    },
    "fitness_alignments": {
      "averageFitness": 1.0,
      "average_trace_fitness": 1.0,
      "percFitTraces": 100.0,
      "percentage_of_fitting_traces": 100.0
    },
    "fscore": 0.9924387077064081,
    "generalization": 0.9510822148090157,
    "metricsAverageWeight": 0.9188008882923875,
    "precision": 0.9849909035779261,
    "precision_alignments": 0.9849909035779261,
    "simplicity": 0.7391304347826086
  }
}