{
  "FULL": {
    "fitness": {
      "average_trace_fitness": 1.0,
      "log_fitness": 1.0,
      "perc_fit_traces": 100.0,
      "percentage_of_fitting_traces": 100.0
    },
    "fitness_alignments": {
      "averageFitness": 1.0,
      "average_trace_fitness": 1.0,
      "percFitTraces": 100.0,
      "percentage_of_fitting_traces": 100.0
    },
    "fscore": 0.9945123030624888,
    "generalization": 0.9664999260612579,
    "metricsAverageWeight": 0.9288961082758778,
    "precision": 0.9890845070422535,
    "precision_alignments": 0.9890845070422535,
    "simplicity": 0.7599999999999999
  },
  "Top 30": {
    "fitness": {
      "average_trace_fitness": 1.0,
      "log_fitness": 1.0,
      "perc_fit_traces": 100.0,
      "percentage_of_fitting_traces": 100.0
    },
    "fitness_alignments": {
      "averageFitness": 1.0,
      "average_trace_fitness": 1.0,
      "percFitTraces": 100.0,
      "percentage_of_fitting_traces": 100.0
    },
    "fscore": 0.9508809396689802,
    "generalization": 0.9558805675837363,
    "metricsAverageWeight": 0.9055604726847382,
    "precision": 0.9063613231552163,
    "precision_alignments": 0.9063613231552163,
    "simplicity": 0.7599999999999999
  }
}