{
  "FULL": {
    "fitness": {
      "average_trace_fitness": 0.999970404782519,
      "log_fitness": 0.999840879933729,
      "perc_fit_traces": 99.7,
      "percentage_of_fitting_traces": 99.7
    },
    "fitness_alignments": {
      "averageFitness": 0.9985,
      "average_trace_fitness": 0.9985,
      "percFitTraces": 99.7,
      "percentage_of_fitting_traces": 99.7
    },
    "fscore": 0.9666518846911166,
    "generalization": 0.9721606868634322,
    "metricsAverageWeight": 0.936358718511008,
    "precision": 0.9355954694090327,
    "precision_alignments": 0.9355954694090327,
    "simplicity": 0.8378378378378379
  }
}