{
  "FULL": {
    "fitness": {
      "average_trace_fitness": 0.9992272872525582,
      "log_fitness": 0.9982449122069775,
      "perc_fit_traces": 95.0,
      "percentage_of_fitting_traces": 95.0
    },
    "fscore": 0.27321466883344153,
    "generalization": 0.9744898260063452,
    "metricsAverageWeight": 0.6912007853898238,
    "precision": 0.158265586444564,
    "simplicity": 0.6338028169014084
  }
}