{
  "easy_soundness": false,
  "filename": "/mnt/c/Users/s140511/tue/thesis/thesis_data/process_trees_complex_ws/predictions/1561_gcn_ep100b_cc.json",
  "full": {
    "fitness": {
      "average_trace_fitness": 0.8509068151742996,
      "log_fitness": 0.8236691001487395,
      "perc_fit_traces": 0.0,
      "percentage_of_fitting_traces": 0.0
    },
    "fscore": 0.9033098165468292,
    "generalization": 0.9536411304314667,
    "metricsAverageWeight": 0.8443275576450516,
    "precision": 1.0,
    "simplicity": 0.6000000000000001
  },
  "sound": false,
  "top 51": {
    "fitness": {
      "average_trace_fitness": 0.8509068151742996,
      "log_fitness": 0.8236691001487395,
      "perc_fit_traces": 0.0,
      "percentage_of_fitting_traces": 0.0
    },
    "fscore": 0.9033098165468292,
    "generalization": 0.9536411304314667,
    "metricsAverageWeight": 0.8443275576450516,
    "precision": 1.0,
    "simplicity": 0.6000000000000001
  }
}