{
  "FULL": {
    "fitness": {
      "average_trace_fitness": 0.9204523809523807,
      "log_fitness": 0.9251063829787234,
      "perc_fit_traces": 73.6,
      "percentage_of_fitting_traces": 73.6
    },
    "fitness_alignments": {
      "averageFitness": 0.642,
      "average_trace_fitness": 0.642,
      "percFitTraces": 73.6,
      "percentage_of_fitting_traces": 73.6
    },
    "fscore": 0.9585300542199754,
    "generalization": 0.9184214180773254,
    "metricsAverageWeight": 0.8761634716776091,
    "precision": 0.9944594189877208,
    "precision_alignments": 0.9944594189877208,
    "simplicity": 0.6666666666666666
  }
}