{
  "FULL": {
    "fitness": {
      "average_trace_fitness": 0.8471952800579119,
      "log_fitness": 0.8563145471591903,
      "perc_fit_traces": 0.0,
      "percentage_of_fitting_traces": 0.0
    },
    "fscore": 0.9225963869858702,
    "generalization": 0.9642650543959174,
    "metricsAverageWeight": 0.8284782337221102,
    "precision": 1.0,
    "simplicity": 0.4933333333333333
  },
  "Top 30": {
    "fitness": {
      "average_trace_fitness": 0.8319153656511334,
      "log_fitness": 0.8340884813999343,
      "perc_fit_traces": 0.0,
      "percentage_of_fitting_traces": 0.0
    },
    "fscore": 0.9095400683867619,
    "generalization": 0.8908330137257948,
    "metricsAverageWeight": 0.8045637071147655,
    "precision": 1.0,
    "simplicity": 0.4933333333333333
  }
}