{
  "FULL": {
    "fitness": {
      "average_trace_fitness": 0.865366666666657,
      "log_fitness": 0.8612602430064991,
      "perc_fit_traces": 17.5,
      "percentage_of_fitting_traces": 17.5
    },
    "fitness_alignments": {
      "averageFitness": 0.6726666666666725,
      "average_trace_fitness": 0.6726666666666725,
      "percFitTraces": 17.5,
      "percentage_of_fitting_traces": 17.5
    },
    "fscore": 0.8772571971516295,
    "generalization": 0.8155913561643726,
    "metricsAverageWeight": 0.8442907152992261,
    "precision": 0.893859649122807,
    "precision_alignments": 0.893859649122807,
    "simplicity": 0.8064516129032256
  }
}