{
  "FULL": {
    "fitness": {
      "average_trace_fitness": 1.0,
      "log_fitness": 1.0,
      "perc_fit_traces": 100.0,
      "percentage_of_fitting_traces": 100.0
    },
    "fitness_alignments": {
      "averageFitness": 1.0,
      "average_trace_fitness": 1.0,
      "percFitTraces": 100.0,
      "percentage_of_fitting_traces": 100.0
    },
    "fscore": 0.9838974358974358,
    "generalization": 0.9705831960089939,
    "metricsAverageWeight": 0.9553103439763904,
    "precision": 0.9683052387200969,
    "precision_alignments": 0.9683052387200969,
    "simplicity": 0.8823529411764706
  }
}