{
  "FULL": {
    "fitness": {
      "average_trace_fitness": 0.7713935026712105,
      "log_fitness": 0.7364522904704351,
      "perc_fit_traces": 0.0,
      "percentage_of_fitting_traces": 0.0
    },
    "fscore": 0.8372438304776739,
    "generalization": 0.8677094820047817,
    "metricsAverageWeight": 0.8128949706122485,
    "precision": 0.9699987551350678,
    "simplicity": 0.6774193548387096
  },
  "Top 30": {
    "fitness": {
      "average_trace_fitness": 0.8574305142932687,
      "log_fitness": 0.8530369680545471,
      "perc_fit_traces": 0.0,
      "percentage_of_fitting_traces": 0.0
    },
    "fscore": 0.8956470235590416,
    "generalization": 0.8508860986759659,
    "metricsAverageWeight": 0.8310200359043224,
    "precision": 0.9427377220480668,
    "simplicity": 0.6774193548387096
  }
}