{
  "FULL": {
    "fitness": {
      "average_trace_fitness": 0.7473833898106929,
      "log_fitness": 0.7564279250486137,
      "perc_fit_traces": 0.0,
      "percentage_of_fitting_traces": 0.0
    },
    "fscore": 0.6566890242199326,
    "generalization": 0.9738045436947022,
    "metricsAverageWeight": 0.7469600136006114,
    "precision": 0.5801882308204203,
    "simplicity": 0.6774193548387096
  },
  "Top 30": {
    "fitness": {
      "average_trace_fitness": 0.7392233128437893,
      "log_fitness": 0.7372630002667253,
      "perc_fit_traces": 0.0,
      "percentage_of_fitting_traces": 0.0
    },
    "fscore": 0.6464345758640665,
    "generalization": 0.9227076714925487,
    "metricsAverageWeight": 0.7282302594107534,
    "precision": 0.5755310110450298,
    "simplicity": 0.6774193548387096
  }
}