{
  "FULL": {
    "fitness": {
      "average_trace_fitness": 0.9835181818181841,
      "log_fitness": 0.9777784516628709,
      "perc_fit_traces": 76.2,
      "percentage_of_fitting_traces": 76.2
    },
    "fitness_alignments": {
      "averageFitness": 0.881,
      "average_trace_fitness": 0.881,
      "percFitTraces": 76.2,
      "percentage_of_fitting_traces": 76.2
    },
    "fscore": 0.9887643895005299,
    "generalization": 0.9520037340783599,
    "metricsAverageWeight": 0.9324455464353076,
    "precision": 1.0,
    "precision_alignments": 1.0,
    "simplicity": 0.8
  }
}