{
  "FULL": {
    "fitness": {
      "average_trace_fitness": 1.0,
      "log_fitness": 1.0,
      "perc_fit_traces": 100.0,
      "percentage_of_fitting_traces": 100.0
    },
    "fitness_alignments": {
      "averageFitness": 1.0,
      "average_trace_fitness": 1.0,
      "percFitTraces": 100.0,
      "percentage_of_fitting_traces": 100.0
    },
    "fscore": 0.9986486486486487,
    "generalization": 0.9660023264429068,
    "metricsAverageWeight": 0.9352702622225126,
    "precision": 0.9973009446693657,
    "precision_alignments": 0.9973009446693657,
    "simplicity": 0.7777777777777779
  }
}