{
  "FULL": {
    "fitness": {
      "average_trace_fitness": 1.0,
      "log_fitness": 1.0,
      "perc_fit_traces": 100.0,
      "percentage_of_fitting_traces": 100.0
    },
    "fitness_alignments": {
      "averageFitness": 1.0,
      "average_trace_fitness": 1.0,
      "percFitTraces": 100.0,
      "percentage_of_fitting_traces": 100.0
    },
    "fscore": 0.9983961951111603,
    "generalization": 0.9665879070346036,
    "metricsAverageWeight": 0.9352908027943936,
    "precision": 0.9967975263651925,
    "precision_alignments": 0.9967975263651925,
    "simplicity": 0.7777777777777779
  },
  "Top 30": {
    "fitness": {
      "average_trace_fitness": 1.0,
      "log_fitness": 1.0,
      "perc_fit_traces": 100.0,
      "percentage_of_fitting_traces": 100.0
    },
    "fitness_alignments": {
      "averageFitness": 1.0,
      "average_trace_fitness": 1.0,
      "percFitTraces": 100.0,
      "percentage_of_fitting_traces": 100.0
    },
    "fscore": 0.9775981299308465,
    "generalization": 0.9555674057342483,
    "metricsAverageWeight": 0.9223807847795975,
    "precision": 0.9561779556063638,
    "precision_alignments": 0.9561779556063638,
    "simplicity": 0.7777777777777779
  }
}