{
  "FULL": {
    "fitness": {
      "average_trace_fitness": 0.497,
      "log_fitness": 0.956211369374075,
      "perc_fit_traces": 49.7,
      "percentage_of_fitting_traces": 49.7
    },
    "fitness_alignments": {
      "averageFitness": 0.434125,
      "average_trace_fitness": 0.434125,
      "percFitTraces": 49.7,
      "percentage_of_fitting_traces": 49.7
    },
    "fscore": 0.9541238840302767,
    "generalization": 0.9462961436534585,
    "metricsAverageWeight": 0.9062612023578319,
    "precision": 0.9520454931251061,
    "precision_alignments": 0.9520454931251061,
    "simplicity": 0.7704918032786884
  }
}