{
  "FULL": {
    "fitness": {
      "average_trace_fitness": 0.9999603960396038,
      "log_fitness": 0.9996382054992764,
      "perc_fit_traces": 99.6,
      "percentage_of_fitting_traces": 99.6
    },
    "fitness_alignments": {
      "averageFitness": 0.984,
      "average_trace_fitness": 0.984,
      "percFitTraces": 99.6,
      "percentage_of_fitting_traces": 99.6
    },
    "fscore": 0.9463057208651587,
    "generalization": 0.9704943896700808,
    "metricsAverageWeight": 0.9115715352912175,
    "precision": 0.8983757682177349,
    "precision_alignments": 0.8983757682177349,
    "simplicity": 0.7777777777777779
  },
  "Top 30": {
    "fitness": {
      "average_trace_fitness": 1.0,
      "log_fitness": 1.0,
      "perc_fit_traces": 100.0,
      "percentage_of_fitting_traces": 100.0
    },
    "fitness_alignments": {
      "averageFitness": 1.0,
      "average_trace_fitness": 1.0,
      "percFitTraces": 100.0,
      "percentage_of_fitting_traces": 100.0
    },
    "fscore": 0.9852602487333026,
    "generalization": 0.9423080768291334,
    "metricsAverageWeight": 0.9227586402291224,
    "precision": 0.9709487063095779,
    "precision_alignments": 0.9709487063095779,
    "simplicity": 0.7777777777777779
  }
}