{
  "FULL": {
    "fitness": {
      "average_trace_fitness": 1.0,
      "log_fitness": 1.0,
      "perc_fit_traces": 100.0,
      "percentage_of_fitting_traces": 100.0
    },
    "fitness_alignments": {
      "averageFitness": 1.0,
      "average_trace_fitness": 1.0,
      "percFitTraces": 100.0,
      "percentage_of_fitting_traces": 100.0
    },
    "fscore": 0.9667664744747717,
    "generalization": 0.9593460711409952,
    "metricsAverageWeight": 0.9055724080864502,
    "precision": 0.9356708339320784,
    "precision_alignments": 0.9356708339320784,
    "simplicity": 0.7272727272727273
  }
}