{
  "FULL": {
    "fitness": {
      "average_trace_fitness": 0.999345995632887,
      "log_fitness": 0.9978629740077901,
      "perc_fit_traces": 97.7,
      "percentage_of_fitting_traces": 97.7
    },
    "fitness_alignments": {
      "averageFitness": 0.938,
      "average_trace_fitness": 0.938,
      "percFitTraces": 97.7,
      "percentage_of_fitting_traces": 97.7
    },
    "fscore": 0.899276824566107,
    "generalization": 0.9566331052464038,
    "metricsAverageWeight": 0.8682288271471306,
    "precision": 0.8184192293343282,
    "precision_alignments": 0.8184192293343282,
    "simplicity": 0.7000000000000001
  }
}