{
  "FULL": {
    "fitness": {
      "average_trace_fitness": 0.9559847243807509,
      "log_fitness": 0.9207459578522376,
      "perc_fit_traces": 49.5,
      "percentage_of_fitting_traces": 49.5
    },
    "fitness_alignments": {
      "averageFitness": -5.56,
      "average_trace_fitness": -5.56,
      "percFitTraces": 49.5,
      "percentage_of_fitting_traces": 49.5
    },
    "fscore": 0.8751666289944119,
    "generalization": 0.8715108400935863,
    "metricsAverageWeight": 0.8258907989934755,
    "precision": 0.8338870431893688,
    "precision_alignments": 0.8338870431893688,
    "simplicity": 0.6774193548387096
  },
  "Top 30": {
    "fitness": {
      "average_trace_fitness": 0.9628794340036876,
      "log_fitness": 0.9244789508886415,
      "perc_fit_traces": 58.57988165680474,
      "percentage_of_fitting_traces": 58.57988165680474
    },
    "fitness_alignments": {
      "averageFitness": -2.3775147928994085,
      "average_trace_fitness": -2.3775147928994085,
      "percFitTraces": 58.57988165680474,
      "percentage_of_fitting_traces": 58.57988165680474
    },
    "fscore": 0.9117984114010899,
    "generalization": 0.841175577746016,
    "metricsAverageWeight": 0.8356337279164346,
    "precision": 0.8994610281923715,
    "precision_alignments": 0.8994610281923715,
    "simplicity": 0.6774193548387096
  }
}