{
  "FULL": {
    "fitness": {
      "average_trace_fitness": 0.9999672881018323,
      "log_fitness": 0.9998830841463098,
      "perc_fit_traces": 99.8,
      "percentage_of_fitting_traces": 99.8
    },
    "fitness_alignments": {
      "averageFitness": 0.9995,
      "average_trace_fitness": 0.9995,
      "percFitTraces": 99.8,
      "percentage_of_fitting_traces": 99.8
    },
    "fscore": 0.62494706767182,
    "generalization": 0.9734383299680022,
    "metricsAverageWeight": 0.7831882658494728,
    "precision": 0.454513616496694,
    "precision_alignments": 0.454513616496694,
    "simplicity": 0.7049180327868854
  }
}