{
  "FULL": {
    "fitness": {
      "average_trace_fitness": 1.0,
      "log_fitness": 1.0,
      "perc_fit_traces": 100.0,
      "percentage_of_fitting_traces": 100.0
    },
    "fitness_alignments": {
      "averageFitness": 1.0,
      "average_trace_fitness": 1.0,
      "percFitTraces": 100.0,
      "percentage_of_fitting_traces": 100.0
    },
    "fscore": 0.9756121740854565,
    "generalization": 0.9697324357078204,
    "metricsAverageWeight": 0.9288053612020564,
    "precision": 0.9523855608245427,
    "precision_alignments": 0.9523855608245427,
    "simplicity": 0.7931034482758622
  }
}