{
  "FULL": {
    "fitness": {
      "average_trace_fitness": 1.0,
      "log_fitness": 1.0,
      "perc_fit_traces": 100.0,
      "percentage_of_fitting_traces": 100.0
    },
    "fitness_alignments": {
      "averageFitness": 1.0,
      "average_trace_fitness": 1.0,
      "percFitTraces": 100.0,
      "percentage_of_fitting_traces": 100.0
    },
    "fscore": 0.9766740492907969,
    "generalization": 0.9518383517302302,
    "metricsAverageWeight": 0.9098957947232496,
    "precision": 0.9544114938294346,
    "precision_alignments": 0.9544114938294346,
    "simplicity": 0.7333333333333333
  }
}