{
  "FULL": {
    "fitness": {
      "average_trace_fitness": 1.0,
      "log_fitness": 1.0,
      "perc_fit_traces": 100.0,
      "percentage_of_fitting_traces": 100.0
    },
    "fitness_alignments": {
      "averageFitness": 1.0,
      "average_trace_fitness": 1.0,
      "percFitTraces": 100.0,
      "percentage_of_fitting_traces": 100.0
    },
    "fscore": 0.5808335158017662,
    "generalization": 0.9540322504963232,
    "metricsAverageWeight": 0.7533275442122314,
    "precision": 0.4092779263526023,
    "precision_alignments": 0.4092779263526023,
    "simplicity": 0.65
  }
}