{
  "FULL": {
    "fitness": {
      "average_trace_fitness": 1.0,
      "log_fitness": 1.0,
      "perc_fit_traces": 100.0,
      "percentage_of_fitting_traces": 100.0
    },
    "fitness_alignments": {
      "averageFitness": 1.0,
      "average_trace_fitness": 1.0,
      "percFitTraces": 100.0,
      "percentage_of_fitting_traces": 100.0
    },
    "fscore": 0.9958296964406944,
    "generalization": 0.9620907778814746,
    "metricsAverageWeight": 0.9367220643623977,
    "precision": 0.9916940312922542,
    "precision_alignments": 0.9916940312922542,
    "simplicity": 0.7931034482758622
  }
}