{
  "FULL": {
    "fitness": {
      "average_trace_fitness": 0.9493704864361183,
      "log_fitness": 0.9258147509858103,
      "perc_fit_traces": 50.9,
      "percentage_of_fitting_traces": 50.9
    },
    "fitness_alignments": {
      "averageFitness": -0.2835,
      "average_trace_fitness": -0.2835,
      "percFitTraces": 50.9,
      "percentage_of_fitting_traces": 50.9
    },
    "fscore": 0.922191087178255,
    "generalization": 0.9569233771749405,
    "metricsAverageWeight": 0.8768040400285683,
    "precision": 0.9185956790123457,
    "precision_alignments": 0.9185956790123457,
    "simplicity": 0.7058823529411765
  }
}