{
  "FULL": {
    "fitness": {
      "average_trace_fitness": 1.0,
      "log_fitness": 1.0,
      "perc_fit_traces": 100.0,
      "percentage_of_fitting_traces": 100.0
    },
    "fitness_alignments": {
      "averageFitness": 1.0,
      "average_trace_fitness": 1.0,
      "percFitTraces": 100.0,
      "percentage_of_fitting_traces": 100.0
    },
    "fscore": 0.8885861517502813,
    "generalization": 0.9598036101532165,
    "metricsAverageWeight": 0.8842727718388561,
    "precision": 0.7995096994244297,
    "precision_alignments": 0.7995096994244297,
    "simplicity": 0.7777777777777779
  }
}