{
  "easy_soundness": true,
  "filename": "/mnt/c/Users/s140511/tue/thesis/thesis_data/process_trees_complex_ws/predictions/1618_gcn_ep100b_cc.json",
  "full": {
    "fitness": {
      "average_trace_fitness": 1.0,
      "log_fitness": 1.0,
      "perc_fit_traces": 100.0,
      "percentage_of_fitting_traces": 100.0
    },
    "fitness_alignments": {
      "averageFitness": 1.0,
      "average_trace_fitness": 1.0,
      "percFitTraces": 100.0,
      "percentage_of_fitting_traces": 100.0
    },
    "fscore": 0.9804925085298917,
    "generalization": 0.9539957235855787,
    "metricsAverageWeight": 0.9137144242773869,
    "precision": 0.9617315387413605,
    "precision_alignments": 0.9617315387413605,
    "simplicity": 0.7391304347826086
  },
  "sound": true,
  "top 30": {
    "fitness": {
      "average_trace_fitness": 1.0,
      "log_fitness": 1.0,
      "perc_fit_traces": 100.0,
      "percentage_of_fitting_traces": 100.0
    },
    "fitness_alignments": {
      "averageFitness": 1.0,
      "average_trace_fitness": 1.0,
      "percFitTraces": 100.0,
      "percentage_of_fitting_traces": 100.0
    },
    "fscore": 0.9804925085298917,
    "generalization": 0.9539957235855787,
    "metricsAverageWeight": 0.9137144242773869,
    "precision": 0.9617315387413605,
    "precision_alignments": 0.9617315387413605,
    "simplicity": 0.7391304347826086
  }
}