{
  "FULL": {
    "fitness": {
      "average_trace_fitness": 1.0,
      "log_fitness": 1.0,
      "perc_fit_traces": 100.0,
      "percentage_of_fitting_traces": 100.0
    },
    "fitness_alignments": {
      "averageFitness": 1.0,
      "average_trace_fitness": 1.0,
      "percFitTraces": 100.0,
      "percentage_of_fitting_traces": 100.0
    },
    "fscore": 0.9495863495346432,
    "generalization": 0.966488189493236,
    "metricsAverageWeight": 0.9024076095516094,
    "precision": 0.9040118139305932,
    "precision_alignments": 0.9040118139305932,
    "simplicity": 0.7391304347826086
  }
}