{
  "FULL": {
    "fitness": {
      "average_trace_fitness": 0.9508486525330384,
      "log_fitness": 0.9160077081533656,
      "perc_fit_traces": 51.3,
      "percentage_of_fitting_traces": 51.3
    },
    "fitness_alignments": {
      "averageFitness": -1.526,
      "average_trace_fitness": -1.526,
      "percFitTraces": 51.3,
      "percentage_of_fitting_traces": 51.3
    },
    "fscore": 0.9551540825105368,
    "generalization": 0.9633393233248639,
    "metricsAverageWeight": 0.9415079146986863,
    "precision": 0.9977957384276267,
    "precision_alignments": 0.9977957384276267,
    "simplicity": 0.8888888888888888
  }
}