{
  "FULL": {
    "fitness": {
      "average_trace_fitness": 0.9414966872328028,
      "log_fitness": 0.9328931702565213,
      "perc_fit_traces": 40.7,
      "percentage_of_fitting_traces": 40.7
    },
    "fitness_alignments": {
      "averageFitness": 0.42675,
      "average_trace_fitness": 0.42675,
      "percFitTraces": 40.7,
      "percentage_of_fitting_traces": 40.7
    },
    "fscore": 0.9595901219713254,
    "generalization": 0.9718887793560438,
    "metricsAverageWeight": 0.9346989695177345,
    "precision": 0.9878600823045267,
    "precision_alignments": 0.9878600823045267,
    "simplicity": 0.8461538461538463
  }
}