{
  "FULL": {
    "fitness": {
      "average_trace_fitness": 1.0,
      "log_fitness": 1.0,
      "perc_fit_traces": 100.0,
      "percentage_of_fitting_traces": 100.0
    },
    "fitness_alignments": {
      "averageFitness": 1.0,
      "average_trace_fitness": 1.0,
      "percFitTraces": 100.0,
      "percentage_of_fitting_traces": 100.0
    },
    "fscore": 0.8720820446036138,
    "generalization": 0.907357471860735,
    "metricsAverageWeight": 0.8368006888288253,
    "precision": 0.7731786167878998,
    "precision_alignments": 0.7731786167878998,
    "simplicity": 0.6666666666666666
  }
}