{
  "FULL": {
    "fitness": {
      "average_trace_fitness": 1.0,
      "log_fitness": 1.0,
      "perc_fit_traces": 100.0,
      "percentage_of_fitting_traces": 100.0
    },
    "fitness_alignments": {
      "averageFitness": 1.0,
      "average_trace_fitness": 1.0,
      "percFitTraces": 100.0,
      "percentage_of_fitting_traces": 100.0
    },
    "fscore": 0.9983430832178001,
    "generalization": 0.9673715044433495,
    "metricsAverageWeight": 0.9410157881356838,
    "precision": 0.9966916480993856,
    "precision_alignments": 0.9966916480993856,
    "simplicity": 0.8
  }
}