{
  "FULL": {
    "fitness": {
      "average_trace_fitness": 1.0,
      "log_fitness": 1.0,
      "perc_fit_traces": 100.0,
      "percentage_of_fitting_traces": 100.0
    },
    "fitness_alignments": {
      "averageFitness": 1.0,
      "average_trace_fitness": 1.0,
      "percFitTraces": 100.0,
      "percentage_of_fitting_traces": 100.0
    },
    "fscore": 0.961160633072585,
    "generalization": 0.9024443237461012,
    "metricsAverageWeight": 0.8893498788360797,
    "precision": 0.9252254618684879,
    "precision_alignments": 0.9252254618684879,
    "simplicity": 0.7297297297297298
  }
}