{
  "FULL": {
    "fitness": {
      "average_trace_fitness": 1.0,
      "log_fitness": 1.0,
      "perc_fit_traces": 100.0,
      "percentage_of_fitting_traces": 100.0
    },
    "fitness_alignments": {
      "averageFitness": 1.0,
      "average_trace_fitness": 1.0,
      "percFitTraces": 100.0,
      "percentage_of_fitting_traces": 100.0
    },
    "fscore": 0.9917125324223446,
    "generalization": 0.9571050666025802,
    "metricsAverageWeight": 0.9270270567763356,
    "precision": 0.9835613000376459,
    "precision_alignments": 0.9835613000376459,
    "simplicity": 0.7674418604651162
  }
}