{
  "easy_soundness": true,
  "filename": "/mnt/c/Users/s140511/tue/thesis/thesis_data/process_trees_complex_ws/predictions/1644_gcn_ep100b_cc.json",
  "full": {
    "fitness": {
      "average_trace_fitness": 0.922648965848976,
      "log_fitness": 0.8885929871282734,
      "perc_fit_traces": 49.0,
      "percentage_of_fitting_traces": 49.0
    },
    "fitness_alignments": {
      "averageFitness": -1.008,
      "average_trace_fitness": -1.008,
      "percFitTraces": 49.0,
      "percentage_of_fitting_traces": 49.0
    },
    "fscore": 0.9410105757931845,
    "generalization": 0.9707140935153259,
    "metricsAverageWeight": 0.8933981987323284,
    "precision": 1.0,
    "precision_alignments": 1.0,
    "simplicity": 0.7142857142857143
  },
  "sound": false,
  "top 10": {
    "fitness": {
      "average_trace_fitness": 0.922648965848976,
      "log_fitness": 0.8885929871282734,
      "perc_fit_traces": 49.0,
      "percentage_of_fitting_traces": 49.0
    },
    "fitness_alignments": {
      "averageFitness": -1.008,
      "average_trace_fitness": -1.008,
      "percFitTraces": 49.0,
      "percentage_of_fitting_traces": 49.0
    },
    "fscore": 0.9410105757931845,
    "generalization": 0.9707140935153259,
    "metricsAverageWeight": 0.8933981987323284,
    "precision": 1.0,
    "precision_alignments": 1.0,
    "simplicity": 0.7142857142857143
  }
}