{
  "easy_soundness": true,
  "filename": "/mnt/c/Users/s140511/tue/thesis/thesis_data/process_trees_complex_ws/predictions/1648_gcn_ep100b_cc.json",
  "full": {
    "fitness": {
      "average_trace_fitness": 1.0,
      "log_fitness": 1.0,
      "perc_fit_traces": 100.0,
      "percentage_of_fitting_traces": 100.0
    },
    "fitness_alignments": {
      "averageFitness": 1.0,
      "average_trace_fitness": 1.0,
      "percFitTraces": 100.0,
      "percentage_of_fitting_traces": 100.0
    },
    "fscore": 0.9930780141843972,
    "generalization": 0.9704770994403971,
    "metricsAverageWeight": 0.953467788492182,
    "precision": 0.9862511973854736,
    "precision_alignments": 0.9862511973854736,
    "simplicity": 0.8571428571428572
  },
  "sound": true,
  "top 30": {
    "fitness": {
      "average_trace_fitness": 1.0,
      "log_fitness": 1.0,
      "perc_fit_traces": 100.0,
      "percentage_of_fitting_traces": 100.0
    },
    "fitness_alignments": {
      "averageFitness": 1.0,
      "average_trace_fitness": 1.0,
      "percFitTraces": 100.0,
      "percentage_of_fitting_traces": 100.0
    },
    "fscore": 0.9930780141843972,
    "generalization": 0.9704770994403971,
    "metricsAverageWeight": 0.953467788492182,
    "precision": 0.9862511973854736,
    "precision_alignments": 0.9862511973854736,
    "simplicity": 0.8571428571428572
  }
}