{
  "FULL": {
    "fitness": {
      "average_trace_fitness": 1.0,
      "log_fitness": 1.0,
      "perc_fit_traces": 100.0,
      "percentage_of_fitting_traces": 100.0
    },
    "fitness_alignments": {
      "averageFitness": 1.0,
      "average_trace_fitness": 1.0,
      "percFitTraces": 100.0,
      "percentage_of_fitting_traces": 100.0
    },
    "fscore": 0.9974572679757028,
    "generalization": 0.9187023352958354,
    "metricsAverageWeight": 0.900629664577955,
    "precision": 0.9949274341270959,
    "precision_alignments": 0.9949274341270959,
    "simplicity": 0.6888888888888889
  }
}