{
  "FULL": {
    "fitness": {
      "average_trace_fitness": 0.9954992923742929,
      "log_fitness": 0.9892647074487673,
      "perc_fit_traces": 98.2,
      "percentage_of_fitting_traces": 98.2
    },
    "fitness_alignments": {
      "averageFitness": 0.964,
      "average_trace_fitness": 0.964,
      "percFitTraces": 98.2,
      "percentage_of_fitting_traces": 98.2
    },
    "fscore": 0.9923493323581863,
    "generalization": 0.9029764658812651,
    "metricsAverageWeight": 0.8902909537126021,
    "precision": 0.9954532537652743,
    "precision_alignments": 0.9954532537652743,
    "simplicity": 0.673469387755102
  }
}