{
  "FULL": {
    "fitness": {
      "average_trace_fitness": 0.9964764221385551,
      "log_fitness": 0.9948598702729164,
      "perc_fit_traces": 91.6,
      "percentage_of_fitting_traces": 91.6
    },
    "fitness_alignments": {
      "averageFitness": 0.916,
      "average_trace_fitness": 0.916,
      "percFitTraces": 91.6,
      "percentage_of_fitting_traces": 91.6
    },
    "fscore": 0.623167406611918,
    "generalization": 0.9518813047925497,
    "metricsAverageWeight": 0.7786743042893663,
    "precision": 0.4536703278062847,
    "precision_alignments": 0.4536703278062847,
    "simplicity": 0.7142857142857143
  }
}