{
  "FULL": {
    "fitness": {
      "average_trace_fitness": 0.9873462111859639,
      "log_fitness": 0.9714030384271671,
      "perc_fit_traces": 83.7,
      "percentage_of_fitting_traces": 83.7
    },
    "fitness_alignments": {
      "averageFitness": 0.8775,
      "average_trace_fitness": 0.8775,
      "percFitTraces": 83.7,
      "percentage_of_fitting_traces": 83.7
    },
    "fscore": 0.9648026751356787,
    "generalization": 0.9561405986624287,
    "metricsAverageWeight": 0.9114587595463561,
    "precision": 0.9582914010958291,
    "precision_alignments": 0.9582914010958291,
    "simplicity": 0.7599999999999999
  }
}