{
  "FULL": {
    "fitness": {
      "average_trace_fitness": 1.0,
      "log_fitness": 1.0,
      "perc_fit_traces": 100.0,
      "percentage_of_fitting_traces": 100.0
    },
    "fitness_alignments": {
      "averageFitness": 1.0,
      "average_trace_fitness": 1.0,
      "percFitTraces": 100.0,
      "percentage_of_fitting_traces": 100.0
    },
    "fscore": 0.9434321682955109,
    "generalization": 0.9586256026827713,
    "metricsAverageWeight": 0.9028867839896549,
    "precision": 0.8929215332758486,
    "precision_alignments": 0.8929215332758486,
    "simplicity": 0.7599999999999999
  }
}