{
  "FULL": {
    "fitness": {
      "average_trace_fitness": 0.9433153083883884,
      "log_fitness": 0.9075568830285812,
      "perc_fit_traces": 56.7,
      "percentage_of_fitting_traces": 56.7
    },
    "fitness_alignments": {
      "averageFitness": 0.036,
      "average_trace_fitness": 0.036,
      "percFitTraces": 56.7,
      "percentage_of_fitting_traces": 56.7
    },
    "fscore": 0.9092006434138707,
    "generalization": 0.9589784996342986,
    "metricsAverageWeight": 0.8833708281438064,
    "precision": 0.9108503689367364,
    "precision_alignments": 0.9108503689367364,
    "simplicity": 0.7560975609756097
  }
}