{
  "FULL": {
    "fitness": {
      "average_trace_fitness": 1.0,
      "log_fitness": 1.0,
      "perc_fit_traces": 100.0,
      "percentage_of_fitting_traces": 100.0
    },
    "fitness_alignments": {
      "averageFitness": 1.0,
      "average_trace_fitness": 1.0,
      "percFitTraces": 100.0,
      "percentage_of_fitting_traces": 100.0
    },
    "fscore": 0.9998779743746187,
    "generalization": 0.9294893948266666,
    "metricsAverageWeight": 0.9045335655604165,
    "precision": 0.9997559785261103,
    "precision_alignments": 0.9997559785261103,
    "simplicity": 0.6888888888888889
  }
}