{
  "easy_soundness": false,
  "filename": "/mnt/c/Users/s140511/tue/thesis/thesis_data/process_trees_complex_ws/predictions/1656_gcn_ep100b_cc.json",
  "full": {
    "fitness": {
      "average_trace_fitness": 0.823538014763024,
      "log_fitness": 0.8517024901238444,
      "perc_fit_traces": 0.0,
      "percentage_of_fitting_traces": 0.0
    },
    "fscore": 0.8130767910448533,
    "generalization": 0.875029856433177,
    "metricsAverageWeight": 0.7386337218075192,
    "precision": 0.7778025406730555,
    "simplicity": 0.44999999999999996
  },
  "sound": false,
  "top 14": {
    "fitness": {
      "average_trace_fitness": 0.823538014763024,
      "log_fitness": 0.8517024901238444,
      "perc_fit_traces": 0.0,
      "percentage_of_fitting_traces": 0.0
    },
    "fscore": 0.8130767910448533,
    "generalization": 0.875029856433177,
    "metricsAverageWeight": 0.7386337218075192,
    "precision": 0.7778025406730555,
    "simplicity": 0.44999999999999996
  }
}