{
  "FULL": {
    "fitness": {
      "average_trace_fitness": 0.9647522154558983,
      "log_fitness": 0.9508116884105204,
      "perc_fit_traces": 58.6,
      "percentage_of_fitting_traces": 58.6
    },
    "fitness_alignments": {
      "averageFitness": -0.685,
      "average_trace_fitness": -0.685,
      "percFitTraces": 58.6,
      "percentage_of_fitting_traces": 58.6
    },
    "fscore": 0.973705226282993,
    "generalization": 0.9686015228311469,
    "metricsAverageWeight": 0.9575462773731103,
    "precision": 0.9977284199899041,
    "precision_alignments": 0.9977284199899041,
    "simplicity": 0.9130434782608695
  }
}