{
  "easy_soundness": false,
  "filename": "/mnt/c/Users/s140511/tue/thesis/thesis_data/process_trees_complex_ws/predictions/1657_gcn_ep100b_cc.json",
  "full": {
    "fitness": {
      "average_trace_fitness": 0.8297922491405187,
      "log_fitness": 0.8697943328615737,
      "perc_fit_traces": 0.0,
      "percentage_of_fitting_traces": 0.0
    },
    "fscore": 0.9303636422198602,
    "generalization": 0.7098436852123603,
    "metricsAverageWeight": 0.743394353003332,
    "precision": 1.0,
    "simplicity": 0.393939393939394
  },
  "sound": false,
  "top 33": {
    "fitness": {
      "average_trace_fitness": 0.8297922491405187,
      "log_fitness": 0.8697943328615737,
      "perc_fit_traces": 0.0,
      "percentage_of_fitting_traces": 0.0
    },
    "fscore": 0.9303636422198602,
    "generalization": 0.7098436852123603,
    "metricsAverageWeight": 0.743394353003332,
    "precision": 1.0,
    "simplicity": 0.393939393939394
  }
}