{
  "FULL": {
    "fitness": {
      "average_trace_fitness": 1.0,
      "log_fitness": 1.0,
      "perc_fit_traces": 100.0,
      "percentage_of_fitting_traces": 100.0
    },
    "fitness_alignments": {
      "averageFitness": 1.0,
      "average_trace_fitness": 1.0,
      "percFitTraces": 100.0,
      "percentage_of_fitting_traces": 100.0
    },
    "fscore": 0.9472407519708914,
    "generalization": 0.9688584875102211,
    "metricsAverageWeight": 0.9004903515242526,
    "precision": 0.8997695852534562,
    "precision_alignments": 0.8997695852534562,
    "simplicity": 0.7333333333333333
  }
}