{
  "easy_soundness": true,
  "filename": "/mnt/c/Users/s140511/tue/thesis/thesis_data/process_trees_complex_ws/predictions/1666_gcn_ep100b_cc.json",
  "full": {
    "fitness": {
      "average_trace_fitness": 1.0,
      "log_fitness": 1.0,
      "perc_fit_traces": 100.0,
      "percentage_of_fitting_traces": 100.0
    },
    "fitness_alignments": {
      "averageFitness": 1.0,
      "average_trace_fitness": 1.0,
      "percFitTraces": 100.0,
      "percentage_of_fitting_traces": 100.0
    },
    "fscore": 0.9993577392421323,
    "generalization": 0.9486218700076592,
    "metricsAverageWeight": 0.9413799977854951,
    "precision": 0.9987163029525032,
    "precision_alignments": 0.9987163029525032,
    "simplicity": 0.8181818181818181
  },
  "sound": true,
  "top 20": {
    "fitness": {
      "average_trace_fitness": 1.0,
      "log_fitness": 1.0,
      "perc_fit_traces": 100.0,
      "percentage_of_fitting_traces": 100.0
    },
    "fitness_alignments": {
      "averageFitness": 1.0,
      "average_trace_fitness": 1.0,
      "percFitTraces": 100.0,
      "percentage_of_fitting_traces": 100.0
    },
    "fscore": 0.9993577392421323,
    "generalization": 0.9486218700076592,
    "metricsAverageWeight": 0.9413799977854951,
    "precision": 0.9987163029525032,
    "precision_alignments": 0.9987163029525032,
    "simplicity": 0.8181818181818181
  }
}