{
  "easy_soundness": true,
  "filename": "/mnt/c/Users/s140511/tue/thesis/thesis_data/process_trees_complex_ws/predictions/1671_gcn_ep100b_cc.json",
  "full": {
    "fitness": {
      "average_trace_fitness": 1.0,
      "log_fitness": 1.0,
      "perc_fit_traces": 100.0,
      "percentage_of_fitting_traces": 100.0
    },
    "fitness_alignments": {
      "averageFitness": 1.0,
      "average_trace_fitness": 1.0,
      "percFitTraces": 100.0,
      "percentage_of_fitting_traces": 100.0
    },
    "fscore": 0.9656058659006729,
    "generalization": 0.9582014652757166,
    "metricsAverageWeight": 0.9274705650912178,
    "precision": 0.9334989769073371,
    "precision_alignments": 0.9334989769073371,
    "simplicity": 0.8181818181818181
  },
  "sound": true,
  "top 30": {
    "fitness": {
      "average_trace_fitness": 1.0,
      "log_fitness": 1.0,
      "perc_fit_traces": 100.0,
      "percentage_of_fitting_traces": 100.0
    },
    "fitness_alignments": {
      "averageFitness": 1.0,
      "average_trace_fitness": 1.0,
      "percFitTraces": 100.0,
      "percentage_of_fitting_traces": 100.0
    },
    "fscore": 0.9656058659006729,
    "generalization": 0.9582014652757166,
    "metricsAverageWeight": 0.9274705650912178,
    "precision": 0.9334989769073371,
    "precision_alignments": 0.9334989769073371,
    "simplicity": 0.8181818181818181
  }
}