{
  "easy_soundness": false,
  "filename": "/mnt/c/Users/s140511/tue/thesis/thesis_data/process_trees_complex_ws/predictions/1672_gcn_ep100b_cc.json",
  "full": {
    "fitness": {
      "average_trace_fitness": 0.768701856468786,
      "log_fitness": 0.7517875383043923,
      "perc_fit_traces": 0.0,
      "percentage_of_fitting_traces": 0.0
    },
    "fscore": 0.8583090379008746,
    "generalization": 0.9703816896175251,
    "metricsAverageWeight": 0.9305423069804794,
    "precision": 1.0,
    "simplicity": 1.0
  },
  "sound": false,
  "top 9": {
    "fitness": {
      "average_trace_fitness": 0.768701856468786,
      "log_fitness": 0.7517875383043923,
      "perc_fit_traces": 0.0,
      "percentage_of_fitting_traces": 0.0
    },
    "fscore": 0.8583090379008746,
    "generalization": 0.9703816896175251,
    "metricsAverageWeight": 0.9305423069804794,
    "precision": 1.0,
    "simplicity": 1.0
  }
}