{
  "FULL": {
    "fitness": {
      "average_trace_fitness": 1.0,
      "log_fitness": 1.0,
      "perc_fit_traces": 100.0,
      "percentage_of_fitting_traces": 100.0
    },
    "fitness_alignments": {
      "averageFitness": 1.0,
      "average_trace_fitness": 1.0,
      "percFitTraces": 100.0,
      "percentage_of_fitting_traces": 100.0
    },
    "fscore": 0.9999242539009241,
    "generalization": 0.9545062798787012,
    "metricsAverageWeight": 0.9285886997886558,
    "precision": 0.9998485192759221,
    "precision_alignments": 0.9998485192759221,
    "simplicity": 0.7599999999999999
  }
}