{
  "FULL": {
    "fitness": {
      "average_trace_fitness": 1.0,
      "log_fitness": 1.0,
      "perc_fit_traces": 100.0,
      "percentage_of_fitting_traces": 100.0
    },
    "fitness_alignments": {
      "averageFitness": 1.0,
      "average_trace_fitness": 1.0,
      "percFitTraces": 100.0,
      "percentage_of_fitting_traces": 100.0
    },
    "fscore": 0.9973703586830756,
    "generalization": 0.9723604532832412,
    "metricsAverageWeight": 0.9584454077675861,
    "precision": 0.9947545111204364,
    "precision_alignments": 0.9947545111204364,
    "simplicity": 0.8666666666666667
  }
}