{
  "FULL": {
    "fitness": {
      "average_trace_fitness": 1.0,
      "log_fitness": 1.0,
      "perc_fit_traces": 100.0,
      "percentage_of_fitting_traces": 100.0
    },
    "fitness_alignments": {
      "averageFitness": 1.0,
      "average_trace_fitness": 1.0,
      "percFitTraces": 100.0,
      "percentage_of_fitting_traces": 100.0
    },
    "fscore": 0.9442571947109152,
    "generalization": 0.9662618216712098,
    "metricsAverageWeight": 0.8937370804528852,
    "precision": 0.8944007858546169,
    "precision_alignments": 0.8944007858546169,
    "simplicity": 0.7142857142857143
  }
}