{
  "FULL": {
    "fitness": {
      "average_trace_fitness": 0.8862196744459685,
      "log_fitness": 0.834113436123348,
      "perc_fit_traces": 54.8,
      "percentage_of_fitting_traces": 54.8
    },
    "fitness_alignments": {
      "averageFitness": -1.612,
      "average_trace_fitness": -1.612,
      "percFitTraces": 54.8,
      "percentage_of_fitting_traces": 54.8
    },
    "fscore": 0.9095549050514148,
    "generalization": 0.9572459711706928,
    "metricsAverageWeight": 0.9023853063689646,
    "precision": 1.0,
    "precision_alignments": 1.0,
    "simplicity": 0.8181818181818181
  }
}