{
  "FULL": {
    "fitness": {
      "average_trace_fitness": 1.0,
      "log_fitness": 1.0,
      "perc_fit_traces": 100.0,
      "percentage_of_fitting_traces": 100.0
    },
    "fitness_alignments": {
      "averageFitness": 1.0,
      "average_trace_fitness": 1.0,
      "percFitTraces": 100.0,
      "percentage_of_fitting_traces": 100.0
    },
    "fscore": 0.9879721460223676,
    "generalization": 0.9514112138566035,
    "metricsAverageWeight": 0.9166929601164335,
    "precision": 0.9762301918265222,
    "precision_alignments": 0.9762301918265222,
    "simplicity": 0.7391304347826086
  }
}