{
  "FULL": {
    "fitness": {
      "average_trace_fitness": 1.0,
      "log_fitness": 1.0,
      "perc_fit_traces": 100.0,
      "percentage_of_fitting_traces": 100.0
    },
    "fitness_alignments": {
      "averageFitness": 1.0,
      "average_trace_fitness": 1.0,
      "percFitTraces": 100.0,
      "percentage_of_fitting_traces": 100.0
    },
    "fscore": 0.9648881914476265,
    "generalization": 0.9458419539271654,
    "metricsAverageWeight": 0.8980715228898696,
    "precision": 0.9321584233465985,
    "precision_alignments": 0.9321584233465985,
    "simplicity": 0.7142857142857143
  }
}