{
  "FULL": {
    "fitness": {
      "average_trace_fitness": 1.0,
      "log_fitness": 1.0,
      "perc_fit_traces": 100.0,
      "percentage_of_fitting_traces": 100.0
    },
    "fitness_alignments": {
      "averageFitness": 1.0,
      "average_trace_fitness": 1.0,
      "percFitTraces": 100.0,
      "percentage_of_fitting_traces": 100.0
    },
    "fscore": 0.9970526921141543,
    "generalization": 0.9662084598408922,
    "metricsAverageWeight": 0.9606710268598453,
    "precision": 0.9941227064220184,
    "precision_alignments": 0.9941227064220184,
    "simplicity": 0.8823529411764706
  }
}