{
  "FULL": {
    "fitness": {
      "average_trace_fitness": 1.0,
      "log_fitness": 1.0,
      "perc_fit_traces": 100.0,
      "percentage_of_fitting_traces": 100.0
    },
    "fitness_alignments": {
      "averageFitness": 1.0,
      "average_trace_fitness": 1.0,
      "percFitTraces": 100.0,
      "percentage_of_fitting_traces": 100.0
    },
    "fscore": 0.9494903737259343,
    "generalization": 0.939815343101742,
    "metricsAverageWeight": 0.896810736959633,
    "precision": 0.9038378611470461,
    "precision_alignments": 0.9038378611470461,
    "simplicity": 0.7435897435897437
  }
}