{
  "FULL": {
    "fitness": {
      "average_trace_fitness": 1.0,
      "log_fitness": 1.0,
      "perc_fit_traces": 100.0,
      "percentage_of_fitting_traces": 100.0
    },
    "fitness_alignments": {
      "averageFitness": 1.0,
      "average_trace_fitness": 1.0,
      "percFitTraces": 100.0,
      "percentage_of_fitting_traces": 100.0
    },
    "fscore": 0.7479176201372997,
    "generalization": 0.9466338295361928,
    "metricsAverageWeight": 0.8234932040760579,
    "precision": 0.5973389867680385,
    "precision_alignments": 0.5973389867680385,
    "simplicity": 0.7499999999999999
  }
}