{
  "FULL": {
    "fitness": {
      "average_trace_fitness": 1.0,
      "log_fitness": 1.0,
      "perc_fit_traces": 100.0,
      "percentage_of_fitting_traces": 100.0
    },
    "fitness_alignments": {
      "averageFitness": 1.0,
      "average_trace_fitness": 1.0,
      "percFitTraces": 100.0,
      "percentage_of_fitting_traces": 100.0
    },
    "fscore": 0.9991198867332491,
    "generalization": 0.9611592674235135,
    "metricsAverageWeight": 0.9342945916260608,
    "precision": 0.9982413213029515,
    "precision_alignments": 0.9982413213029515,
    "simplicity": 0.7777777777777779
  }
}