{
  "FULL": {
    "fitness": {
      "average_trace_fitness": 1.0,
      "log_fitness": 1.0,
      "perc_fit_traces": 100.0,
      "percentage_of_fitting_traces": 100.0
    },
    "fitness_alignments": {
      "averageFitness": 1.0,
      "average_trace_fitness": 1.0,
      "percFitTraces": 100.0,
      "percentage_of_fitting_traces": 100.0
    },
    "fscore": 0.9850282339532715,
    "generalization": 0.9704354270951397,
    "metricsAverageWeight": 0.9558216326967307,
    "precision": 0.9704981625153124,
    "precision_alignments": 0.9704981625153124,
    "simplicity": 0.8823529411764706
  }
}