{
  "easy_soundness": false,
  "filename": "/mnt/c/Users/s140511/tue/thesis/thesis_data/process_trees_complex_ws/predictions/1704_gcn_ep100b_cc.json",
  "full": {
    "fitness": {
      "average_trace_fitness": 0.6477979477676931,
      "log_fitness": 0.6227738467841566,
      "perc_fit_traces": 0.0,
      "percentage_of_fitting_traces": 0.0
    },
    "fscore": 0.5671964444331442,
    "generalization": 0.7909184108943351,
    "metricsAverageWeight": 0.5954466619525545,
    "precision": 0.5207259690790949,
    "simplicity": 0.4473684210526316
  },
  "sound": false,
  "top 14": {
    "fitness": {
      "average_trace_fitness": 0.6477979477676931,
      "log_fitness": 0.6227738467841566,
      "perc_fit_traces": 0.0,
      "percentage_of_fitting_traces": 0.0
    },
    "fscore": 0.5671964444331442,
    "generalization": 0.7909184108943351,
    "metricsAverageWeight": 0.5954466619525545,
    "precision": 0.5207259690790949,
    "simplicity": 0.4473684210526316
  }
}