{
  "easy_soundness": false,
  "filename": "/mnt/c/Users/s140511/tue/thesis/thesis_data/process_trees_complex_ws/predictions/1705_gcn_ep100b_cc.json",
  "full": {
    "fitness": {
      "average_trace_fitness": 0.7687717506730467,
      "log_fitness": 0.7514627321292292,
      "perc_fit_traces": 0.0,
      "percentage_of_fitting_traces": 0.0
    },
    "fscore": 0.8580973129992737,
    "generalization": 0.9680784964037353,
    "metricsAverageWeight": 0.8416500130155941,
    "precision": 1.0,
    "simplicity": 0.6470588235294118
  },
  "sound": false,
  "top 30": {
    "fitness": {
      "average_trace_fitness": 0.7687717506730467,
      "log_fitness": 0.7514627321292292,
      "perc_fit_traces": 0.0,
      "percentage_of_fitting_traces": 0.0
    },
    "fscore": 0.8580973129992737,
    "generalization": 0.9680784964037353,
    "metricsAverageWeight": 0.8416500130155941,
    "precision": 1.0,
    "simplicity": 0.6470588235294118
  }
}