{
  "FULL": {
    "fitness": {
      "average_trace_fitness": 1.0,
      "log_fitness": 1.0,
      "perc_fit_traces": 100.0,
      "percentage_of_fitting_traces": 100.0
    },
    "fitness_alignments": {
      "averageFitness": 1.0,
      "average_trace_fitness": 1.0,
      "percFitTraces": 100.0,
      "percentage_of_fitting_traces": 100.0
    },
    "fscore": 0.9989072033512431,
    "generalization": 0.9556264725323967,
    "metricsAverageWeight": 0.9357292373118111,
    "precision": 0.997816792504321,
    "precision_alignments": 0.997816792504321,
    "simplicity": 0.7894736842105263
  }
}