{
  "easy_soundness": true,
  "filename": "/mnt/c/Users/s140511/tue/thesis/thesis_data/process_trees_complex_ws/predictions/1711_gcn_ep100b_cc.json",
  "full": {
    "fitness": {
      "average_trace_fitness": 1.0,
      "log_fitness": 1.0,
      "perc_fit_traces": 100.0,
      "percentage_of_fitting_traces": 100.0
    },
    "fitness_alignments": {
      "averageFitness": 1.0,
      "average_trace_fitness": 1.0,
      "percFitTraces": 100.0,
      "percentage_of_fitting_traces": 100.0
    },
    "fscore": 0.9913600325269364,
    "generalization": 0.959152657778247,
    "metricsAverageWeight": 0.9371180887325469,
    "precision": 0.9828680842487151,
    "precision_alignments": 0.9828680842487151,
    "simplicity": 0.8064516129032256
  },
  "sound": true,
  "top 30": {
    "fitness": {
      "average_trace_fitness": 1.0,
      "log_fitness": 1.0,
      "perc_fit_traces": 100.0,
      "percentage_of_fitting_traces": 100.0
    },
    "fitness_alignments": {
      "averageFitness": 1.0,
      "average_trace_fitness": 1.0,
      "percFitTraces": 100.0,
      "percentage_of_fitting_traces": 100.0
    },
    "fscore": 0.9913600325269364,
    "generalization": 0.959152657778247,
    "metricsAverageWeight": 0.9371180887325469,
    "precision": 0.9828680842487151,
    "precision_alignments": 0.9828680842487151,
    "simplicity": 0.8064516129032256
  }
}