{
  "FULL": {
    "fitness": {
      "average_trace_fitness": 1.0,
      "log_fitness": 1.0,
      "perc_fit_traces": 100.0,
      "percentage_of_fitting_traces": 100.0
    },
    "fitness_alignments": {
      "averageFitness": 1.0,
      "average_trace_fitness": 1.0,
      "percFitTraces": 100.0,
      "percentage_of_fitting_traces": 100.0
    },
    "fscore": 0.9998778998778999,
    "generalization": 0.9324503033600495,
    "metricsAverageWeight": 0.9052737554544945,
    "precision": 0.9997558295690392,
    "precision_alignments": 0.9997558295690392,
    "simplicity": 0.6888888888888889
  }
}