{
  "FULL": {
    "fitness": {
      "average_trace_fitness": 1.0,
      "log_fitness": 1.0,
      "perc_fit_traces": 100.0,
      "percentage_of_fitting_traces": 100.0
    },
    "fitness_alignments": {
      "averageFitness": 1.0,
      "average_trace_fitness": 1.0,
      "percFitTraces": 100.0,
      "percentage_of_fitting_traces": 100.0
    },
    "fscore": 0.9997191123951688,
    "generalization": 0.9664589838563316,
    "metricsAverageWeight": 0.9460197961449675,
    "precision": 0.9994383825417201,
    "precision_alignments": 0.9994383825417201,
    "simplicity": 0.8181818181818181
  }
}