{
  "FULL": {
    "fitness": {
      "average_trace_fitness": 0.9556854461546648,
      "log_fitness": 0.9215502714847407,
      "perc_fit_traces": 72.5,
      "percentage_of_fitting_traces": 72.5
    },
    "fitness_alignments": {
      "averageFitness": 0.6495,
      "average_trace_fitness": 0.6495,
      "percFitTraces": 72.5,
      "percentage_of_fitting_traces": 72.5
    },
    "fscore": 0.9585700874030191,
    "generalization": 0.9456334906484304,
    "metricsAverageWeight": 0.9012507110873189,
    "precision": 0.9986886474334957,
    "precision_alignments": 0.9986886474334957,
    "simplicity": 0.7391304347826086
  }
}