{
  "FULL": {
    "fitness": {
      "average_trace_fitness": 1.0,
      "log_fitness": 1.0,
      "perc_fit_traces": 100.0,
      "percentage_of_fitting_traces": 100.0
    },
    "fitness_alignments": {
      "averageFitness": 1.0,
      "average_trace_fitness": 1.0,
      "percFitTraces": 100.0,
      "percentage_of_fitting_traces": 100.0
    },
    "fscore": 0.9819826235578978,
    "generalization": 0.9733401256835389,
    "metricsAverageWeight": 0.9219857834320775,
    "precision": 0.964603008044771,
    "precision_alignments": 0.964603008044771,
    "simplicity": 0.7499999999999999
  }
}