{
  "FULL": {
    "fitness": {
      "average_trace_fitness": 1.0,
      "log_fitness": 1.0,
      "perc_fit_traces": 100.0,
      "percentage_of_fitting_traces": 100.0
    },
    "fitness_alignments": {
      "averageFitness": 1.0,
      "average_trace_fitness": 1.0,
      "percFitTraces": 100.0,
      "percentage_of_fitting_traces": 100.0
    },
    "fscore": 0.9858748918996829,
    "generalization": 0.9707949849315941,
    "metricsAverageWeight": 0.9524012287039996,
    "precision": 0.9721432632177374,
    "precision_alignments": 0.9721432632177374,
    "simplicity": 0.8666666666666667
  }
}