{
  "FULL": {
    "fitness": {
      "average_trace_fitness": 0.9871431388574081,
      "log_fitness": 0.9644342187418601,
      "perc_fit_traces": 78.9,
      "percentage_of_fitting_traces": 78.9
    },
    "fitness_alignments": {
      "averageFitness": 0.196,
      "average_trace_fitness": 0.196,
      "percFitTraces": 78.9,
      "percentage_of_fitting_traces": 78.9
    },
    "fscore": 0.8988623720241572,
    "generalization": 0.950746901669422,
    "metricsAverageWeight": 0.8746889871361362,
    "precision": 0.8416393442622951,
    "precision_alignments": 0.8416393442622951,
    "simplicity": 0.7419354838709676
  }
}