{
  "FULL": {
    "fitness": {
      "average_trace_fitness": 0.9999546798085174,
      "log_fitness": 0.9997751882094186,
      "perc_fit_traces": 99.6,
      "percentage_of_fitting_traces": 99.6
    },
    "fitness_alignments": {
      "averageFitness": 0.99725,
      "average_trace_fitness": 0.99725,
      "percFitTraces": 99.6,
      "percentage_of_fitting_traces": 99.6
    },
    "fscore": 0.9622217065562544,
    "generalization": 0.9738036192047773,
    "metricsAverageWeight": 0.923517377695363,
    "precision": 0.9273872550913939,
    "precision_alignments": 0.9273872550913939,
    "simplicity": 0.7931034482758622
  }
}