{
  "FULL": {
    "fitness": {
      "average_trace_fitness": 0.8837117337549507,
      "log_fitness": 0.9342410659190027,
      "perc_fit_traces": 10.2,
      "percentage_of_fitting_traces": 10.2
    },
    "fitness_alignments": {
      "averageFitness": -0.08849999999999958,
      "average_trace_fitness": -0.08849999999999958,
      "percFitTraces": 10.2,
      "percentage_of_fitting_traces": 10.2
    },
    "fscore": 0.9353722473950495,
    "generalization": 0.9701704175797311,
    "metricsAverageWeight": 0.91261036612231,
    "precision": 0.9365061714666963,
    "precision_alignments": 0.9365061714666963,
    "simplicity": 0.8095238095238095
  }
}