{
  "easy_soundness": true,
  "filename": "/mnt/c/Users/s140511/tue/thesis/thesis_data/process_trees_complex_ws/predictions/1753_gcn_ep100b_cc.json",
  "full": {
    "fitness": {
      "average_trace_fitness": 0.9397951848160877,
      "log_fitness": 0.9335631879061133,
      "perc_fit_traces": 50.5,
      "percentage_of_fitting_traces": 50.5
    },
    "fitness_alignments": {
      "averageFitness": 0.87475,
      "average_trace_fitness": 0.87475,
      "percFitTraces": 50.5,
      "percentage_of_fitting_traces": 50.5
    },
    "fscore": 0.9656402167203896,
    "generalization": 0.9645437949323554,
    "metricsAverageWeight": 0.9451149810037348,
    "precision": 1.0,
    "precision_alignments": 1.0,
    "simplicity": 0.8823529411764706
  },
  "sound": true,
  "top 30": {
    "fitness": {
      "average_trace_fitness": 0.9397951848160877,
      "log_fitness": 0.9335631879061133,
      "perc_fit_traces": 50.5,
      "percentage_of_fitting_traces": 50.5
    },
    "fitness_alignments": {
      "averageFitness": 0.87475,
      "average_trace_fitness": 0.87475,
      "percFitTraces": 50.5,
      "percentage_of_fitting_traces": 50.5
    },
    "fscore": 0.9656402167203896,
    "generalization": 0.9645437949323554,
    "metricsAverageWeight": 0.9451149810037348,
    "precision": 1.0,
    "precision_alignments": 1.0,
    "simplicity": 0.8823529411764706
  }
}