{
  "FULL": {
    "fitness": {
      "average_trace_fitness": 0.9006749688994912,
      "log_fitness": 0.9116963351945462,
      "perc_fit_traces": 0.0,
      "percentage_of_fitting_traces": 0.0
    },
    "fitness_alignments": {
      "averageFitness": 0.3783999999999926,
      "average_trace_fitness": 0.3783999999999926,
      "percFitTraces": 0.0,
      "percentage_of_fitting_traces": 0.0
    },
    "fscore": 0.9218537959595716,
    "generalization": 0.7944016511059944,
    "metricsAverageWeight": 0.8381559603816904,
    "precision": 0.9322401409405069,
    "precision_alignments": 0.9322401409405069,
    "simplicity": 0.7142857142857143
  }
}