{
  "FULL": {
    "fitness": {
      "average_trace_fitness": 1.0,
      "log_fitness": 1.0,
      "perc_fit_traces": 100.0,
      "percentage_of_fitting_traces": 100.0
    },
    "fitness_alignments": {
      "averageFitness": 1.0,
      "average_trace_fitness": 1.0,
      "percFitTraces": 100.0,
      "percentage_of_fitting_traces": 100.0
    },
    "fscore": 0.9702327259606711,
    "generalization": 0.9388297419635171,
    "metricsAverageWeight": 0.8952540367522668,
    "precision": 0.9421864050455501,
    "precision_alignments": 0.9421864050455501,
    "simplicity": 0.7000000000000001
  }
}