{
  "FULL": {
    "fitness": {
      "average_trace_fitness": 1.0,
      "log_fitness": 1.0,
      "perc_fit_traces": 100.0,
      "percentage_of_fitting_traces": 100.0
    },
    "fitness_alignments": {
      "averageFitness": 1.0,
      "average_trace_fitness": 1.0,
      "percFitTraces": 100.0,
      "percentage_of_fitting_traces": 100.0
    },
    "fscore": 0.7444481272787538,
    "generalization": 0.9707895308524943,
    "metricsAverageWeight": 0.8284286393129123,
    "precision": 0.5929250263991552,
    "precision_alignments": 0.5929250263991552,
    "simplicity": 0.7499999999999999
  }
}