{
  "FULL": {
    "fitness": {
      "average_trace_fitness": 0.999990099009901,
      "log_fitness": 0.999904113529581,
      "perc_fit_traces": 99.9,
      "percentage_of_fitting_traces": 99.9
    },
    "fitness_alignments": {
      "averageFitness": 0.9995,
      "average_trace_fitness": 0.9995,
      "percFitTraces": 99.9,
      "percentage_of_fitting_traces": 99.9
    },
    "fscore": 0.9844798932805141,
    "generalization": 0.973701531523663,
    "metricsAverageWeight": 0.9473209485161816,
    "precision": 0.9695243028576362,
    "precision_alignments": 0.9695243028576362,
    "simplicity": 0.8461538461538463
  }
}