{
  "FULL": {
    "fitness": {
      "average_trace_fitness": 0.9169639377136731,
      "log_fitness": 0.9443032182329446,
      "perc_fit_traces": 19.2,
      "percentage_of_fitting_traces": 19.2
    },
    "fitness_alignments": {
      "averageFitness": 0.3465,
      "average_trace_fitness": 0.3465,
      "percFitTraces": 19.2,
      "percentage_of_fitting_traces": 19.2
    },
    "fscore": 0.9602377088907382,
    "generalization": 0.9712649653906436,
    "metricsAverageWeight": 0.9346103068712927,
    "precision": 0.9767191977077364,
    "precision_alignments": 0.9767191977077364,
    "simplicity": 0.8461538461538463
  }
}