{
  "easy_soundness": true,
  "filename": "/mnt/c/Users/s140511/tue/thesis/thesis_data/process_trees_complex_ws/predictions/1773_gcn_ep100b_cc.json",
  "full": {
    "fitness": {
      "average_trace_fitness": 1.0,
      "log_fitness": 1.0,
      "perc_fit_traces": 100.0,
      "percentage_of_fitting_traces": 100.0
    },
    "fitness_alignments": {
      "averageFitness": 1.0,
      "average_trace_fitness": 1.0,
      "percFitTraces": 100.0,
      "percentage_of_fitting_traces": 100.0
    },
    "fscore": 0.9996850393700788,
    "generalization": 0.9523168828023683,
    "metricsAverageWeight": 0.936197652039079,
    "precision": 0.9993702770780857,
    "precision_alignments": 0.9993702770780857,
    "simplicity": 0.7931034482758622
  },
  "sound": true,
  "top 18": {
    "fitness": {
      "average_trace_fitness": 1.0,
      "log_fitness": 1.0,
      "perc_fit_traces": 100.0,
      "percentage_of_fitting_traces": 100.0
    },
    "fitness_alignments": {
      "averageFitness": 1.0,
      "average_trace_fitness": 1.0,
      "percFitTraces": 100.0,
      "percentage_of_fitting_traces": 100.0
    },
    "fscore": 0.9996850393700788,
    "generalization": 0.9523168828023683,
    "metricsAverageWeight": 0.936197652039079,
    "precision": 0.9993702770780857,
    "precision_alignments": 0.9993702770780857,
    "simplicity": 0.7931034482758622
  }
}