{
  "FULL": {
    "fitness": {
      "average_trace_fitness": 1.0,
      "log_fitness": 1.0,
      "perc_fit_traces": 100.0,
      "percentage_of_fitting_traces": 100.0
    },
    "fitness_alignments": {
      "averageFitness": 1.0,
      "average_trace_fitness": 1.0,
      "percFitTraces": 100.0,
      "percentage_of_fitting_traces": 100.0
    },
    "fscore": 0.9524131274131274,
    "generalization": 0.9594817534781005,
    "metricsAverageWeight": 0.8995902567781854,
    "precision": 0.9091495439049111,
    "precision_alignments": 0.9091495439049111,
    "simplicity": 0.7297297297297298
  }
}