{
  "FULL": {
    "fitness": {
      "average_trace_fitness": 1.0,
      "log_fitness": 1.0,
      "perc_fit_traces": 100.0,
      "percentage_of_fitting_traces": 100.0
    },
    "fitness_alignments": {
      "averageFitness": 1.0,
      "average_trace_fitness": 1.0,
      "percFitTraces": 100.0,
      "percentage_of_fitting_traces": 100.0
    },
    "fscore": 0.9954641669186575,
    "generalization": 0.9603351173589947,
    "metricsAverageWeight": 0.9253261032410129,
    "precision": 0.9909692956050572,
    "precision_alignments": 0.9909692956050572,
    "simplicity": 0.7499999999999999
  }
}