{
  "FULL": {
    "fitness": {
      "average_trace_fitness": 1.0,
      "log_fitness": 1.0,
      "perc_fit_traces": 100.0,
      "percentage_of_fitting_traces": 100.0
    },
    "fitness_alignments": {
      "averageFitness": 1.0,
      "average_trace_fitness": 1.0,
      "percFitTraces": 100.0,
      "percentage_of_fitting_traces": 100.0
    },
    "fscore": 0.999662595316823,
    "generalization": 0.9475788090683429,
    "metricsAverageWeight": 0.9438689139701156,
    "precision": 0.9993254182406908,
    "precision_alignments": 0.9993254182406908,
    "simplicity": 0.8285714285714286
  }
}