{
  "FULL": {
    "fitness": {
      "average_trace_fitness": 0.8938392112809347,
      "log_fitness": 0.9111102725326169,
      "perc_fit_traces": 48.0,
      "percentage_of_fitting_traces": 48.0
    },
    "fitness_alignments": {
      "averageFitness": 0.925714285714288,
      "average_trace_fitness": 0.925714285714288,
      "percFitTraces": 48.0,
      "percentage_of_fitting_traces": 48.0
    },
    "fscore": 0.9522213161089506,
    "generalization": 0.966311895462263,
    "metricsAverageWeight": 0.9269932982429234,
    "precision": 0.9972176916434807,
    "precision_alignments": 0.9972176916434807,
    "simplicity": 0.8333333333333333
  }
}