{
  "FULL": {
    "fitness": {
      "average_trace_fitness": 1.0,
      "log_fitness": 1.0,
      "perc_fit_traces": 100.0,
      "percentage_of_fitting_traces": 100.0
    },
    "fitness_alignments": {
      "averageFitness": 1.0,
      "average_trace_fitness": 1.0,
      "percFitTraces": 100.0,
      "percentage_of_fitting_traces": 100.0
    },
    "fscore": 0.9985000749962502,
    "generalization": 0.9261739198174628,
    "metricsAverageWeight": 0.9018472722342266,
    "precision": 0.9970046428036543,
    "precision_alignments": 0.9970046428036543,
    "simplicity": 0.6842105263157894
  }
}