{
  "FULL": {
    "fitness": {
      "average_trace_fitness": 0.9999306930693068,
      "log_fitness": 0.9996037362015284,
      "perc_fit_traces": 99.3,
      "percentage_of_fitting_traces": 99.3
    },
    "fitness_alignments": {
      "averageFitness": 0.98,
      "average_trace_fitness": 0.98,
      "percFitTraces": 99.3,
      "percentage_of_fitting_traces": 99.3
    },
    "fscore": 0.9218622891870722,
    "generalization": 0.9722140195248183,
    "metricsAverageWeight": 0.8967895687699012,
    "precision": 0.8553405193532582,
    "precision_alignments": 0.8553405193532582,
    "simplicity": 0.7599999999999999
  }
}