{
  "FULL": {
    "fitness": {
      "average_trace_fitness": 1.0,
      "log_fitness": 1.0,
      "perc_fit_traces": 100.0,
      "percentage_of_fitting_traces": 100.0
    },
    "fitness_alignments": {
      "averageFitness": 1.0,
      "average_trace_fitness": 1.0,
      "percFitTraces": 100.0,
      "percentage_of_fitting_traces": 100.0
    },
    "fscore": 0.9973289122225293,
    "generalization": 0.9735651829568435,
    "metricsAverageWeight": 0.9626475449962166,
    "precision": 0.9946720558515525,
    "precision_alignments": 0.9946720558515525,
    "simplicity": 0.8823529411764706
  }
}