{
  "FULL": {
    "fitness": {
      "average_trace_fitness": 0.7407134758668356,
      "log_fitness": 0.830496271535099,
      "perc_fit_traces": 1.3,
      "percentage_of_fitting_traces": 1.3
    },
    "fitness_alignments": {
      "averageFitness": -0.338,
      "average_trace_fitness": -0.338,
      "percFitTraces": 1.3,
      "percentage_of_fitting_traces": 1.3
    },
    "fscore": 0.8963351916279639,
    "generalization": 0.9107984363218042,
    "metricsAverageWeight": 0.8760700742073335,
    "precision": 0.9735119047619047,
    "precision_alignments": 0.9735119047619047,
    "simplicity": 0.7894736842105263
  }
}