{
  "FULL": {
    "fitness": {
      "average_trace_fitness": 1.0,
      "log_fitness": 1.0,
      "perc_fit_traces": 100.0,
      "percentage_of_fitting_traces": 100.0
    },
    "fitness_alignments": {
      "averageFitness": 1.0,
      "average_trace_fitness": 1.0,
      "percFitTraces": 100.0,
      "percentage_of_fitting_traces": 100.0
    },
    "fscore": 0.9851891506067095,
    "generalization": 0.9577013392642741,
    "metricsAverageWeight": 0.9265724344389903,
    "precision": 0.9708106207139089,
    "precision_alignments": 0.9708106207139089,
    "simplicity": 0.7777777777777779
  }
}