{
  "FULL": {
    "fitness": {
      "average_trace_fitness": 1.0,
      "log_fitness": 1.0,
      "perc_fit_traces": 100.0,
      "percentage_of_fitting_traces": 100.0
    },
    "fitness_alignments": {
      "averageFitness": 1.0,
      "average_trace_fitness": 1.0,
      "percFitTraces": 100.0,
      "percentage_of_fitting_traces": 100.0
    },
    "fscore": 0.9997867045858514,
    "generalization": 0.9702750704586826,
    "metricsAverageWeight": 0.9707230122154297,
    "precision": 0.9995735001421666,
    "precision_alignments": 0.9995735001421666,
    "simplicity": 0.9130434782608695
  }
}