{
  "FULL": {
    "fitness": {
      "average_trace_fitness": 0.9544017857142846,
      "log_fitness": 0.9363837746056852,
      "perc_fit_traces": 77.0,
      "percentage_of_fitting_traces": 77.0
    },
    "fitness_alignments": {
      "averageFitness": 0.663,
      "average_trace_fitness": 0.663,
      "percFitTraces": 77.0,
      "percentage_of_fitting_traces": 77.0
    },
    "fscore": 0.951678428507311,
    "generalization": 0.8766246219947335,
    "metricsAverageWeight": 0.8879794962165575,
    "precision": 0.96748101683724,
    "precision_alignments": 0.96748101683724,
    "simplicity": 0.7714285714285715
  }
}