{
  "easy_soundness": true,
  "filename": "/mnt/c/Users/s140511/tue/thesis/thesis_data/process_trees_complex_ws/predictions/1823_gcn_ep100b_cc.json",
  "full": {
    "fitness": {
      "average_trace_fitness": 0.8196733034786255,
      "log_fitness": 0.8126235832694892,
      "perc_fit_traces": 0.0,
      "percentage_of_fitting_traces": 0.0
    },
    "fitness_alignments": {
      "averageFitness": 0.586,
      "average_trace_fitness": 0.586,
      "percFitTraces": 0.0,
      "percentage_of_fitting_traces": 0.0
    },
    "fscore": 0.8628689953539638,
    "generalization": 0.9617935192936286,
    "metricsAverageWeight": 0.8629325577923231,
    "precision": 0.9197373710304168,
    "precision_alignments": 0.9197373710304168,
    "simplicity": 0.7575757575757577
  },
  "sound": true,
  "top 30": {
    "fitness": {
      "average_trace_fitness": 0.8196733034786255,
      "log_fitness": 0.8126235832694892,
      "perc_fit_traces": 0.0,
      "percentage_of_fitting_traces": 0.0
    },
    "fitness_alignments": {
      "averageFitness": 0.586,
      "average_trace_fitness": 0.586,
      "percFitTraces": 0.0,
      "percentage_of_fitting_traces": 0.0
    },
    "fscore": 0.8628689953539638,
    "generalization": 0.9617935192936286,
    "metricsAverageWeight": 0.8629325577923231,
    "precision": 0.9197373710304168,
    "precision_alignments": 0.9197373710304168,
    "simplicity": 0.7575757575757577
  }
}