{
  "FULL": {
    "fitness": {
      "average_trace_fitness": 1.0,
      "log_fitness": 1.0,
      "perc_fit_traces": 100.0,
      "percentage_of_fitting_traces": 100.0
    },
    "fitness_alignments": {
      "averageFitness": 1.0,
      "average_trace_fitness": 1.0,
      "percFitTraces": 100.0,
      "percentage_of_fitting_traces": 100.0
    },
    "fscore": 0.9818632343325189,
    "generalization": 0.9593703705143588,
    "metricsAverageWeight": 0.9142690844259577,
    "precision": 0.9643726338561385,
    "precision_alignments": 0.9643726338561385,
    "simplicity": 0.7333333333333333
  }
}