{
  "easy_soundness": true,
  "filename": "/mnt/c/Users/s140511/tue/thesis/thesis_data/process_trees_complex_ws/predictions/1825_gcn_ep100b_cc.json",
  "full": {
    "fitness": {
      "average_trace_fitness": 0.9238540163540279,
      "log_fitness": 0.8895575615736098,
      "perc_fit_traces": 49.5,
      "percentage_of_fitting_traces": 49.5
    },
    "fitness_alignments": {
      "averageFitness": -0.982,
      "average_trace_fitness": -0.982,
      "percFitTraces": 49.5,
      "percentage_of_fitting_traces": 49.5
    },
    "fscore": 0.9415511648481274,
    "generalization": 0.9706443095379915,
    "metricsAverageWeight": 0.893621896349329,
    "precision": 1.0,
    "precision_alignments": 1.0,
    "simplicity": 0.7142857142857143
  },
  "sound": false,
  "top 10": {
    "fitness": {
      "average_trace_fitness": 0.9238540163540279,
      "log_fitness": 0.8895575615736098,
      "perc_fit_traces": 49.5,
      "percentage_of_fitting_traces": 49.5
    },
    "fitness_alignments": {
      "averageFitness": -0.982,
      "average_trace_fitness": -0.982,
      "percFitTraces": 49.5,
      "percentage_of_fitting_traces": 49.5
    },
    "fscore": 0.9415511648481274,
    "generalization": 0.9706443095379915,
    "metricsAverageWeight": 0.893621896349329,
    "precision": 1.0,
    "precision_alignments": 1.0,
    "simplicity": 0.7142857142857143
  }
}