{
  "FULL": {
    "fitness": {
      "average_trace_fitness": 1.0,
      "log_fitness": 1.0,
      "perc_fit_traces": 100.0,
      "percentage_of_fitting_traces": 100.0
    },
    "fitness_alignments": {
      "averageFitness": 1.0,
      "average_trace_fitness": 1.0,
      "percFitTraces": 100.0,
      "percentage_of_fitting_traces": 100.0
    },
    "fscore": 0.9859851607584501,
    "generalization": 0.9707974050767575,
    "metricsAverageWeight": 0.9594729926898141,
    "precision": 0.9723577235772358,
    "precision_alignments": 0.9723577235772358,
    "simplicity": 0.8947368421052632
  }
}