{
  "FULL": {
    "fitness": {
      "average_trace_fitness": 0.9062131844919813,
      "log_fitness": 0.924290622216567,
      "perc_fit_traces": 0.0,
      "percentage_of_fitting_traces": 0.0
    },
    "fitness_alignments": {
      "averageFitness": 0.25266666666666887,
      "average_trace_fitness": 0.25266666666666887,
      "percFitTraces": 0.0,
      "percentage_of_fitting_traces": 0.0
    },
    "fscore": 0.8640598273076219,
    "generalization": 0.9112125766363225,
    "metricsAverageWeight": 0.8402468783283955,
    "precision": 0.8111986001749781,
    "precision_alignments": 0.8111986001749781,
    "simplicity": 0.7142857142857143
  }
}