{
  "easy_soundness": false,
  "filename": "/mnt/c/Users/s140511/tue/thesis/thesis_data/process_trees_complex_ws/predictions/1835_gcn_ep100b_cc.json",
  "full": {
    "fitness": {
      "average_trace_fitness": 0.6996603887264197,
      "log_fitness": 0.7151586347341304,
      "perc_fit_traces": 0.0,
      "percentage_of_fitting_traces": 0.0
    },
    "fscore": 0.833111874838264,
    "generalization": 0.9563123681316622,
    "metricsAverageWeight": 0.8506157562662227,
    "precision": 0.9976586888657648,
    "simplicity": 0.7333333333333333
  },
  "sound": false,
  "top 30": {
    "fitness": {
      "average_trace_fitness": 0.6996603887264197,
      "log_fitness": 0.7151586347341304,
      "perc_fit_traces": 0.0,
      "percentage_of_fitting_traces": 0.0
    },
    "fscore": 0.833111874838264,
    "generalization": 0.9563123681316622,
    "metricsAverageWeight": 0.8506157562662227,
    "precision": 0.9976586888657648,
    "simplicity": 0.7333333333333333
  }
}