{
  "FULL": {
    "fitness": {
      "average_trace_fitness": 1.0,
      "log_fitness": 1.0,
      "perc_fit_traces": 100.0,
      "percentage_of_fitting_traces": 100.0
    },
    "fitness_alignments": {
      "averageFitness": 1.0,
      "average_trace_fitness": 1.0,
      "percFitTraces": 100.0,
      "percentage_of_fitting_traces": 100.0
    },
    "fscore": 0.9981441003010681,
    "generalization": 0.9558333472843642,
    "metricsAverageWeight": 0.936307968032161,
    "precision": 0.9962950765684175,
    "precision_alignments": 0.9962950765684175,
    "simplicity": 0.7931034482758622
  }
}