{
  "FULL": {
    "fitness": {
      "average_trace_fitness": 0.9998662908786191,
      "log_fitness": 0.9993885558820499,
      "perc_fit_traces": 98.7,
      "percentage_of_fitting_traces": 98.7
    },
    "fitness_alignments": {
      "averageFitness": 0.977,
      "average_trace_fitness": 0.977,
      "percFitTraces": 98.7,
      "percentage_of_fitting_traces": 98.7
    },
    "fscore": 0.5666791750096458,
    "generalization": 0.9693729802108078,
    "metricsAverageWeight": 0.7652969759713742,
    "precision": 0.39545667082294267,
    "precision_alignments": 0.39545667082294267,
    "simplicity": 0.6969696969696969
  }
}