{
  "FULL": {
    "fitness": {
      "average_trace_fitness": 0.9984050662183364,
      "log_fitness": 0.9965171715357771,
      "perc_fit_traces": 94.7,
      "percentage_of_fitting_traces": 94.7
    },
    "fitness_alignments": {
      "averageFitness": 0.826,
      "average_trace_fitness": 0.826,
      "percFitTraces": 94.7,
      "percentage_of_fitting_traces": 94.7
    },
    "fscore": 0.8953272922945622,
    "generalization": 0.9699174722818312,
    "metricsAverageWeight": 0.8733784338119107,
    "precision": 0.8127933771443202,
    "precision_alignments": 0.8127933771443202,
    "simplicity": 0.7142857142857143
  }
}