{
  "FULL": {
    "fitness": {
      "average_trace_fitness": 1.0,
      "log_fitness": 1.0,
      "perc_fit_traces": 100.0,
      "percentage_of_fitting_traces": 100.0
    },
    "fitness_alignments": {
      "averageFitness": 1.0,
      "average_trace_fitness": 1.0,
      "percFitTraces": 100.0,
      "percentage_of_fitting_traces": 100.0
    },
    "fscore": 0.9966541196152237,
    "generalization": 0.9702903294184096,
    "metricsAverageWeight": 0.9454506754994734,
    "precision": 0.9933305543976657,
    "precision_alignments": 0.9933305543976657,
    "simplicity": 0.8181818181818181
  }
}