{
  "FULL": {
    "fitness": {
      "average_trace_fitness": 1.0,
      "log_fitness": 1.0,
      "perc_fit_traces": 100.0,
      "percentage_of_fitting_traces": 100.0
    },
    "fitness_alignments": {
      "averageFitness": 1.0,
      "average_trace_fitness": 1.0,
      "percFitTraces": 100.0,
      "percentage_of_fitting_traces": 100.0
    },
    "fscore": 0.9994638954183679,
    "generalization": 0.9496003763609635,
    "metricsAverageWeight": 0.9204655187598202,
    "precision": 0.998928365344984,
    "precision_alignments": 0.998928365344984,
    "simplicity": 0.7333333333333333
  }
}