{
  "FULL": {
    "fitness": {
      "average_trace_fitness": 1.0,
      "log_fitness": 1.0,
      "perc_fit_traces": 100.0,
      "percentage_of_fitting_traces": 100.0
    },
    "fitness_alignments": {
      "averageFitness": 1.0,
      "average_trace_fitness": 1.0,
      "percFitTraces": 100.0,
      "percentage_of_fitting_traces": 100.0
    },
    "fscore": 0.9738712085602897,
    "generalization": 0.9728968018053478,
    "metricsAverageWeight": 0.9304924694748333,
    "precision": 0.9490730760939857,
    "precision_alignments": 0.9490730760939857,
    "simplicity": 0.8
  }
}