{
  "easy_soundness": true,
  "filename": "/mnt/c/Users/s140511/tue/thesis/thesis_data/process_trees_complex_ws/predictions/1863_gcn_ep100b_cc.json",
  "full": {
    "fitness": {
      "average_trace_fitness": 0.9233410052910159,
      "log_fitness": 0.8872711228766821,
      "perc_fit_traces": 49.9,
      "percentage_of_fitting_traces": 49.9
    },
    "fitness_alignments": {
      "averageFitness": -1.044,
      "average_trace_fitness": -1.044,
      "percFitTraces": 49.9,
      "percentage_of_fitting_traces": 49.9
    },
    "fscore": 0.9402688486265341,
    "generalization": 0.9708087957505158,
    "metricsAverageWeight": 0.8930914082282281,
    "precision": 1.0,
    "precision_alignments": 1.0,
    "simplicity": 0.7142857142857143
  },
  "sound": false,
  "top 10": {
    "fitness": {
      "average_trace_fitness": 0.9233410052910159,
      "log_fitness": 0.8872711228766821,
      "perc_fit_traces": 49.9,
      "percentage_of_fitting_traces": 49.9
    },
    "fitness_alignments": {
      "averageFitness": -1.044,
      "average_trace_fitness": -1.044,
      "percFitTraces": 49.9,
      "percentage_of_fitting_traces": 49.9
    },
    "fscore": 0.9402688486265341,
    "generalization": 0.9708087957505158,
    "metricsAverageWeight": 0.8930914082282281,
    "precision": 1.0,
    "precision_alignments": 1.0,
    "simplicity": 0.7142857142857143
  }
}