{
  "FULL": {
    "fitness": {
      "average_trace_fitness": 0.7700230158730084,
      "log_fitness": 0.6618133686300463,
      "perc_fit_traces": 49.9,
      "percentage_of_fitting_traces": 49.9
    },
    "fitness_alignments": {
      "averageFitness": -0.022,
      "average_trace_fitness": -0.022,
      "percFitTraces": 49.9,
      "percentage_of_fitting_traces": 49.9
    },
    "fscore": 0.5696382796923953,
    "generalization": 0.9732403681027155,
    "metricsAverageWeight": 0.7837634341831905,
    "precision": 0.5,
    "precision_alignments": 0.5,
    "simplicity": 1.0
  }
}