{
  "FULL": {
    "fitness": {
      "average_trace_fitness": 0.9770010521690056,
      "log_fitness": 0.9580251656901354,
      "perc_fit_traces": 79.7,
      "percentage_of_fitting_traces": 79.7
    },
    "fitness_alignments": {
      "averageFitness": 0.5486666666666656,
      "average_trace_fitness": 0.5486666666666656,
      "percFitTraces": 79.7,
      "percentage_of_fitting_traces": 79.7
    },
    "fscore": 0.9715047294960316,
    "generalization": 0.9528117500192568,
    "metricsAverageWeight": 0.9159119504649992,
    "precision": 0.9853690256854882,
    "precision_alignments": 0.9853690256854882,
    "simplicity": 0.7674418604651162
  }
}