{
  "FULL": {
    "fitness": {
      "average_trace_fitness": 1.0,
      "log_fitness": 1.0,
      "perc_fit_traces": 100.0,
      "percentage_of_fitting_traces": 100.0
    },
    "fitness_alignments": {
      "averageFitness": 1.0,
      "average_trace_fitness": 1.0,
      "percFitTraces": 100.0,
      "percentage_of_fitting_traces": 100.0
    },
    "fscore": 0.9719227487784069,
    "generalization": 0.9573230559286174,
    "metricsAverageWeight": 0.9146999297824505,
    "precision": 0.9453791022255753,
    "precision_alignments": 0.9453791022255753,
    "simplicity": 0.7560975609756097
  }
}