{
  "FULL": {
    "fitness": {
      "average_trace_fitness": 1.0,
      "log_fitness": 1.0,
      "perc_fit_traces": 100.0,
      "percentage_of_fitting_traces": 100.0
    },
    "fitness_alignments": {
      "averageFitness": 1.0,
      "average_trace_fitness": 1.0,
      "percFitTraces": 100.0,
      "percentage_of_fitting_traces": 100.0
    },
    "fscore": 0.9898613215242978,
    "generalization": 0.9717980305170412,
    "metricsAverageWeight": 0.9494695104690601,
    "precision": 0.979926165205353,
    "precision_alignments": 0.979926165205353,
    "simplicity": 0.8461538461538463
  }
}