{
  "FULL": {
    "fitness": {
      "average_trace_fitness": 0.9878999999999972,
      "log_fitness": 0.968341182626897,
      "perc_fit_traces": 87.9,
      "percentage_of_fitting_traces": 87.9
    },
    "fitness_alignments": {
      "averageFitness": 0.879,
      "average_trace_fitness": 0.879,
      "percFitTraces": 87.9,
      "percentage_of_fitting_traces": 87.9
    },
    "fscore": 0.9822148679864133,
    "generalization": 0.9337408457205136,
    "metricsAverageWeight": 0.9032149046390789,
    "precision": 0.9964918759231906,
    "precision_alignments": 0.9964918759231906,
    "simplicity": 0.7142857142857143
  }
}