{
  "FULL": {
    "fitness": {
      "average_trace_fitness": 1.0,
      "log_fitness": 1.0,
      "perc_fit_traces": 100.0,
      "percentage_of_fitting_traces": 100.0
    },
    "fitness_alignments": {
      "averageFitness": 1.0,
      "average_trace_fitness": 1.0,
      "percFitTraces": 100.0,
      "percentage_of_fitting_traces": 100.0
    },
    "fscore": 0.9773966466146167,
    "generalization": 0.9636647632120231,
    "metricsAverageWeight": 0.9281401854443153,
    "precision": 0.9557925302893762,
    "precision_alignments": 0.9557925302893762,
    "simplicity": 0.7931034482758622
  }
}