{
  "FULL": {
    "fitness": {
      "average_trace_fitness": 0.9821858664740324,
      "log_fitness": 0.9819932382772306,
      "perc_fit_traces": 51.0,
      "percentage_of_fitting_traces": 51.0
    },
    "fitness_alignments": {
      "averageFitness": 0.265,
      "average_trace_fitness": 0.265,
      "percFitTraces": 51.0,
      "percentage_of_fitting_traces": 51.0
    },
    "fscore": 0.8598373910105749,
    "generalization": 0.9636647632120231,
    "metricsAverageWeight": 0.8740207205090763,
    "precision": 0.7647105948327659,
    "precision_alignments": 0.7647105948327659,
    "simplicity": 0.7857142857142856
  }
}