{
  "FULL": {
    "fitness": {
      "average_trace_fitness": 1.0,
      "log_fitness": 1.0,
      "perc_fit_traces": 100.0,
      "percentage_of_fitting_traces": 100.0
    },
    "fitness_alignments": {
      "averageFitness": 1.0,
      "average_trace_fitness": 1.0,
      "percFitTraces": 100.0,
      "percentage_of_fitting_traces": 100.0
    },
    "fscore": 0.9773098855524983,
    "generalization": 0.9704557384531812,
    "metricsAverageWeight": 0.931520586722786,
    "precision": 0.955626608437963,
    "precision_alignments": 0.955626608437963,
    "simplicity": 0.8
  }
}