{
  "FULL": {
    "fitness": {
      "average_trace_fitness": 0.9788618774027037,
      "log_fitness": 0.9718771176869212,
      "perc_fit_traces": 79.4,
      "percentage_of_fitting_traces": 79.4
    },
    "fitness_alignments": {
      "averageFitness": 0.6265,
      "average_trace_fitness": 0.6265,
      "percFitTraces": 79.4,
      "percentage_of_fitting_traces": 79.4
    },
    "fscore": 0.976743668765142,
    "generalization": 0.962670873425306,
    "metricsAverageWeight": 0.9076232269466277,
    "precision": 0.981659202388569,
    "precision_alignments": 0.981659202388569,
    "simplicity": 0.7142857142857143
  }
}