{
  "FULL": {
    "fitness": {
      "average_trace_fitness": 0.7807334054833961,
      "log_fitness": 0.6786562606040041,
      "perc_fit_traces": 51.2,
      "percentage_of_fitting_traces": 51.2
    },
    "fitness_alignments": {
      "averageFitness": 0.053,
      "average_trace_fitness": 0.053,
      "percFitTraces": 51.2,
      "percentage_of_fitting_traces": 51.2
    },
    "fscore": 0.575788109975529,
    "generalization": 0.9724206929262346,
    "metricsAverageWeight": 0.7877692383825596,
    "precision": 0.5,
    "precision_alignments": 0.5,
    "simplicity": 1.0
  }
}