{
  "FULL": {
    "fitness": {
      "average_trace_fitness": 0.9996320745088758,
      "log_fitness": 0.9983971197863231,
      "perc_fit_traces": 95.5,
      "percentage_of_fitting_traces": 95.5
    },
    "fitness_alignments": {
      "averageFitness": 0.852,
      "average_trace_fitness": 0.852,
      "percFitTraces": 95.5,
      "percentage_of_fitting_traces": 95.5
    },
    "fscore": 0.8986789177992286,
    "generalization": 0.9732831512092407,
    "metricsAverageWeight": 0.8945562977813735,
    "precision": 0.8170712359194034,
    "precision_alignments": 0.8170712359194034,
    "simplicity": 0.7894736842105263
  }
}