{
  "FULL": {
    "fitness": {
      "average_trace_fitness": 0.999584036636571,
      "log_fitness": 0.998103659584967,
      "perc_fit_traces": 95.5,
      "percentage_of_fitting_traces": 95.5
    },
    "fitness_alignments": {
      "averageFitness": 0.852,
      "average_trace_fitness": 0.852,
      "percFitTraces": 95.5,
      "percentage_of_fitting_traces": 95.5
    },
    "fscore": 0.8985600150515137,
    "generalization": 0.973486937251649,
    "metricsAverageWeight": 0.8846654581890049,
    "precision": 0.8170712359194034,
    "precision_alignments": 0.8170712359194034,
    "simplicity": 0.7499999999999999
  }
}