{
  "easy_soundness": true,
  "filename": "/mnt/c/Users/s140511/tue/thesis/thesis_data/process_trees_complex_ws/predictions/1895_gcn_ep100b_cc.json",
  "full": {
    "fitness": {
      "average_trace_fitness": 1.0,
      "log_fitness": 1.0,
      "perc_fit_traces": 100.0,
      "percentage_of_fitting_traces": 100.0
    },
    "fitness_alignments": {
      "averageFitness": 1.0,
      "average_trace_fitness": 1.0,
      "percFitTraces": 100.0,
      "percentage_of_fitting_traces": 100.0
    },
    "fscore": 0.9965249933172948,
    "generalization": 0.9694945319752378,
    "metricsAverageWeight": 0.9489754799126515,
    "precision": 0.9930740543420352,
    "precision_alignments": 0.9930740543420352,
    "simplicity": 0.8333333333333333
  },
  "sound": true,
  "top 30": {
    "fitness": {
      "average_trace_fitness": 1.0,
      "log_fitness": 1.0,
      "perc_fit_traces": 100.0,
      "percentage_of_fitting_traces": 100.0
    },
    "fitness_alignments": {
      "averageFitness": 1.0,
      "average_trace_fitness": 1.0,
      "percFitTraces": 100.0,
      "percentage_of_fitting_traces": 100.0
    },
    "fscore": 0.9965249933172948,
    "generalization": 0.9694945319752378,
    "metricsAverageWeight": 0.9489754799126515,
    "precision": 0.9930740543420352,
    "precision_alignments": 0.9930740543420352,
    "simplicity": 0.8333333333333333
  }
}