{
  "FULL": {
    "fitness": {
      "average_trace_fitness": 0.9732247766817778,
      "log_fitness": 0.9666268973288261,
      "perc_fit_traces": 33.8,
      "percentage_of_fitting_traces": 33.8
    },
    "fscore": 0.7977418280488451,
    "generalization": 0.9626506254460269,
    "metricsAverageWeight": 0.8363032627274565,
    "precision": 0.6790934228718151,
    "simplicity": 0.7368421052631579
  }
}