{
  "FULL": {
    "fitness": {
      "average_trace_fitness": 0.999992,
      "log_fitness": 0.9999637313216306,
      "perc_fit_traces": 99.9,
      "percentage_of_fitting_traces": 99.9
    },
    "fitness_alignments": {
      "averageFitness": 0.9997999999999999,
      "average_trace_fitness": 0.9997999999999999,
      "percFitTraces": 99.9,
      "percentage_of_fitting_traces": 99.9
    },
    "fscore": 0.7901121353630507,
    "generalization": 0.9721751925989116,
    "metricsAverageWeight": 0.8348714656740132,
    "precision": 0.653061224489796,
    "precision_alignments": 0.653061224489796,
    "simplicity": 0.7142857142857143
  }
}