{
  "FULL": {
    "fitness": {
      "average_trace_fitness": 1.0,
      "log_fitness": 1.0,
      "perc_fit_traces": 100.0,
      "percentage_of_fitting_traces": 100.0
    },
    "fitness_alignments": {
      "averageFitness": 1.0,
      "average_trace_fitness": 1.0,
      "percFitTraces": 100.0,
      "percentage_of_fitting_traces": 100.0
    },
    "fscore": 0.9690565493364108,
    "generalization": 0.9490296908882493,
    "metricsAverageWeight": 0.9070326851643038,
    "precision": 0.9399706149863569,
    "precision_alignments": 0.9399706149863569,
    "simplicity": 0.7391304347826086
  }
}