{
  "FULL": {
    "fitness": {
      "average_trace_fitness": 0.9050576542917202,
      "log_fitness": 0.904164179217605,
      "perc_fit_traces": 27.4,
      "percentage_of_fitting_traces": 27.4
    },
    "fitness_alignments": {
      "averageFitness": -0.67425,
      "average_trace_fitness": -0.67425,
      "percFitTraces": 27.4,
      "percentage_of_fitting_traces": 27.4
    },
    "fscore": 0.8373983305797539,
    "generalization": 0.9485186062988072,
    "metricsAverageWeight": 0.846899898539541,
    "precision": 0.779814767825425,
    "precision_alignments": 0.779814767825425,
    "simplicity": 0.7551020408163266
  }
}