{
  "FULL": {
    "fitness": {
      "average_trace_fitness": 1.0,
      "log_fitness": 1.0,
      "perc_fit_traces": 100.0,
      "percentage_of_fitting_traces": 100.0
    },
    "fitness_alignments": {
      "averageFitness": 1.0,
      "average_trace_fitness": 1.0,
      "percFitTraces": 100.0,
      "percentage_of_fitting_traces": 100.0
    },
    "fscore": 0.9970919665576155,
    "generalization": 0.9758325621612414,
    "metricsAverageWeight": 0.9540468014263616,
    "precision": 0.9942007973903588,
    "precision_alignments": 0.9942007973903588,
    "simplicity": 0.8461538461538463
  }
}