{
  "easy_soundness": true,
  "filename": "/mnt/c/Users/s140511/tue/thesis/thesis_data/process_trees_complex_ws/predictions/1911_gcn_ep100b_cc.json",
  "full": {
    "fitness": {
      "average_trace_fitness": 1.0,
      "log_fitness": 1.0,
      "perc_fit_traces": 100.0,
      "percentage_of_fitting_traces": 100.0
    },
    "fitness_alignments": {
      "averageFitness": 1.0,
      "average_trace_fitness": 1.0,
      "percFitTraces": 100.0,
      "percentage_of_fitting_traces": 100.0
    },
    "fscore": 0.9997110452936503,
    "generalization": 0.9668707437200146,
    "metricsAverageWeight": 0.9558589645978947,
    "precision": 0.9994222575287066,
    "precision_alignments": 0.9994222575287066,
    "simplicity": 0.8571428571428572
  },
  "sound": true,
  "top 30": {
    "fitness": {
      "average_trace_fitness": 1.0,
      "log_fitness": 1.0,
      "perc_fit_traces": 100.0,
      "percentage_of_fitting_traces": 100.0
    },
    "fitness_alignments": {
      "averageFitness": 1.0,
      "average_trace_fitness": 1.0,
      "percFitTraces": 100.0,
      "percentage_of_fitting_traces": 100.0
    },
    "fscore": 0.9997110452936503,
    "generalization": 0.9668707437200146,
    "metricsAverageWeight": 0.9558589645978947,
    "precision": 0.9994222575287066,
    "precision_alignments": 0.9994222575287066,
    "simplicity": 0.8571428571428572
  }
}