{
  "FULL": {
    "fitness": {
      "average_trace_fitness": 0.9593474837380652,
      "log_fitness": 0.9604166666666667,
      "perc_fit_traces": 48.7,
      "percentage_of_fitting_traces": 48.7
    },
    "fitness_alignments": {
      "averageFitness": 0.914500000000008,
      "average_trace_fitness": 0.914500000000008,
      "percFitTraces": 48.7,
      "percentage_of_fitting_traces": 48.7
    },
    "fscore": 0.9754383749873704,
    "generalization": 0.9554824950969573,
    "metricsAverageWeight": 0.9185696189504401,
    "precision": 0.9909374535730203,
    "precision_alignments": 0.9909374535730203,
    "simplicity": 0.7674418604651162
  }
}