{
  "FULL": {
    "fitness": {
      "average_trace_fitness": 1.0,
      "log_fitness": 1.0,
      "perc_fit_traces": 100.0,
      "percentage_of_fitting_traces": 100.0
    },
    "fitness_alignments": {
      "averageFitness": 1.0,
      "average_trace_fitness": 1.0,
      "percFitTraces": 100.0,
      "percentage_of_fitting_traces": 100.0
    },
    "fscore": 0.9972581493893151,
    "generalization": 0.9561656592207913,
    "metricsAverageWeight": 0.9266986283380578,
    "precision": 0.9945312931558306,
    "precision_alignments": 0.9945312931558306,
    "simplicity": 0.7560975609756097
  }
}