{
  "FULL": {
    "fitness": {
      "average_trace_fitness": 1.0,
      "log_fitness": 1.0,
      "perc_fit_traces": 100.0,
      "percentage_of_fitting_traces": 100.0
    },
    "fitness_alignments": {
      "averageFitness": 1.0,
      "average_trace_fitness": 1.0,
      "percFitTraces": 100.0,
      "percentage_of_fitting_traces": 100.0
    },
    "fscore": 0.9989883662114315,
    "generalization": 0.9699486931241494,
    "metricsAverageWeight": 0.9702427371363002,
    "precision": 0.9979787771601819,
    "precision_alignments": 0.9979787771601819,
    "simplicity": 0.9130434782608695
  }
}