{
  "FULL": {
    "fitness": {
      "average_trace_fitness": 1.0,
      "log_fitness": 1.0,
      "perc_fit_traces": 100.0,
      "percentage_of_fitting_traces": 100.0
    },
    "fitness_alignments": {
      "averageFitness": 1.0,
      "average_trace_fitness": 1.0,
      "percFitTraces": 100.0,
      "percentage_of_fitting_traces": 100.0
    },
    "fscore": 0.9992880149177827,
    "generalization": 0.9583900423414685,
    "metricsAverageWeight": 0.9416227237062571,
    "precision": 0.9985770429597507,
    "precision_alignments": 0.9985770429597507,
    "simplicity": 0.8095238095238095
  }
}