{
  "FULL": {
    "fitness": {
      "average_trace_fitness": 0.967694335974011,
      "log_fitness": 0.9720467378543076,
      "perc_fit_traces": 0.0,
      "percentage_of_fitting_traces": 0.0
    },
    "fscore": 0.8093635310495588,
    "generalization": 0.9709448344496228,
    "metricsAverageWeight": 0.8555082743765832,
    "precision": 0.6933272394881169,
    "simplicity": 0.7857142857142856
  }
}