{
  "FULL": {
    "fitness": {
      "average_trace_fitness": 1.0,
      "log_fitness": 1.0,
      "perc_fit_traces": 100.0,
      "percentage_of_fitting_traces": 100.0
    },
    "fitness_alignments": {
      "averageFitness": 1.0,
      "average_trace_fitness": 1.0,
      "percFitTraces": 100.0,
      "percentage_of_fitting_traces": 100.0
    },
    "fscore": 0.9608062292761075,
    "generalization": 0.9709448344496228,
    "metricsAverageWeight": 0.9221542927442543,
    "precision": 0.9245688882515326,
    "precision_alignments": 0.9245688882515326,
    "simplicity": 0.7931034482758622
  }
}