{
  "easy_soundness": false,
  "filename": "/mnt/c/Users/s140511/tue/thesis/thesis_data/process_trees_complex_ws/predictions/1921_gcn_ep100b_cc.json",
  "full": {
    "fitness": {
      "average_trace_fitness": 0.8198134011855973,
      "log_fitness": 0.8492348990307952,
      "perc_fit_traces": 0.0,
      "percentage_of_fitting_traces": 0.0
    },
    "fscore": 0.9184110432597391,
    "generalization": 0.966152575625291,
    "metricsAverageWeight": 0.8645252451568192,
    "precision": 0.9998563631140477,
    "simplicity": 0.6428571428571429
  },
  "sound": false,
  "top 30": {
    "fitness": {
      "average_trace_fitness": 0.8198134011855973,
      "log_fitness": 0.8492348990307952,
      "perc_fit_traces": 0.0,
      "percentage_of_fitting_traces": 0.0
    },
    "fscore": 0.9184110432597391,
    "generalization": 0.966152575625291,
    "metricsAverageWeight": 0.8645252451568192,
    "precision": 0.9998563631140477,
    "simplicity": 0.6428571428571429
  }
}