{
  "FULL": {
    "fitness": {
      "average_trace_fitness": 1.0,
      "log_fitness": 1.0,
      "perc_fit_traces": 100.0,
      "percentage_of_fitting_traces": 100.0
    },
    "fitness_alignments": {
      "averageFitness": 1.0,
      "average_trace_fitness": 1.0,
      "percFitTraces": 100.0,
      "percentage_of_fitting_traces": 100.0
    },
    "fscore": 0.9992534781133356,
    "generalization": 0.9448321615351379,
    "metricsAverageWeight": 0.9302795023244992,
    "precision": 0.9985080699850807,
    "precision_alignments": 0.9985080699850807,
    "simplicity": 0.7777777777777779
  }
}