{
  "FULL": {
    "fitness": {
      "average_trace_fitness": 0.9937362914862904,
      "log_fitness": 0.9859976662777129,
      "perc_fit_traces": 92.8,
      "percentage_of_fitting_traces": 92.8
    },
    "fitness_alignments": {
      "averageFitness": 0.928,
      "average_trace_fitness": 0.928,
      "percFitTraces": 92.8,
      "percentage_of_fitting_traces": 92.8
    },
    "fscore": 0.9927112230430868,
    "generalization": 0.9423278483693697,
    "metricsAverageWeight": 0.9302364483326044,
    "precision": 0.9995168304074731,
    "precision_alignments": 0.9995168304074731,
    "simplicity": 0.7931034482758622
  }
}