{
  "FULL": {
    "fitness": {
      "average_trace_fitness": 1.0,
      "log_fitness": 1.0,
      "perc_fit_traces": 100.0,
      "percentage_of_fitting_traces": 100.0
    },
    "fitness_alignments": {
      "averageFitness": 1.0,
      "average_trace_fitness": 1.0,
      "percFitTraces": 100.0,
      "percentage_of_fitting_traces": 100.0
    },
    "fscore": 0.9999139488856381,
    "generalization": 0.9288523083956053,
    "metricsAverageWeight": 0.8821700552437989,
    "precision": 0.9998279125795905,
    "precision_alignments": 0.9998279125795905,
    "simplicity": 0.6000000000000001
  }
}