{
  "FULL": {
    "fitness": {
      "average_trace_fitness": 0.972952380952379,
      "log_fitness": 0.9701198364035365,
      "perc_fit_traces": 92.9,
      "percentage_of_fitting_traces": 92.9
    },
    "fitness_alignments": {
      "averageFitness": 0.929,
      "average_trace_fitness": 0.929,
      "percFitTraces": 92.9,
      "percentage_of_fitting_traces": 92.9
    },
    "fscore": 0.9848333268645171,
    "generalization": 0.9302121728554945,
    "metricsAverageWeight": 0.8934503492535333,
    "precision": 1.0,
    "precision_alignments": 1.0,
    "simplicity": 0.673469387755102
  }
}