{
  "FULL": {
    "fitness": {
      "average_trace_fitness": 0.9305728650109205,
      "log_fitness": 0.9348520956056535,
      "perc_fit_traces": 50.0,
      "percentage_of_fitting_traces": 50.0
    },
    "fitness_alignments": {
      "averageFitness": 0.8733333333333357,
      "average_trace_fitness": 0.8733333333333357,
      "percFitTraces": 50.0,
      "percentage_of_fitting_traces": 50.0
    },
    "fscore": 0.9007971956636058,
    "generalization": 0.9550134821911376,
    "metricsAverageWeight": 0.8897504449183016,
    "precision": 0.8691362018764154,
    "precision_alignments": 0.8691362018764154,
    "simplicity": 0.8
  }
}