{
  "FULL": {
    "fitness": {
      "average_trace_fitness": 1.0,
      "log_fitness": 1.0,
      "perc_fit_traces": 100.0,
      "percentage_of_fitting_traces": 100.0
    },
    "fitness_alignments": {
      "averageFitness": 1.0,
      "average_trace_fitness": 1.0,
      "percFitTraces": 100.0,
      "percentage_of_fitting_traces": 100.0
    },
    "fscore": 0.9998454166022569,
    "generalization": 0.9607511919145814,
    "metricsAverageWeight": 0.9567771848926072,
    "precision": 0.9996908809891808,
    "precision_alignments": 0.9996908809891808,
    "simplicity": 0.8666666666666667
  }
}