{
  "FULL": {
    "fitness": {
      "average_trace_fitness": 1.0,
      "log_fitness": 1.0,
      "perc_fit_traces": 100.0,
      "percentage_of_fitting_traces": 100.0
    },
    "fitness_alignments": {
      "averageFitness": 1.0,
      "average_trace_fitness": 1.0,
      "percFitTraces": 100.0,
      "percentage_of_fitting_traces": 100.0
    },
    "fscore": 0.9994389994389994,
    "generalization": 0.969567288995199,
    "metricsAverageWeight": 0.9504448125742175,
    "precision": 0.9988786279683377,
    "precision_alignments": 0.9988786279683377,
    "simplicity": 0.8333333333333333
  }
}