{
  "FULL": {
    "fitness": {
      "average_trace_fitness": 1.0,
      "log_fitness": 1.0,
      "perc_fit_traces": 100.0,
      "percentage_of_fitting_traces": 100.0
    },
    "fitness_alignments": {
      "averageFitness": 1.0,
      "average_trace_fitness": 1.0,
      "percFitTraces": 100.0,
      "percentage_of_fitting_traces": 100.0
    },
    "fscore": 0.9992843999182172,
    "generalization": 0.9571580028935782,
    "metricsAverageWeight": 0.9333764009855936,
    "precision": 0.9985698232710185,
    "precision_alignments": 0.9985698232710185,
    "simplicity": 0.7777777777777779
  }
}