{
  "FULL": {
    "fitness": {
      "average_trace_fitness": 0.9479774280794598,
      "log_fitness": 0.9554606024690554,
      "perc_fit_traces": 33.5,
      "percentage_of_fitting_traces": 33.5
    },
    "fitness_alignments": {
      "averageFitness": 0.8509090909090997,
      "average_trace_fitness": 0.8509090909090997,
      "percFitTraces": 33.5,
      "percentage_of_fitting_traces": 33.5
    },
    "fscore": 0.9706480194137604,
    "generalization": 0.9701668716495692,
    "metricsAverageWeight": 0.948576617497719,
    "precision": 0.9863260546957812,
    "precision_alignments": 0.9863260546957812,
    "simplicity": 0.8823529411764706
  }
}