{
  "FULL": {
    "fitness": {
      "average_trace_fitness": 0.4788098181176059,
      "log_fitness": 0.8254214381401983,
      "perc_fit_traces": 22.744128553770086,
      "percentage_of_fitting_traces": 22.744128553770086
    },
    "fitness_alignments": {
      "averageFitness": -0.700247218788628,
      "average_trace_fitness": -0.700247218788628,
      "percFitTraces": 22.744128553770086,
      "percentage_of_fitting_traces": 22.744128553770086
    },
    "fscore": 0.8694532731892135,
    "generalization": 0.9320933081170715,
    "metricsAverageWeight": 0.8713715279160386,
    "precision": 0.9184475558830754,
    "precision_alignments": 0.9184475558830754,
    "simplicity": 0.8095238095238095
  }
}