{
  "FULL": {
    "fitness": {
      "average_trace_fitness": 0.977544293366301,
      "log_fitness": 0.9662538699690403,
      "perc_fit_traces": 86.52657601977751,
      "percentage_of_fitting_traces": 86.52657601977751
    },
    "fitness_alignments": {
      "averageFitness": 0.73053152039555,
      "average_trace_fitness": 0.73053152039555,
      "percFitTraces": 86.52657601977751,
      "percentage_of_fitting_traces": 86.52657601977751
    },
    "fscore": 0.9825292881086873,
    "generalization": 0.9315653129855708,
    "metricsAverageWeight": 0.9142953908502361,
    "precision": 0.9993623804463337,
    "precision_alignments": 0.9993623804463337,
    "simplicity": 0.7599999999999999
  }
}