{
  "FULL": {
    "fitness": {
      "average_trace_fitness": 1.0,
      "log_fitness": 1.0,
      "perc_fit_traces": 100.0,
      "percentage_of_fitting_traces": 100.0
    },
    "fitness_alignments": {
      "averageFitness": 1.0,
      "average_trace_fitness": 1.0,
      "percFitTraces": 100.0,
      "percentage_of_fitting_traces": 100.0
    },
    "fscore": 0.9997200709153681,
    "generalization": 0.936684783649832,
    "metricsAverageWeight": 0.9215312705393237,
    "precision": 0.9994402985074626,
    "precision_alignments": 0.9994402985074626,
    "simplicity": 0.7499999999999999
  }
}