{
  "FULL": {
    "fitness": {
      "average_trace_fitness": 0.9133556471306442,
      "log_fitness": 0.917095009119549,
      "perc_fit_traces": 0.0,
      "percentage_of_fitting_traces": 0.0
    },
    "fscore": 0.853641063779742,
    "generalization": 0.8699105461093415,
    "metricsAverageWeight": 0.8386589979807573,
    "precision": 0.798399667463369,
    "simplicity": 0.7692307692307694
  }
}