{
  "FULL": {
    "fitness": {
      "average_trace_fitness": 1.0,
      "log_fitness": 1.0,
      "perc_fit_traces": 100.0,
      "percentage_of_fitting_traces": 100.0
    },
    "fitness_alignments": {
      "averageFitness": 1.0,
      "average_trace_fitness": 1.0,
      "percFitTraces": 100.0,
      "percentage_of_fitting_traces": 100.0
    },
    "fscore": 0.9964980544747082,
    "generalization": 0.9665672734548238,
    "metricsAverageWeight": 0.9298969560139579,
    "precision": 0.9930205506010081,
    "precision_alignments": 0.9930205506010081,
    "simplicity": 0.7599999999999999
  }
}