{
  "FULL": {
    "fitness": {
      "average_trace_fitness": 0.9797366091793444,
      "log_fitness": 0.9637678118350286,
      "perc_fit_traces": 58.5,
      "percentage_of_fitting_traces": 58.5
    },
    "fitness_alignments": {
      "averageFitness": -0.528,
      "average_trace_fitness": -0.528,
      "percFitTraces": 58.5,
      "percentage_of_fitting_traces": 58.5
    },
    "fscore": 0.9280065874290607,
    "generalization": 0.9664024894322278,
    "metricsAverageWeight": 0.9062436499495656,
    "precision": 0.8948042985310066,
    "precision_alignments": 0.8948042985310066,
    "simplicity": 0.8
  }
}