{
  "FULL": {
    "fitness": {
      "average_trace_fitness": 1.0,
      "log_fitness": 1.0,
      "perc_fit_traces": 100.0,
      "percentage_of_fitting_traces": 100.0
    },
    "fitness_alignments": {
      "averageFitness": 1.0,
      "average_trace_fitness": 1.0,
      "percFitTraces": 100.0,
      "percentage_of_fitting_traces": 100.0
    },
    "fscore": 0.9752672434555459,
    "generalization": 0.9159763604627408,
    "metricsAverageWeight": 0.9017087931127548,
    "precision": 0.9517283772056696,
    "precision_alignments": 0.9517283772056696,
    "simplicity": 0.7391304347826086
  }
}