{
  "easy_soundness": false,
  "filename": "/mnt/c/Users/s140511/tue/thesis/thesis_data/process_trees_complex_ws/predictions/1950_gcn_ep100b_cc.json",
  "full": {
    "fitness": {
      "average_trace_fitness": 0.8426705404913234,
      "log_fitness": 0.8375444063074773,
      "perc_fit_traces": 0.0,
      "percentage_of_fitting_traces": 0.0
    },
    "fscore": 0.9115909291035991,
    "generalization": 0.9691050382587907,
    "metricsAverageWeight": 0.839162361141567,
    "precision": 1.0,
    "simplicity": 0.5499999999999999
  },
  "sound": false,
  "top 30": {
    "fitness": {
      "average_trace_fitness": 0.8426705404913234,
      "log_fitness": 0.8375444063074773,
      "perc_fit_traces": 0.0,
      "percentage_of_fitting_traces": 0.0
    },
    "fscore": 0.9115909291035991,
    "generalization": 0.9691050382587907,
    "metricsAverageWeight": 0.839162361141567,
    "precision": 1.0,
    "simplicity": 0.5499999999999999
  }
}