{
  "FULL": {
    "fitness": {
      "average_trace_fitness": 1.0,
      "log_fitness": 1.0,
      "perc_fit_traces": 100.0,
      "percentage_of_fitting_traces": 100.0
    },
    "fitness_alignments": {
      "averageFitness": 1.0,
      "average_trace_fitness": 1.0,
      "percFitTraces": 100.0,
      "percentage_of_fitting_traces": 100.0
    },
    "fscore": 0.9972111253486093,
    "generalization": 0.9693961642029806,
    "metricsAverageWeight": 0.9524969433589,
    "precision": 0.9944377630787733,
    "precision_alignments": 0.9944377630787733,
    "simplicity": 0.8461538461538463
  }
}