{
  "easy_soundness": true,
  "filename": "/mnt/c/Users/s140511/tue/thesis/thesis_data/process_trees_complex_ws/predictions/1962_gcn_ep100b_cc.json",
  "full": {
    "fitness": {
      "average_trace_fitness": 0.9853187701373252,
      "log_fitness": 0.9800656660412758,
      "perc_fit_traces": 66.0,
      "percentage_of_fitting_traces": 66.0
    },
    "fitness_alignments": {
      "averageFitness": 0.8323333333333301,
      "average_trace_fitness": 0.8323333333333301,
      "percFitTraces": 66.0,
      "percentage_of_fitting_traces": 66.0
    },
    "fscore": 0.9891063129035287,
    "generalization": 0.967104673298791,
    "metricsAverageWeight": 0.9308158553124457,
    "precision": 0.9983153041319383,
    "precision_alignments": 0.9983153041319383,
    "simplicity": 0.7777777777777779
  },
  "sound": true,
  "top 30": {
    "fitness": {
      "average_trace_fitness": 0.9853187701373252,
      "log_fitness": 0.9800656660412758,
      "perc_fit_traces": 66.0,
      "percentage_of_fitting_traces": 66.0
    },
    "fitness_alignments": {
      "averageFitness": 0.8323333333333301,
      "average_trace_fitness": 0.8323333333333301,
      "percFitTraces": 66.0,
      "percentage_of_fitting_traces": 66.0
    },
    "fscore": 0.9891063129035287,
    "generalization": 0.967104673298791,
    "metricsAverageWeight": 0.9308158553124457,
    "precision": 0.9983153041319383,
    "precision_alignments": 0.9983153041319383,
    "simplicity": 0.7777777777777779
  }
}