{
  "FULL": {
    "fitness": {
      "average_trace_fitness": 1.0,
      "log_fitness": 1.0,
      "perc_fit_traces": 100.0,
      "percentage_of_fitting_traces": 100.0
    },
    "fitness_alignments": {
      "averageFitness": 1.0,
      "average_trace_fitness": 1.0,
      "percFitTraces": 100.0,
      "percentage_of_fitting_traces": 100.0
    },
    "fscore": 0.9991215548479193,
    "generalization": 0.9374149212647167,
    "metricsAverageWeight": 0.9094468081280627,
    "precision": 0.9982446516730664,
    "precision_alignments": 0.9982446516730664,
    "simplicity": 0.7021276595744681
  }
}