{
  "FULL": {
    "fitness": {
      "average_trace_fitness": 1.0,
      "log_fitness": 1.0,
      "perc_fit_traces": 100.0,
      "percentage_of_fitting_traces": 100.0
    },
    "fitness_alignments": {
      "averageFitness": 1.0,
      "average_trace_fitness": 1.0,
      "percFitTraces": 100.0,
      "percentage_of_fitting_traces": 100.0
    },
    "fscore": 0.9941487084344227,
    "generalization": 0.968457627576873,
    "metricsAverageWeight": 0.9558724470001585,
    "precision": 0.9883654937570943,
    "precision_alignments": 0.9883654937570943,
    "simplicity": 0.8666666666666667
  }
}