{
  "FULL": {
    "fitness": {
      "average_trace_fitness": 0.685,
      "log_fitness": 0.9516054693501306,
      "perc_fit_traces": 68.5,
      "percentage_of_fitting_traces": 68.5
    },
    "fitness_alignments": {
      "averageFitness": 0.6219999999999997,
      "average_trace_fitness": 0.6219999999999997,
      "percFitTraces": 68.5,
      "percentage_of_fitting_traces": 68.5
    },
    "fscore": 0.9752027080217271,
    "generalization": 0.9460334100361733,
    "metricsAverageWeight": 0.9068421522790084,
    "precision": 1.0,
    "precision_alignments": 1.0,
    "simplicity": 0.7297297297297298
  }
}