{
  "FULL": {
    "fitness": {
      "average_trace_fitness": 0.954506607332934,
      "log_fitness": 0.9589324149806284,
      "perc_fit_traces": 52.3,
      "percentage_of_fitting_traces": 52.3
    },
    "fitness_alignments": {
      "averageFitness": -0.7509999999999989,
      "average_trace_fitness": -0.7509999999999989,
      "percFitTraces": 52.3,
      "percentage_of_fitting_traces": 52.3
    },
    "fscore": 0.9136434029739426,
    "generalization": 0.8972384857308023,
    "metricsAverageWeight": 0.8589818274424436,
    "precision": 0.8724393358876117,
    "precision_alignments": 0.8724393358876117,
    "simplicity": 0.7073170731707318
  }
}