{
  "easy_soundness": false,
  "filename": "/home/dominique/TUe/thesis/git_data/evaluation_data/BPI_2020_Permit_log/predictions/data_ilp_reduced_cc.txt",
  "full": {
    "fitness                         ": "0.85425",
    "fscore                          ": "0.89973",
    "generalization                  ": "0.98765",
    "metricsAverageWeight            ": "0.74869",
    "precision                       ": "0.95033",
    "simplicity                      ": "0.20253"
  },
  "s_components": [
    [
      "n28",
      "n81",
      "Permit SUBMITTED by EMPLOYEE",
      "short_circuited_transition",
      "n82",
      "End trip",
      "Declaration FINAL_APPROVED by SUPERVISOR",
      "n36",
      "n27",
      "Declaration APPROVED by ADMINISTRATION",
      "Permit FINAL_APPROVED by SUPERVISOR",
      "n7",
      "Start trip",
      "n89",
      "start",
      "Permit APPROVED by ADMINISTRATION",
      "source",
      "Request Payment",
      "Declaration SUBMITTED by EMPLOYEE",
      "n85",
      "n8",
      "n35"
    ],
    [
      "n28",
      "n81",
      "Permit SUBMITTED by EMPLOYEE",
      "short_circuited_transition",
      "n82",
      "n71",
      "End trip",
      "Declaration FINAL_APPROVED by SUPERVISOR",
      "n36",
      "Declaration APPROVED by ADMINISTRATION",
      "Permit FINAL_APPROVED by SUPERVISOR",
      "n7",
      "Start trip",
      "n89",
      "start",
      "n59",
      "Permit APPROVED by ADMINISTRATION",
      "source",
      "n18",
      "Request Payment",
      "Declaration SUBMITTED by EMPLOYEE",
      "n85"
    ],
    [
      "n28",
      "n81",
      "Permit SUBMITTED by EMPLOYEE",
      "n29",
      "short_circuited_transition",
      "n82",
      "n51",
      "End trip",
      "n12",
      "Payment Handled",
      "Declaration FINAL_APPROVED by SUPERVISOR",
      "n36",
      "Declaration APPROVED by ADMINISTRATION",
      "Permit FINAL_APPROVED by SUPERVISOR",
      "Start trip",
      "n89",
      "start",
      "n59",
      "Permit APPROVED by ADMINISTRATION",
      "source",
      "Request Payment",
      "Declaration SUBMITTED by EMPLOYEE",
      "n85"
    ],
    [
      "n81",
      "Permit SUBMITTED by EMPLOYEE",
      "n39",
      "short_circuited_transition",
      "n82",
      "n71",
      "End trip",
      "n10",
      "Declaration FINAL_APPROVED by SUPERVISOR",
      "n36",
      "Declaration APPROVED by ADMINISTRATION",
      "Permit FINAL_APPROVED by SUPERVISOR",
      "Start trip",
      "n7",
      "n89",
      "start",
      "n59",
      "Permit APPROVED by ADMINISTRATION",
      "source",
      "Request Payment",
      "Declaration SUBMITTED by EMPLOYEE",
      "n85"
    ],
    [
      "n81",
      "Permit SUBMITTED by EMPLOYEE",
      "n39",
      "n79",
      "short_circuited_transition",
      "n82",
      "n71",
      "End trip",
      "n1",
      "Declaration FINAL_APPROVED by SUPERVISOR",
      "n36",
      "Declaration APPROVED by ADMINISTRATION",
      "Permit FINAL_APPROVED by SUPERVISOR",
      "Start trip",
      "n7",
      "n89",
      "start",
      "Permit APPROVED by ADMINISTRATION",
      "source",
      "Request Payment",
      "Declaration SUBMITTED by EMPLOYEE",
      "n85"
    ],
    [
      "n28",
      "n81",
      "n57",
      "Permit SUBMITTED by EMPLOYEE",
      "short_circuited_transition",
      "n82",
      "End trip",
      "n75",
      "n12",
      "Payment Handled",
      "Declaration FINAL_APPROVED by SUPERVISOR",
      "Declaration APPROVED by ADMINISTRATION",
      "Permit FINAL_APPROVED by SUPERVISOR",
      "Start trip",
      "n89",
      "start",
      "n59",
      "Permit APPROVED by ADMINISTRATION",
      "source",
      "n18",
      "Request Payment",
      "Declaration SUBMITTED by EMPLOYEE",
      "n85"
    ],
    [
      "n81",
      "Permit SUBMITTED by EMPLOYEE",
      "n39",
      "short_circuited_transition",
      "n82",
      "n80",
      "End trip",
      "n1",
      "Declaration FINAL_APPROVED by SUPERVISOR",
      "n36",
      "Declaration APPROVED by ADMINISTRATION",
      "Permit FINAL_APPROVED by SUPERVISOR",
      "Start trip",
      "n7",
      "n89",
      "start",
      "Permit APPROVED by ADMINISTRATION",
      "source",
      "Request Payment",
      "Declaration SUBMITTED by EMPLOYEE",
      "n85",
      "n35"
    ],
    [
      "n57",
      "n81",
      "Permit SUBMITTED by EMPLOYEE",
      "n11",
      "short_circuited_transition",
      "n82",
      "End trip",
      "n10",
      "Declaration FINAL_APPROVED by SUPERVISOR",
      "n27",
      "Declaration APPROVED by ADMINISTRATION",
      "Permit FINAL_APPROVED by SUPERVISOR",
      "n7",
      "Start trip",
      "n89",
      "start",
      "n59",
      "Permit APPROVED by ADMINISTRATION",
      "source",
      "Request Payment",
      "Declaration SUBMITTED by EMPLOYEE",
      "n85"
    ],
    [
      "n81",
      "Permit SUBMITTED by EMPLOYEE",
      "n39",
      "short_circuited_transition",
      "n82",
      "End trip",
      "n1",
      "n47",
      "Declaration FINAL_APPROVED by SUPERVISOR",
      "Payment Handled",
      "n36",
      "Declaration APPROVED by ADMINISTRATION",
      "n53",
      "Permit FINAL_APPROVED by SUPERVISOR",
      "Start trip",
      "n89",
      "start",
      "Permit APPROVED by ADMINISTRATION",
      "source",
      "Request Payment",
      "Declaration SUBMITTED by EMPLOYEE",
      "n85",
      "n35"
    ],
    [
      "n81",
      "Permit SUBMITTED by EMPLOYEE",
      "n39",
      "short_circuited_transition",
      "n82",
      "End trip",
      "n75",
      "n3",
      "n10",
      "n12",
      "Payment Handled",
      "Declaration FINAL_APPROVED by SUPERVISOR",
      "Declaration APPROVED by ADMINISTRATION",
      "Permit FINAL_APPROVED by SUPERVISOR",
      "Start trip",
      "n77",
      "n89",
      "start",
      "Permit APPROVED by ADMINISTRATION",
      "source",
      "Request Payment",
      "Declaration SUBMITTED by EMPLOYEE",
      "n85"
    ],
    [
      "n28",
      "n81",
      "Permit SUBMITTED by EMPLOYEE",
      "short_circuited_transition",
      "n82",
      "End trip",
      "n75",
      "n20",
      "Declaration FINAL_APPROVED by SUPERVISOR",
      "Payment Handled",
      "n27",
      "Declaration APPROVED by ADMINISTRATION",
      "Permit FINAL_APPROVED by SUPERVISOR",
      "Start trip",
      "n89",
      "start",
      "Permit APPROVED by ADMINISTRATION",
      "source",
      "Request Payment",
      "Declaration SUBMITTED by EMPLOYEE",
      "n73",
      "n85",
      "n35"
    ],
    [
      "n81",
      "Permit SUBMITTED by EMPLOYEE",
      "n29",
      "short_circuited_transition",
      "n82",
      "End trip",
      "n1",
      "n12",
      "Payment Handled",
      "Declaration FINAL_APPROVED by SUPERVISOR",
      "n36",
      "Declaration APPROVED by ADMINISTRATION",
      "Permit FINAL_APPROVED by SUPERVISOR",
      "Start trip",
      "n89",
      "start",
      "Permit APPROVED by ADMINISTRATION",
      "source",
      "Request Payment",
      "Declaration SUBMITTED by EMPLOYEE",
      "n72",
      "n85",
      "n35"
    ],
    [
      "n28",
      "n81",
      "Permit SUBMITTED by EMPLOYEE",
      "n29",
      "n79",
      "short_circuited_transition",
      "n82",
      "n71",
      "End trip",
      "Payment Handled",
      "Declaration FINAL_APPROVED by SUPERVISOR",
      "Declaration APPROVED by ADMINISTRATION",
      "n38",
      "Permit FINAL_APPROVED by SUPERVISOR",
      "n85",
      "Start trip",
      "n89",
      "start",
      "Permit APPROVED by ADMINISTRATION",
      "source",
      "Request Payment",
      "Declaration SUBMITTED by EMPLOYEE",
      "n40"
    ],
    [
      "n28",
      "n81",
      "Permit SUBMITTED by EMPLOYEE",
      "n29",
      "short_circuited_transition",
      "n82",
      "n80",
      "End trip",
      "n3",
      "Payment Handled",
      "Declaration FINAL_APPROVED by SUPERVISOR",
      "Declaration APPROVED by ADMINISTRATION",
      "Permit FINAL_APPROVED by SUPERVISOR",
      "n85",
      "Start trip",
      "n77",
      "n89",
      "start",
      "Permit APPROVED by ADMINISTRATION",
      "source",
      "Request Payment",
      "Declaration SUBMITTED by EMPLOYEE",
      "n40"
    ],
    [
      "n28",
      "n81",
      "n60",
      "Permit SUBMITTED by EMPLOYEE",
      "n29",
      "short_circuited_transition",
      "n82",
      "n80",
      "End trip",
      "n20",
      "Payment Handled",
      "n36",
      "Declaration APPROVED by ADMINISTRATION",
      "Permit FINAL_APPROVED by SUPERVISOR",
      "Start trip",
      "n89",
      "start",
      "Permit APPROVED by ADMINISTRATION",
      "source",
      "Request Payment",
      "Declaration SUBMITTED by EMPLOYEE",
      "n85"
    ],
    [
      "n16",
      "n81",
      "Permit SUBMITTED by EMPLOYEE",
      "n11",
      "short_circuited_transition",
      "n82",
      "n71",
      "End trip",
      "n10",
      "Declaration FINAL_APPROVED by SUPERVISOR",
      "Declaration APPROVED by ADMINISTRATION",
      "n38",
      "Permit FINAL_APPROVED by SUPERVISOR",
      "n7",
      "Start trip",
      "n89",
      "start",
      "Permit APPROVED by ADMINISTRATION",
      "source",
      "Request Payment",
      "Declaration SUBMITTED by EMPLOYEE",
      "n85"
    ],
    [
      "n81",
      "n63",
      "Permit SUBMITTED by EMPLOYEE",
      "n11",
      "short_circuited_transition",
      "n82",
      "End trip",
      "n1",
      "n12",
      "Payment Handled",
      "Declaration FINAL_APPROVED by SUPERVISOR",
      "Declaration APPROVED by ADMINISTRATION",
      "Permit FINAL_APPROVED by SUPERVISOR",
      "Start trip",
      "n77",
      "n89",
      "start",
      "Permit APPROVED by ADMINISTRATION",
      "source",
      "n18",
      "Request Payment",
      "Declaration SUBMITTED by EMPLOYEE",
      "n85"
    ],
    [
      "n81",
      "Permit SUBMITTED by EMPLOYEE",
      "n49",
      "short_circuited_transition",
      "n82",
      "n71",
      "n75",
      "End trip",
      "n47",
      "Declaration FINAL_APPROVED by SUPERVISOR",
      "Payment Handled",
      "Declaration APPROVED by ADMINISTRATION",
      "Permit FINAL_APPROVED by SUPERVISOR",
      "Start trip",
      "n89",
      "start",
      "n59",
      "Permit APPROVED by ADMINISTRATION",
      "n37",
      "source",
      "Request Payment",
      "Declaration SUBMITTED by EMPLOYEE",
      "n85"
    ],
    [
      "n28",
      "n81",
      "Permit SUBMITTED by EMPLOYEE",
      "n9",
      "short_circuited_transition",
      "n70",
      "n82",
      "End trip",
      "n75",
      "Payment Handled",
      "Declaration FINAL_APPROVED by SUPERVISOR",
      "Declaration APPROVED by ADMINISTRATION",
      "Permit FINAL_APPROVED by SUPERVISOR",
      "Start trip",
      "n77",
      "n89",
      "start",
      "Permit APPROVED by ADMINISTRATION",
      "source",
      "n18",
      "Request Payment",
      "Declaration SUBMITTED by EMPLOYEE",
      "n85"
    ],
    [
      "n81",
      "Permit SUBMITTED by EMPLOYEE",
      "n2",
      "n76",
      "short_circuited_transition",
      "n82",
      "End trip",
      "n1",
      "n12",
      "Payment Handled",
      "n36",
      "Declaration FINAL_APPROVED by SUPERVISOR",
      "Declaration APPROVED by ADMINISTRATION",
      "Permit FINAL_APPROVED by SUPERVISOR",
      "Start trip",
      "n89",
      "start",
      "Permit APPROVED by ADMINISTRATION",
      "source",
      "n18",
      "Request Payment",
      "Declaration SUBMITTED by EMPLOYEE",
      "n85"
    ],
    [
      "n81",
      "Permit SUBMITTED by EMPLOYEE",
      "n29",
      "n11",
      "n13",
      "short_circuited_transition",
      "n82",
      "n80",
      "End trip",
      "n20",
      "Declaration FINAL_APPROVED by SUPERVISOR",
      "Payment Handled",
      "Declaration APPROVED by ADMINISTRATION",
      "Permit FINAL_APPROVED by SUPERVISOR",
      "Start trip",
      "n89",
      "start",
      "Permit APPROVED by ADMINISTRATION",
      "source",
      "Request Payment",
      "Declaration SUBMITTED by EMPLOYEE",
      "n85",
      "n35"
    ],
    [
      "n60",
      "n81",
      "Permit SUBMITTED by EMPLOYEE",
      "n13",
      "short_circuited_transition",
      "n82",
      "End trip",
      "n75",
      "n47",
      "Payment Handled",
      "n27",
      "Declaration APPROVED by ADMINISTRATION",
      "n25",
      "Permit FINAL_APPROVED by SUPERVISOR",
      "Start trip",
      "n89",
      "start",
      "Permit APPROVED by ADMINISTRATION",
      "source",
      "Request Payment",
      "Declaration SUBMITTED by EMPLOYEE",
      "n85"
    ],
    [
      "n28",
      "n81",
      "Permit SUBMITTED by EMPLOYEE",
      "short_circuited_transition",
      "n70",
      "n82",
      "End trip",
      "n75",
      "n33",
      "Declaration FINAL_APPROVED by SUPERVISOR",
      "Payment Handled",
      "Declaration APPROVED by ADMINISTRATION",
      "Permit FINAL_APPROVED by SUPERVISOR",
      "Start trip",
      "n89",
      "start",
      "Permit APPROVED by ADMINISTRATION",
      "source",
      "n18",
      "Request Payment",
      "Declaration SUBMITTED by EMPLOYEE",
      "n85",
      "n35"
    ],
    [
      "n57",
      "n81",
      "Permit SUBMITTED by EMPLOYEE",
      "n49",
      "n2",
      "n11",
      "short_circuited_transition",
      "n70",
      "n82",
      "End trip",
      "n47",
      "Payment Handled",
      "Declaration FINAL_APPROVED by SUPERVISOR",
      "Declaration APPROVED by ADMINISTRATION",
      "Permit FINAL_APPROVED by SUPERVISOR",
      "Start trip",
      "n89",
      "start",
      "Permit APPROVED by ADMINISTRATION",
      "source",
      "Request Payment",
      "Declaration SUBMITTED by EMPLOYEE",
      "n85"
    ],
    [
      "n60",
      "n81",
      "Permit SUBMITTED by EMPLOYEE",
      "n49",
      "short_circuited_transition",
      "n82",
      "n67",
      "End trip",
      "n41",
      "Declaration APPROVED by ADMINISTRATION",
      "n25",
      "Permit FINAL_APPROVED by SUPERVISOR",
      "Start trip",
      "n7",
      "n89",
      "start",
      "Permit APPROVED by ADMINISTRATION",
      "source",
      "Request Payment",
      "Declaration SUBMITTED by EMPLOYEE",
      "n85"
    ],
    [
      "n81",
      "Permit SUBMITTED by EMPLOYEE",
      "n13",
      "short_circuited_transition",
      "n82",
      "n51",
      "End trip",
      "Payment Handled",
      "Declaration FINAL_APPROVED by SUPERVISOR",
      "n27",
      "Declaration APPROVED by ADMINISTRATION",
      "n25",
      "Permit FINAL_APPROVED by SUPERVISOR",
      "n85",
      "Start trip",
      "n89",
      "start",
      "Permit APPROVED by ADMINISTRATION",
      "source",
      "n54",
      "Declaration SUBMITTED by EMPLOYEE",
      "n40"
    ],
    [
      "n60",
      "n81",
      "Permit SUBMITTED by EMPLOYEE",
      "n49",
      "short_circuited_transition",
      "n82",
      "n67",
      "n75",
      "End trip",
      "Payment Handled",
      "Declaration APPROVED by ADMINISTRATION",
      "Permit FINAL_APPROVED by SUPERVISOR",
      "Start trip",
      "n89",
      "start",
      "Permit APPROVED by ADMINISTRATION",
      "source",
      "Request Payment",
      "Declaration SUBMITTED by EMPLOYEE",
      "n4",
      "n85",
      "n8"
    ],
    [
      "n81",
      "Permit SUBMITTED by EMPLOYEE",
      "n2",
      "short_circuited_transition",
      "n82",
      "End trip",
      "n3",
      "Declaration FINAL_APPROVED by SUPERVISOR",
      "Payment Handled",
      "n27",
      "n41",
      "Declaration APPROVED by ADMINISTRATION",
      "Permit FINAL_APPROVED by SUPERVISOR",
      "Start trip",
      "n89",
      "start",
      "Permit APPROVED by ADMINISTRATION",
      "n37",
      "source",
      "Request Payment",
      "Declaration SUBMITTED by EMPLOYEE",
      "n85",
      "n17"
    ],
    [
      "n81",
      "Permit SUBMITTED by EMPLOYEE",
      "n74",
      "n76",
      "short_circuited_transition",
      "n82",
      "End trip",
      "n75",
      "n20",
      "Payment Handled",
      "Declaration FINAL_APPROVED by SUPERVISOR",
      "Declaration APPROVED by ADMINISTRATION",
      "Permit FINAL_APPROVED by SUPERVISOR",
      "Start trip",
      "n77",
      "n89",
      "start",
      "Permit APPROVED by ADMINISTRATION",
      "source",
      "n18",
      "Request Payment",
      "Declaration SUBMITTED by EMPLOYEE",
      "n85"
    ],
    [
      "n81",
      "Permit SUBMITTED by EMPLOYEE",
      "n21",
      "short_circuited_transition",
      "n82",
      "End trip",
      "n35",
      "Declaration FINAL_APPROVED by SUPERVISOR",
      "Payment Handled",
      "n27",
      "Declaration APPROVED by ADMINISTRATION",
      "n41",
      "n38",
      "Permit FINAL_APPROVED by SUPERVISOR",
      "Start trip",
      "n89",
      "start",
      "Permit APPROVED by ADMINISTRATION",
      "source",
      "Request Payment",
      "Declaration SUBMITTED by EMPLOYEE",
      "n85",
      "n17"
    ],
    [
      "n81",
      "Permit SUBMITTED by EMPLOYEE",
      "n29",
      "n52",
      "n13",
      "n79",
      "n76",
      "short_circuited_transition",
      "n82",
      "End trip",
      "n20",
      "Payment Handled",
      "Declaration FINAL_APPROVED by SUPERVISOR",
      "Declaration APPROVED by ADMINISTRATION",
      "Permit FINAL_APPROVED by SUPERVISOR",
      "Start trip",
      "n89",
      "start",
      "Permit APPROVED by ADMINISTRATION",
      "source",
      "Request Payment",
      "Declaration SUBMITTED by EMPLOYEE",
      "n85"
    ],
    [
      "n60",
      "n81",
      "Permit SUBMITTED by EMPLOYEE",
      "n15",
      "n13",
      "short_circuited_transition",
      "n82",
      "End trip",
      "Payment Handled",
      "n27",
      "Declaration APPROVED by ADMINISTRATION",
      "n25",
      "Permit FINAL_APPROVED by SUPERVISOR",
      "n85",
      "Start trip",
      "n89",
      "start",
      "Permit APPROVED by ADMINISTRATION",
      "source",
      "Request Payment",
      "Declaration SUBMITTED by EMPLOYEE",
      "n40"
    ],
    [
      "n81",
      "Permit SUBMITTED by EMPLOYEE",
      "n19",
      "n39",
      "short_circuited_transition",
      "n82",
      "n71",
      "End trip",
      "Declaration FINAL_APPROVED by SUPERVISOR",
      "Payment Handled",
      "n41",
      "Declaration APPROVED by ADMINISTRATION",
      "Permit FINAL_APPROVED by SUPERVISOR",
      "Start trip",
      "n89",
      "start",
      "n59",
      "Permit APPROVED by ADMINISTRATION",
      "source",
      "Request Payment",
      "Declaration SUBMITTED by EMPLOYEE",
      "n85",
      "n17"
    ],
    [
      "n81",
      "Permit SUBMITTED by EMPLOYEE",
      "n64",
      "n76",
      "short_circuited_transition",
      "n82",
      "End trip",
      "n12",
      "Payment Handled",
      "Declaration FINAL_APPROVED by SUPERVISOR",
      "n41",
      "Declaration APPROVED by ADMINISTRATION",
      "Permit FINAL_APPROVED by SUPERVISOR",
      "Start trip",
      "n77",
      "n89",
      "start",
      "n48",
      "Permit APPROVED by ADMINISTRATION",
      "source",
      "Request Payment",
      "Declaration SUBMITTED by EMPLOYEE",
      "n85"
    ],
    [
      "n81",
      "Permit SUBMITTED by EMPLOYEE",
      "n76",
      "short_circuited_transition",
      "n70",
      "n82",
      "End trip",
      "n75",
      "Payment Handled",
      "Declaration FINAL_APPROVED by SUPERVISOR",
      "Declaration APPROVED by ADMINISTRATION",
      "Permit FINAL_APPROVED by SUPERVISOR",
      "Start trip",
      "n77",
      "n89",
      "start",
      "Permit APPROVED by ADMINISTRATION",
      "source",
      "n18",
      "Request Payment",
      "Declaration SUBMITTED by EMPLOYEE",
      "n85",
      "n17"
    ],
    [
      "n81",
      "Permit SUBMITTED by EMPLOYEE",
      "n49",
      "n19",
      "n79",
      "n76",
      "short_circuited_transition",
      "n70",
      "n82",
      "End trip",
      "Declaration FINAL_APPROVED by SUPERVISOR",
      "Payment Handled",
      "Declaration APPROVED by ADMINISTRATION",
      "Permit FINAL_APPROVED by SUPERVISOR",
      "n85",
      "Start trip",
      "n89",
      "start",
      "Permit APPROVED by ADMINISTRATION",
      "source",
      "Request Payment",
      "Declaration SUBMITTED by EMPLOYEE",
      "n40"
    ],
    [
      "n81",
      "Permit SUBMITTED by EMPLOYEE",
      "n49",
      "n9",
      "n2",
      "short_circuited_transition",
      "n82",
      "n67",
      "End trip",
      "n43",
      "Payment Handled",
      "Declaration FINAL_APPROVED by SUPERVISOR",
      "Declaration APPROVED by ADMINISTRATION",
      "Permit FINAL_APPROVED by SUPERVISOR",
      "Start trip",
      "n89",
      "start",
      "Permit APPROVED by ADMINISTRATION",
      "source",
      "Request Payment",
      "Declaration SUBMITTED by EMPLOYEE",
      "n72",
      "n85"
    ],
    [
      "n81",
      "Permit SUBMITTED by EMPLOYEE",
      "n21",
      "n52",
      "short_circuited_transition",
      "n82",
      "n32",
      "End trip",
      "n10",
      "n33",
      "Declaration FINAL_APPROVED by SUPERVISOR",
      "Payment Handled",
      "Declaration APPROVED by ADMINISTRATION",
      "Permit FINAL_APPROVED by SUPERVISOR",
      "Start trip",
      "n89",
      "start",
      "n59",
      "Permit APPROVED by ADMINISTRATION",
      "source",
      "Request Payment",
      "Declaration SUBMITTED by EMPLOYEE",
      "n85"
    ],
    [
      "n81",
      "n62",
      "Permit SUBMITTED by EMPLOYEE",
      "n74",
      "short_circuited_transition",
      "n70",
      "n82",
      "n80",
      "n67",
      "n71",
      "End trip",
      "Declaration FINAL_APPROVED by SUPERVISOR",
      "n46",
      "n27",
      "Declaration APPROVED by ADMINISTRATION",
      "Permit FINAL_APPROVED by SUPERVISOR",
      "n7",
      "Start trip",
      "n89",
      "start",
      "Permit APPROVED by ADMINISTRATION",
      "source",
      "Request Payment",
      "Declaration SUBMITTED by EMPLOYEE",
      "n85"
    ],
    [
      "n81",
      "Permit SUBMITTED by EMPLOYEE",
      "n19",
      "short_circuited_transition",
      "n82",
      "n71",
      "n31",
      "End trip",
      "n58",
      "Payment Handled",
      "Declaration FINAL_APPROVED by SUPERVISOR",
      "Declaration APPROVED by ADMINISTRATION",
      "Permit FINAL_APPROVED by SUPERVISOR",
      "Start trip",
      "n89",
      "start",
      "Permit APPROVED by ADMINISTRATION",
      "source",
      "Request Payment",
      "Declaration SUBMITTED by EMPLOYEE",
      "n4",
      "n85",
      "n8"
    ],
    [
      "n16",
      "n81",
      "Permit SUBMITTED by EMPLOYEE",
      "n74",
      "n19",
      "short_circuited_transition",
      "n82",
      "End trip",
      "n50",
      "Declaration FINAL_APPROVED by SUPERVISOR",
      "Payment Handled",
      "Declaration APPROVED by ADMINISTRATION",
      "Permit FINAL_APPROVED by SUPERVISOR",
      "Start trip",
      "n89",
      "start",
      "Permit APPROVED by ADMINISTRATION",
      "source",
      "Request Payment",
      "Declaration SUBMITTED by EMPLOYEE",
      "n4",
      "n85",
      "n8"
    ],
    [
      "n81",
      "Permit SUBMITTED by EMPLOYEE",
      "n9",
      "short_circuited_transition",
      "n82",
      "n80",
      "End trip",
      "n65",
      "Payment Handled",
      "Declaration FINAL_APPROVED by SUPERVISOR",
      "Declaration APPROVED by ADMINISTRATION",
      "Permit FINAL_APPROVED by SUPERVISOR",
      "Start trip",
      "n89",
      "start",
      "n48",
      "Permit APPROVED by ADMINISTRATION",
      "n37",
      "source",
      "n54",
      "Declaration SUBMITTED by EMPLOYEE",
      "n85"
    ],
    [
      "n81",
      "Permit SUBMITTED by EMPLOYEE",
      "n74",
      "n21",
      "short_circuited_transition",
      "n70",
      "n82",
      "n80",
      "n67",
      "n71",
      "End trip",
      "n42",
      "Declaration FINAL_APPROVED by SUPERVISOR",
      "Payment Handled",
      "n46",
      "Declaration APPROVED by ADMINISTRATION",
      "Permit FINAL_APPROVED by SUPERVISOR",
      "Start trip",
      "n89",
      "start",
      "Permit APPROVED by ADMINISTRATION",
      "source",
      "Request Payment",
      "Declaration SUBMITTED by EMPLOYEE",
      "n85"
    ],
    [
      "n28",
      "n81",
      "n57",
      "Permit SUBMITTED by EMPLOYEE",
      "short_circuited_transition",
      "n82",
      "End trip",
      "n61",
      "Payment Handled",
      "Declaration FINAL_APPROVED by SUPERVISOR",
      "n27",
      "Declaration APPROVED by ADMINISTRATION",
      "n41",
      "Permit FINAL_APPROVED by SUPERVISOR",
      "Start trip",
      "n89",
      "start",
      "n6",
      "Permit APPROVED by ADMINISTRATION",
      "source",
      "Request Payment",
      "Declaration SUBMITTED by EMPLOYEE",
      "n85"
    ],
    [
      "n81",
      "Permit SUBMITTED by EMPLOYEE",
      "n29",
      "short_circuited_transition",
      "n82",
      "n67",
      "End trip",
      "n47",
      "Declaration FINAL_APPROVED by SUPERVISOR",
      "Payment Handled",
      "n46",
      "Declaration APPROVED by ADMINISTRATION",
      "n25",
      "Permit FINAL_APPROVED by SUPERVISOR",
      "Start trip",
      "n89",
      "start",
      "Permit APPROVED by ADMINISTRATION",
      "source",
      "Request Payment",
      "Declaration SUBMITTED by EMPLOYEE",
      "n5",
      "n85"
    ],
    [
      "n81",
      "Permit SUBMITTED by EMPLOYEE",
      "n19",
      "short_circuited_transition",
      "n82",
      "n80",
      "n31",
      "End trip",
      "n20",
      "Payment Handled",
      "Declaration FINAL_APPROVED by SUPERVISOR",
      "Declaration APPROVED by ADMINISTRATION",
      "Permit FINAL_APPROVED by SUPERVISOR",
      "Start trip",
      "n89",
      "start",
      "Permit APPROVED by ADMINISTRATION",
      "source",
      "n66",
      "Request Payment",
      "Declaration SUBMITTED by EMPLOYEE",
      "n5",
      "n85"
    ],
    [
      "n81",
      "n62",
      "Permit SUBMITTED by EMPLOYEE",
      "n74",
      "short_circuited_transition",
      "n70",
      "n82",
      "n80",
      "n67",
      "n71",
      "End trip",
      "n23",
      "Payment Handled",
      "Declaration FINAL_APPROVED by SUPERVISOR",
      "n46",
      "n27",
      "Declaration APPROVED by ADMINISTRATION",
      "Permit FINAL_APPROVED by SUPERVISOR",
      "Start trip",
      "n89",
      "start",
      "Permit APPROVED by ADMINISTRATION",
      "source",
      "Request Payment",
      "Declaration SUBMITTED by EMPLOYEE",
      "n85"
    ]
  ],
  "sound": false,
  "uncovered_places_s_component": [
    "n26",
    "n44",
    "n22",
    "n30",
    "n14",
    "n45",
    "n34",
    "n56",
    "n69",
    "n78",
    "n55",
    "n24",
    "n68"
  ]
}