{
  "easy_soundness": true,
  "filename": "/home/dominique/TUe/thesis/git_data/evaluation_data/BPI_2020_Permit_log/predictions/data_heuristics_reduced_cc.txt",
  "full": {
    "fitness                         ": "0.87810",
    "fitness_alignments              ": "0.59374",
    "fitness_alignments_percFitTraces": "0.58033",
    "fscore                          ": "0.91007",
    "fscore_alignments               ": "0.72911",
    "generalization                  ": "0.90668",
    "metricsAverageWeight            ": "0.83231",
    "precision                       ": "0.94445",
    "precision_alignments            ": "0.94445",
    "simplicity                      ": "0.60000"
  },
  "s_components": [],
  "sound": false,
  "uncovered_places_s_component": [
    "n33",
    "n20",
    "n21",
    "n30",
    "n3",
    "n4",
    "n7",
    "n10",
    "n12",
    "n35",
    "n28",
    "n5",
    "n32",
    "n36",
    "n13",
    "n40",
    "n25",
    "n34",
    "n9",
    "n1",
    "n6",
    "n16",
    "n23",
    "n19",
    "n39",
    "n41",
    "n22",
    "n29",
    "n2",
    "n26",
    "source",
    "n38",
    "n37",
    "n27",
    "n14",
    "n31",
    "n15",
    "n11",
    "n18",
    "n17",
    "n42",
    "n24",
    "n8"
  ]
}