{
  "easy_soundness": true,
  "filename": "/mnt/c/Users/s140511/tue/thesis/thesis_data/evaluation_data/BPI_2020_International_declarations/predictions/data_gcn_complexep100_14_cc.json",
  "full": {
    "fitness": {
      "average_trace_fitness": 0.8799623503137415,
      "log_fitness": 0.8908819610258809,
      "perc_fit_traces": 12.00186075360521,
      "percentage_of_fitting_traces": 12.00186075360521
    },
    "fitness_alignments": {
      "averageFitness": 0.6386864457883106,
      "average_trace_fitness": 0.6386864457883106,
      "percFitTraces": 11.645216312606605,
      "percentage_of_fitting_traces": 11.645216312606605
    },
    "fscore": 0.9079904228807086,
    "generalization": 0.9843805391965926,
    "metricsAverageWeight": 0.9224800600755787,
    "precision": 0.9257688511909525,
    "precision_alignments": 1.0,
    "simplicity": 0.8888888888888888
  },
  "s_components": [
    [
      "p12",
      "Declaration APPROVED by ADMINISTRATION",
      "p4",
      ">",
      "Permit FINAL_APPROVED by SUPERVISOR",
      "Declaration SUBMITTED by EMPLOYEE",
      "p2",
      "p0",
      "source",
      "short_circuited_transition",
      "sink",
      "st0",
      "Permit APPROVED by BUDGET OWNER",
      "p6",
      "Permit SUBMITTED by EMPLOYEE",
      "p13",
      "Declaration FINAL_APPROVED by SUPERVISOR",
      "Start trip",
      "Permit APPROVED by ADMINISTRATION",
      "p11",
      "p7",
      "Payment Handled",
      "Request Payment",
      "|",
      "End trip",
      "p5",
      "p10",
      "p1",
      "p3"
    ],
    [
      "Declaration APPROVED by ADMINISTRATION",
      "p4",
      "p9",
      "Declaration APPROVED by BUDGET OWNER",
      ">",
      "Permit FINAL_APPROVED by SUPERVISOR",
      "Declaration SUBMITTED by EMPLOYEE",
      "p2",
      "p0",
      "source",
      "short_circuited_transition",
      "sink",
      "st0",
      "st1",
      "Permit APPROVED by BUDGET OWNER",
      "p6",
      "p8",
      "Permit SUBMITTED by EMPLOYEE",
      "p13",
      "Start trip",
      "Declaration FINAL_APPROVED by SUPERVISOR",
      "Permit APPROVED by ADMINISTRATION",
      "p11",
      "p7",
      "Payment Handled",
      "Request Payment",
      "|",
      "End trip",
      "p5",
      "p10",
      "p1",
      "p3"
    ]
  ],
  "sound": true,
  "top 3": {
    "fitness": {
      "average_trace_fitness": 0.943559523443647,
      "log_fitness": 0.9459462537922934,
      "perc_fit_traces": 26.727926488214145,
      "percentage_of_fitting_traces": 26.727926488214145
    },
    "fitness_alignments": {
      "averageFitness": 0.9185865849868943,
      "average_trace_fitness": 0.9185865849868943,
      "percFitTraces": 26.727926488214145,
      "percentage_of_fitting_traces": 26.727926488214145
    },
    "fscore": 0.9438956575777252,
    "generalization": 0.975072543365467,
    "metricsAverageWeight": 0.9379404046577297,
    "precision": 0.9418539325842696,
    "precision_alignments": 0.9418539325842696,
    "simplicity": 0.8888888888888888
  },
  "uncovered_places_s_component": []
}