{
  "easy_soundness": true,
  "filename": "/mnt/c/Users/s140511/tue/thesis/thesis_data/evaluation_data/BPI_2020_International_declarations/predictions/data_gcn_complexep100_0_cc.json",
  "full": {
    "fitness": {
      "average_trace_fitness": 0.8710550339169026,
      "log_fitness": 0.8793401468660457,
      "perc_fit_traces": 21.073034579004496,
      "percentage_of_fitting_traces": 21.073034579004496
    },
    "fitness_alignments": {
      "averageFitness": 0.5632074740269809,
      "average_trace_fitness": 0.5632074740269809,
      "percFitTraces": 16.17305008528454,
      "percentage_of_fitting_traces": 16.17305008528454
    },
    "fscore": 0.884795177701286,
    "generalization": 0.9840981304953549,
    "metricsAverageWeight": 0.9232876322230922,
    "precision": 0.8903183121370286,
    "precision_alignments": 0.9692475527774502,
    "simplicity": 0.9393939393939394
  },
  "sound": true,
  "top 3": {
    "fitness": {
      "average_trace_fitness": 0.9097698146839078,
      "log_fitness": 0.9133335301236827,
      "perc_fit_traces": 41.35037954454654,
      "percentage_of_fitting_traces": 41.35037954454654
    },
    "fitness_alignments": {
      "averageFitness": 0.8533759488613664,
      "average_trace_fitness": 0.8533759488613664,
      "percFitTraces": 41.35037954454654,
      "percentage_of_fitting_traces": 41.35037954454654
    },
    "fscore": 0.9290091738749187,
    "generalization": 0.9734368527529459,
    "metricsAverageWeight": 0.9428491554962058,
    "precision": 0.9452322997142555,
    "precision_alignments": 0.9452322997142555,
    "simplicity": 0.9393939393939394
  }
}