{
  "L": {
    "fitness": 0.9263223411467885,
    "fitness_alignments": 0.8589423358889914,
    "fitness_alignments_percFitTraces": 35.12172429834083,
    "fitness_entropy_exact": 0.0,
    "fitness_entropy_partial": 0.63331819669128,
    "fitness_percFitTraces": 35.47836873933943,
    "fscore": 0.9269575521438822,
    "fscore_alignments": 0.9241193976877441,
    "fscore_entropy_exact": 0,
    "fscore_entropy_partial": 0.7084035043977039,
    "generalization": 0.9841687362942589,
    "metricsAverageWeight": 0.9317434003101611,
    "precision": 0.9275936349107081,
    "precision_alignments": 1.0,
    "precision_entropy_exact": 0.0,
    "precision_entropy_partial": 0.8036875626421721,
    "simplicity": 0.8888888888888888
  },
  "L_3": {
    "fitness": 0.9899580212363157,
    "fitness_alignments": 0.9913985570256947,
    "fitness_alignments_percFitTraces": 85.3775469436676,
    "fitness_entropy_exact": 0.0,
    "fitness_entropy_partial": 1.000000000458255,
    "fitness_percFitTraces": 85.3775469436676,
    "fscore": 0.9542314103188916,
    "fscore_alignments": 0.954900124685534,
    "fscore_entropy_exact": 0,
    "fscore_entropy_partial": 0.8911605087163954,
    "generalization": 0.9750035827234634,
    "metricsAverageWeight": 0.9437110370879916,
    "precision": 0.9209936555032985,
    "precision_alignments": 0.9209936555032985,
    "precision_entropy_exact": 0.0,
    "precision_entropy_partial": 0.8036875628920551,
    "simplicity": 0.8888888888888888
  },
  "args": {
    "beam_length": 20,
    "beam_width": -50,
    "config": "config.json",
    "conformanceChecking": true,
    "dataDirectory": "/mnt/c/Users/s140511/tue/thesis/APDGnn_data/evaluation_data/BPI_2020_International_declarations/",
    "export": "simple",
    "import_petrinet": null,
    "length_normalization": 0,
    "logFilename": "data",
    "miner": "gnn",
    "model_filename": "/mnt/c/Users/s140511/tue/thesis/git_clean/project/ml_models/models/simple_ws2_frequency_144_",
    "number_of_petrinets": 20,
    "prom": false,
    "timeout": null,
    "top_x_traces": 3,
    "visualize": false
  },
  "easy_soundness": true,
  "log_filename": "/mnt/c/Users/s140511/tue/thesis/APDGnn_data/evaluation_data/BPI_2020_International_declarations/data",
  "petrinet_filename": "/mnt/c/Users/s140511/tue/thesis/APDGnn_data/evaluation_data/BPI_2020_International_declarations/predictions/data_gcn_simple_2",
  "sound": true,
  "soundness_info": {
    "s_components": [
      [
        "p8",
        "|",
        "p2",
        "short_circuited_transition",
        "Permit APPROVED by ADMINISTRATION",
        "Permit FINAL_APPROVED by SUPERVISOR",
        "p9",
        "Payment Handled",
        "st1",
        "p1",
        "p10",
        "Declaration APPROVED by BUDGET OWNER",
        "p12",
        "source",
        "p3",
        "Declaration APPROVED by ADMINISTRATION",
        "Permit APPROVED by BUDGET OWNER",
        "p0",
        "p4",
        "Declaration SUBMITTED by EMPLOYEE",
        "st2",
        "p5",
        "Start trip",
        "sink",
        ">",
        "st0",
        "Declaration FINAL_APPROVED by SUPERVISOR",
        "Permit SUBMITTED by EMPLOYEE",
        "p11",
        "Request Payment",
        "p6",
        "End trip",
        "p7"
      ]
    ],
    "uncovered_places_s_component": []
  }
}