{
  "easy_soundness": true,
  "filename": "/mnt/c/Users/s140511/tue/thesis/thesis_data/evaluation_data/BPI_2020_International_declarations/predictions/data_gcn_simpleep144_16_cc.json",
  "full": {
    "fitness": {
      "average_trace_fitness": 0.8922333841842088,
      "log_fitness": 0.9091042701045802,
      "perc_fit_traces": 34.485966816560705,
      "percentage_of_fitting_traces": 34.485966816560705
    },
    "fitness_alignments": {
      "averageFitness": 0.6953326097069279,
      "average_trace_fitness": 0.6953326097069279,
      "percFitTraces": 34.485966816560705,
      "percentage_of_fitting_traces": 34.485966816560705
    },
    "fscore": 0.9177473838827326,
    "generalization": 0.9850472772814365,
    "metricsAverageWeight": 0.9273992141270921,
    "precision": 0.9265564202334631,
    "precision_alignments": 1.0,
    "simplicity": 0.8888888888888888
  },
  "sound": true,
  "top 3": {
    "fitness": {
      "average_trace_fitness": 0.9684287945374762,
      "log_fitness": 0.9761946648876101,
      "perc_fit_traces": 85.3775469436676,
      "percentage_of_fitting_traces": 85.3775469436676
    },
    "fitness_alignments": {
      "averageFitness": 0.9707550938873618,
      "average_trace_fitness": 0.9707550938873618,
      "percFitTraces": 85.3775469436676,
      "percentage_of_fitting_traces": 85.3775469436676
    },
    "fscore": 0.9487947446218468,
    "generalization": 0.9767082339779881,
    "metricsAverageWeight": 0.9411706863483064,
    "precision": 0.9228909576387385,
    "precision_alignments": 0.9228909576387385,
    "simplicity": 0.8888888888888888
  }
}