{
  "L": {
    "fitness": 0.9415451367964325,
    "fitness_alignments": 0.8655852752239966,
    "fitness_alignments_percFitTraces": 40.797022794231665,
    "fitness_entropy_exact": 0.0,
    "fitness_entropy_partial": 0.633318196889637,
    "fitness_percFitTraces": 45.9451077686463,
    "fscore": 0.9011556209058674,
    "fscore_alignments": 0.9033614732565333,
    "fscore_entropy_exact": 0,
    "fscore_entropy_partial": 0.6989167920059707,
    "generalization": 0.9836533856109186,
    "metricsAverageWeight": 0.9088602811013683,
    "precision": 0.864088755844276,
    "precision_alignments": 0.9445854255529759,
    "precision_entropy_exact": 0.0,
    "precision_entropy_partial": 0.7796748977955151,
    "simplicity": 0.8461538461538463
  },
  "L_3": {
    "fitness": 1.0,
    "fitness_alignments": 1.0,
    "fitness_alignments_percFitTraces": 100.0,
    "fitness_entropy_exact": 0.0,
    "fitness_entropy_partial": 1.000000000667483,
    "fitness_percFitTraces": 100.0,
    "fscore": 0.9288256227758007,
    "fscore_alignments": 0.9288256227758007,
    "fscore_entropy_exact": 0,
    "fscore_entropy_partial": 0.8761992417628841,
    "generalization": 0.9734883371638859,
    "metricsAverageWeight": 0.9216879544673068,
    "precision": 0.867109634551495,
    "precision_alignments": 0.867109634551495,
    "precision_entropy_exact": 0.0,
    "precision_entropy_partial": 0.7796748977829213,
    "simplicity": 0.8461538461538463
  },
  "args": {
    "beam_length": 20,
    "beam_width": -50,
    "config": "config.json",
    "conformanceChecking": true,
    "dataDirectory": "/mnt/c/Users/s140511/tue/thesis/APDGnn_data/evaluation_data/BPI_2020_International_declarations/",
    "export": "simple",
    "import_petrinet": null,
    "length_normalization": 0,
    "logFilename": "data",
    "miner": "gnn",
    "model_filename": "/mnt/c/Users/s140511/tue/thesis/git_clean/project/ml_models/models/simple_ws2_frequency_144_",
    "number_of_petrinets": 20,
    "prom": false,
    "timeout": null,
    "top_x_traces": 3,
    "visualize": false
  },
  "easy_soundness": true,
  "log_filename": "/mnt/c/Users/s140511/tue/thesis/APDGnn_data/evaluation_data/BPI_2020_International_declarations/data",
  "petrinet_filename": "/mnt/c/Users/s140511/tue/thesis/APDGnn_data/evaluation_data/BPI_2020_International_declarations/predictions/data_gcn_simple_10",
  "sound": true,
  "soundness_info": {
    "s_components": [
      [
        "p11",
        "Start trip",
        "Declaration APPROVED by BUDGET OWNER",
        "p12",
        "st2",
        "p2",
        "p6",
        ">",
        "Payment Handled",
        "Permit FINAL_APPROVED by SUPERVISOR",
        "Declaration APPROVED by ADMINISTRATION",
        "st3",
        "st1",
        "short_circuited_transition",
        "Declaration SUBMITTED by EMPLOYEE",
        "p0",
        "Permit SUBMITTED by EMPLOYEE",
        "p3",
        "p1",
        "sink",
        "p4",
        "p5",
        "p9",
        "st0",
        "Request Payment",
        "End trip",
        "Permit APPROVED by BUDGET OWNER",
        "p8",
        "Declaration FINAL_APPROVED by SUPERVISOR",
        "p10",
        "Permit APPROVED by ADMINISTRATION",
        "|",
        "source",
        "p7"
      ]
    ],
    "uncovered_places_s_component": []
  }
}