{
  "easy_soundness": true,
  "filename": "/mnt/c/Users/s140511/tue/thesis/thesis_data/evaluation_data/BPI_2020_International_declarations/predictions/data_gcn_blahblah_repro_3_cc.json",
  "full": {
    "fitness": {
      "average_trace_fitness": 0.9195540336034018,
      "log_fitness": 0.9287155942954732,
      "perc_fit_traces": 34.485966816560705,
      "percentage_of_fitting_traces": 34.485966816560705
    },
    "fitness_alignments": {
      "averageFitness": 0.8573907613059635,
      "average_trace_fitness": 0.8573907613059635,
      "log_fitness": 0.8588139418258282,
      "percFitTraces": 34.485966816560705,
      "percentage_of_fitting_traces": 34.485966816560705
    },
    "fscore": 0.8847666866225566,
    "generalization": 0.9844499329704186,
    "metricsAverageWeight": 0.9117109432848148,
    "precision": 0.8447893569844789,
    "precision_alignments": 0.9343412803343711,
    "simplicity": 0.8888888888888888
  },
  "s_components": [
    [
      "p6",
      "End trip",
      "st2",
      "Request Payment",
      "Permit FINAL_APPROVED by SUPERVISOR",
      "Payment Handled",
      "sink",
      "p2",
      "st0",
      "p0",
      "p3",
      "p1",
      "Start trip",
      "p9",
      "st1",
      ">",
      "p8",
      "|",
      "p12",
      "Permit APPROVED by ADMINISTRATION",
      "source",
      "Permit APPROVED by BUDGET OWNER",
      "p4",
      "Declaration SUBMITTED by EMPLOYEE",
      "p10",
      "Permit SUBMITTED by EMPLOYEE",
      "Declaration APPROVED by ADMINISTRATION",
      "Declaration APPROVED by BUDGET OWNER",
      "Declaration FINAL_APPROVED by SUPERVISOR",
      "short_circuited_transition",
      "p5",
      "p7",
      "p11"
    ]
  ],
  "sound": true,
  "top 3": {
    "fitness": {
      "average_trace_fitness": 0.9878146224530342,
      "log_fitness": 0.9899580212363157,
      "perc_fit_traces": 85.3775469436676,
      "percentage_of_fitting_traces": 85.3775469436676
    },
    "fitness_alignments": {
      "averageFitness": 0.9913985570256947,
      "average_trace_fitness": 0.9913985570256947,
      "log_fitness": 0.9923829542633597,
      "percFitTraces": 85.3775469436676,
      "percentage_of_fitting_traces": 85.3775469436676
    },
    "fscore": 0.9185911879895415,
    "generalization": 0.9750035827234634,
    "metricsAverageWeight": 0.9276681774649559,
    "precision": 0.8568222170111555,
    "precision_alignments": 0.8568222170111555,
    "simplicity": 0.8888888888888888
  },
  "uncovered_places_s_component": []
}