{
  "easy_soundness": true,
  "filename": "/mnt/c/Users/s140511/tue/thesis/thesis_data/evaluation_data/BPI_2020_International_declarations/predictions/data_gcn_complexep100_12_cc.json",
  "full": {
    "entropia_precision": 0.9727933838574784,
    "entropia_recall": 0.57806276705008,
    "fitness": {
      "average_trace_fitness": 0.8705696614228332,
      "log_fitness": 0.877548854755771,
      "perc_fit_traces": 21.073034579004496,
      "percentage_of_fitting_traces": 21.073034579004496
    },
    "fitness_alignments": {
      "averageFitness": 0.5632074740269809,
      "average_trace_fitness": 0.5632074740269809,
      "percFitTraces": 16.17305008528454,
      "percentage_of_fitting_traces": 16.17305008528454
    },
    "fscore": 0.883887465999098,
    "generalization": 0.9840981304953549,
    "metricsAverageWeight": 0.9102135465692608,
    "precision": 0.8903183121370286,
    "precision_alignments": 0.9692475527774502,
    "simplicity": 0.8888888888888888
  },
  "sound": true,
  "top 3": {
    "fitness": {
      "average_trace_fitness": 0.9162148279207895,
      "log_fitness": 0.9192963166575041,
      "perc_fit_traces": 41.35037954454654,
      "percentage_of_fitting_traces": 41.35037954454654
    },
    "fitness_alignments": {
      "averageFitness": 0.8533759488613664,
      "average_trace_fitness": 0.8533759488613664,
      "percFitTraces": 41.35037954454654,
      "percentage_of_fitting_traces": 41.35037954454654
    },
    "fscore": 0.9320839207112084,
    "generalization": 0.9734368527529459,
    "metricsAverageWeight": 0.9317135895033986,
    "precision": 0.9452322997142555,
    "precision_alignments": 0.9452322997142555,
    "simplicity": 0.8888888888888888
  }
}