{
  "easy_soundness": true,
  "filename": "/mnt/c/Users/s140511/tue/thesis/thesis_data/evaluation_data/BPI_2020_International_declarations/predictions/data_gcn_simpleep144_5_cc.json",
  "full": {
    "fitness": {
      "average_trace_fitness": 0.9061614284266655,
      "log_fitness": 0.9134611058622396,
      "perc_fit_traces": 21.786323461001707,
      "percentage_of_fitting_traces": 21.786323461001707
    },
    "fitness_alignments": {
      "averageFitness": 0.6222282524422391,
      "average_trace_fitness": 0.6222282524422391,
      "percFitTraces": 16.88633896728175,
      "percentage_of_fitting_traces": 16.88633896728175
    },
    "fscore": 0.8817322445464892,
    "generalization": 0.9839029398695647,
    "metricsAverageWeight": 0.9095966288314256,
    "precision": 0.8521335807050092,
    "precision_alignments": 0.9385943919269275,
    "simplicity": 0.8888888888888888
  },
  "s_components": [
    [
      "Declaration SUBMITTED by EMPLOYEE",
      "st0",
      "p11",
      "st2",
      "Declaration APPROVED by ADMINISTRATION",
      "Start trip",
      "|",
      "short_circuited_transition",
      "End trip",
      "Permit FINAL_APPROVED by SUPERVISOR",
      "p4",
      "p8",
      "sink",
      ">",
      "Declaration FINAL_APPROVED by SUPERVISOR",
      "p9",
      "source",
      "p6",
      "p3",
      "st1",
      "Request Payment",
      "p10",
      "Declaration APPROVED by BUDGET OWNER",
      "p5",
      "p1",
      "p12",
      "p0",
      "Permit APPROVED by BUDGET OWNER",
      "p7",
      "Payment Handled",
      "p2",
      "Permit SUBMITTED by EMPLOYEE",
      "Permit APPROVED by ADMINISTRATION"
    ]
  ],
  "sound": true,
  "top 3": {
    "fitness": {
      "average_trace_fitness": 0.9581074139603808,
      "log_fitness": 0.9584665440656387,
      "perc_fit_traces": 41.35037954454654,
      "percentage_of_fitting_traces": 41.35037954454654
    },
    "fitness_alignments": {
      "averageFitness": 0.9266879744306832,
      "average_trace_fitness": 0.9266879744306832,
      "percFitTraces": 41.35037954454654,
      "percentage_of_fitting_traces": 41.35037954454654
    },
    "fscore": 0.9104070143705252,
    "generalization": 0.9734641092057965,
    "metricsAverageWeight": 0.9219391280760191,
    "precision": 0.8669369701437524,
    "precision_alignments": 0.8669369701437524,
    "simplicity": 0.8888888888888888
  },
  "uncovered_places_s_component": []
}