{
  "easy_soundness": true,
  "filename": "/mnt/c/Users/s140511/tue/thesis/thesis_data/evaluation_data/BPI_2020_International_declarations/predictions/data_gcn_complexep100_19_cca.json",
  "full": {
    "entropia_precision": 1.0296138148019685,
    "entropia_recall": 0.607278744326326,
    "fitness": {
      "average_trace_fitness": 0.9119426471654399,
      "log_fitness": 0.921179187163627,
      "perc_fit_traces": 35.47836873933943,
      "percentage_of_fitting_traces": 35.47836873933943
    },
    "fitness_alignments": {
      "averageFitness": 0.8589423358889914,
      "average_trace_fitness": 0.8589423358889914,
      "log_fitness": 0.8602790909973881,
      "percFitTraces": 35.12172429834083,
      "percentage_of_fitting_traces": 35.12172429834083
    },
    "fscore": 0.9243752833476514,
    "generalization": 0.9841687362942589,
    "metricsAverageWeight": 0.91977385113061,
    "precision": 0.9275936349107081,
    "precision_alignments": 1.0,
    "simplicity": 0.8461538461538463
  },
  "sound": true,
  "top 3": {
    "fitness": {
      "average_trace_fitness": 0.9887519591874673,
      "log_fitness": 0.9906033376123234,
      "perc_fit_traces": 85.3775469436676,
      "percentage_of_fitting_traces": 85.3775469436676
    },
    "fitness_alignments": {
      "averageFitness": 0.9913985570256947,
      "average_trace_fitness": 0.9913985570256947,
      "log_fitness": 0.9923829542633597,
      "percFitTraces": 85.3775469436676,
      "percentage_of_fitting_traces": 85.3775469436676
    },
    "fscore": 0.9545310987064934,
    "generalization": 0.9750035827234634,
    "metricsAverageWeight": 0.9331886054982329,
    "precision": 0.9209936555032985,
    "precision_alignments": 0.9209936555032985,
    "simplicity": 0.8461538461538463
  }
}