{
  "easy_soundness": true,
  "filename": "/mnt/c/Users/s140511/tue/thesis/thesis_data/evaluation_data/BPI_2020_International_declarations/predictions/data_gcn_complexep100_3_cc.json",
  "full": {
    "fitness": {
      "average_trace_fitness": 0.9061614284266655,
      "log_fitness": 0.9134611058622396,
      "perc_fit_traces": 21.786323461001707,
      "percentage_of_fitting_traces": 21.786323461001707
    },
    "fitness_alignments": {
      "averageFitness": 0.6222282524422391,
      "average_trace_fitness": 0.6222282524422391,
      "percFitTraces": 16.88633896728175,
      "percentage_of_fitting_traces": 16.88633896728175
    },
    "fscore": 0.8817322445464892,
    "generalization": 0.9839029398695647,
    "metricsAverageWeight": 0.9095966288314256,
    "precision": 0.8521335807050092,
    "precision_alignments": 0.9385943919269275,
    "simplicity": 0.8888888888888888
  },
  "s_components": [
    [
      "Permit APPROVED by ADMINISTRATION",
      "p4",
      "Permit FINAL_APPROVED by SUPERVISOR",
      "Declaration SUBMITTED by EMPLOYEE",
      "p0",
      "p10",
      "sink",
      "|",
      "p3",
      "Payment Handled",
      "Declaration APPROVED by ADMINISTRATION",
      "st2",
      "st0",
      "Start trip",
      "p9",
      "Declaration FINAL_APPROVED by SUPERVISOR",
      "source",
      "p1",
      "p5",
      "End trip",
      "Request Payment",
      ">",
      "p2",
      "Permit APPROVED by BUDGET OWNER",
      "st1",
      "Permit SUBMITTED by EMPLOYEE",
      "p6",
      "p8",
      "Declaration APPROVED by BUDGET OWNER",
      "p7",
      "short_circuited_transition",
      "p11",
      "p12"
    ]
  ],
  "sound": true,
  "top 3": {
    "fitness": {
      "average_trace_fitness": 0.9581074139603808,
      "log_fitness": 0.9584665440656387,
      "perc_fit_traces": 41.35037954454654,
      "percentage_of_fitting_traces": 41.35037954454654
    },
    "fitness_alignments": {
      "averageFitness": 0.9266879744306832,
      "average_trace_fitness": 0.9266879744306832,
      "percFitTraces": 41.35037954454654,
      "percentage_of_fitting_traces": 41.35037954454654
    },
    "fscore": 0.9104070143705252,
    "generalization": 0.9734641092057965,
    "metricsAverageWeight": 0.9219391280760191,
    "precision": 0.8669369701437524,
    "precision_alignments": 0.8669369701437524,
    "simplicity": 0.8888888888888888
  },
  "uncovered_places_s_component": []
}