{
  "easy_soundness": true,
  "filename": "/mnt/c/Users/s140511/tue/thesis/thesis_data/evaluation_data/BPI_2020_International_declarations/predictions/data_gcn_simpleep144_10_cc.json",
  "full": {
    "fitness": {
      "average_trace_fitness": 0.9339527559310756,
      "log_fitness": 0.9415451367964325,
      "perc_fit_traces": 45.9451077686463,
      "percentage_of_fitting_traces": 45.9451077686463
    },
    "fitness_alignments": {
      "averageFitness": 0.6822763219103737,
      "average_trace_fitness": 0.6822763219103737,
      "percFitTraces": 40.797022794231665,
      "percentage_of_fitting_traces": 40.797022794231665
    },
    "fscore": 0.9011556209058674,
    "generalization": 0.9836533856109186,
    "metricsAverageWeight": 0.9088602811013683,
    "precision": 0.864088755844276,
    "precision_alignments": 0.9445854255529759,
    "simplicity": 0.8461538461538463
  },
  "s_components": [
    [
      "p7",
      "Declaration SUBMITTED by EMPLOYEE",
      "st3",
      "st0",
      "Payment Handled",
      ">",
      "p2",
      "p11",
      "p1",
      "p0",
      "End trip",
      "Declaration FINAL_APPROVED by SUPERVISOR",
      "st2",
      "Permit APPROVED by BUDGET OWNER",
      "p9",
      "source",
      "p6",
      "Declaration APPROVED by ADMINISTRATION",
      "Permit SUBMITTED by EMPLOYEE",
      "p3",
      "Permit FINAL_APPROVED by SUPERVISOR",
      "|",
      "Start trip",
      "Request Payment",
      "st1",
      "p12",
      "sink",
      "p5",
      "p10",
      "Permit APPROVED by ADMINISTRATION",
      "short_circuited_transition",
      "p4",
      "Declaration APPROVED by BUDGET OWNER",
      "p8"
    ]
  ],
  "sound": true,
  "top 3": {
    "fitness": {
      "average_trace_fitness": 1.0,
      "log_fitness": 1.0,
      "perc_fit_traces": 100.0,
      "percentage_of_fitting_traces": 100.0
    },
    "fitness_alignments": {
      "averageFitness": 1.0,
      "average_trace_fitness": 1.0,
      "percFitTraces": 100.0,
      "percentage_of_fitting_traces": 100.0
    },
    "fscore": 0.9288256227758007,
    "generalization": 0.9734883371638859,
    "metricsAverageWeight": 0.9216879544673068,
    "precision": 0.867109634551495,
    "precision_alignments": 0.867109634551495,
    "simplicity": 0.8461538461538463
  },
  "uncovered_places_s_component": []
}