{
  "easy_soundness": true,
  "filename": "/mnt/c/Users/s140511/tue/thesis/thesis_data/evaluation_data/BPI_2020_International_declarations/predictions/data_gcn_simpleep144_2_cca.json",
  "full": {
    "entropia_precision": 1.017438289027013,
    "entropia_recall": 0.621476786652305,
    "fitness": {
      "average_trace_fitness": 0.9151022438487344,
      "log_fitness": 0.9263223411467885,
      "perc_fit_traces": 35.47836873933943,
      "percentage_of_fitting_traces": 35.47836873933943
    },
    "fitness_alignments": {
      "averageFitness": 0.8589423358889914,
      "average_trace_fitness": 0.8589423358889914,
      "log_fitness": 0.8602790909973881,
      "percFitTraces": 35.12172429834083,
      "percentage_of_fitting_traces": 35.12172429834083
    },
    "fscore": 0.9269575521438822,
    "generalization": 0.9841687362942589,
    "metricsAverageWeight": 0.9317434003101611,
    "precision": 0.9275936349107081,
    "precision_alignments": 1.0,
    "simplicity": 0.8888888888888888
  },
  "sound": true,
  "top 3": {
    "fitness": {
      "average_trace_fitness": 0.9878146224530342,
      "log_fitness": 0.9899580212363157,
      "perc_fit_traces": 85.3775469436676,
      "percentage_of_fitting_traces": 85.3775469436676
    },
    "fitness_alignments": {
      "averageFitness": 0.9913985570256947,
      "average_trace_fitness": 0.9913985570256947,
      "log_fitness": 0.9923829542633597,
      "percFitTraces": 85.3775469436676,
      "percentage_of_fitting_traces": 85.3775469436676
    },
    "fscore": 0.9542314103188916,
    "generalization": 0.9750035827234634,
    "metricsAverageWeight": 0.9437110370879916,
    "precision": 0.9209936555032985,
    "precision_alignments": 0.9209936555032985,
    "simplicity": 0.8888888888888888
  }
}