{
  "L": {
    "fitness": 0.8793401468660457,
    "fitness_alignments": 0.8145088727512368,
    "fitness_alignments_percFitTraces": 16.17305008528454,
    "fitness_entropy_exact": 0.0,
    "fitness_entropy_partial": 0.633318196201157,
    "fitness_percFitTraces": 21.073034579004496,
    "fscore": 0.884795177701286,
    "fscore_alignments": 0.8851665175032716,
    "fscore_entropy_exact": 0,
    "fscore_entropy_partial": 0.7208879644999692,
    "generalization": 0.9840981304953549,
    "metricsAverageWeight": 0.9232876322230922,
    "precision": 0.8903183121370286,
    "precision_alignments": 0.9692475527774502,
    "precision_entropy_exact": 0.0,
    "precision_entropy_partial": 0.8365602940810277,
    "simplicity": 0.9393939393939394
  },
  "L_3": {
    "fitness": 0.9133335301236827,
    "fitness_alignments": 0.9348337550495077,
    "fitness_alignments_percFitTraces": 41.35037954454654,
    "fitness_entropy_exact": 0.0,
    "fitness_entropy_partial": 1.000000000155481,
    "fitness_percFitTraces": 41.35037954454654,
    "fscore": 0.9290091738749187,
    "fscore_alignments": 0.9400042704850506,
    "fscore_entropy_exact": 0,
    "fscore_entropy_partial": 0.9110077106734282,
    "generalization": 0.9734368527529459,
    "metricsAverageWeight": 0.9428491554962058,
    "precision": 0.9452322997142555,
    "precision_alignments": 0.9452322997142555,
    "precision_entropy_exact": 0.0,
    "precision_entropy_partial": 0.83656029476416,
    "simplicity": 0.9393939393939394
  },
  "args": {
    "beam_length": 20,
    "beam_width": -50,
    "config": "config.json",
    "conformanceChecking": true,
    "dataDirectory": "/mnt/c/Users/s140511/tue/thesis/APDGnn_data/evaluation_data/BPI_2020_International_declarations/",
    "export": "complex",
    "import_petrinet": null,
    "length_normalization": 0,
    "logFilename": "data",
    "miner": "gnn",
    "model_filename": "/mnt/c/Users/s140511/tue/thesis/git_clean/project/ml_models/models/complex_ws_frequency_100_",
    "number_of_petrinets": 20,
    "prom": false,
    "timeout": null,
    "top_x_traces": 3,
    "visualize": false
  },
  "easy_soundness": true,
  "log_filename": "/mnt/c/Users/s140511/tue/thesis/APDGnn_data/evaluation_data/BPI_2020_International_declarations/data",
  "petrinet_filename": "/mnt/c/Users/s140511/tue/thesis/APDGnn_data/evaluation_data/BPI_2020_International_declarations/predictions/data_gcn_complex_0",
  "sound": true,
  "soundness_info": {
    "s_components": [
      [
        "p12",
        "Start trip",
        "p5",
        "p9",
        "st1",
        "source",
        "short_circuited_transition",
        "Permit APPROVED by BUDGET OWNER",
        "Permit SUBMITTED by EMPLOYEE",
        "Request Payment",
        "Declaration APPROVED by BUDGET OWNER",
        "p2",
        "p1",
        "p0",
        "Payment Handled",
        "p10",
        "p4",
        "Permit FINAL_APPROVED by SUPERVISOR",
        "st0",
        "Permit APPROVED by ADMINISTRATION",
        "|",
        "End trip",
        "p6",
        "Declaration SUBMITTED by EMPLOYEE",
        "p7",
        "p8",
        "sink",
        "p3",
        "p11",
        ">",
        "Declaration FINAL_APPROVED by SUPERVISOR",
        "Declaration APPROVED by ADMINISTRATION"
      ]
    ],
    "uncovered_places_s_component": []
  }
}