{
  "easy_soundness": true,
  "filename": "/mnt/c/Users/s140511/tue/thesis/thesis_data/evaluation_data/BPI_2020_International_declarations/predictions/data_gcn_complexep100_4_cc.json",
  "full": {
    "fitness": {
      "average_trace_fitness": 0.902276610508414,
      "log_fitness": 0.9091915085817525,
      "perc_fit_traces": 22.46859978291208,
      "percentage_of_fitting_traces": 22.46859978291208
    },
    "fitness_alignments": {
      "averageFitness": 0.6232555434951155,
      "average_trace_fitness": 0.6232555434951155,
      "percFitTraces": 17.320514808497443,
      "percentage_of_fitting_traces": 17.320514808497443
    },
    "fscore": 0.9008667631208955,
    "generalization": 0.9838224147729185,
    "metricsAverageWeight": 0.9186489732302842,
    "precision": 0.8926930806775768,
    "precision_alignments": 0.9700622865179828,
    "simplicity": 0.8888888888888888
  },
  "s_components": [
    [
      "p7",
      "Declaration APPROVED by ADMINISTRATION",
      "Permit APPROVED by BUDGET OWNER",
      "p12",
      "Declaration SUBMITTED by EMPLOYEE",
      "End trip",
      "Permit APPROVED by ADMINISTRATION",
      "short_circuited_transition",
      "p6",
      "Payment Handled",
      "st0",
      "p3",
      "p8",
      "p9",
      "Permit SUBMITTED by EMPLOYEE",
      "p1",
      "p2",
      "Start trip",
      "st2",
      ">",
      "Permit FINAL_APPROVED by SUPERVISOR",
      "p4",
      "p5",
      "st1",
      "p11",
      "p0",
      "|",
      "sink",
      "Declaration APPROVED by BUDGET OWNER",
      "Declaration FINAL_APPROVED by SUPERVISOR",
      "Request Payment",
      "source",
      "p10"
    ]
  ],
  "sound": true,
  "top 3": {
    "fitness": {
      "average_trace_fitness": 0.9581074139603808,
      "log_fitness": 0.9584665440656387,
      "perc_fit_traces": 41.35037954454654,
      "percentage_of_fitting_traces": 41.35037954454654
    },
    "fitness_alignments": {
      "averageFitness": 0.9266879744306832,
      "average_trace_fitness": 0.9266879744306832,
      "percFitTraces": 41.35037954454654,
      "percentage_of_fitting_traces": 41.35037954454654
    },
    "fscore": 0.9351361747025219,
    "generalization": 0.9734641092057965,
    "metricsAverageWeight": 0.9334335358186111,
    "precision": 0.9129146011141207,
    "precision_alignments": 0.9129146011141207,
    "simplicity": 0.8888888888888888
  },
  "uncovered_places_s_component": []
}