{
  "easy_soundness": false,
  "filename": "/home/dominique/TUe/thesis/git_data/evaluation_data/BPI_2020_International_declarations/predictions/data_gcn_testtesttest_3_cc.txt",
  "full": {
    "fitness                         ": "0.89021",
    "fscore                          ": "0.85618",
    "generalization                  ": "0.98061",
    "metricsAverageWeight            ": "0.86246",
    "precision                       ": "0.82465",
    "simplicity                      ": "0.75439"
  },
  "s_components": [
    [
      "Declaration SUBMITTED by EMPLOYEE",
      "p13",
      "Declaration REJECTED by EMPLOYEE",
      "Declaration REJECTED by ADMINISTRATION",
      "p17",
      "p14"
    ],
    [
      "End trip",
      "p0",
      "Declaration APPROVED by ADMINISTRATION",
      "|",
      "Permit SUBMITTED by EMPLOYEE",
      "short_circuited_transition",
      "p12",
      "Declaration SUBMITTED by EMPLOYEE",
      "Start trip",
      "Declaration APPROVED by BUDGET OWNER",
      "Permit FINAL_APPROVED by SUPERVISOR",
      "p15",
      "Declaration APPROVED by PRE_APPROVER",
      "p10",
      "sink",
      "p6",
      "st2",
      "p9",
      "st3",
      ">",
      "p11",
      "p4",
      "p16",
      "Payment Handled",
      "Declaration FINAL_APPROVED by SUPERVISOR",
      "p8",
      "p7",
      "Permit APPROVED by PRE_APPROVER",
      "st4",
      "p5",
      "source",
      "Request Payment"
    ],
    [
      "End trip",
      "p0",
      "Declaration APPROVED by ADMINISTRATION",
      "|",
      "Permit SUBMITTED by EMPLOYEE",
      "short_circuited_transition",
      "st1",
      "p12",
      "Declaration SUBMITTED by EMPLOYEE",
      "Start trip",
      "Declaration APPROVED by BUDGET OWNER",
      "Permit FINAL_APPROVED by SUPERVISOR",
      "Declaration APPROVED by PRE_APPROVER",
      "p10",
      "sink",
      "p6",
      "st2",
      "Permit APPROVED by ADMINISTRATION",
      "p9",
      "p3",
      "st3",
      ">",
      "st0",
      "p1",
      "p11",
      "p4",
      "Payment Handled",
      "Declaration FINAL_APPROVED by SUPERVISOR",
      "p8",
      "p7",
      "Permit APPROVED by BUDGET OWNER",
      "p5",
      "source",
      "Request Payment",
      "p2"
    ]
  ],
  "sound": false,
  "top 30": {
    "fitness                         ": "0.91449",
    "fscore                          ": "0.87760",
    "generalization                  ": "0.97619",
    "metricsAverageWeight            ": "0.87216",
    "precision                       ": "0.84357",
    "simplicity                      ": "0.75439"
  },
  "uncovered_places_s_component": []
}