{
  "easy_soundness": true,
  "filename": "/mnt/c/Users/s140511/tue/thesis/thesis_data/evaluation_data/BPI_2020_International_declarations/predictions/data_gcn_complexep100_8_cc.json",
  "full": {
    "fitness": {
      "average_trace_fitness": 0.8461927562972604,
      "log_fitness": 0.853956403787951,
      "perc_fit_traces": 10.606295549697627,
      "percentage_of_fitting_traces": 10.606295549697627
    },
    "fitness_alignments": {
      "averageFitness": 0.6029927120483684,
      "average_trace_fitness": 0.6029927120483684,
      "percFitTraces": 10.497751589393705,
      "percentage_of_fitting_traces": 10.497751589393705
    },
    "fscore": 0.8876023406783976,
    "generalization": 0.9845594574103373,
    "metricsAverageWeight": 0.9254795321116773,
    "precision": 0.9240083278544817,
    "precision_alignments": 1.0,
    "simplicity": 0.9393939393939394
  },
  "s_components": [
    [
      "p3",
      "Permit APPROVED by BUDGET OWNER",
      "p5",
      "Permit FINAL_APPROVED by SUPERVISOR",
      "st0",
      "p10",
      "Payment Handled",
      "p9",
      "Start trip",
      "p2",
      "Permit SUBMITTED by EMPLOYEE",
      "Declaration FINAL_APPROVED by SUPERVISOR",
      "p1",
      "p13",
      "p4",
      "Permit APPROVED by ADMINISTRATION",
      "source",
      "Declaration SUBMITTED by EMPLOYEE",
      "p0",
      "p7",
      "p6",
      ">",
      "|",
      "End trip",
      "short_circuited_transition",
      "Request Payment",
      "sink"
    ],
    [
      "p3",
      "Permit APPROVED by BUDGET OWNER",
      "p5",
      "Permit FINAL_APPROVED by SUPERVISOR",
      "st0",
      "p10",
      "Payment Handled",
      "p9",
      "Start trip",
      "p8",
      "p2",
      "p11",
      "Permit SUBMITTED by EMPLOYEE",
      "p1",
      "Declaration FINAL_APPROVED by SUPERVISOR",
      "p12",
      "p13",
      "p4",
      "Permit APPROVED by ADMINISTRATION",
      "source",
      "Declaration SUBMITTED by EMPLOYEE",
      "p0",
      "p6",
      ">",
      "|",
      "Declaration APPROVED by ADMINISTRATION",
      "End trip",
      "Declaration APPROVED by BUDGET OWNER",
      "short_circuited_transition",
      "Request Payment",
      "sink"
    ]
  ],
  "sound": true,
  "top 3": {
    "fitness": {
      "average_trace_fitness": 0.904966787108245,
      "log_fitness": 0.908313433664686,
      "perc_fit_traces": 26.727926488214145,
      "percentage_of_fitting_traces": 26.727926488214145
    },
    "fitness_alignments": {
      "averageFitness": 0.8534558529764188,
      "average_trace_fitness": 0.8534558529764188,
      "percFitTraces": 26.727926488214145,
      "percentage_of_fitting_traces": 26.727926488214145
    },
    "fscore": 0.9421639708485673,
    "generalization": 0.9751506987597378,
    "metricsAverageWeight": 0.9503733236285152,
    "precision": 0.9786352226956978,
    "precision_alignments": 0.9786352226956978,
    "simplicity": 0.9393939393939394
  },
  "uncovered_places_s_component": []
}