{
  "L": {
    "fitness": 0.8930167533747393,
    "fitness_alignments": 0.8349549415114776,
    "fitness_alignments_percFitTraces": 11.645216312606605,
    "fitness_entropy_exact": 0.0,
    "fitness_entropy_partial": 0.6333181965746,
    "fitness_percFitTraces": 12.00186075360521,
    "fscore": 0.9090979077365426,
    "fscore_alignments": 0.9100549802315187,
    "fscore_entropy_exact": 0,
    "fscore_entropy_partial": 0.7194727704157795,
    "generalization": 0.9843805391965926,
    "metricsAverageWeight": 0.935640020789056,
    "precision": 0.9257688511909525,
    "precision_alignments": 1.0,
    "precision_entropy_exact": 0.0,
    "precision_entropy_partial": 0.8327585725965725,
    "simplicity": 0.9393939393939394
  },
  "L_3": {
    "fitness": 0.9475685411246748,
    "fitness_alignments": 0.9605303357333599,
    "fitness_alignments_percFitTraces": 26.727926488214145,
    "fitness_entropy_exact": 0.0,
    "fitness_entropy_partial": 0.999999999096066,
    "fitness_percFitTraces": 26.727926488214145,
    "fscore": 0.9447025948616875,
    "fscore_alignments": 0.9511004576136508,
    "fscore_entropy_exact": 0,
    "fscore_entropy_partial": 0.9087487947024012,
    "generalization": 0.975072543365467,
    "metricsAverageWeight": 0.9509722391170877,
    "precision": 0.9418539325842696,
    "precision_alignments": 0.9418539325842696,
    "precision_entropy_exact": 0.0,
    "precision_entropy_partial": 0.832758571972108,
    "simplicity": 0.9393939393939394
  },
  "args": {
    "beam_length": 20,
    "beam_width": -50,
    "config": "config.json",
    "conformanceChecking": true,
    "dataDirectory": "/mnt/c/Users/s140511/tue/thesis/APDGnn_data/evaluation_data/BPI_2020_International_declarations/",
    "export": "complex",
    "import_petrinet": null,
    "length_normalization": 0,
    "logFilename": "data",
    "miner": "gnn",
    "model_filename": "/mnt/c/Users/s140511/tue/thesis/git_clean/project/ml_models/models/complex_ws_frequency_100_",
    "number_of_petrinets": 20,
    "prom": false,
    "timeout": null,
    "top_x_traces": 3,
    "visualize": false
  },
  "easy_soundness": true,
  "log_filename": "/mnt/c/Users/s140511/tue/thesis/APDGnn_data/evaluation_data/BPI_2020_International_declarations/data",
  "petrinet_filename": "/mnt/c/Users/s140511/tue/thesis/APDGnn_data/evaluation_data/BPI_2020_International_declarations/predictions/data_gcn_complex_1",
  "sound": true,
  "soundness_info": {
    "s_components": [
      [
        "p2",
        "Permit APPROVED by ADMINISTRATION",
        "p6",
        "source",
        "End trip",
        "Declaration FINAL_APPROVED by SUPERVISOR",
        "short_circuited_transition",
        "p8",
        "p1",
        "p12",
        "p3",
        "Permit FINAL_APPROVED by SUPERVISOR",
        "p9",
        "p0",
        "Payment Handled",
        "|",
        "st1",
        "Declaration APPROVED by ADMINISTRATION",
        "p4",
        "p11",
        "p5",
        "Permit APPROVED by BUDGET OWNER",
        "Declaration APPROVED by BUDGET OWNER",
        ">",
        "sink",
        "p10",
        "Request Payment",
        "Permit SUBMITTED by EMPLOYEE",
        "Declaration SUBMITTED by EMPLOYEE",
        "Start trip",
        "st0",
        "p7"
      ]
    ],
    "uncovered_places_s_component": []
  }
}