{
  "L": {
    "fitness": 0.8814619171330733,
    "fitness_alignments": 0.8233122127247156,
    "fitness_alignments_percFitTraces": 11.009458830826485,
    "fitness_entropy_exact": 0.0,
    "fitness_entropy_partial": 0.633318196466676,
    "fitness_percFitTraces": 11.009458830826485,
    "fscore": 0.9018853274403481,
    "fscore_alignments": 0.9030951550468439,
    "fscore_entropy_exact": 0,
    "fscore_entropy_partial": 0.730572044757644,
    "generalization": 0.9853233336451179,
    "metricsAverageWeight": 0.9323641986086215,
    "precision": 0.9232776042623553,
    "precision_alignments": 1.0,
    "precision_entropy_exact": 0.0,
    "precision_entropy_partial": 0.8631138618888844,
    "simplicity": 0.9393939393939394
  },
  "L_3": {
    "fitness": 0.940726371376226,
    "fitness_alignments": 0.9489835255337796,
    "fitness_alignments_percFitTraces": 26.727926488214145,
    "fitness_entropy_exact": 0.0,
    "fitness_entropy_partial": 0.999999999197639,
    "fitness_percFitTraces": 26.727926488214145,
    "fscore": 0.9461504246657821,
    "fscore_alignments": 0.9503086043801986,
    "fscore_entropy_exact": 0,
    "fscore_entropy_partial": 0.9265283019589045,
    "generalization": 0.9768954354130936,
    "metricsAverageWeight": 0.9521632837590006,
    "precision": 0.9516373888527434,
    "precision_alignments": 0.9516373888527434,
    "precision_entropy_exact": 0.0,
    "precision_entropy_partial": 0.8631138615869515,
    "simplicity": 0.9393939393939394
  },
  "args": {
    "beam_length": 20,
    "beam_width": -50,
    "config": "config.json",
    "conformanceChecking": true,
    "dataDirectory": "/mnt/c/Users/s140511/tue/thesis/APDGnn_data/evaluation_data/BPI_2020_International_declarations/",
    "export": "medium",
    "import_petrinet": null,
    "length_normalization": 0,
    "logFilename": "data",
    "miner": "gnn",
    "model_filename": "/mnt/c/Users/s140511/tue/thesis/git_clean/project/ml_models/models/model_candidates_frequency_new_036",
    "number_of_petrinets": 20,
    "prom": false,
    "timeout": null,
    "top_x_traces": 3,
    "visualize": false
  },
  "easy_soundness": true,
  "log_filename": "/mnt/c/Users/s140511/tue/thesis/APDGnn_data/evaluation_data/BPI_2020_International_declarations/data",
  "petrinet_filename": "/mnt/c/Users/s140511/tue/thesis/APDGnn_data/evaluation_data/BPI_2020_International_declarations/predictions/data_gcn_medium_13",
  "sound": true,
  "soundness_info": {
    "s_components": [
      [
        "short_circuited_transition",
        "st0",
        "Request Payment",
        "Start trip",
        "Permit FINAL_APPROVED by SUPERVISOR",
        "p7",
        "p11",
        "sink",
        "|",
        "p12",
        "source",
        "p5",
        "End trip",
        "Declaration SUBMITTED by EMPLOYEE",
        "Declaration APPROVED by ADMINISTRATION",
        "Declaration APPROVED by BUDGET OWNER",
        "p0",
        "p10",
        "p13",
        "p6",
        "p9",
        "Payment Handled",
        ">",
        "Permit SUBMITTED by EMPLOYEE",
        "p1",
        "p3",
        "Declaration FINAL_APPROVED by SUPERVISOR"
      ],
      [
        "short_circuited_transition",
        "st0",
        "Request Payment",
        "Permit APPROVED by BUDGET OWNER",
        "Start trip",
        "Permit FINAL_APPROVED by SUPERVISOR",
        "p7",
        "p11",
        "sink",
        "|",
        "p12",
        "p2",
        "source",
        "p5",
        "End trip",
        "Declaration SUBMITTED by EMPLOYEE",
        "Declaration APPROVED by ADMINISTRATION",
        "Declaration APPROVED by BUDGET OWNER",
        "p0",
        "p10",
        "p13",
        "p6",
        "p9",
        "Payment Handled",
        ">",
        "Permit SUBMITTED by EMPLOYEE",
        "p3",
        "Permit APPROVED by ADMINISTRATION",
        "p8",
        "Declaration FINAL_APPROVED by SUPERVISOR",
        "p4"
      ]
    ],
    "uncovered_places_s_component": []
  }
}