{
  "L": {
    "fitness": 0.9134611058622396,
    "fitness_alignments": 0.8397917608148329,
    "fitness_alignments_percFitTraces": 16.88633896728175,
    "fitness_entropy_exact": 0.0,
    "fitness_entropy_partial": 0.633318195541037,
    "fitness_percFitTraces": 21.786323461001707,
    "fscore": 0.8817322445464892,
    "fscore_alignments": 0.886448464381065,
    "fscore_entropy_exact": 0,
    "fscore_entropy_partial": 0.7097317634877214,
    "generalization": 0.9839029398695647,
    "metricsAverageWeight": 0.9095966288314256,
    "precision": 0.8521335807050092,
    "precision_alignments": 0.9385943919269275,
    "precision_entropy_exact": 0.0,
    "precision_entropy_partial": 0.8071149304537757,
    "simplicity": 0.8888888888888888
  },
  "L_3": {
    "fitness": 0.9584665440656387,
    "fitness_alignments": 0.9674168775247374,
    "fitness_alignments_percFitTraces": 41.35037954454654,
    "fitness_entropy_exact": 0.0,
    "fitness_entropy_partial": 0.999999999800751,
    "fitness_percFitTraces": 41.35037954454654,
    "fscore": 0.9104070143705252,
    "fscore_alignments": 0.9144249434025185,
    "fscore_entropy_exact": 0,
    "fscore_entropy_partial": 0.893263529685042,
    "generalization": 0.9734641092057965,
    "metricsAverageWeight": 0.9219391280760191,
    "precision": 0.8669369701437524,
    "precision_alignments": 0.8669369701437524,
    "precision_entropy_exact": 0.0,
    "precision_entropy_partial": 0.8071149309595683,
    "simplicity": 0.8888888888888888
  },
  "args": {
    "beam_length": 20,
    "beam_width": -50,
    "config": "config.json",
    "conformanceChecking": true,
    "dataDirectory": "/mnt/c/Users/s140511/tue/thesis/APDGnn_data/evaluation_data/BPI_2020_International_declarations/",
    "export": "complex",
    "import_petrinet": null,
    "length_normalization": 0,
    "logFilename": "data",
    "miner": "gnn",
    "model_filename": "/mnt/c/Users/s140511/tue/thesis/git_clean/project/ml_models/models/complex_ws_frequency_100_",
    "number_of_petrinets": 20,
    "prom": false,
    "timeout": null,
    "top_x_traces": 3,
    "visualize": false
  },
  "easy_soundness": true,
  "log_filename": "/mnt/c/Users/s140511/tue/thesis/APDGnn_data/evaluation_data/BPI_2020_International_declarations/data",
  "petrinet_filename": "/mnt/c/Users/s140511/tue/thesis/APDGnn_data/evaluation_data/BPI_2020_International_declarations/predictions/data_gcn_complex_3",
  "sound": true,
  "soundness_info": {
    "s_components": [
      [
        "p8",
        "sink",
        "p6",
        "Declaration FINAL_APPROVED by SUPERVISOR",
        "p5",
        "st2",
        "Declaration SUBMITTED by EMPLOYEE",
        "p3",
        "Start trip",
        ">",
        "Permit SUBMITTED by EMPLOYEE",
        "p9",
        "p0",
        "p1",
        "Declaration APPROVED by ADMINISTRATION",
        "p2",
        "Permit FINAL_APPROVED by SUPERVISOR",
        "p11",
        "Request Payment",
        "p12",
        "short_circuited_transition",
        "Declaration APPROVED by BUDGET OWNER",
        "st1",
        "Payment Handled",
        "p4",
        "End trip",
        "source",
        "p7",
        "Permit APPROVED by ADMINISTRATION",
        "Permit APPROVED by BUDGET OWNER",
        "st0",
        "|",
        "p10"
      ]
    ],
    "uncovered_places_s_component": []
  }
}