,fscore,fitness,precision,generalization,metricsAverageWeight,simplicity,#p,#st
split_reduced,0.949,0.903,1.000,0.973,0.898,0.714,14, 3
heuristics_reduced,0.922,0.893,0.953,0.879,0.829,0.589,34,34
ilp_reduced,0.895,0.866,0.925,0.987,0.744,0.199,82, 2
gcn_chosen_ln_1,0.894,0.814,0.993,0.953,0.793,0.413,23,18
inductive_reduced,0.451,0.915,0.300,0.948,0.679,0.553,16,13
alpha,0.425,0.621,0.323,0.978,0.584,0.415,16, 0
inductive,0.708,0.903,0.582,0.923,0.793,0.765,25,10
