{
  "easy_soundness": true,
  "filename": "/home/dominique/TUe/thesis/git_data/evaluation_data/BPI_2020_International_declarations/predictions/data_gcn_candidates_frequency_new_4_traces_testtesttest_19_cc.txt",
  "full": {
    "fitness                         ": "0.92095",
    "fitness_alignments              ": "0.85894",
    "fitness_alignments_percFitTraces": "35.12172",
    "fscore                          ": "0.93683",
    "fscore_alignments               ": "0.92412",
    "generalization                  ": "0.98325",
    "metricsAverageWeight            ": "0.90437",
    "precision                       ": "0.95327",
    "precision_alignments            ": "1.00000",
    "simplicity                      ": "0.76000"
  },
  "s_components": [
    [
      "p11",
      "st2",
      "|",
      "p0",
      "p10",
      "short_circuited_transition",
      "Request Payment",
      "End trip",
      "p13",
      "Start trip",
      "p12",
      "source",
      "Declaration SUBMITTED by EMPLOYEE",
      "p8",
      "p6",
      "p9",
      "Declaration APPROVED by ADMINISTRATION",
      "Payment Handled",
      "p7",
      "Declaration FINAL_APPROVED by SUPERVISOR",
      "sink",
      "p1",
      "Declaration APPROVED by BUDGET OWNER",
      ">",
      "Permit FINAL_APPROVED by SUPERVISOR",
      "Permit SUBMITTED by EMPLOYEE",
      "p5"
    ],
    [
      "p11",
      "st2",
      "|",
      "p0",
      "p10",
      "short_circuited_transition",
      "Request Payment",
      "End trip",
      "p13",
      "Start trip",
      "p12",
      "source",
      "Declaration SUBMITTED by EMPLOYEE",
      "p6",
      "p9",
      "Declaration APPROVED by ADMINISTRATION",
      "Declaration REJECTED by ADMINISTRATION",
      "Payment Handled",
      "p14",
      "Declaration FINAL_APPROVED by SUPERVISOR",
      "p16",
      "Declaration REJECTED by EMPLOYEE",
      "sink",
      "p1",
      "Declaration APPROVED by BUDGET OWNER",
      ">",
      "Permit FINAL_APPROVED by SUPERVISOR",
      "Permit SUBMITTED by EMPLOYEE",
      "p5",
      "p15"
    ],
    [
      "p11",
      "st2",
      "|",
      "p0",
      "st1",
      "p10",
      "short_circuited_transition",
      "Request Payment",
      "End trip",
      "p13",
      "Start trip",
      "p12",
      "source",
      "Declaration SUBMITTED by EMPLOYEE",
      "p8",
      "p6",
      "p9",
      "Declaration APPROVED by ADMINISTRATION",
      "Payment Handled",
      "p7",
      "Declaration FINAL_APPROVED by SUPERVISOR",
      "sink",
      "p4",
      "Declaration APPROVED by BUDGET OWNER",
      ">",
      "st0",
      "Permit FINAL_APPROVED by SUPERVISOR",
      "p2",
      "Permit APPROVED by BUDGET OWNER",
      "Permit APPROVED by ADMINISTRATION",
      "Permit SUBMITTED by EMPLOYEE",
      "p5",
      "p3"
    ]
  ],
  "sound": false,
  "top 30": {
    "fitness                         ": "0.95010",
    "fitness_alignments              ": "0.90620",
    "fitness_alignments_percFitTraces": "48.11341",
    "fscore                          ": "0.94793",
    "fscore_alignments               ": "0.94634",
    "generalization                  ": "0.97966",
    "metricsAverageWeight            ": "0.90888",
    "precision                       ": "0.94577",
    "precision_alignments            ": "0.99021",
    "simplicity                      ": "0.76000"
  },
  "uncovered_places_s_component": []
}