{
  "L": {
    "fitness": 0.8999373683311507,
    "fitness_alignments": 0.832921438168188,
    "fitness_alignments_percFitTraces": 11.086990231043572,
    "fitness_entropy_exact": 0.0,
    "fitness_entropy_partial": 0.633318195990235,
    "fitness_percFitTraces": 11.086990231043572,
    "fscore": 0.8623649917843086,
    "fscore_alignments": 0.876976317746318,
    "fscore_entropy_exact": 0,
    "fscore_entropy_partial": 0.7194727699082727,
    "generalization": 0.9847648685801987,
    "metricsAverageWeight": 0.912975087915414,
    "precision": 0.8278041753563673,
    "precision_alignments": 0.9259517568120055,
    "precision_entropy_exact": 0.0,
    "precision_entropy_partial": 0.8327585722471182,
    "simplicity": 0.9393939393939394
  },
  "L_3": {
    "fitness": 0.9475685411246748,
    "fitness_alignments": 0.9605303357333599,
    "fitness_alignments_percFitTraces": 26.727926488214145,
    "fitness_entropy_exact": 0.0,
    "fitness_entropy_partial": 1.000000000211339,
    "fitness_percFitTraces": 26.727926488214145,
    "fscore": 0.8986354309215955,
    "fscore_alignments": 0.9044226294149281,
    "fscore_entropy_exact": 0,
    "fscore_entropy_partial": 0.9087487959520879,
    "generalization": 0.975072543365467,
    "metricsAverageWeight": 0.9291357638005465,
    "precision": 0.8545080313181048,
    "precision_alignments": 0.8545080313181048,
    "precision_entropy_exact": 0.0,
    "precision_entropy_partial": 0.832758573297532,
    "simplicity": 0.9393939393939394
  },
  "args": {
    "beam_length": 20,
    "beam_width": -50,
    "config": "config.json",
    "conformanceChecking": true,
    "dataDirectory": "/mnt/c/Users/s140511/tue/thesis/APDGnn_data/evaluation_data/BPI_2020_International_declarations/",
    "export": "simple",
    "import_petrinet": null,
    "length_normalization": 0,
    "logFilename": "data",
    "miner": "gnn",
    "model_filename": "/mnt/c/Users/s140511/tue/thesis/git_clean/project/ml_models/models/simple_ws2_frequency_144_",
    "number_of_petrinets": 20,
    "prom": false,
    "timeout": null,
    "top_x_traces": 3,
    "visualize": false
  },
  "easy_soundness": true,
  "log_filename": "/mnt/c/Users/s140511/tue/thesis/APDGnn_data/evaluation_data/BPI_2020_International_declarations/data",
  "petrinet_filename": "/mnt/c/Users/s140511/tue/thesis/APDGnn_data/evaluation_data/BPI_2020_International_declarations/predictions/data_gcn_simple_4",
  "sound": true,
  "soundness_info": {
    "s_components": [
      [
        "p12",
        ">",
        "p0",
        "p6",
        "p10",
        "p3",
        "Permit APPROVED by ADMINISTRATION",
        "p7",
        "Payment Handled",
        "Permit SUBMITTED by EMPLOYEE",
        "p1",
        "p2",
        "p8",
        "|",
        "p5",
        "Declaration FINAL_APPROVED by SUPERVISOR",
        "Declaration SUBMITTED by EMPLOYEE",
        "p9",
        "st0",
        "Permit APPROVED by BUDGET OWNER",
        "sink",
        "p11",
        "source",
        "short_circuited_transition",
        "Start trip",
        "Declaration APPROVED by ADMINISTRATION",
        "st1",
        "Request Payment",
        "End trip",
        "p4",
        "Permit FINAL_APPROVED by SUPERVISOR",
        "Declaration APPROVED by BUDGET OWNER"
      ]
    ],
    "uncovered_places_s_component": []
  }
}