FULL
{
  "fitness": "0.597",
  "fscore": "0.747",
  "generalization": "0.700",
  "metricsAverageWeight": "0.668",
  "precision": "1.000",
  "simplicity": "0.375"
}
Top 30:
{
  "fitness": "0.597",
  "fscore": "0.748",
  "generalization": "0.680",
  "metricsAverageWeight": "0.663",
  "precision": "1.000",
  "simplicity": "0.375"
}