{
  "easy_soundness": true,
  "filename": "/mnt/c/Users/s140511/tue/thesis/thesis_data/evaluation_data/BPI_2020_Request_for_payment/predictions/data_gcn_simpleep144_19_cc.json",
  "full": {
    "entropia_precision": 1.0000000000000007,
    "entropia_recall": 0.65619807122776,
    "fitness": {
      "average_trace_fitness": 0.9708381965931739,
      "log_fitness": 0.9715319021865357,
      "perc_fit_traces": 80.2788266047052,
      "percentage_of_fitting_traces": 80.2788266047052
    },
    "fitness_alignments": {
      "averageFitness": 0.5151031077548649,
      "average_trace_fitness": 0.5151031077548649,
      "percFitTraces": 80.2788266047052,
      "percentage_of_fitting_traces": 80.2788266047052
    },
    "fscore": 0.9793567369360535,
    "generalization": 0.971120032568558,
    "metricsAverageWeight": 0.9341030467706181,
    "precision": 0.9873086394241531,
    "precision_alignments": 1.0,
    "simplicity": 0.8064516129032256
  },
  "sound": true,
  "top 8": {
    "fitness": {
      "average_trace_fitness": 0.9829336681779506,
      "log_fitness": 0.9839021249195106,
      "perc_fit_traces": 85.99875544492843,
      "percentage_of_fitting_traces": 85.99875544492843
    },
    "fitness_alignments": {
      "averageFitness": 0.7613565650280025,
      "average_trace_fitness": 0.7613565650280025,
      "percFitTraces": 85.99875544492843,
      "percentage_of_fitting_traces": 85.99875544492843
    },
    "fscore": 0.9918857513794223,
    "generalization": 0.9689363948444134,
    "metricsAverageWeight": 0.9398225331667874,
    "precision": 1.0,
    "precision_alignments": 1.0,
    "simplicity": 0.8064516129032256
  }
}