{
  "easy_soundness": true,
  "filename": "/mnt/c/Users/s140511/tue/thesis/thesis_data/evaluation_data/BPI_2020_Request_for_payment/predictions/data_gcn_simpleep144_15_cc.json",
  "full": {
    "entropia_precision": 0.9999999999999987,
    "entropia_recall": 0.664831059232458,
    "fitness": {
      "average_trace_fitness": 0.926035933501018,
      "log_fitness": 0.9243688730805933,
      "perc_fit_traces": 45.01887888469358,
      "percentage_of_fitting_traces": 45.01887888469358
    },
    "fitness_alignments": {
      "averageFitness": 0.12692419401684576,
      "average_trace_fitness": 0.12692419401684576,
      "percFitTraces": 45.01887888469358,
      "percentage_of_fitting_traces": 45.01887888469358
    },
    "fscore": 0.954833301277273,
    "generalization": 0.9049418986343247,
    "metricsAverageWeight": 0.8953477125486837,
    "precision": 0.9873741961268757,
    "precision_alignments": 1.0,
    "simplicity": 0.7647058823529413
  },
  "sound": true,
  "top 8": {
    "fitness": {
      "average_trace_fitness": 0.934243060662642,
      "log_fitness": 0.9337437591501182,
      "perc_fit_traces": 48.22650902302427,
      "percentage_of_fitting_traces": 48.22650902302427
    },
    "fitness_alignments": {
      "averageFitness": 0.3522090852520224,
      "average_trace_fitness": 0.3522090852520224,
      "percFitTraces": 48.22650902302427,
      "percentage_of_fitting_traces": 48.22650902302427
    },
    "fscore": 0.9657368043018267,
    "generalization": 0.9027557086862994,
    "metricsAverageWeight": 0.9003013375473397,
    "precision": 1.0,
    "precision_alignments": 1.0,
    "simplicity": 0.7647058823529413
  }
}