{
  "easy_soundness": true,
  "filename": "/mnt/c/Users/s140511/tue/thesis/thesis_data/evaluation_data/BPI_2020_Request_for_payment/predictions/data_gcn_complexep100_9_cc.json",
  "full": {
    "entropia_precision": 0.9999999999999981,
    "entropia_recall": 0.681849686938293,
    "fitness": {
      "average_trace_fitness": 0.9848087284332739,
      "log_fitness": 0.9826041290576689,
      "perc_fit_traces": 88.7452802788266,
      "percentage_of_fitting_traces": 88.7452802788266
    },
    "fitness_alignments": {
      "averageFitness": 0.6092070868428696,
      "average_trace_fitness": 0.6092070868428696,
      "percFitTraces": 88.7452802788266,
      "percentage_of_fitting_traces": 88.7452802788266
    },
    "fscore": 0.9847577339635957,
    "generalization": 0.9717158990807564,
    "metricsAverageWeight": 0.922810206998359,
    "precision": 0.9869207998550111,
    "precision_alignments": 1.0,
    "simplicity": 0.7499999999999999
  },
  "sound": true,
  "top 8": {
    "fitness": {
      "average_trace_fitness": 0.9958903754407948,
      "log_fitness": 0.9943884866615921,
      "perc_fit_traces": 95.06845052893591,
      "percentage_of_fitting_traces": 95.06845052893591
    },
    "fitness_alignments": {
      "averageFitness": 0.8520535158680772,
      "average_trace_fitness": 0.8520535158680772,
      "percFitTraces": 95.06845052893591,
      "percentage_of_fitting_traces": 95.06845052893591
    },
    "fscore": 0.9971863489104867,
    "generalization": 0.9698596712777509,
    "metricsAverageWeight": 0.9285620394848357,
    "precision": 1.0,
    "precision_alignments": 1.0,
    "simplicity": 0.7499999999999999
  }
}