{
  "L": {
    "fitness": 0.7988672545839652,
    "fitness_alignments": null,
    "fitness_alignments_percFitTraces": null,
    "fitness_entropy_exact": null,
    "fitness_entropy_partial": null,
    "fitness_percFitTraces": 0.0,
    "fscore": 0.8831738990191149,
    "fscore_alignments": null,
    "fscore_entropy_exact": null,
    "fscore_entropy_partial": null,
    "generalization": 0.9685057015963929,
    "metricsAverageWeight": 0.8886867880768086,
    "precision": 0.9873741961268757,
    "precision_alignments": null,
    "precision_entropy_exact": null,
    "precision_entropy_partial": null,
    "simplicity": 0.8
  },
  "L_8": {
    "fitness": 0.7996413029186804,
    "fitness_alignments": null,
    "fitness_alignments_percFitTraces": null,
    "fitness_entropy_exact": null,
    "fitness_entropy_partial": null,
    "fitness_percFitTraces": 0.0,
    "fscore": 0.8886674268053443,
    "fscore_alignments": null,
    "fscore_entropy_exact": null,
    "fscore_entropy_partial": null,
    "generalization": 0.9655372629773068,
    "metricsAverageWeight": 0.8912946414739968,
    "precision": 1.0,
    "precision_alignments": null,
    "precision_entropy_exact": null,
    "precision_entropy_partial": null,
    "simplicity": 0.8
  },
  "args": {
    "beam_length": 20,
    "beam_width": -50,
    "config": "config.json",
    "conformanceChecking": true,
    "dataDirectory": "/mnt/c/Users/s140511/tue/thesis/APDGnn_data/evaluation_data/BPI_2020_Request_for_payment/",
    "export": "complex",
    "import_petrinet": null,
    "length_normalization": 0,
    "logFilename": "data",
    "miner": "gnn",
    "model_filename": "/mnt/c/Users/s140511/tue/thesis/git_clean/project/ml_models/models/complex_ws_frequency_100_",
    "number_of_petrinets": 20,
    "prom": false,
    "timeout": null,
    "top_x_traces": 8,
    "visualize": false
  },
  "easy_soundness": false,
  "log_filename": "/mnt/c/Users/s140511/tue/thesis/APDGnn_data/evaluation_data/BPI_2020_Request_for_payment/data",
  "petrinet_filename": "/mnt/c/Users/s140511/tue/thesis/APDGnn_data/evaluation_data/BPI_2020_Request_for_payment/predictions/data_gcn_complex_8",
  "sound": false,
  "soundness_info": {
    "s_components": [],
    "uncovered_places_s_component": [
      "p0",
      "p4",
      "p1",
      "p7",
      "p5",
      "p8",
      "sink",
      "p2",
      "p3",
      "source",
      "p6"
    ]
  }
}