{
  "L": {
    "fitness": 0.9826041290576689,
    "fitness_alignments": 0.9540184841331959,
    "fitness_alignments_percFitTraces": 88.7452802788266,
    "fitness_entropy_exact": 0.0,
    "fitness_entropy_partial": 0.570547952772317,
    "fitness_percFitTraces": 88.7452802788266,
    "fscore": 0.9847577339635957,
    "fscore_alignments": 0.976468228811458,
    "fscore_entropy_exact": 0,
    "fscore_entropy_partial": 0.6612766613650648,
    "generalization": 0.9717158990807564,
    "metricsAverageWeight": 0.922810206998359,
    "precision": 0.9869207998550111,
    "precision_alignments": 1.0,
    "precision_entropy_exact": 0.0,
    "precision_entropy_partial": 0.7863170348723074,
    "simplicity": 0.7499999999999999
  },
  "L_8": {
    "fitness": 0.9943884866615921,
    "fitness_alignments": 0.9841578510682494,
    "fitness_alignments_percFitTraces": 95.06845052893591,
    "fitness_entropy_exact": 0.0,
    "fitness_entropy_partial": 0.894260902826901,
    "fitness_percFitTraces": 95.06845052893591,
    "fscore": 0.9971863489104867,
    "fscore_alignments": 0.9920156811499542,
    "fscore_entropy_exact": 0,
    "fscore_entropy_partial": 0.8368223398393337,
    "generalization": 0.9698596712777509,
    "metricsAverageWeight": 0.9285620394848357,
    "precision": 1.0,
    "precision_alignments": 1.0,
    "precision_entropy_exact": 0.0,
    "precision_entropy_partial": 0.7863170339073503,
    "simplicity": 0.7499999999999999
  },
  "args": {
    "beam_length": 20,
    "beam_width": -50,
    "config": "config.json",
    "conformanceChecking": true,
    "dataDirectory": "/mnt/c/Users/s140511/tue/thesis/APDGnn_data/evaluation_data/BPI_2020_Request_for_payment/",
    "export": "medium",
    "import_petrinet": null,
    "length_normalization": 0,
    "logFilename": "data",
    "miner": "gnn",
    "model_filename": "/mnt/c/Users/s140511/tue/thesis/git_clean/project/ml_models/models/model_candidates_frequency_new_036",
    "number_of_petrinets": 20,
    "prom": false,
    "timeout": null,
    "top_x_traces": 8,
    "visualize": false
  },
  "easy_soundness": true,
  "log_filename": "/mnt/c/Users/s140511/tue/thesis/APDGnn_data/evaluation_data/BPI_2020_Request_for_payment/data",
  "petrinet_filename": "/mnt/c/Users/s140511/tue/thesis/APDGnn_data/evaluation_data/BPI_2020_Request_for_payment/predictions/data_gcn_medium_2",
  "sound": true,
  "soundness_info": {
    "s_components": [
      [
        "Request For Payment SUBMITTED by EMPLOYEE",
        "|",
        "Request For Payment APPROVED by ADMINISTRATION",
        "short_circuited_transition",
        "p5",
        ">",
        "Request For Payment SAVED by EMPLOYEE",
        "Payment Handled",
        "Request Payment",
        "p4",
        "source",
        "p6",
        "Request For Payment FINAL_APPROVED by SUPERVISOR",
        "sink",
        "Request For Payment REJECTED by ADMINISTRATION",
        "st0",
        "p3",
        "p0",
        "Request For Payment REJECTED by EMPLOYEE",
        "p2",
        "Request For Payment APPROVED by PRE_APPROVER",
        "p1",
        "Request For Payment APPROVED by BUDGET OWNER",
        "st1",
        "p7"
      ]
    ],
    "uncovered_places_s_component": []
  }
}