{
  "easy_soundness": true,
  "filename": "/mnt/c/Users/s140511/tue/thesis/thesis_data/evaluation_data/BPI_2020_Request_for_payment/predictions/data_gcn_complexep100_6_cc.json",
  "full": {
    "entropia_precision": 0.9999999999999992,
    "entropia_recall": 0.634763956454785,
    "fitness": {
      "average_trace_fitness": 0.9120227786096541,
      "log_fitness": 0.9119278292614434,
      "perc_fit_traces": 36.552425210572174,
      "percentage_of_fitting_traces": 36.552425210572174
    },
    "fitness_alignments": {
      "averageFitness": 0.03282021492884113,
      "average_trace_fitness": 0.03282021492884113,
      "percFitTraces": 36.552425210572174,
      "percentage_of_fitting_traces": 36.552425210572174
    },
    "fscore": 0.9484101223204765,
    "generalization": 0.9716989550185479,
    "metricsAverageWeight": 0.9294284216528044,
    "precision": 0.9879330561773798,
    "precision_alignments": 1.0,
    "simplicity": 0.8461538461538463
  },
  "sound": true,
  "top 8": {
    "fitness": {
      "average_trace_fitness": 0.9212863533997977,
      "log_fitness": 0.9219470538001708,
      "perc_fit_traces": 39.1568139390168,
      "percentage_of_fitting_traces": 39.1568139390168
    },
    "fitness_alignments": {
      "averageFitness": 0.2615121344119477,
      "average_trace_fitness": 0.2615121344119477,
      "percFitTraces": 39.1568139390168,
      "percentage_of_fitting_traces": 39.1568139390168
    },
    "fscore": 0.9593886074824491,
    "generalization": 0.9697577530847894,
    "metricsAverageWeight": 0.9344646632597017,
    "precision": 1.0,
    "precision_alignments": 1.0,
    "simplicity": 0.8461538461538463
  }
}